﻿Site,Country,Categories,Prices,"Products changed","Products downloads",Relations,Search,"Categories time","Prices time","Products time","Search time","Total time"
"Ocado UK",UK,6932,45968,80,1851,1988985,26581,654,25478,800,542,28664
"Mytime DE",DE,5126,10760,6,106,104149,2746,2325,2978,57,154,5564
frisco,PL,4707,1940,17,1940,316773,101146,103,6904,2912,261,10445
"Asda UK",UK,3733,31851,20,2264,1378339,32125,94,16079,855,631,18495
"Rohlik CZ",CZ,3502,24535,22,1372,274789,30981,2346,14327,1637,663,19114
"Albert Heijn NL",NL,3453,21172,5,538,105987,9778,449,1604,106,185,2465
"Makro CZ",CZ,3429,2735,59,68,275302,514,3081,25120,67,45,28443
"Morrisons UK",UK,3400,21796,93,1720,1125830,21592,170,9770,208,1140,12136
"Pilulka SK",SK,3275,37203,125,349,296458,11128,28,4370,349,234,5144
"Waitrose UK",UK,3192,16835,21,967,1569717,23653,105,22646,349,602,24629
"Coto Digital AR",AR,3079,0,0,0,123076,0,2117,0,0,0,2117
"Metro SK",SK,3044,7359,0,1,217824,0,2557,20386,7,0,23062
"Albert Heijn BE",BE,2877,10962,4,119,54563,9213,415,1362,39,180,2053
Auchan,PL,2832,19977,117,1504,343730,26281,76,17431,1303,1983,21206
"Galen BG",BG,2794,14338,8,205,106201,5243,1585,2661,188,205,4726
"Kosik CZ",CZ,2732,16615,25,909,92988,30150,498,1683,431,806,3488
"Pilulka CZ",CZ,2642,31236,178,488,180450,35007,19,4131,272,1017,5534
"Drogeo CZ",CZ,2388,497,54,497,129144,34366,23,5973,391,1504,7946
"Amazon Fresh UK",UK,2347,8703,377,537,50024,23038,822,20717,409,719,22710
"Notino SK",SK,2309,559,343,559,121359,223,1162,7320,2275,15,10933
"Notino CZ",CZ,2307,1239,253,1239,122505,38417,1091,7476,3061,1442,13256
"Nemlig DK",DK,2255,9219,12,105,158533,1470,360,6114,112,90,6817
"Sainsburys UK",UK,2247,29684,67,1859,1944593,50337,230,31062,1497,1016,35432
"Chronodrive FR",FR,2177,8507,49,87,48014,0,229,1060,155,0,1473
"Amazon UK",UK,2144,0,0,0,589485,0,0,0,0,0,0
"Boots UK",UK,2064,25911,553,5059,170938,0,50,4799,8340,1,13330
"Jumbo NL",NL,2062,17841,166,2759,96959,9656,2101,2512,3248,274,8208
"Conad IT",IT,1990,9365,95,166,38286,2015,256,1306,115,65,1766
"Brakes UK",UK,1895,9428,10,226,28215,48818,874,1792,105,491,3280
"Auchan HU",HU,1802,26916,286,2448,199827,15926,17,5893,1492,729,8276
"Amazon Fresh IT",IT,1801,7277,286,517,35244,3889,3764,2946,1561,140,8430
"Musgrave IE",IE,1644,149,71,210,52630,4375,59,3065,205,99,3449
"Minti Shop",PL,1571,14871,14,285,129134,33878,59,3196,185,1419,4989
"Delhaize BE",BE,1566,13288,22,409,55047,20435,27,2801,301,727,3910
"Yuga RO",RO,1531,6916,0,39,33562,0,1857,3698,4219,0,9790
"Picnic NL",NL,1508,7295,32,263,18091,5497,532,5773,537,793,7656
"Apteka Nowa Farmacja",PL,1446,16926,5,948,76080,36983,11984,3407,1134,2915,19515
"Kifli HU",HU,1444,14167,102,1750,66254,12233,670,2762,1607,417,5505
"Alza CZ",CZ,1400,33497,98,586,120923,29331,69,1005,201,567,1917
"Carrefour BE",BE,1387,20368,58,630,634483,23144,1304,16831,397,1283,20315
"Coop CH",CH,1365,19427,72,138,71565,2321,339,2359,286,197,3249
"Apteka Melissa",PL,1364,25407,45,1916,96593,78309,58,8269,1274,1287,10985
"Rewe DE",DE,1343,10448,21,231,37239,2945,23,1563,236,357,2219
" SberMarket - Lenta RU",RU,1329,12143,39,333,87206,1301,193,12573,181,76,13050
"Tesco UK",UK,1312,29539,71,2528,1051853,15808,31,30033,888,3044,34502
"Remedium BG",BG,1308,27633,0,154,99458,1532,267,6446,220,138,7145
eZebra,PL,1297,38005,39,1419,142813,41204,39,7397,383,6665,14643
"SberMarket - Metro RU",RU,1283,6538,29,69,58347,0,14,6491,53,1,6576
"Amazon BR",BR,1270,0,0,0,1478074,0,0,0,0,0,0
"Barbora EE",EE,1257,13724,13,64,49728,1330,55,1993,32,151,2261
Hebe,PL,1253,1455,281,1455,251052,21771,1233,11417,2863,1680,17415
"Moja Lekaren SK",SK,1241,26298,8,252,114755,7209,816,3101,157,630,4775
"Lekarna CZ",CZ,1236,31275,9,400,137872,7180,805,3652,211,605,5351
"Barbora LT",LT,1234,17503,21,89,60648,1871,47,1745,48,129,2006
"Amazon DE",DE,1227,176,159,176,181786,12998,0,0,5649,5053,10702
"iGlobus Zlicin CZ",CZ,1224,22292,24,110,87467,2802,18,2650,134,96,2963
"E-Fresh GR",GR,1204,11892,4,496,57684,7270,2318,4090,1039,743,8232
"Farmaline BE",BE,1165,30337,30,152,145140,2785,914,2794,208,83,4175
"Picnic DE",DE,1157,7222,5,147,14927,1495,89,991,72,151,1323
"Coop NL",NL,1127,14038,19,344,60351,1813,2246,1838,517,100,4756
"Knuspr DE",DE,1126,11011,6,119,62240,2041,526,2159,336,144,3206
"Vkusvill RU",RU,1123,11993,32,145,57111,1612,289,5140,365,131,5943
"S-kaupat FI",FI,1113,39889,63,73,285036,0,18,13863,57,1,14162
"Albert App CZ",CZ,1110,8108,0,27,24324,1833,520,2044,20,46,2670
"Coles AU",AU,1079,22766,1334,22748,77622,934,7,4271,21917,115,26344
"Ebag BG",BG,1064,12733,35,109,53181,2076,35,1604,72,41,1805
"Amazon IT",IT,1057,537,441,537,202662,6600,0,0,4960,605,5565
"Alza SK",SK,1052,16101,64,144,61696,205,46,498,54,10,648
"Mall CZ",CZ,1039,141,1,141,14868,8018,869,988,626,5953,8495
"Eroski ES",ES,1036,25772,20,101,54968,0,20,3773,80,1,3913
"Mathem SE",SE,1034,8663,3,308,25272,4849,19,1116,570,435,2162
"Benu CZ",CZ,1012,14893,125,127,77665,6707,582,5534,63,86,6306
"Barbora LV",LV,1008,14617,13,68,48841,2030,47,1420,35,277,1809
"Metro AT",AT,1006,26471,17,208,79410,3791,36,1180,102,134,1543
Selgros,PL,999,20375,415,1352,70429,29693,457,1107,640,1496,3862
"Dr Max SK",SK,996,27272,4,401,115176,7317,404,1489,399,499,2885
"Zakaz - Novus UA",UA,992,30902,0,0,61526,0,6,1613,17309,1,18962
"Apteka Gemini",PL,983,26076,22,2008,103862,81737,42,4940,3153,997,9260
"Cefarm 24",PL,980,12203,2,1102,76744,18627,1250,2568,1492,3994,9378
"Tigros IT",IT,960,9990,30,570,30016,8119,17,555,330,244,1172
"Yerevan City AM",AM,948,20189,518,601,58250,410,17,2625,288,43,2992
"Coop Shop IT",IT,934,11576,0,391,34749,6506,17,704,288,476,1517
"Kolichka BG",BG,916,8367,0,59,31173,1311,214,420,34,46,781
"Coop SE",SE,914,7236,20,333,24648,4806,19,926,610,192,1775
"Migros Online CH",CH,904,11758,2,61,43018,1336,55,2637,60,208,3002
"Pilulka RO",RO,886,7247,4,74,30665,3268,6,421,35,58,533
"Unipatika HU",HU,869,4442,2,288,30426,4707,682,1648,206,379,2952
"Superpharm Drogeria",PL,865,1053,95,1053,99064,56447,19,1932,2271,577,4920
"Apteka Manada",PL,843,13460,4,1306,43096,52562,39,3023,2939,4532,10599
"SuperValu IE",IE,841,15976,17,789,211447,9299,896,16949,892,455,19351
"Tesco IE",IE,840,18187,101,773,453562,3377,23,13863,472,786,15407
"eZiko Apteka",PL,821,7750,6,890,48430,38633,386,2016,603,2236,5304
Bee,PL,814,32623,176,678,104468,9736,376,2166,415,288,3404
"Dr Max CZ",CZ,813,25183,3,316,108646,4833,412,1142,297,149,2115
"Auchan RU",RU,802,28208,69,633,88718,365,8,2759,515,39,3359
"Gurkerl AT",AT,792,9693,0,80,43421,3666,387,1540,149,126,2242
"Benulekaren SK",SK,784,10087,12,18,57500,7031,552,3728,17,131,4463
"Zakaz - Metro UA",UA,754,17823,0,0,33312,0,7,1835,19736,1,21594
"Cruz Verde CL",CL,743,0,0,0,152941,0,26,0,0,0,26
Spar,PL,739,24005,1698,1933,530924,82629,69,10526,1089,2481,14728
"Rimi EE",EE,737,13331,23,55,39431,3282,18,1249,105,144,1546
"Lunys SK",SK,732,5623,50,118,19258,2090,497,1005,79,157,1765
"Masxmenos CR",CR,730,10320,5,21,27730,0,26,1799,54,7,1905
"Walmart CR",CR,730,0,0,5,203480,0,20,6302,0,0,6322
"Sezamo RO",RO,729,10100,53,225,40374,4527,339,1402,312,113,2181
"Polski Koszyk",PL,728,16892,4,1036,50870,4686,29,708,654,305,1800
"Esselunga A Casa IT",IT,716,15398,1,607,48001,17157,17,1706,378,497,2638
"Walmart MX",MX,711,0,0,0,0,0,85,0,0,0,85
"Bringmeister DE",DE,708,15355,71,195,42164,4403,13,368,89,142,654
"Newpharma BE",BE,708,29535,52,183,112076,2446,525,18138,153,121,19024
"Salcobrand CL",CL,706,0,0,2240,29127,0,963,1187,0,0,2150
"Rossmann DE",DE,699,16814,16,49,59492,0,1078,1671,47,1,2835
"Rimi LV",LV,698,15912,27,83,46995,5486,17,1338,163,186,1738
"Falabella Tottus CL",CL,695,5710,129,160,17044,81,2568,1986,702,20,5289
"Intervare DK",DK,694,7992,227,252,23259,0,17,323,116,111,588
"Sklavenitis GR",GR,693,4483,9,175,13443,2881,210,1424,209,529,2391
Barbora,PL,680,10360,3,921,130149,24598,35,3176,441,3078,6914
"DOZ.pl",PL,680,2125,64,2125,96947,71484,433,3584,1148,2379,7623
"Bennet IT",IT,679,19941,23,485,40158,15282,15,1086,221,916,2274
Amazon,PL,673,1127,836,1124,1335693,30497,0,0,6798,3815,10613
"DM SK",SK,673,12621,13,62,36082,6099,13,1523,32,243,1846
"Poiesz NL",NL,664,7234,0,87,9376,938,22,539,3955,43,4580
"Tesco CZ",CZ,652,14956,15,1113,489844,19145,13,15297,1320,4369,21274
"Hoogvliet NL",NL,651,8513,138,366,13874,2345,21,766,384,134,1330
"Apteka Rosa",PL,648,10291,14,411,43236,8045,12,3204,245,646,4173
"Liquorland AU",AU,644,3275,17,3275,18608,0,19,1503,14818,0,16345
"Yandex Lavka RU",RU,642,3727,15,113,12113,1507,336,2399,543,274,3558
"Rossman HU",HU,640,14812,52,1067,53725,7949,746,691,1446,207,3139
"Easy Coop IT",IT,639,9413,45,629,36566,9865,412,2659,1887,1181,6166
"E.Leclerc Bielany",PL,633,32915,6,2342,104869,28750,98,4134,1074,21920,27388
"Crai Spesa Online",IT,628,725,128,725,22620,6651,453,1250,1875,1024,4615
"Tesco SK",SK,615,14859,26,150,211233,2711,11,5702,153,402,6392
Apteline,PL,614,1019,2,1019,24385,2223,1138,1874,1659,1558,6284
"Carrefour EG",EG,612,17899,29,185,116233,783,25,4362,1361,54,5874
"Tesco HU",HU,612,13948,46,2091,901337,9475,10,28539,2000,2588,33643
"First Choice Liquors AU",AU,608,3911,17,3911,21172,0,20,1440,17658,0,19125
"Lopido CO",CO,606,20554,119,238,36244,734,25,1626,1141,22,2845
"Colruyt BE",BE,602,7782,39,342,91921,13583,18,9200,1357,1280,11971
"Thanopoulos GR",GR,598,15688,32,354,52834,8227,29,2285,374,509,3254
"Libertad AR",AR,583,9061,88,257,26865,5087,13,522,118,212,882
"Superdrug UK",UK,583,13510,21,74,40801,0,19,752,20218,1,21025
"Plus NL",NL,582,16274,5,543,30925,8366,66,1561,323,300,2293
"Bestway Foodservice UK",UK,579,10757,48,218,34277,3966,290,439,156,97,1008
"Sams MX",MX,577,0,0,0,61996,0,17,0,0,0,17
"Willys SE",SE,575,10364,8,320,33777,6311,12,618,255,326,1254
"Bestway Best-one UK",UK,574,6402,17,60,20869,0,286,363,43,1,706
"Bestway UK",UK,574,8911,74,496,28782,27028,279,398,248,549,1497
"Vasalekaren SK",SK,570,10635,21,196,65436,6316,1056,6664,288,708,8746
"Dan Murphy's AU",AU,569,3652,16,3684,8011,0,7,205,8209,1,8425
"E.Leclerc Wroclaw",PL,569,16453,47,1251,16636,14907,508,1940,1974,5158,9666
"Dr Max",PL,567,19020,3,1319,64385,46353,246,782,2734,1879,5734
"Glovo Express Milano IT",IT,567,3562,8,3562,11542,3660,11,248,104,93,464
"Perfumeria Douglas",PL,567,2415,424,2415,212929,61968,230,2707,1704,77,4858
Lek24,PL,566,6880,27,274,24612,9403,10,1327,181,461,2022
"Zakaz - Metro MD",MD,566,13496,0,0,22747,0,17,1172,14448,1,15658
"Kritikos GR",GR,565,7358,13,244,20962,0,26,286,114,5734,6221
"DM HU",HU,564,12427,9,861,32705,9974,8,1345,387,328,2111
"Pingvinpatika HU",HU,557,7823,30,334,43087,3598,9,4945,399,67,5441
"Spar HU",HU,555,16049,565,2086,376579,14015,15,7657,3249,446,11570
"Vintage Cellars AU",AU,552,2757,25,2757,14807,0,29,1346,12944,1,14326
"DM CZ",CZ,549,12851,1,338,34879,28463,10,1266,152,887,2346
"Pão de Açucar BR",BR,548,0,0,15,75979,0,25,6275,0,0,6300
"Jumbo CL",CL,546,0,0,0,557041,0,26,0,0,0,26
"AB GR",GR,544,11416,3,517,33315,10093,26,2121,739,221,3145
"City Gross SE",SE,543,12157,4,365,25602,5742,11,309,172,280,806
"Freshful RO",RO,541,17466,47,338,35777,6669,6,873,158,375,1437
"E.Leclerc Rzeszów",PL,540,12795,10,1307,37088,24307,39,749,578,895,2325
"Apteka Prima 24",PL,533,4536,0,368,15044,7603,26,621,715,267,1653
"Carrefour ES",ES,530,14259,39,228,19221,547,25,710,848,27,1643
"MyMarket GR",GR,529,14187,18,311,51453,7530,25,2123,450,422,3076
Rossmann,PL,527,1106,5,1106,78587,33253,9,895,1165,791,2961
"Drogeria Olmed",PL,526,754,233,754,157342,30615,24,13967,769,2419,17303
"Clube Extra BR",BR,523,8513,11,284,13175,1518,25,678,153,60,935
"Cooperativa Obrera AR",AR,520,5769,36,296,19207,3534,27,985,269,1125,2419
"Plazavea PE",PE,519,28739,17,254,199595,3705,15,5403,123,226,5880
"B&M Stores UK",UK,517,446,1,448,21268,0,261,327,202,1,801
"Apteka Zawiszy",PL,512,20038,368,1443,77498,33096,360,1585,1093,843,4000
"Metro RU",RU,506,20140,66,414,26984,839,10,2151,237,47,2466
"Hemkop SE",SE,501,10151,1,314,31709,7271,11,583,305,405,1342
"Interspar AT",AT,500,22077,5,219,281876,7008,88,3185,360,189,4041
eKobieca,PL,497,10431,26,200,44568,15291,31,2086,337,1905,4432
"Dr Max Drogeria",PL,496,20328,0,786,69293,38216,21,928,1208,1714,3976
"Cold Storage SG",SG,494,9158,15,9158,28102,0,612,1888,11056,1,13565
Aptelia,PL,491,1041,48,1041,58572,30742,233,2168,773,1049,4276
Intermarche,PL,488,18688,4,2219,138477,12696,14,3915,1040,955,6181
"Auchan RO",RO,487,26533,616,616,276411,8158,9,6905,967,208,8214
"Famila a casa IT",IT,483,11986,35,143,26157,6500,923,1597,314,336,3190
"Mega Image RO",RO,482,11850,3,363,35446,12086,6,563,169,217,971
"E.Leclerc Radom",PL,472,12363,41,1278,38886,9858,108,2514,756,3331,6767
"Apteka Olmed",PL,471,1775,96,1775,168836,32061,10,12785,1442,2459,16852
"Carulla CO",CO,470,11743,1212,1593,63565,879,27,2172,1078,61,3391
"Patika24 HU",HU,464,4291,6,198,8742,3216,12,878,566,159,1624
"Basko IT",IT,463,8459,6,435,25837,4453,8,268,480,157,932
Ceneo,PL,463,210132,1836,5542,279427,54239,991,3841,3897,938,10151
"GPSfarma AR",AR,460,6908,5,676,26010,17895,19,2763,404,1392,4596
"eTabletka SK",SK,457,11700,3,170,81331,7319,401,18707,203,92,19440
"MegaMarket RO",RO,447,4972,0,8,6071,542,5,1171,11,174,1366
"Ecofamily HU",HU,445,7047,0,664,23222,4441,13,3712,5950,914,10607
"Elefant RO",RO,437,200,213,213,74572,2341,25,1012,66,57,1181
"Cornershop - Jumbo CL",CL,436,7816,5,195,41669,409,23,658,56,23,796
"E.Leclerc Lublin Turystyczna",PL,432,11333,71,1193,14075,11574,13,367,1405,987,2832
"Unimarc CL",CL,432,9691,118,202,28204,351,17,3911,532,35,4516
"Dr Max RO",RO,425,15539,5,380,54942,9051,208,586,370,445,1634
"E.Leclerc Katowice",PL,425,8815,1,960,9322,10244,90,450,764,1346,2689
"Cornershop - Lider CL",CL,422,9809,1,196,48987,407,22,836,52,21,978
"iFresh SK",SK,418,7903,1,1,179007,0,12,4797,10,0,4938
"Farmacia Tei RO",RO,413,339,312,339,23560,3475,6,498,161,135,807
"Ica New Version SE",SE,411,7495,5766,6194,159742,4219,10,2553,2780,186,5630
"Glovo Express Bucuresti RO",RO,410,3041,3,3041,5840,3285,5,193,88,110,400
"Teta Drogerie CZ",CZ,403,5396,8,71,15635,654,8,666,63,20,775
"Apteki 36.6 BG",BG,401,11261,0,142,53135,1314,25,1836,78,92,2080
"Lider CL",CL,401,0,0,0,123570,0,8,3166,0,0,3174
"Cruz Verde CO",CO,397,4710,1,2475,19616,1322,13,2022,1126,41,3213
"Glovo Biedronka Warszawa",PL,394,2739,1,2736,5405,1514,8,187,142,77,428
"Kruidvat NL",NL,392,8227,60,160,23818,1731,180,756,220,122,1305
"Feedo CZ",CZ,391,234,115,234,52899,578,169,1081,290,24,1629
"Unimarkt AT",AT,391,3399,7,119,15429,3676,218,756,100,343,1438
"Drogas La Rebaja CO",CO,389,0,0,0,41441,0,18,5418,0,0,5436
"Bebe Tei RO",RO,388,124,58,124,26423,1712,5,1022,69,78,1184
"Talabat Mart EG",EG,388,6942,316,318,36662,510,12,2597,730,13,3388
"Azbuka Vkusa RU",RU,385,14100,11,188,30680,967,18,2944,782,135,3892
"Iceland UK",UK,385,5443,25,328,31635,12841,10,3134,393,1785,5341
"Świat Leku",PL,385,11602,7,472,37194,3654,171,1401,429,421,2495
"DrankDozijn BE",BE,383,3776,0,71,15340,2342,9,676,113,491,1303
"DrankDozijn NL",NL,383,3775,0,72,15337,300,8,661,115,20,820
"Majestic UK",UK,383,1241,3,63,17450,1287,195,2343,50,139,2736
"Carrefour IT",IT,379,14786,220,908,41155,4708,297,1080,584,331,2326
"Cornershop - Wong PE",PE,379,6954,125,301,22446,3141,12,594,294,322,1239
"Ica SE",SE,378,11592,21,476,706172,10957,7,22480,242,182,23377
"Billa AT",AT,375,10270,41,180,33774,8306,19,878,524,342,1806
"Walmart GT",GT,371,10773,18,337,182721,4626,25,5361,450,160,6089
"Cornershop - Metro PE",PE,368,7723,12,173,22249,3464,12,470,68,225,791
"Glovo Biedronka Express Warszawa",PL,366,1432,2,1432,3172,547,16,210,81,45,360
Stokrotka,PL,366,7608,4,335,156535,29305,23,3248,176,952,4632
"Lisek App",PL,360,2160,5,257,3385,3253,28,27,120,377,564
"Ulabox ES",ES,356,5611,0,1,11932,0,6,215,7,1,242
"Glovo Kaufland RO",RO,354,7522,7,7522,12868,0,5,195,72,10,291
"E.Leclerc Lublin Tomasza Zana",PL,352,11196,1,1191,15197,9954,20,505,1261,960,2791
"Rappi - Exito CO",CO,352,0,65,328,31312,0,151,5670,0,0,5821
"Dia AR",AR,351,5512,6,488,14825,9449,17,1581,1085,307,3001
"Gall & Gall NL",NL,346,3644,69,69,24964,66,8,3659,134,18,3847
"Justo MX",MX,345,4065,1,71,12206,1473,12,728,55,118,921
"Magnit App RU",RU,344,4292,12,24,11222,0,5,979,13,1,1005
"Mas Online AR",AR,343,10065,1,793,30901,6647,20,3527,1180,352,5105
"Bringo RO",RO,341,32451,72,23497,81560,7516,23,3940,1625,461,6078
"Globus RU",RU,339,19087,276,299,63414,311,6,2031,190,18,2272
Carrefour,PL,338,15973,213,2930,132949,33146,212,2233,1956,1918,6493
"Rossmann App CZ",CZ,337,11484,21,123,36294,1136,9,3042,62,17,3157
Allecco,PL,334,13580,10,944,44124,22231,26,836,680,475,2111
"Roastmarket DE",DE,332,68,29,68,30133,373,23,590,423,16,1073
"E.Leclerc Elblag",PL,330,9725,48,974,26809,13852,53,1895,1298,3553,6849
"Mpreis AT",AT,325,8178,7,124,29064,4996,607,993,138,119,1894
"Sipo HU",HU,324,5085,5,138,12319,1137,12,675,75,105,883
"Istegelsin TR",TR,317,3834,3,12,8104,0,13,152,8,1,179
Makeup,PL,315,2627,593,2627,565349,99597,10,20586,1122,1279,23333
"Alfies App AT",AT,312,3844,2,101,11664,5438,41,168,47,116,398
"Gastronom BG",BG,312,7059,12,70,21771,1061,14,460,143,242,941
"Pyaterochka App RU",RU,311,3813,7,244,8799,1260,4,663,116,15,805
"Spring RO",RO,311,8894,24,265,26160,6087,26,1811,330,1009,3187
"Mall SK",SK,309,7,0,7,1888,294,425,482,207,728,1861
"Cora RO",RO,302,53168,44,457,122270,6662,6,8482,503,1210,10269
"Supermag BG",BG,302,6487,49,69,19435,1016,30,714,240,654,1671
"Amazon NL",NL,299,33,33,33,137396,0,0,0,3659,40,3699
"Bipa AT",AT,299,11826,5,42,25348,584,21,450,72,21,659
DoDomku,PL,299,6113,72,368,17951,2324,43,294,218,221,794
Empik,PL,297,94308,818,1772,150635,31523,86,5429,1042,240,7117
"Apteka Nove BG",BG,296,11349,2,137,44503,5262,19,2796,203,414,3471
"Mercado Libre AR",AR,296,0,637,1456,63678,0,187,881,0,0,1068
"Tudrogueria Virtual CO",CO,292,8874,34,4378,16830,1177,6,354,2016,49,2441
"SOpharmacy BG",BG,289,10748,6,148,33582,6292,501,1160,161,532,2393
"Apteka Medea BG",BG,284,8977,8,147,26863,0,87,1026,167,0,1319
"Sephora US",US,283,327,316,327,128982,0,15,939,140,2,1142
"E.Leclerc Tychy",PL,276,8576,4,925,8755,10159,57,384,639,1430,2547
"Jumbo AR",AR,274,0,73,641,43538,0,200,3499,0,0,3699
"i-apteka",PL,274,10147,48,705,21927,15660,8,484,751,1617,2898
"Helpnet RO",RO,273,6428,16,244,18146,5270,179,1220,113,248,1767
"Cornershop - Santa Isabel CL",CL,272,2252,4,115,3387,292,10,750,262,18,1043
"Apteka Medkon",PL,271,9159,684,684,37306,8987,14,4706,1418,3771,9950
"Groby HU",HU,271,7920,3,542,21037,4345,10,1009,500,324,1867
Makro,PL,265,2825,0,462,7903,27454,6,496,216,1484,2220
"Dunnes IE",IE,264,14761,16,608,33169,9179,5,348,303,120,799
"Carrefour AR",AR,263,13176,26,862,95301,9857,15,2864,2843,463,6250
"E.Leclerc Gliwice",PL,260,8567,39,855,23434,7918,30,1719,881,2975,5661
"Getir IT",IT,260,2198,7,44,6349,7096,9,128,24,111,277
Wapteka,PL,258,18649,1058,1589,63740,59489,8,4227,777,1172,6265
"Benu HU",HU,257,5076,0,349,16624,4512,7,2740,313,614,3689
"PriceSmart CR",CR,252,0,0,0,44738,0,13,0,0,0,13
"Mercado Livre BR",BR,249,0,0,0,867776,0,546,0,0,0,546
"Edeka DE",DE,247,3854,29,60,5017,105,12,252,66,147,486
"Look Fantastic UK",UK,246,20605,73,135,72562,0,8,923,153,1,1130
"Olimpica CO",CO,241,0,0,0,206440,0,11,0,0,0,11
"Szybki Koszyk",PL,241,4321,5,93,14922,1566,115,636,49,92,918
"Auchan FR",FR,240,2850,14,136,9521,1690,382,602,190,372,1565
"Farmatodo CO",CO,238,13528,12,4409,61596,3473,12,517,5571,76,6226
"Afya Pharmacy BG",BG,237,11197,0,164,38043,2064,18,2701,226,303,3280
"Panda Market HU",HU,235,2875,11,265,6620,1734,6,229,125,224,590
"Central Oeste AR",AR,234,264,32,264,16879,20492,9,1825,177,2704,4720
Cocolita,PL,229,12364,5,709,53931,18089,12,2519,1410,1678,5703
"Minifarm RO",RO,228,5309,2,108,13845,0,6,977,75,0,1067
"Disco AR",AR,227,0,24,503,29125,0,169,2883,0,0,3052
"Metroiroda HU",HU,227,3245,2,257,6538,1243,5,744,422,122,1299
"Breadfast App EG",EG,221,4530,32,67,104986,389,6,2981,44,14,3112
"Vea Digital AR ",AR,220,0,88,707,23122,0,169,2762,0,0,2931
"Igooods RU",RU,219,19269,7,317,43124,416,5,339,260,27,654
"Delitea SE",SE,216,8635,75,178,21779,0,7,180,82,9,303
"La Anonima AR",AR,214,5990,318,318,17333,3652,15,1393,1019,1869,4306
"Superpharm Apteka",PL,214,670,48,670,31845,32495,5,387,1672,475,2589
"Booker Foodservice UK",UK,213,11545,96,963,21617,2717,143,462,457,101,1178
"Exito CO",CO,213,9725,17,720,39212,2988,291,4130,1511,184,6161
"Merqueo - Bogota CO",CO,212,1267,6,107,3313,2388,7,216,57,114,398
"Beauty Bay UK",UK,208,11608,2,110,47961,0,12,338,103,1,484
"Linella MD",MD,206,7942,1010,1052,19065,0,20,1231,6257,1,7526
"Mano NG",NG,204,2204,6,32,4543,193,16,15,17,12,64
"Booker UK",UK,203,8645,135,993,16424,6852,111,324,469,540,1457
"Emag HU",HU,200,148493,464,1733,148543,7463,8,1017,607,64,1931
"Farmacia Dav RO",RO,193,5835,6,120,15570,1572,6,275,56,66,412
"Merqueo - Medellin CO",CO,192,1332,2,107,3259,2236,9,205,54,102,373
"Subra BG",BG,192,9542,0,127,26753,1566,147,906,62,117,1276
"Rappi Lider CL",CL,189,9459,150,294,32456,316,78,3072,907,39,4127
"Atomo AR",AR,188,2402,7,200,6404,14192,14,237,118,364,737
"Glovo Bargains Supermarket Lagos NG",NG,186,1044,8,1044,2028,173,4,82,40,12,141
"Rappi Jumbo CL",CL,183,9342,92,227,34525,364,70,3049,630,37,3812
"Rappi - Carulla CO",CO,181,7382,280,808,23106,4658,92,3245,1624,379,5357
"Vodovoz RU",RU,181,999,0,7,2048,0,3,301,13,1,320
"Coursesu FR",FR,180,3959,61,66,5747,1340,16,10035,144,242,10445
"Pigmento AR",AR,177,125,27,126,12546,8119,76,292,161,238,775
"Rappi - Carulla Express CO",CO,177,4952,294,843,9601,1417,96,2154,2185,136,4583
"Rappi Turbo CL",CL,175,1149,8,39,3493,329,96,1224,192,37,1553
"Tiendas Jumbo CO",CO,175,13361,5,759,31245,2955,12,1677,1228,164,3124
"PennyDomu CZ",CZ,173,1382,0,0,3844,0,78,196,2,1,280
"Rappi Unimarc CL",CL,172,5559,94,216,9696,344,68,1696,965,36,2777
"Professional Farmaline RO",RO,155,6198,11,117,9953,5457,3,332,76,108,529
"Rappi - Pricesmart CO",CO,155,1683,8,15,4559,3392,73,1326,233,379,2015
"Argos UK",UK,154,3937,7,2929,5197,0,3,282,6760,0,7050
"Rappi Coto AR",AR,152,5056,74,245,12156,1113,70,586,860,112,1640
"Dirck3 NL",NL,151,553,0,28,2583,144,6,109,14,29,164
"Alerzo NG",NG,149,100,0,0,167,36,5,121,1,15,142
"Rappi Carrefour AR",AR,149,3765,77,224,4831,1541,65,348,1027,111,1558
"Medexpressz HU",HU,148,1309,1,69,2792,0,7,498,110,1,618
"Alcampo ES",ES,138,2045,10,158,6875,749,253,651,220,98,1232
"Nazuby CZ",CZ,136,1798,0,87,6051,161,13,186,40,16,261
"BWS AU",AU,135,7202,16,7202,16391,0,20,212,3222,1,3458
"Superxtra PA",PA,135,6477,0,0,13685,0,75,68,3,1,159
"Alkohol CZ",CZ,131,4135,22,35,11553,0,20,1104,36,1,1176
"Rappi - Exito Express CO",CO,131,6484,249,714,12659,1215,91,2288,1859,139,4390
"Aromatico DE",DE,129,28,5,28,9957,665,6,1622,186,109,1928
"Extra BR",BR,129,73926,42,384,73926,1107,65,1303,175,65,1686
"Rappi Turbo PE",PE,129,1330,10,37,4386,4095,96,832,303,492,1726
"Cora Drive BE",BE,121,14390,283,303,93081,5837,11,3663,382,1594,5752
"Condis ES",ES,120,6388,3,3,6750,0,4,1886,58,0,1956
"Rappi Turbo CO",CO,118,2732,38,129,9461,4087,82,2018,1057,393,3559
"Rappi Farmacity AR",AR,116,4992,91,242,13670,1232,68,1090,772,113,2061
"Mercado Libre CL",CL,113,48497,1209,1761,76212,276,121,723,832,50,1837
"Brack CH",CH,109,8265,24,106,23005,2114,176,489,180,308,1201
"Comfandi Supermercados CO",CO,106,9022,62,80,22658,694,11,1984,262,236,2506
"Coop EE",EE,105,1257,0,7,2990,1055,5,88,5,44,146
"Flaschenpost DE",DE,103,42,7,42,4895,360,5,93,29,16,147
"Rappi Turbo AR",AR,102,387,0,3,1872,1108,77,487,26,113,705
"Amazon Fresh DE",DE,100,8506,185,240,13383,6297,521,6470,386,363,7750
"Savage & Whitten IE",IE,100,3706,3,137,7412,1007,10,344,64,71,497
"Siempre Bien AR",AR,98,10663,69,351,14772,6671,6,284,162,1065,1538
"Vitania BG",BG,97,7082,1,139,7082,4306,11,347,75,250,713
"Farmacity AR",AR,94,450,38,450,5497,8216,5,271,202,513,995
"Tiendas D1 CO",CO,91,1046,1,969,2154,0,9,133,465,2,611
"Kaufland DE",DE,90,36199,281,435,45122,690,66,1100,300,45,1567
"Masoutis GR",GR,89,3891,8,513,6143,4790,18,165,337,158,707
"PriceSmart GT",GT,89,1650,8,27,14689,1939,9,3138,36,612,3803
"Jumia NG",NG,84,2038,54,116,2683,72,48,89,54,19,213
"Okey RU",RU,81,13360,641,764,13442,1405,13,352,2235,112,2728
"Kaffedeal DK",DK,76,346,3,29,848,0,4,55,15,1,77
"Droguerias Cafam CO",CO,69,4028,1334,3065,10373,1858,20,691,5542,0,6260
"Durst DE",DE,69,1158,67,1158,1226,0,5,34,19,5,67
"Carrefour FR",FR,66,6603,33,305,10885,3584,18,275,204,180,700
"Emag RO",RO,64,66104,303,952,66104,9311,14,1102,1583,247,2994
"Pretty Little Thing UK",UK,63,2093,23,34,9010,0,12,2586,324,0,2926
"Rozetka UA",UA,62,88632,2622,2951,108738,0,115,6506,848,1,7554
"Comfandi Droguerias CO",CO,57,0,1663,1772,9219,0,7,849,0,0,856
"Kaffekapslen DK",DK,56,788,2,59,1803,1478,32,39,40,46,160
"Rappi Cruz Verde CL",CL,54,1596,46,180,3067,345,43,691,568,36,1343
"iDrinks HU",HU,54,5851,180,194,12794,252,9,834,209,53,1126
"Kapselkongen DK",DK,51,231,0,49,449,0,22,55,47,0,125
"Koffievoordeel NL",NL,48,466,0,21,2171,0,3,295,15,2,321
"Leclerc FR",FR,47,1766,10,235,21855,2262,6,286,224,83,624
"Altex RO",RO,45,2375,6,110,4651,1053,4,295,180,149,630
"Winelivery IT",IT,45,1343,22,39,2960,0,5,176,21,1,205
"Very UK",UK,44,3874,0,3,4142,0,16,54,5,2,105
"Bol NL",NL,42,445,274,445,36459,2330,30,2041,604,376,3095
"El Corte Ingles ES",ES,39,5450,8,157,7364,890,95,548,995,102,1750
"Euronics DE",DE,39,9290,91,168,39503,0,74,1164,37489,2,38806
"BilkaToGo DK",DK,37,11983,92,242,63037,1857,14,138,129,40,438
"Datart CZ",CZ,37,1091,0,11,1509,0,7,159,21,25,215
"Selver EE",EE,37,3926,1,26,10662,2452,5,333,42,197,588
"Wolt Online Prima HU",HU,37,3256,2,438,3256,5262,6,94,431,258,793
"Ep DE",DE,35,214,0,0,681,0,74,123,2,1,201
"Galaxus CH",CH,34,9978,0,44,16744,1390,26,3423,186,1402,5057
"Jumia EG",EG,34,2249,57,188,3858,15,72,219,245,47,589
"John Lewis UK",UK,32,14,4,14,567,0,3,35,25,82,159
"Konga NG",NG,31,15,0,15,13182,178,97,79,13,13,208
"Avansas TR",TR,28,514,0,1,549,0,3,23,3,1,32
"EDostavka BY",BY,21,704,0,182,1398,3808,3,13,127,137,281
"Deeski NG",NG,19,93,0,9,147,101,11,48,21,37,117
"MyDeal AU",AU,19,3852,70,3852,9318,0,10,270,4272,1,4555
"Shoplink IE",IE,19,160,5,137,480,1849,30,101,86,103,320
"Boulanger FR",FR,17,1016,4,55,2365,0,33,161,182,1,381
"The Good Guys AU",AU,15,823,31,823,1568,482,6,21,788,66,882
"BCC NL",NL,10,1513,2,11,2053,0,3,119,14,18,159
"Wildberries RU",RU,10,62542,750,1539,64224,1497,10,170,889,26,1245
"Myer AU",AU,9,8470,550,8467,10857,0,16,1625,16968,1,18615
"AO UK",UK,7,310,1,5,478,0,58,16,9,73,161
"Woolworths AU",AU,7,1458,45,1458,2324,499,4,62,531,35,634
"Unieuro IT",IT,6,1531,16,20,1935,0,4,22,25,22,78
"Harvey Norman AU",AU,5,278,30,278,278,249,6,37,1477,460,1980
"Barrys Beacon IE",IE,4,164,7,126,164,417,7,96,77,72,253
"Proshop DK",DK,2,4963,51,74,5353,374,24,233,43,67,377
"Yandex Market RU",RU,1,0,0,0,0,1774,3,261,1,149,414
Allegro,PL,0,1089,0,903,0,0,0,0,35413,0,35413
"Apteka Galen",PL,0,0,0,0,0,0,32,7,16,2616,2678
"Carrefour BR",BR,0,0,0,0,0,0,5,61,0,210,276
"Coop UK",UK,0,0,0,0,0,5931,645,1,0,511,1157
"Drogerie Natura",PL,0,0,0,0,0,0,6,1,5,2084,2109
"Easy CL",CL,0,0,0,0,0,0,2,63,8,1,75
"Everli - Coop IT",IT,0,0,0,0,0,0,109,1,0,126,236
"Everli - Kaufland",PL,0,0,0,0,0,0,84,1,2,257,344
"Everli - Lidl",PL,0,0,0,0,0,0,87,0,1,267,355
"Everli Netto",PL,0,0,0,0,0,0,88,0,1,152,241
"Farmacia Pasteur CO",CO,0,0,0,0,0,0,5,137,1,172,317
"Farmaonline AR",AR,0,0,0,0,0,4230,4,65,1,199,270
"Intermarche FR",FR,0,0,0,0,0,850,15,2,1,1082,1104
"Linio CL",CL,0,0,0,0,0,0,3,79,1,0,83
"Metro Delivery RU",RU,0,0,0,0,0,6,32,1,1,67,101
"O'Reillys IE",IE,0,0,0,0,0,0,0,0,0,0,0
"Ozon RU",RU,0,0,0,0,0,0,776,140,135,166,1217
"PedidosYa Carrefour AR",AR,0,0,0,0,0,7818,3,49,5,219,276
"PedidosYa DIA AR",AR,0,0,0,0,0,4419,6,80,2,209,298
"Samokat RU",RU,0,0,0,0,0,0,32,34,0,32,98
"Sodimac CL",CL,0,0,0,0,0,0,22,96,1,1,120
"Wong PE",PE,0,0,0,0,0,0,2,39,1,75,117
"Перекрёсток Впрок RU",RU,0,0,0,0,0,1275,3,4,3,47,57
"Утконос RU",RU,0,0,0,0,0,0,15,1,1,134,151
