﻿Site,Country,Categories,Prices,"Products changed","Products downloads",Relations,Search,"Categories time","Prices time","Products time","Search time","Total time"
"Ocado UK",UK,6906,42771,43,6019,1802143,26459,765,22353,1672,559,26876
"Mytime DE",DE,5137,11009,23,216,102522,2830,2457,3006,106,160,5832
frisco,PL,4711,1912,2,1912,312147,96769,128,5857,2925,996,10263
"Asda UK",UK,3646,30842,69,2324,1269792,32045,18,15407,1503,647,18580
"Rohlik CZ",CZ,3467,24365,43,1654,266356,36167,2384,14733,2027,771,20038
"Albert Heijn NL",NL,3445,21131,135,804,105897,8709,463,1569,166,159,2452
"Makro CZ",CZ,3404,7208,2,12,741020,513,2938,23909,31,50,27231
"Morrisons UK",UK,3188,21541,90,1750,1085787,21266,203,8255,214,940,10781
"Pilulka SK",SK,3170,36225,138,366,274070,10846,7,3651,220,279,4281
"Waitrose UK",UK,3036,15785,2,931,1425630,24200,35,21425,355,621,23739
"Metro SK",SK,3031,6860,0,3,311969,0,2387,19389,10,1,21908
"Albert Heijn BE",BE,2872,10866,93,210,54134,9179,436,1438,61,201,2182
"Coto Digital AR",AR,2871,17445,2,743,86192,13708,2931,4541,665,602,8835
Auchan,PL,2769,18860,52,1433,317010,24711,83,16751,1297,1794,20386
"Kosik CZ",CZ,2747,16096,12,1068,91339,32627,492,1687,503,891,3623
"Pilulka CZ",CZ,2629,30608,198,586,173029,33948,13,2661,312,965,4044
"Galen BG",BG,2601,14197,1,171,94264,5222,1423,2426,151,195,4264
"Notino CZ",CZ,2531,9336,216,9336,126504,51717,1187,8055,7416,1392,18216
"Notino SK",SK,2517,6294,167,6294,118032,219,1185,7075,5319,14,13760
"Amazon Fresh UK",UK,2426,9516,575,833,54998,23614,1211,34668,770,551,37306
"Drogeo CZ",CZ,2403,3086,7,3086,74271,39348,12,1900,1419,1001,4375
"Sainsburys UK",UK,2237,29647,11,1804,1842628,51536,232,30440,1498,1026,35117
"Amazon UK",UK,2218,1481,17515,17757,1013418,0,4786,41322,11426,0,57534
"Chronodrive FR",FR,2147,8164,467,933,45434,0,332,1249,1740,1,3378
"Boots UK",UK,2082,25638,1397,11261,171615,995,20,4634,18176,19,23183
"Drogerie Natura",PL,1998,12952,1,2951,73259,53755,83,6234,3919,3434,13811
"Amazon Fresh IT",IT,1908,7442,541,708,35693,3504,3741,21894,1740,349,27748
"Brakes UK",UK,1895,9480,83,292,28370,48848,3073,1812,135,476,5544
"Auchan HU",HU,1733,26497,3,2209,194114,18859,11,5613,1313,1279,8345
"Jumbo NL",NL,1691,17942,102,628,61778,8801,1183,1664,596,238,3747
"Musgrave IE",IE,1635,142,73,221,53371,4393,34,3155,219,99,3538
"Yuga RO",RO,1613,7854,3,109,38934,0,1876,3924,3583,1,9404
"Delhaize BE",BE,1569,13865,162,624,56889,20368,12,3539,458,894,4967
"Minti Shop",PL,1535,14429,36,276,122640,32646,87,4032,235,1550,6098
"Picnic NL",NL,1436,7194,7193,7193,17705,4958,547,5350,14988,787,21688
"Apteka Nowa Farmacja",PL,1414,15788,38,938,76896,32471,12041,3805,1144,2764,19887
"Alza CZ",CZ,1402,31109,5047,31643,113975,35770,65,923,413,1279,2814
"Carrefour BE",BE,1402,20665,21,1339,560602,23000,1319,14968,556,1248,18551
"Kifli HU",HU,1387,13576,41,1632,61779,12745,631,2644,1520,437,5279
"Apteka Melissa",PL,1373,25046,108,1931,94555,67609,90,11983,1995,1092,15298
"Coop CH",CH,1360,19053,83,250,70425,2320,341,2611,536,203,3754
" SberMarket - Lenta RU",RU,1317,10664,31,1191,75065,1260,11,3391,547,64,4038
"SberMarket - Metro RU",RU,1308,6911,29,407,59696,0,22,1753,520,1,2323
"Remedium BG",BG,1304,27336,20,348,96161,1529,248,6938,412,161,7846
eZebra,PL,1298,41807,31,1796,146230,39881,72,5587,870,6425,13260
"Tesco UK",UK,1274,29393,10,2658,402670,16068,12,15735,1225,4575,21981
"Rewe DE",DE,1255,9713,17,225,35773,2965,28,1441,247,358,2157
"Amazon BR",BR,1252,27,18616,18622,1342454,0,780,45398,49747,0,95925
"Knuspr DE",DE,1247,12775,32,200,69288,2044,593,2409,523,144,3753
"Moja Lekaren SK",SK,1228,24544,26,448,108529,6629,912,3237,308,575,5084
Hebe,PL,1224,1259,101,1259,229607,34671,1491,7785,2384,1501,13470
"Lekarna CZ",CZ,1224,28978,34,623,130021,6127,914,3917,451,514,5887
"iGlobus Zlicin CZ",CZ,1213,22423,0,416,86267,10550,11,2705,417,332,3521
"Barbora LT",LT,1205,16821,2,246,56156,1230,44,1912,129,83,2217
"Amazon DE",DE,1201,173,13389,13384,823102,0,1266,15260,42357,6466,65349
"E-Fresh GR",GR,1196,11507,18,898,56237,6909,2289,4033,1864,735,8974
"Farmaline BE",BE,1166,30470,14,576,145376,2779,2102,3006,468,54,5804
"Picnic DE",DE,1154,7170,11,155,14839,1407,98,980,76,149,1331
"S-kaupat FI",FI,1147,40407,51,79,281905,0,6,21301,71,0,21580
"Coop NL",NL,1125,14439,2,182,62165,1823,1624,2135,343,125,4295
"Newpharma BE",BE,1107,19445,86,1214,39324,2421,1055,4863,1302,117,7401
"Albert App CZ",CZ,1090,8001,1,115,44166,1838,495,2047,61,46,2674
"Vkusvill RU",RU,1076,11926,63,186,48962,1615,260,4740,453,124,5594
"Dr Max SK",SK,1061,25903,121,1952,107341,9162,832,6996,2176,518,10568
"Mathem SE",SE,1051,10877,9,387,30750,4485,26,1184,720,375,2359
"Alza SK",SK,1036,14179,151,331,52200,205,45,413,111,8,602
"Amazon IT",IT,1036,443,1028,1098,554835,6386,496,21078,23570,606,45750
"Eroski ES",ES,1035,26139,0,0,55209,0,10,3699,21,1,3781
"Salcobrand CL",CL,1024,8011,42,7979,32817,1751,286,646,4770,28,5781
"Metro AT",AT,1006,26285,390,924,78852,3692,19,1036,438,124,1699
"Ebag BG",BG,998,12175,109,216,49471,2068,18,1462,131,41,1699
Selgros,PL,987,20119,1073,1300,69351,28500,477,1202,610,1465,3929
"Zakaz - Novus UA",UA,985,31396,0,0,64299,0,5,1538,20878,1,22456
"Cefarm 24",PL,980,12346,13,941,78237,18114,1363,2651,1226,3053,8407
"Tigros IT",IT,959,9932,1,602,29844,8062,17,537,345,240,1173
"Coop Shop IT",IT,925,11628,8,402,34912,6494,14,691,317,383,1442
"Coop SE",SE,914,7670,21,526,26393,4626,25,962,861,164,2070
"Kolichka BG",BG,910,8226,68,156,30368,1276,205,410,75,44,770
"Migros Online CH",CH,902,11630,18,157,42197,1356,24,2641,134,212,3055
"Pilulka RO",RO,886,9326,872,1019,36247,3399,5,522,465,87,1096
"Unipatika HU",HU,865,4369,4,296,29985,4713,657,1491,147,338,2658
"Falabella Tottus CL",CL,842,9524,7,466,42542,1053,3377,4481,2075,165,10156
"SuperValu IE",IE,841,15910,13,1006,209757,10251,873,16950,1141,509,19857
"Tesco IE",IE,833,17964,52,916,432878,3707,12,12211,378,841,13758
"Dr Max CZ",CZ,827,24459,33,394,109237,5598,400,3157,369,104,4091
"Apteka Manada",PL,824,13375,148,1474,42697,44468,26,3185,3237,4255,10814
"Superpharm Drogeria",PL,816,1006,28,1006,97391,55097,58,2476,2709,574,6017
"eZiko Apteka",PL,813,7468,63,718,46924,29009,372,1975,751,1662,4847
Bee,PL,810,27631,30,255,86908,9933,378,2178,301,251,3301
"Auchan RU",RU,795,26258,653,1760,82460,281,7,2151,1036,25,3275
"Gurkerl AT",AT,791,9643,15,248,43393,3612,373,1533,302,119,2367
"Zakaz - Metro UA",UA,765,18819,0,0,35142,0,5,1913,20828,1,22762
"Coop DK",DK,758,11324,242,346,86146,1207,362,3588,285,42,4402
"Cruz Verde CL",CL,753,8727,7,1068,154137,2036,22,18161,503,28,18811
"Polski Koszyk",PL,739,16866,65,1304,50471,4261,52,687,802,288,2048
Spar,PL,739,24745,1740,2035,636644,80534,103,12671,1016,2398,17030
"Masxmenos CR",CR,730,10013,10,139,27023,0,29,2001,203,8,2273
"Rimi EE",EE,730,13206,16,191,39066,3766,18,1262,355,166,1834
"Walmart CR",CR,730,16584,29,578,206242,5055,23,6669,733,162,7836
"Sklavenitis GR",GR,728,9859,11,330,29446,4208,358,4581,658,1267,6903
"Esselunga A Casa IT",IT,726,15758,71,691,49227,16804,51,4976,1381,1278,7736
"Lunys SK",SK,718,5312,29,129,18315,1993,445,960,76,147,1637
"Sezamo RO",RO,712,10021,7,252,39945,4459,333,1369,290,92,2100
"Walmart MX",MX,711,23195,5,274,96860,3605,102,17414,349,224,18177
"Bringmeister DE",DE,708,15066,12,168,41314,4400,21,390,79,145,700
"Intervare DK",DK,695,7729,7642,7728,22494,0,21,328,3508,112,3996
"Rossmann DE",DE,686,16468,87,297,57703,0,891,1475,292,1,2748
"Bennet IT",IT,672,19520,10,496,39303,15339,13,1075,1979,945,4071
"DM SK",SK,671,12415,7,407,35466,6061,3,1197,178,259,1660
Amazon,PL,669,1058,16816,16673,1388460,0,474,24695,10077,0,35246
"Rimi LT",LT,665,15542,0,40,46474,3476,16,1361,80,138,1633
"DOZ.pl",PL,660,18454,36,1890,76405,64931,485,4682,1562,2412,9281
"Tesco CZ",CZ,656,15369,0,1371,506748,21303,10,14747,1285,4794,21115
"Hoogvliet NL",NL,655,8647,22,152,14201,2394,19,763,179,141,1126
"Poiesz NL",NL,655,7344,0,34,9480,948,31,543,3756,53,4406
"Apteka Rosa",PL,648,9736,33,479,41599,5113,61,3674,387,392,4600
"Crai Spesa Online",IT,642,497,7,497,26671,6925,368,995,1170,833,3384
"Liquorland AU",AU,639,3082,0,2,17232,0,22,1626,16,1,1669
Barbora,PL,638,10698,5,941,132616,10563,31,3940,451,1271,5860
"Rossman HU",HU,638,14885,86,1167,54173,7684,577,748,1863,176,3409
"Apteka Galen",PL,627,10023,1,518,44532,6688,31,1798,470,559,2945
Apteline,PL,627,1323,44,1323,24656,2042,1322,2156,2274,1316,7133
"Easy Coop IT",IT,626,9469,4,585,33585,8608,367,2487,1389,1095,5370
"Yandex Lavka RU",RU,624,1315,45,260,3115,1210,335,2875,2397,318,5927
"E.Leclerc Bielany",PL,623,32737,52,2464,104411,27801,119,5001,1154,20871,27327
"Carrefour EG",EG,616,16932,60,600,82231,432,24,4338,4621,47,9125
"First Choice Liquors AU",AU,612,3700,0,2,20014,0,27,1573,16,1,1623
"Tesco HU",HU,611,14463,0,2382,935065,10033,7,33005,2263,2237,37964
"Tesco SK",SK,609,15205,1,243,216188,2798,9,5012,183,444,5759
"Benu CZ",CZ,600,14172,35,538,62392,5982,7,5753,342,68,6224
"Thanopoulos GR",GR,599,15649,18,398,52767,6605,12,4149,409,460,5090
"Lopido CO",CO,588,20743,14,89,38074,799,30,1619,1127,24,2853
"Plus NL",NL,585,9018,0,0,14641,0,62,2711,1554,1526,5884
"Superdrug UK",UK,577,13456,6,153,41480,0,16,799,18310,2,19185
"Willys SE",SE,576,10579,5,327,34867,4508,17,421,151,170,802
"Sams MX",MX,575,4454,11,149,29072,710,17,3839,288,214,4390
"Bestway Foodservice UK",UK,574,10565,23,358,33625,3947,396,776,274,137,1619
"Bestway Best-one UK",UK,571,6401,0,12,20897,0,389,649,27,1,1094
"Bestway UK",UK,571,8946,6,535,28842,27120,380,731,356,825,2331
"Cold Storage SG",SG,568,9240,0,1,28831,0,697,2539,3,1,3247
"Vasalekaren SK",SK,568,10278,48,245,62933,5748,868,6290,415,628,8225
"Dr Max",PL,567,18593,5,1047,63158,41704,249,3336,2473,1109,7290
"Kritikos GR",GR,567,7362,0,215,20988,3311,12,280,100,7719,8141
"Zakaz - Metro MD",MD,567,13530,0,0,22816,0,10,1095,14080,1,15214
Lek24,PL,565,6200,33,117,22165,8459,11,1322,108,416,1924
"DM HU",HU,564,5181,14,426,7353,9920,6,1191,186,323,1718
"E.Leclerc Wroclaw",PL,556,15359,83,1157,15537,13978,522,1869,1839,4999,9318
"Perfumeria Douglas",PL,556,18124,5610,56208,192518,55605,293,3027,14009,73,17532
"Colruyt BE",BE,555,7049,8,247,82414,13469,17,13039,848,1673,15698
"Pingvinpatika HU",HU,555,7632,90,393,41383,2832,10,5438,452,329,6250
"Spar HU",HU,549,16010,468,2056,372981,14152,10,7387,3493,440,11508
"Vintage Cellars AU",AU,549,2416,3,3,12933,0,24,1457,17,1,1503
"DM CZ",CZ,548,13034,9,793,35351,33579,5,1184,345,1052,2609
"Pão de Açucar BR",BR,548,30294,191,909,75942,1684,17,6481,2560,296,9451
"Jumbo CL",CL,546,22086,3,988,595515,1657,19,8519,1067,150,10286
"Lider CL",CL,546,16470,1,1093,279312,1084,18,4161,6911,95,11488
"AB GR",GR,544,11301,168,734,33722,9939,13,785,349,261,1472
"City Gross SE",SE,540,11764,25,220,24690,5166,21,388,107,289,859
"Freshful RO",RO,539,17160,19,186,35159,1066,4,738,87,33,880
"E.Leclerc Rzeszów",PL,535,12184,51,1265,34953,23392,68,710,650,937,2493
"MyMarket GR",GR,531,14170,132,303,50022,7478,14,1902,444,452,2872
"Carrefour ES",ES,526,14401,6,190,17733,316,20,605,923,34,1612
"Drogeria Olmed",PL,526,731,71,731,153494,29223,55,12909,657,2117,15941
"Clube Extra BR",BR,523,10532,18,2924,18775,1501,15,882,1600,59,2600
"B&M Stores UK",UK,519,595,152,600,22273,0,259,367,275,1,924
"Plazavea PE",PE,517,27970,19,283,193220,3746,14,5289,140,242,5904
Rossmann,PL,514,1136,0,1136,78774,32704,51,866,1192,779,3083
"Apteka Zawiszy",PL,507,19785,340,1207,76810,29162,273,1905,902,611,3886
"Hemkop SE",SE,500,10140,2,379,31666,4646,15,357,182,166,767
"Interspar AT",AT,500,21934,17,240,265731,6754,14,2571,321,154,3353
"Benulekaren SK",SK,497,9820,31,417,45007,7042,3,3509,200,132,3867
eKobieca,PL,495,9965,0,200,41895,14599,21,2050,550,2132,4841
"Dr Max Drogeria",PL,492,19471,7,993,67413,41574,13,3621,1374,1161,6353
"Auchan RO",RO,487,27255,687,687,249591,7658,6,6592,959,214,7896
"Glovo Express Milano IT",IT,485,3433,5,3433,9548,3609,7,219,91,92,423
Intermarche,PL,484,18484,3,2226,134432,9717,14,4714,1066,943,7123
"Mega Image RO",RO,481,12198,10,450,36500,10396,4,659,205,179,1063
"Dr Max RO",RO,475,16443,39,294,58067,9430,205,2605,266,331,3426
"Famila a casa IT",IT,475,11834,8,993,26532,6449,909,1557,1830,333,4662
"Metro RU",RU,473,19413,52,471,23041,1433,7,2684,752,78,3547
"E.Leclerc Radom",PL,472,12012,1,992,37733,9210,126,2484,1100,2943,6764
"Apteka Olmed",PL,468,1334,276,1334,164730,26362,9,12221,954,1707,15071
"Patika24 HU",HU,465,4387,6,199,8935,3212,9,916,587,155,1673
"Basko IT",IT,463,8502,4,407,25973,1581,6,263,460,47,805
Ceneo,PL,463,205073,2466,44134,271670,49412,979,4484,11166,869,18440
"GPSfarma AR",AR,460,5940,25,1165,25551,17078,18,2650,614,1254,4561
Aptelia,PL,459,1002,104,1002,68918,23865,229,3699,701,854,5569
"Soriana MX",MX,459,12903,174,2196,24280,2249,1602,5943,9140,720,17430
"Carulla CO",CO,453,10502,1,290,59674,870,26,2018,207,52,2399
"MegaMarket RO",RO,447,5024,1,100,6107,558,6,1253,122,186,1571
"eTabletka SK",SK,443,11376,93,435,77934,6770,316,19827,465,87,20723
"Ecofamily HU",HU,442,7212,0,1663,23313,4295,3,3736,6585,919,11266
"Elefant RO",RO,437,352,354,354,75393,2431,15,2145,528,91,2800
"E.Leclerc Lublin Turystyczna",PL,433,11577,1,1185,14325,10977,45,546,1579,2030,4270
"Cornershop - Jumbo CL",CL,432,7276,1,321,41672,1667,18,643,87,106,919
"Unimarc CL",CL,432,9693,2,2287,29077,1445,17,658,9305,113,10142
"Cornershop - Lider CL",CL,422,9839,1,380,49311,1270,13,767,89,100,1039
"iFresh SK",SK,417,7521,11,11,152876,0,5,4197,591,1,4875
"E.Leclerc Katowice",PL,413,8436,5,1073,8940,9770,124,419,934,1390,2951
"Farmacia Tei RO",RO,413,189,185,189,22719,3453,4,727,101,162,1000
"Ica New Version SE",SE,411,7624,6894,6906,162452,3934,15,2666,3159,163,6157
"Kruidvat NL",NL,403,7947,112,143,22940,1700,221,871,192,139,1456
"Teta Drogerie CZ",CZ,400,4816,1,319,13907,6796,5,736,219,276,1245
"Apteki 36.6 BG",BG,397,10916,12,155,51620,1294,11,1652,79,91,1885
"Majestic UK",UK,391,1275,1,56,15975,1283,235,2492,49,149,2940
"Drogas La Rebaja CO",CO,390,7508,4,1548,42030,2772,28,5780,3018,137,9025
"Unimarkt AT",AT,389,3431,12,134,15883,3507,159,364,118,224,885
"Azbuka Vkusa RU",RU,384,14067,1014,14135,30551,1062,18,2169,1341,287,3849
"Cornershop - Wong PE",PE,384,6778,7,556,21489,2915,12,718,479,353,1591
"Świat Leku",PL,383,11382,13,581,37518,3188,177,1446,645,338,2754
"DrankDozijn BE",BE,379,3749,0,74,15223,2296,7,660,117,480,1283
"DrankDozijn NL",NL,379,3748,0,75,15220,300,14,661,116,21,838
"Ica SE",SE,379,11498,1,438,711478,9303,14,22705,231,159,23708
"Cruz Verde CO",CO,378,4623,2,2403,18297,1911,28,1981,1111,41,3179
"Glovo Biedronka Warszawa",PL,377,2310,1,2310,4491,1311,16,181,131,75,424
"Carrefour IT",IT,376,13811,185,1105,38428,4675,210,1040,639,344,2278
"Billa AT",AT,375,9905,77,247,32221,7149,11,865,722,304,1941
"Bebe Tei RO",RO,372,174,10,174,25156,1666,3,939,86,81,1116
"Walmart GT",GT,371,10501,9,437,177821,4533,25,5679,589,181,6637
"Cornershop - Metro PE",PE,369,7486,1,197,21889,3433,11,551,91,232,913
"Justo MX",MX,369,4197,3,69,12601,0,15,839,44,3,914
"Talabat Mart EG",EG,369,6479,2070,2087,38574,356,13,2323,4557,12,6956
"Feedo CZ",CZ,368,560,251,560,49293,390,154,970,626,15,1815
"Glovo Kaufland RO",RO,367,8695,92,8695,15002,0,3,195,79,51,336
"Glovo Biedronka Express Warszawa",PL,365,1363,3,1363,2926,498,10,210,78,46,371
"Iceland UK",UK,358,5367,13,335,27290,12576,15,1610,461,2544,4671
"Dia AR",AR,354,5543,5,491,15953,9473,14,1418,1061,313,2827
"Ulabox ES",ES,354,5756,1,59,12264,0,3,207,32,1,258
"E.Leclerc Lublin Tomasza Zana",PL,352,11369,12,1278,15194,9562,10,508,1544,923,3062
"Gall & Gall NL",NL,346,3476,23,89,25171,68,16,6230,255,24,6548
"Mas Online AR",AR,343,10048,0,673,33584,6987,20,4222,1004,365,5659
Stokrotka,PL,342,7675,5,342,155884,29272,22,4087,181,955,5476
"Lisek App",PL,341,2151,1,272,3725,2065,10,63,129,331,573
Carrefour,PL,337,14792,28,2661,122589,31435,217,2001,2802,1944,7246
"Roastmarket DE",DE,337,38,0,38,29790,377,71,586,148,16,860
Allecco,PL,336,12854,14,852,41383,17548,22,825,732,339,2070
"Globus RU",RU,336,18195,597,598,60768,302,3,1716,349,17,2119
"Rossmann App CZ",CZ,334,10820,8,2117,34571,0,10,2911,955,2,3899
"E.Leclerc Elblag",PL,330,10074,1,1051,27954,13882,84,2034,1849,3314,7350
"Magnit App RU",RU,326,4141,39,257,10195,0,3,479,164,0,651
"Mpreis AT",AT,325,8122,0,135,28509,4745,387,856,127,109,1515
"Sipo HU",HU,324,4738,7,122,11226,1143,4,764,85,98,960
"Alfies App AT",AT,319,3804,0,159,11712,5003,39,138,69,100,359
"Bringo RO",RO,319,28949,21,20289,67697,7317,22,2831,1186,465,4536
"Gastronom BG",BG,312,7419,4,140,22801,1099,11,369,76,248,740
"Spring RO",RO,312,8339,13,294,24818,6145,22,1861,356,1053,3301
Makeup,PL,308,36380,2433,36380,492193,94664,8,22087,17259,0,39354
Empik,PL,304,200285,39061,108286,464165,30870,174,10903,27103,235,38881
"Jumbo AR",AR,303,0,0,0,0,0,13,1299,1,203,1519
"Amazon NL",NL,301,55024,866,866,140180,0,253,4389,13895,23,18730
"Bipa AT",AT,300,12087,22,77,25956,589,15,377,109,22,572
"Cora RO",RO,300,54247,3,9289,108634,6037,3,16025,482,1098,17718
DoDomku,PL,299,5529,179,534,16191,2177,45,271,262,205,807
"Mall SK",SK,298,7473,92,7473,44700,884,240,767,11759,856,13652
"Mercado Libre AR",AR,294,30846,479,8845,66485,444,194,811,14483,84,15679
"Tudrogueria Virtual CO",CO,292,8979,0,4088,16999,1138,23,470,1915,46,2482
"Apteka Nove BG",BG,289,11323,595,732,40280,5273,11,2071,1099,333,3553
"SOpharmacy BG",BG,289,10408,25,221,32620,6289,421,1010,240,542,2251
"Apteka Medea BG",BG,284,8890,4,144,26065,0,9,1151,130,2,1327
"Sephora US",US,283,285,275,285,127711,0,15,1073,169,1,1348
"E.Leclerc Tychy",PL,276,8366,4,8351,8515,9585,106,635,4397,2838,8157
"i-apteka",PL,276,10217,149,666,22038,12746,6,503,715,1333,2653
"Apteka Medkon",PL,270,8636,516,516,35144,7076,13,4563,1072,2627,8341
"Groby HU",HU,270,7934,7,541,21069,4384,6,1000,489,339,1848
Makro,PL,270,2898,0,461,8058,26959,13,506,217,1448,2265
"Konzum HR",HR,266,10402,1,191,16364,3472,312,2300,586,438,3655
"Farmacia Pasteur CO",CO,265,9048,1,3801,56442,1177,25,1859,3462,52,5490
"Carrefour AR",AR,262,13773,55,900,98031,4430,14,3005,3087,341,6575
"E.Leclerc Gliwice",PL,260,7667,4,749,21029,6350,76,1578,987,2679,5381
"Rappi - Exito CO",CO,259,10178,3077,10087,32125,4884,123,5522,23190,358,29237
"Cornershop - Santa Isabel CL",CL,258,2143,0,407,3289,934,19,691,1325,140,2182
Wapteka,PL,258,18528,1274,1472,63480,51836,5,4417,755,938,6229
"Pyaterochka App RU",RU,257,4328,92,398,9446,1261,2,548,186,16,759
"La Comer MX",MX,256,14671,42,14671,14512,3865,14,297,32028,62,32414
"Benu HU",HU,255,4983,2,369,16248,2769,3,3439,531,520,4505
"PriceSmart CR",CR,255,3027,9,41,44793,3068,10,9194,44,692,9986
"Mercado Libre MX",MX,253,21504,132,2226,48136,2066,687,634,616,343,2340
"Chedraui MX",MX,251,18059,4,92,36747,2208,15,1858,88,118,2119
"Edeka DE",DE,245,3750,1464,1483,4945,81,14,212,1470,113,1826
"Helpnet RO",RO,245,6584,23,265,18541,5231,3,1870,247,410,2537
"Look Fantastic UK",UK,245,20038,40,853,69526,0,4,914,467,0,1494
"Szybki Koszyk",PL,243,4227,6,122,14614,800,116,630,82,48,968
"Mercado Livre BR",BR,241,47299,236,6538,912442,2635,581,9637,2554,295,14064
"Minifarm RO",RO,241,5338,23,142,13630,0,4,627,77,1,714
"Olimpica CO",CO,241,21228,13,692,203817,3998,20,9167,2930,207,12605
"Auchan FR",FR,238,2777,5,147,9165,1357,308,811,219,321,1682
"Delitea SE",SE,238,9244,9,192,23639,0,9,240,93,8,400
"Farmatodo CO",CO,238,13159,4,4082,61504,3243,23,631,5349,71,6158
"Afya Pharmacy BG",BG,237,11001,18,182,36297,2025,8,2595,223,304,3162
"Coop UK",UK,234,8003,0,546,170285,5907,241,2366,269,503,3552
"Перекрёсток Впрок RU",RU,232,0,0,0,0,1484,3,135,0,35,173
"Merqueo - Bogota CO",CO,230,1978,2,139,4574,2728,23,313,89,120,555
"Panda Market HU",HU,230,2520,4,252,5704,1459,6,220,119,217,567
Cocolita,PL,229,12312,24,812,51955,17374,9,2777,1852,1706,6462
"Getir IT",IT,229,2202,3,2200,6222,7194,7,133,1371,297,1815
"Metroiroda HU",HU,229,0,0,0,0,1225,3,409,2,111,525
"Disco AR",AR,227,7620,30,568,30888,9166,202,2976,5937,398,9553
"Vea Digital AR ",AR,220,5503,6,466,22507,9257,198,2724,5429,390,8773
"Yandex Market RU",RU,218,55110,4560,18884,66341,1744,18,5694,11524,136,17424
"Igooods RU",RU,216,18528,16,673,39589,521,4,301,452,28,805
"La Anonima AR",AR,215,5897,288,288,17044,3088,14,1426,1078,2397,4933
"Superpharm Apteka",PL,214,570,15,570,31238,26454,12,844,1581,401,2911
"Exito CO",CO,212,9436,12,660,38056,2629,186,3188,1418,173,5067
"Beauty Bay UK",UK,208,11128,44,135,45626,0,4,283,77,0,399
"Emag HU",HU,199,132708,523,5507,132763,7216,5,717,1503,61,2435
"Mano NG",NG,198,2134,4,27,4372,203,15,13,13,11,58
"Farmacia Dav RO",RO,193,5827,7,149,13746,1535,6,346,68,67,495
"Atomo AR",AR,188,2435,0,210,6357,13632,11,193,153,380,748
"Merqueo - Medellin CO",CO,186,1736,1,115,3593,2316,19,274,72,114,494
"Rappi - Carulla CO",CO,185,7975,175,545,25364,4732,102,3937,1444,353,5883
"Vodovoz RU",RU,185,1131,1,17,2312,0,3,314,33,1,354
"Glovo Bargains Supermarket Lagos NG",NG,181,994,0,994,1831,117,3,82,43,11,142
"Farmaonline AR",AR,180,260,4,328,26803,4013,6,1048,418,185,1676
"Coursesu FR",FR,178,4337,813,852,6729,1318,11,7213,1630,169,9038
"Rappi Lider CL",CL,177,8958,329,1023,37828,1796,72,4880,2316,187,7548
"Rappi Jumbo CL",CL,176,9727,335,860,38394,2100,68,5040,1760,188,7127
"Tiendas Jumbo CO",CO,175,16305,2,760,64813,2837,24,1549,1230,136,3052
"PennyDomu CZ",CZ,173,1478,0,14,4140,0,74,200,8,2,287
"Rappi Unimarc CL",CL,172,12466,301,744,19379,2543,69,2820,3433,188,6548
"Rappi Turbo CL",CL,169,1056,3,32,3496,263,126,2099,193,34,2456
"Linella MD",MD,163,7375,28,191,17821,0,7,895,156,1,1082
"Argos UK",UK,157,4589,0,3260,6114,0,4,342,8174,1,8544
"Professional Farmaline RO",RO,155,7905,4,115,16797,5426,3,496,70,102,680
"Rappi - Pricesmart CO",CO,154,1685,7,17,4599,3062,90,1584,207,353,2240
"Rappi Coto AR",AR,152,5147,516,1275,12608,1121,70,806,5055,117,6067
"Dirck3 NL",NL,151,559,0,25,2627,144,14,126,14,29,218
"Alerzo NG",NG,149,19,0,0,50,19,3,81,2,13,99
"Medexpressz HU",HU,147,1319,0,65,2811,0,4,455,101,1,563
"Rappi - Exito Express CO",CO,139,7536,158,461,14799,1348,113,2983,1515,143,4792
"Nazuby CZ",CZ,135,1798,0,89,6097,160,4,183,43,16,250
"Superxtra PA",PA,135,6477,0,0,13685,0,69,71,5,1,200
"Alkohol CZ",CZ,131,4008,6,33,11168,0,59,1119,21,1,1208
"Extra BR",BR,129,81834,10,280,81834,1071,57,1616,203,34,2055
"Aromatico DE",DE,127,95,5,95,9507,622,10,1781,197,129,2129
"Rappi Turbo PE",PE,122,1288,4,28,3718,3845,86,748,251,479,1573
"Condis ES",ES,121,6549,0,29,6920,0,18,1804,325,1,2158
"Cora Drive BE",BE,121,14398,10057,10091,93200,5945,8,3825,11457,1539,16935
"Amazon Fresh DE",DE,113,9136,179,268,14368,6107,207,5457,273,792,6752
"Rappi Turbo CO",CO,112,2550,22,130,8138,3437,94,2288,1227,356,4002
"Rappi Farmacity AR",AR,111,4596,31,215,12664,1325,68,1441,840,119,2494
"Brack CH",CH,109,8215,33,123,23059,2086,68,345,134,194,780
"E-tinex MK",MK,107,4265,0,70,8530,409,5,79,33,28,156
"Mercado Libre CL",CL,107,43323,858,1529,70353,980,115,682,786,117,1845
"Flaschenpost DE",DE,103,124,2,124,4581,344,7,159,149,16,340
"Rappi Turbo AR",AR,103,1043,6,53,3246,1182,74,553,161,116,913
"Savage & Whitten IE",IE,101,3677,1,166,7354,945,8,372,85,77,556
"Vitania BG",BG,99,7214,18,157,7214,4294,7,299,92,140,554
"Farmacity AR",AR,94,278,0,278,4972,6888,5,201,130,481,827
"Tiendas D1 CO",CO,94,1107,1,1077,2286,0,16,181,530,1,740
"Kaufland DE",DE,90,33216,207,1666,41695,669,68,848,849,35,1910
"PriceSmart GT",GT,88,1602,3,17,13993,1943,8,2581,17,451,3075
"PriceSmart PA",PA,88,1736,0,30,20033,821,8,3632,41,276,3996
"Koffievoordeel NL",NL,87,466,0,1,2757,0,8,414,3,1,431
"Okey RU",RU,80,13523,7928,8137,13557,1413,11,577,23913,96,24617
"Kaffedeal DK",DK,77,352,0,33,862,786,12,55,18,33,121
"Comfandi Supermercados CO",CO,72,4410,5,44,8877,763,24,929,84,132,1187
"Carrefour FR",FR,71,21900,233,2901,31462,1849,4,948,1612,345,2995
"Jumia NG",NG,71,1957,18,112,2574,59,35,79,53,19,190
"Durst DE",DE,69,1087,65,1087,1150,0,10,56,45,5,127
"Droguerias Cafam CO",CO,68,4015,741,2992,10348,2421,28,789,6540,204,7582
"Emag RO",RO,64,64146,200,2937,64151,8481,25,1113,3054,282,4528
"Pretty Little Thing UK",UK,63,1897,3,8,8133,0,14,2517,76,1,2626
"Rozetka UA",UA,62,77476,511,4712,95077,0,89,5223,1332,1,6766
"Rappi Cruz Verde CL",CL,61,1776,80,371,3789,2217,78,1127,1201,201,2615
"PedidosYa DIA AR",AR,60,2626,3,396,2626,4782,7,49,178,199,441
"Kaffekapslen DK",DK,58,807,8,69,1852,1322,80,84,82,77,325
"Comfandi Droguerias CO",CO,57,1268,21,304,2502,666,16,1085,1035,372,2514
"iDrinks HU",HU,54,5807,198,212,12691,252,5,1857,253,104,2227
"Leclerc FR",FR,52,1917,1,237,23312,2346,6,428,272,78,817
"Bigshop MK",MK,51,1006,0,79,3765,601,154,237,58,135,587
"Kapselkongen DK",DK,51,239,2,52,464,634,31,51,51,33,167
"PedidosYa Carrefour AR",AR,49,3218,1,258,3218,6044,4,44,125,202,382
"Winelivery IT",IT,45,1296,51,66,2860,0,4,190,39,2,243
"Very UK",UK,44,3589,124,3610,3754,0,18,44,1673,1,1743
"Altex RO",RO,40,2279,102,105,4479,1062,2,264,162,121,552
"Bol NL",NL,39,73,42,73,28461,2000,29,1743,206,436,2444
"El Corte Ingles ES",ES,39,9562,10,950,12224,623,98,678,1334,157,2310
"BilkaToGo DK",DK,37,10789,14,171,58188,1781,16,175,247,40,617
"Datart CZ",CZ,37,1017,4,24,1383,0,4,121,14,1,143
"Wolt Online Prima HU",HU,37,3157,2,463,3157,5137,6,109,439,250,808
"Ep DE",DE,35,209,0,0,664,0,73,121,0,0,198
"Galaxus CH",CH,34,8564,0,0,8564,1308,19,2019,7978,1409,11444
"Jumia EG",EG,34,2276,16,204,4187,22,61,227,282,42,618
"Intermarche FR",FR,32,2161,8,751,27404,2385,7,2098,2941,605,5692
"John Lewis UK",UK,32,11,3,11,516,0,5,23,15,66,110
"Konga NG",NG,29,85,62,85,12972,178,73,52,65,11,209
"EDostavka BY",BY,21,611,10,186,1212,4108,3,15,92,153,264
"Deeski NG",NG,19,93,0,9,147,101,13,53,21,30,118
"MyDeal AU",AU,19,9,1,9,8908,0,10,234,18,1,264
"Shoplink IE",IE,19,155,0,130,465,1804,27,42,83,101,254
"Rappi Carrefour AR",AR,18,0,0,0,0,1628,70,60,0,128,258
"Boulanger FR",FR,17,987,3,63,1715,0,19,124,184,3,336
"Euronics DE",DE,15,9352,13,188,36855,0,33,959,41576,0,42568
"The Good Guys AU",AU,15,802,2,18,1502,489,5,19,46,73,144
"Qvc US",US,14,14332,33,285,15913,0,24,208,752,1,1047
"BCC NL",NL,10,1595,3,10,2121,0,13,168,12,1,216
"Wildberries RU",RU,10,60223,1760,8933,61840,1651,8,166,4551,18,4886
"Mediaworld IT",IT,9,230,0,126,466,592,46,244,462,614,1368
"Myer AU",AU,9,8282,61,298,10115,0,13,1630,702,0,2349
"AO UK",UK,7,505,1,6,735,0,102,6,8,1,121
"Woolworths AU",AU,7,1425,2,127,2261,501,4,68,52,37,163
"Unieuro IT",IT,6,1557,4,13,1960,1132,3,16,9,65,104
"Harvey Norman AU",AU,5,6,1,6,267,252,9,29,43,449,530
"Barrys Beacon IE",IE,4,166,6,125,166,421,7,26,75,59,168
"Alcampo ES",ES,0,0,0,0,0,493,753,2,1,940,1698
Allegro,PL,0,1737,0,1737,0,0,0,0,6563,0,6564
"Apteka Gemini",PL,0,0,0,0,0,67710,3,1,9,1032,1045
"Apteka Prima 24",PL,0,0,0,0,0,0,3,1,1,505,510
"Booker Foodservice UK",UK,0,0,0,0,0,0,11,0,2,260,284
"Booker UK",UK,0,0,0,0,0,0,10,1,2,1234,1252
"Carrefour BR",BR,0,0,0,0,0,0,6,178,1,626,827
"Coles AU",AU,0,0,0,0,0,0,13,1,1,700,715
"Deliberry - Caprabo ES",ES,0,0,0,0,0,0,3,3,0,1,8
"Deliberry - Dia ES",ES,0,0,0,0,0,0,5,3,2,0,10
"Deliberry - La Plaza ES",ES,0,0,0,0,0,0,5,2,0,1,9
"Deliberry - Mercadona Barcelona ES",ES,0,0,0,0,0,0,5,2,0,1,9
"Deliberry - Mercadona Madrid ES",ES,0,0,0,0,0,0,3,3,0,1,8
"Deliberry - Solri ES",ES,0,0,0,0,0,0,4,2,1,1,9
"Deliberry - Supercor ES",ES,0,0,0,0,0,0,3,4,1,1,9
"Dunnes IE",IE,0,0,0,0,0,9503,3,13,0,401,419
"Easy CL",CL,0,0,0,0,0,0,5,63,2,1,72
"Everli - Coop IT",IT,0,0,0,0,0,0,66,1,0,100,167
"Everli - Kaufland",PL,0,0,0,0,0,0,63,1,1,222,287
"Everli - Lidl",PL,0,0,0,0,0,0,71,1,1,207,281
"Everli Netto",PL,0,0,0,0,0,0,68,1,1,139,210
"Linio CL",CL,0,0,0,0,0,0,2,47,3,6,58
"Mall CZ",CZ,0,0,0,0,0,0,2,38,20,2192,2257
"Metro Delivery RU",RU,0,0,0,0,0,0,21,1,1,33,57
"Ozon RU",RU,0,0,0,0,0,1360,81,81,81,157,400
"Rappi - Carulla Express CO",CO,0,0,0,0,0,1491,35,123,7,154,325
"Samokat RU",RU,0,0,0,0,0,0,32,33,0,32,97
"Sodimac CL",CL,0,0,0,0,0,0,41,45,2,1,89
"Subra BG",BG,0,0,0,0,0,0,4,15,1,296,316
"Wong PE",PE,0,0,0,0,0,0,2,63,1,81,148
"Утконос RU",RU,0,0,0,0,0,0,63,0,0,124,187
