﻿Site,Country,Categories,Prices,"Products changed","Products downloads",Relations,Search,"Categories time","Prices time","Products time","Search time","Total time"
"Ocado UK",UK,6952,42721,78,1891,1808214,26603,743,22158,769,485,26111
"Mytime DE",DE,4801,11016,30,132,97203,2852,2160,2795,73,164,5240
frisco,PL,4707,1949,86,1949,315280,97349,91,5944,1625,1701,9645
"Asda UK",UK,3700,31343,42,2330,1304443,32258,26,15268,999,643,17943
"Rohlik CZ",CZ,3453,24590,83,1462,271156,30637,2579,14264,1804,687,19492
"Albert Heijn NL",NL,3451,21170,37,384,106026,9014,483,1568,69,163,2382
"Makro CZ",CZ,3430,2629,0,2,267878,507,3261,25987,15,54,29452
"Pilulka SK",SK,3256,37053,127,379,297682,11182,14,4571,217,259,5301
"Morrisons UK",UK,3212,21761,89,1723,1099394,21414,159,7831,265,1065,10283
"Waitrose UK",UK,3126,15847,40,1010,1461940,24068,55,22405,402,609,24678
"Coto Digital AR",AR,3030,18895,29,781,108699,14413,3300,5727,715,630,10443
"Metro SK",SK,3017,6706,2,7,303553,0,2564,20761,37,0,23534
"Albert Heijn BE",BE,2877,11012,21,135,54759,9207,419,1368,36,206,2087
Auchan,PL,2772,19271,61,1465,323606,25210,71,17264,1540,1884,21184
"Kosik CZ",CZ,2743,16438,52,982,92975,29633,500,1725,453,791,3530
"Galen BG",BG,2651,14231,40,435,100797,5223,1450,2648,383,213,4760
"Pilulka CZ",CZ,2632,31276,320,618,177524,35368,14,3496,339,1269,5210
"Notino CZ",CZ,2413,1949,1919,1949,128185,26473,1208,8518,3859,1411,15214
"Drogeo CZ",CZ,2386,671,131,671,129342,34366,14,2699,356,706,3845
"Amazon Fresh UK",UK,2370,9306,333,587,52353,23501,2032,17292,658,536,20598
"Notino SK",SK,2330,813,794,813,112503,267,1234,6998,2801,16,11212
"Sainsburys UK",UK,2248,29524,43,1819,1947196,51615,237,31107,8084,0,39428
"Amazon UK",UK,2218,1476,53194,53221,1013418,0,0,0,50775,0,50775
"Chronodrive FR",FR,2163,8337,78,143,46628,0,223,1061,249,1,1560
"Boots UK",UK,2077,22883,464,4287,109578,1012,27,3826,6776,18,10808
"Drogerie Natura",PL,1999,13268,48,841,74825,53809,79,10726,1296,4525,16750
"Amazon Fresh IT",IT,1940,7560,435,677,36635,3921,3296,5251,1642,240,10454
"Brakes UK",UK,1895,9433,165,363,28207,48843,875,1792,165,478,3339
"Jumbo NL",NL,1804,17711,47,517,66167,9031,1763,1893,639,247,4596
"Auchan HU",HU,1742,25978,28,2180,191286,15863,9,6158,1338,800,8463
"Amazon BR",BR,1677,28,22,28,1515752,2530,0,0,21550,1475,23025
"Musgrave IE",IE,1635,140,22,180,52107,4374,9,3601,172,120,3923
"Yuga RO",RO,1610,7760,41,87,38179,0,1828,3884,3664,1,9394
"Delhaize BE",BE,1574,14047,173,563,58588,20583,15,2769,493,712,4057
"Minti Shop",PL,1569,15065,54,314,129745,32914,49,2910,220,1650,4987
"Picnic NL",NL,1467,7193,16,166,17979,5211,508,5391,357,786,7059
"Alza CZ",CZ,1398,33423,104,524,120524,29579,69,934,168,564,1807
"Carrefour BE",BE,1396,20399,19,547,642646,23081,1293,17671,380,1154,20973
"Apteka Nowa Farmacja",PL,1389,16359,93,935,76782,33165,11801,3473,1111,2666,19147
"Apteka Melissa",PL,1383,25537,110,1839,96451,67889,56,10558,1273,1000,13039
"Kifli HU",HU,1380,13672,14,1610,62094,12215,660,2638,1569,419,5357
" SberMarket - Lenta RU",RU,1364,12273,84,756,81557,1439,14,3556,410,66,4076
"Coop CH",CH,1353,19220,61,137,70056,2326,317,2339,269,231,3218
"Rewe DE",DE,1339,10553,14,202,36167,2025,24,1756,236,588,2644
"Tesco UK",UK,1332,29168,32,2577,413374,15737,22,18577,1190,4715,24971
eZebra,PL,1298,37782,158,1641,133954,40379,37,12571,437,6414,19723
"SberMarket - Metro RU",RU,1297,7258,66,155,69370,0,11,4291,78,0,4400
"Remedium BG",BG,1291,25966,3,246,94259,1524,255,6438,322,183,7275
"Barbora EE",EE,1248,13396,34,110,48746,1246,52,2026,55,92,2258
"Knuspr DE",DE,1239,12821,16,125,69326,2039,591,2408,535,143,3719
Hebe,PL,1237,1377,66,1377,264037,34541,1202,13000,2918,1703,19098
"Moja Lekaren SK",SK,1232,25761,57,304,112872,6523,824,3059,208,560,4743
"Lekarna CZ",CZ,1229,30512,70,591,135413,7139,898,3744,348,562,5630
"iGlobus Zlicin CZ",CZ,1226,22341,7,89,87798,2801,11,2767,119,120,3076
"E-Fresh GR",GR,1193,11952,29,535,58248,7255,2266,4070,1117,742,8267
"Amazon DE",DE,1178,174,160,174,449247,12686,0,0,5943,5291,11234
"Farmaline BE",BE,1165,30433,36,219,145156,2774,3301,4239,183,72,7948
"Picnic DE",DE,1158,7170,31,188,14859,1526,94,1005,91,150,1356
"Coop NL",NL,1127,13902,8,188,59765,1823,1659,2026,338,113,4188
"Albert App CZ",CZ,1106,8029,27,55,24087,1836,507,1940,29,44,2543
"S-kaupat FI",FI,1103,40320,32,38,286431,0,4,17283,32,1,17486
"Mall CZ",CZ,1088,1598,983,1594,126754,16866,526,566,786,2193,4194
"Vkusvill RU",RU,1062,11893,37,148,49009,1613,323,4920,436,122,5816
"Alza SK",SK,1045,14488,39,79,55474,204,51,444,36,10,574
"Mathem SE",SE,1045,8636,464,6034,24879,4709,18,1130,6532,424,8127
"Amazon IT",IT,1044,540,448,540,323920,6389,0,0,4981,998,5979
"Eroski ES",ES,1043,25709,10,81,54961,0,6,3827,69,1,3965
"Ebag BG",BG,1020,12532,119,202,51493,2020,14,1504,118,40,1734
"Salcobrand CL",CL,1018,7890,19,7888,32333,1768,311,627,4411,28,5410
"Barbora LV",LV,1009,14615,32,114,51080,1375,53,1712,65,93,1957
"Metro AT",AT,1006,26493,45,317,79468,3693,11,986,149,122,1393
Selgros,PL,992,20123,516,1281,69593,28642,453,1060,613,1480,3776
"Zakaz - Novus UA",UA,983,31017,0,0,64026,0,4,1979,21022,1,23040
"Apteka Gemini",PL,982,25976,261,1716,104108,69360,30,4661,2751,819,8395
"Cefarm 24",PL,981,12271,35,945,77339,18682,1265,2571,1247,3083,8255
"Dr Max SK",SK,978,9847,2,298,16256,9214,397,490,291,392,1594
"Tigros IT",IT,960,9992,7,542,30032,7994,13,536,311,240,1127
"Yerevan City AM",AM,949,17892,105,105,45148,424,23,3792,58,66,3954
"Coop Shop IT",IT,925,11656,1,389,34997,6479,13,670,282,410,1403
"Coop SE",SE,914,7549,5,339,25750,4843,20,897,644,188,1772
"Migros Online CH",CH,900,11594,21,89,42115,1342,26,2762,78,193,3101
"Kolichka BG",BG,897,8219,8,72,30628,1213,200,403,36,44,726
"Pilulka RO",RO,886,8470,12,118,36119,3316,4,425,55,59,558
"Unipatika HU",HU,867,4403,9,297,30127,4705,663,1567,148,337,2734
"Superpharm Drogeria",PL,852,993,27,993,96789,54875,28,2333,1712,566,4793
"SuperValu IE",IE,844,15913,87,886,211113,9389,868,16921,1004,460,19427
"Tesco IE",IE,843,18309,5,656,451625,3415,11,15441,326,752,16828
"Apteka Manada",PL,827,13264,39,1168,41782,43728,37,2495,2156,3362,8151
"eZiko Apteka",PL,819,7632,35,694,47913,29695,379,1975,452,1726,4603
Bee,PL,812,29801,80,581,96586,9960,378,1843,405,252,3009
"Dr Max CZ",CZ,803,11866,3,250,19228,6542,356,531,235,119,1284
"Falabella Tottus CL",CL,803,9491,10,389,36936,961,2982,3470,1781,166,8432
"Auchan RU",RU,798,27760,45,563,87545,365,7,2618,417,35,3115
"Gurkerl AT",AT,797,9569,31,181,42940,3481,404,1528,250,116,2342
"Coop DK",DK,763,9584,56,116,39316,1021,360,1899,117,47,2462
"Zakaz - Metro UA",UA,761,18482,0,0,34366,0,4,2013,21848,0,23881
"Cruz Verde CL",CL,741,8789,3,1037,153655,2035,17,18144,491,28,18752
Spar,PL,739,24966,1903,2084,646778,81712,71,12778,1091,2351,17376
"Rimi EE",EE,738,13350,21,69,39619,3782,13,1360,143,186,1727
"Masxmenos CR",CR,730,9941,43,54,26288,0,25,1872,86,53,2052
"Polski Koszyk",PL,730,16838,11,1038,50197,4235,28,705,670,290,1820
"Walmart CR",CR,730,16324,16,327,204200,5077,16,6227,415,158,6961
"Sklavenitis GR",GR,728,9943,29,301,29775,4473,326,3917,633,1199,6131
"Lunys SK",SK,721,5376,38,153,18549,2036,429,928,90,143,1602
"Sezamo RO",RO,714,9789,34,227,39360,4425,344,1370,319,101,2149
"Walmart MX",MX,711,0,0,0,0,3594,97,23120,1,221,23441
"Bringmeister DE",DE,709,15238,11,151,41808,4438,14,357,69,142,618
"Esselunga A Casa IT",IT,705,15296,8,605,47541,16937,23,3129,761,897,4852
"Rimi LV",LV,700,16095,21,126,47547,5468,14,1473,269,192,1988
Barbora,PL,697,10560,14,941,138186,17288,37,3510,453,3791,7980
"Intervare DK",DK,692,8004,191,276,23305,0,7,310,126,110,571
"Rossmann DE",DE,688,16682,47,137,58669,0,879,1669,126,1,2713
"DOZ.pl",PL,678,2179,414,2178,94531,65571,421,3429,1318,2250,7513
"Bennet IT",IT,675,19424,85,523,39105,15300,11,1069,2087,988,4193
Amazon,PL,674,1115,610,1111,1450302,30606,0,0,6732,4710,11442
"DM SK",SK,672,12439,28,177,35604,6050,8,1246,78,238,1597
"Poiesz NL",NL,663,7329,0,34,9471,947,34,528,3781,42,4401
"Tesco CZ",CZ,653,15085,19,1117,498731,19545,10,16082,1083,4534,22020
"Hoogvliet NL",NL,649,8601,25,153,14152,2377,8,766,150,123,1075
"Apteka Rosa",PL,648,10092,121,717,42706,5456,15,3242,694,424,4452
"Liquorland AU",AU,645,3180,5,7,18049,0,18,1560,31,1,1614
"Crai Spesa Online",IT,643,415,7,415,27692,7096,399,1089,1061,903,3467
"Apteka Galen",PL,637,10115,3,526,44777,6876,34,1653,503,504,2805
"Easy Coop IT",IT,637,9414,9,597,37078,8616,368,2741,1504,1068,5705
"Rossman HU",HU,636,15137,12,1093,54972,7964,770,697,1555,176,3245
"E.Leclerc Bielany",PL,632,33365,61,2440,106293,28129,122,3995,1115,20834,26231
"Yandex Lavka RU",RU,632,3693,66,248,11204,1407,292,2987,1581,331,5195
"Mercator SI",SI,623,12247,5,159,36741,2201,273,289,80,81,760
Apteline,PL,614,907,11,907,24343,2079,1370,1946,1772,1374,6496
"First Choice Liquors AU",AU,612,3795,4,7,20514,0,18,1505,36,1,1565
"Carrefour EG",EG,610,17439,39,178,113770,477,18,4242,1258,44,5631
"Tesco HU",HU,610,14249,137,2374,933468,9821,10,29780,2314,2701,35332
"Tesco SK",SK,608,15146,79,165,216089,2802,9,5917,186,460,6719
"Colruyt BE",BE,602,7862,135,1060,92561,13210,26,13240,3370,1733,18486
"Thanopoulos GR",GR,599,15295,47,328,52073,8120,11,4161,312,522,5065
"Benu CZ",CZ,594,14386,36,385,64247,6700,8,5033,225,77,5382
"Lopido CO",CO,591,20825,48,162,37803,746,11,1493,1205,22,2758
"Superdrug UK",UK,584,13879,24,126,42652,0,22,883,19341,1,20299
"Bestway Foodservice UK",UK,578,10703,49,308,33909,3949,334,764,205,130,1473
"Sams MX",MX,577,4549,38,64,34616,705,10,4399,104,225,4756
"Willys SE",SE,575,10414,4,313,34338,5213,12,335,150,188,719
"Bestway Best-one UK",UK,574,6408,20,51,20894,0,339,631,86,1,1079
"Bestway UK",UK,574,8944,39,496,28898,27354,331,721,260,660,2010
"Vasalekaren SK",SK,570,10554,2,115,64645,5809,982,7232,233,684,9167
"Dr Max",PL,567,7270,8,604,10569,42404,239,423,670,1285,2655
Lek24,PL,566,6499,39,172,23288,8967,14,1312,107,443,1920
"Zakaz - Metro MD",MD,566,13511,0,0,22789,0,9,1316,15154,1,16508
"DM HU",HU,565,12706,13,926,34711,10034,7,1187,402,323,1944
"Kritikos GR",GR,565,7390,7,219,21050,3413,8,275,101,7793,8197
"E.Leclerc Wroclaw",PL,564,15868,37,1186,16078,14082,499,1916,1860,5020,9392
"Perfumeria Douglas",PL,559,2823,543,2823,209794,58429,233,2339,1824,76,4668
"DM CZ",CZ,556,12934,19,350,35168,27794,6,1117,157,899,2214
"Pingvinpatika HU",HU,556,7655,18,318,41927,2840,12,4843,389,304,5586
"Vintage Cellars AU",AU,554,2541,4,6,13612,0,24,1372,28,1,1429
"Spar HU",HU,549,16065,493,2088,373680,14117,12,7963,3345,461,11985
"Pão de Açucar BR",BR,548,28192,304,1123,76158,1709,15,6415,2700,308,9493
"Jumbo CL",CL,546,22338,23,1008,571940,2282,16,8300,978,182,9867
"AB GR",GR,542,11175,22,543,33490,10082,8,746,266,226,1288
"City Gross SE",SE,541,12049,133,514,25335,5491,9,302,240,269,849
"E.Leclerc Rzeszów",PL,539,12760,84,1469,36918,23684,33,737,722,1241,2805
"Freshful RO",RO,538,17208,89,438,35252,6514,3,934,213,356,1522
"MyMarket GR",GR,533,14114,40,317,51353,7538,10,1994,463,425,2950
"Apteka Prima 24",PL,532,4594,11,253,15234,7605,13,589,503,267,1395
"Carrefour ES",ES,530,14804,13,153,18713,431,22,1825,626,55,2544
"Drogeria Olmed",PL,526,776,776,776,156593,30026,13,11231,610,1833,13887
"Clube Extra BR",BR,523,10666,55,676,21298,1439,14,812,431,62,1351
"Cooperativa Obrera AR",AR,520,5894,78,319,19623,3552,23,957,291,1028,2312
Rossmann,PL,517,1175,13,1175,78859,32757,13,1068,1159,778,3155
"Apteka Zawiszy",PL,512,19792,261,1246,76724,29330,298,1521,906,614,3470
"Cold Storage SG",SG,504,8904,5,25,27356,0,526,2342,36,1,2912
"Benulekaren SK",SK,503,10070,6,336,50773,6958,7,3740,171,132,4088
"Hemkop SE",SE,501,10279,7,331,32106,5122,11,293,153,185,676
"Interspar AT",AT,500,21863,46,267,279996,6669,7,3094,369,166,3907
eKobieca,PL,497,10428,35,267,44263,14865,17,2126,456,1939,4619
"Dr Max Drogeria",PL,496,6912,10,412,8748,41894,16,341,554,1357,2297
"Metro RU",RU,495,19674,92,493,25733,695,4,2223,421,48,2722
"Glovo Express Milano IT",IT,490,3507,27,3507,9480,3683,8,216,83,92,406
Intermarche,PL,489,18380,1,2207,135423,12386,18,3671,1029,940,5912
"Auchan RO",RO,487,27258,671,671,256064,7950,10,6452,817,207,7602
"B&M Stores UK",UK,486,461,13,462,19986,0,254,314,208,1,795
"Spar SI",SI,482,16679,9,205,58149,2709,10,628,245,104,1047
"Mega Image RO",RO,481,11941,12,378,35723,11621,4,575,181,186,962
"Famila a casa IT",IT,478,12110,11,158,26197,6470,912,1571,349,334,3188
"Dr Max RO",RO,477,5115,3,177,8466,9478,217,247,169,327,965
"E.Leclerc Radom",PL,472,12395,28,1203,38928,9473,108,2471,618,3087,6359
"Apteka Olmed",PL,471,1423,1393,1423,168512,26909,12,11134,988,1686,13995
"Patika24 HU",HU,464,4278,6,201,8747,3214,8,909,620,175,1719
"Basko IT",IT,463,8481,13,435,25916,4450,7,268,487,154,939
Ceneo,PL,462,193594,4248,6688,261438,50320,955,3501,4441,1023,10507
"GPSfarma AR",AR,460,6735,5,653,25015,17855,13,2611,577,1339,4559
Aptelia,PL,455,888,61,888,62954,24779,213,2214,578,877,3976
"Carulla CO",CO,453,10663,6,325,60729,881,16,1890,222,49,2234
"eTabletka SK",SK,451,11761,151,151,80636,7341,334,17334,344,85,18133
"MegaMarket RO",RO,447,4973,0,9,6069,546,6,1257,12,185,1464
"Ecofamily HU",HU,440,7072,12,719,22878,4448,7,3810,6149,960,10945
"Cornershop - Jumbo CL",CL,437,7708,5,225,42342,1618,13,635,64,103,853
"Elefant RO",RO,437,230,241,241,72987,2322,19,1686,80,69,1873
"E.Leclerc Lublin Turystyczna",PL,432,11809,82,1244,14549,11295,18,320,1294,974,2651
"Unimarc CL",CL,432,9755,3,325,29251,1445,13,635,2711,133,3519
"Cornershop - Lider CL",CL,419,9782,6,410,49348,1263,14,720,99,88,962
"iFresh SK",SK,417,7567,6095,6110,172189,0,8,4584,6769,1,11462
"Farmacia Tei RO",RO,413,521,521,521,23787,3454,4,731,258,164,1163
"Ica New Version SE",SE,411,7627,6606,6616,162163,4147,10,2597,2986,182,5870
"E.Leclerc Katowice",PL,409,8355,22,1009,8895,9714,97,414,720,1334,2609
"Rappi - Exito CO",CO,409,10695,278,575,35261,5045,198,24794,1623,369,27004
"Glovo Biedronka Warszawa",PL,404,3034,79,3034,5989,1599,9,194,82,77,379
"Feedo CZ",CZ,403,297,176,297,51538,404,174,1056,270,16,1583
"Cruz Verde CO",CO,402,4702,2,2441,20050,1956,8,2012,1118,42,3190
"Lider CL",CL,401,10839,17,137,177489,1604,13,3764,3653,75,7663
"Teta Drogerie CZ",CZ,401,5469,2,113,15844,0,6,681,86,2,791
"Apteki 36.6 BG",BG,400,11054,28,168,52363,1300,10,1614,85,92,1848
"Kruidvat NL",NL,396,8232,36,69,23959,1771,208,862,144,95,1343
"Drogas La Rebaja CO",CO,390,7517,2,1459,42289,2305,11,4709,2735,112,7610
"Majestic UK",UK,390,1289,2,65,18176,1288,225,2656,64,144,3103
"Talabat Mart EG",EG,390,6758,376,383,42398,527,9,2724,1452,13,4243
"Iceland UK",UK,389,5365,41,332,29450,12331,12,2308,384,4206,6935
"Unimarkt AT",AT,389,3403,36,516,16393,3464,140,406,396,239,1199
"Azbuka Vkusa RU",RU,385,14183,28,203,30864,996,13,2284,835,108,3256
"DrankDozijn BE",BE,383,3778,1,82,15349,2299,5,676,130,482,1308
"DrankDozijn NL",NL,383,3777,1,82,15346,300,5,651,130,20,822
"Świat Leku",PL,383,11540,10,367,35947,3311,179,1395,347,340,2310
"Carrefour IT",IT,381,14622,269,912,40676,4735,235,966,529,333,2102
"Ica SE",SE,378,11482,40,478,707942,10902,11,22520,248,179,23378
"Cornershop - Wong PE",PE,376,6716,6,181,21894,3187,17,514,105,351,1003
"Billa AT",AT,374,10204,37,208,33683,7184,6,844,595,320,1826
"Bebe Tei RO",RO,372,132,35,131,25215,1699,3,1054,69,87,1219
"Walmart GT",GT,371,10483,9,345,177863,4531,12,5411,456,156,6154
"Glovo Biedronka Express Warszawa",PL,363,1383,1,1383,3044,507,8,208,76,44,349
"Glovo Kaufland RO",RO,357,7644,18,7644,14205,0,4,163,73,52,298
"Ulabox ES",ES,357,5752,9,33,12177,0,4,205,20,2,241
"Dia AR",AR,354,6087,11,514,17546,9798,11,1323,1125,364,2837
"E.Leclerc Lublin Tomasza Zana",PL,352,11014,103,1189,15186,9148,17,493,1142,928,2627
Stokrotka,PL,351,7611,7,344,156869,29405,24,3081,188,957,4486
"Lisek App",PL,350,2144,5,276,3694,2116,14,26,130,442,627
"Gall & Gall NL",NL,346,3531,22,79,24998,68,6,4782,201,22,5033
"Justo MX",MX,345,4216,1,72,12659,1520,6,714,44,121,893
"Mas Online AR",AR,343,10406,43,791,32780,7264,15,3758,1222,371,5395
"Globus RU",RU,342,18885,111,292,59551,302,4,1887,187,18,2121
"Bringo RO",RO,341,31349,621,22340,75140,7421,23,4512,1562,474,6605
Carrefour,PL,338,14891,34,2702,127087,32299,178,2035,1841,1816,6105
Allecco,PL,335,13442,21,825,43453,18073,25,775,580,343,1794
"Rossmann App CZ",CZ,334,11009,10,152,34727,0,9,2872,110,1,3021
"Roastmarket DE",DE,333,64,64,64,31411,373,20,628,347,16,1029
"E.Leclerc Elblag",PL,330,9903,14,968,27398,13683,55,1761,1217,3393,6500
"Sipo HU",HU,329,5056,49,663,12446,1147,5,703,337,108,1166
"Magnit App RU",RU,325,4304,27,42,10508,0,2,584,66,1,658
"Mpreis AT",AT,325,8142,0,130,28591,4781,423,869,122,110,1569
Makeup,PL,314,2736,573,2736,461940,97599,5,20904,9882,1232,32333
"Alfies App AT",AT,312,3855,12,109,11837,5075,31,132,47,104,329
"Gastronom BG",BG,312,7416,24,107,22785,1073,8,441,75,262,829
"Spring RO",RO,311,8597,40,283,24946,6111,20,2126,416,1117,3687
"Istegelsin TR",TR,309,3749,19,30,7942,0,12,148,16,0,179
"Mall SK",SK,309,587,493,587,49697,1094,427,1211,413,947,3037
"Jumbo AR",AR,303,0,0,0,0,0,18,1305,1,234,1558
"Bipa AT",AT,302,11813,15,65,25416,581,10,338,93,16,502
"Amazon NL",NL,300,0,0,0,143602,0,0,0,3553,70,3623
DoDomku,PL,299,6128,145,547,17859,2329,47,253,275,238,834
"Cora RO",RO,297,53844,5,411,116384,6501,2,15570,481,1119,17248
Empik,PL,297,177324,5641,11677,315957,30790,84,9067,5174,237,15236
"Mercado Libre AR",AR,293,31893,418,1335,64757,618,191,791,4639,101,5815
"Tudrogueria Virtual CO",CO,292,8767,11,4079,16628,1177,5,332,1876,46,2274
"Apteka Nove BG",BG,289,11256,26,171,42180,5261,7,2794,276,443,3560
"SOpharmacy BG",BG,289,10630,36,194,33075,6286,452,1138,217,513,2358
"Apteka Medea BG",BG,284,8931,4,154,26449,0,6,1256,150,0,1446
"Sephora US",US,283,220,209,220,128278,0,8,923,111,0,1092
"E.Leclerc Tychy",PL,276,8729,234,1201,8912,9904,62,369,782,1415,2662
"Pyaterochka App RU",RU,276,3786,13,233,7699,1255,3,591,111,16,727
"i-apteka",PL,276,10172,143,715,22012,13049,9,436,761,1241,2513
"Apteka Medkon",PL,270,8860,534,534,36288,7108,7,4643,1117,2599,8419
"Groby HU",HU,270,7869,20,559,20920,4363,6,1093,554,370,2041
Makro,PL,268,2823,0,460,7829,26794,11,489,215,1447,2184
"Farmacia Pasteur CO",CO,265,9030,7,3780,56307,1173,7,1659,3423,48,5198
"Carrefour AR",AR,263,13071,130,944,94584,4662,12,2896,3059,341,6389
"Dunnes IE",IE,260,14590,14,590,32613,9199,3,295,295,124,743
"E.Leclerc Gliwice",PL,260,7810,16,736,21350,6924,35,1499,677,2806,5070
Wapteka,PL,258,18520,1254,1393,63297,51925,8,4238,698,958,6023
"Benu HU",HU,256,5022,4,349,15064,4510,6,4765,692,817,6294
"Cornershop - Santa Isabel CL",CL,256,2235,1,105,3505,933,9,679,288,130,1110
"La Comer MX",MX,256,147,6,147,22384,3934,7,173,281,69,542
"Getir IT",IT,255,2317,1,30,6674,7397,7,120,15,107,253
"PriceSmart CR",CR,253,2986,4,33,43945,3106,5,8832,30,667,9561
"Yandex Market RU",RU,247,0,0,0,0,1778,18,192,0,137,348
"Edeka DE",DE,245,3793,42,66,4995,94,10,240,64,129,452
"Helpnet RO",RO,245,6535,76,324,18402,5245,3,1471,259,355,2094
"Supermarket AM",AM,245,7320,17,85,19158,347,6,1130,205,158,1506
"Look Fantastic UK",UK,244,20203,50,192,69707,0,8,976,179,0,1233
"Szybki Koszyk",PL,243,4364,11,100,15069,820,116,644,52,50,889
"Minifarm RO",RO,241,5351,16,123,13712,0,3,600,86,1,695
"Olimpica CO",CO,241,21642,382,1017,205551,3936,7,9012,3257,203,12649
"Mercado Livre BR",BR,240,46910,1119,4846,825710,2353,529,8846,6526,272,16791
"Farmatodo CO",CO,238,13591,34,4099,61659,3272,7,457,5245,71,5846
"Afya Pharmacy BG",BG,237,11124,5,173,37859,2043,9,2811,246,324,3421
"Auchan FR",FR,237,2862,13,140,9372,1500,334,602,126,321,1406
"Delitea SE",SE,233,8849,43,221,22226,0,8,195,102,8,336
"Panda Market HU",HU,230,2598,0,228,5927,1518,5,216,105,223,555
Cocolita,PL,229,12594,43,767,54845,17495,7,2400,1554,1752,5803
"Disco AR",AR,227,7591,20,494,30350,9631,153,2755,5079,397,8411
"Merqueo - Bogota CO",CO,226,1713,2,119,3948,2552,4,174,64,109,356
"Metroiroda HU",HU,226,3218,13,255,6499,1231,7,726,445,125,1308
"Vea Digital AR ",AR,220,5717,19,562,22937,9548,151,2471,4878,383,7909
"Igooods RU",RU,216,19388,11,360,43424,436,3,358,298,30,711
"La Anonima AR",AR,214,6068,351,351,17564,3475,13,1462,1226,1976,4688
"Superpharm Apteka",PL,214,567,40,567,31634,26761,6,706,1202,392,2347
"Booker Foodservice UK",UK,213,11526,90,928,21571,2752,137,470,441,95,1174
"Exito CO",CO,212,9585,10,616,38656,2677,146,3233,1388,194,5029
"Beauty Bay UK",UK,209,11932,14,92,49173,0,9,352,60,1,473
"Mano NG",NG,204,2101,25,59,4314,198,15,14,27,11,70
"Booker UK",UK,202,8663,126,1037,16461,6804,114,323,490,529,1476
"Emag HU",HU,199,140875,964,4301,140928,7337,8,741,1227,60,2215
"Merqueo - Medellin CO",CO,196,1609,0,114,3672,2159,5,160,61,97,328
"Farmacia Dav RO",RO,193,5947,4,121,14001,1544,8,394,57,64,530
"Atomo AR",AR,188,2452,1,215,6461,13853,11,184,140,366,706
"Rappi Lider CL",CL,186,9639,147,442,40503,1677,187,8323,1320,188,10058
"Rappi - Carulla CO",CO,184,8197,165,426,25348,4826,148,10241,11601,352,22370
"Vodovoz RU",RU,184,1005,1,3,2195,0,3,310,6,2,324
"Rappi Jumbo CL",CL,183,10622,140,432,41909,1959,155,8531,1345,200,10267
"Rappi Turbo CL",CL,179,1091,6,35,3415,277,319,4291,231,33,4877
"Coursesu FR",FR,178,2811,109,117,3583,1303,19,10334,171,214,10743
"Rappi Unimarc CL",CL,177,12772,147,431,19835,2261,180,5453,2545,198,8406
"Pigmento AR",AR,175,143,5,143,13746,11092,91,339,191,275,903
"Tiendas Jumbo CO",CO,175,16213,4,754,64564,2830,8,1602,924,128,2728
"PennyDomu CZ",CZ,173,1445,1,1,4088,0,74,161,3,0,242
"Linella MD",MD,171,7650,72,98,18566,0,8,914,31367,1,32306
"Hitri Nakup SI",SI,167,13637,25,231,27205,7448,8,143,106,262,555
"Professional Farmaline RO",RO,155,8042,32,149,17120,5440,3,633,113,112,869
"Argos UK",UK,154,4127,10,3097,5485,0,5,325,7175,1,7524
"Rappi - Pricesmart CO",CO,153,1661,6,19,4530,3019,183,3427,322,403,4344
"Rappi Coto AR",AR,153,5043,44,154,12504,1192,94,1124,789,116,2138
"Dirck3 NL",NL,151,561,1,27,2625,144,16,84,14,41,169
"Alerzo NG",NG,149,43,1,6,65,35,3,78,6,14,101
"Rappi Carrefour AR",AR,148,4300,83,300,5450,1661,78,637,1274,116,2111
"Medexpressz HU",HU,147,1317,1,65,2801,0,5,570,106,1,684
"Alcampo ES",ES,138,2018,16,166,6800,633,263,494,218,105,1084
"Rappi - Exito Express CO",CO,136,8084,191,369,14819,1413,152,6083,8854,144,15253
"Nazuby CZ",CZ,135,1820,0,75,6151,160,5,82,38,24,157
"Superxtra PA",PA,135,6477,0,0,13685,0,66,67,3,1,150
"Alkohol CZ",CZ,131,4043,14,31,11308,0,18,986,24,0,1037
"Extra BR",BR,129,80077,22,384,80077,1122,57,1400,566,37,2172
"Aromatico DE",DE,128,48,15,48,9686,615,6,1636,100,120,1868
"Cora Drive BE",BE,121,14344,35,311,92856,5927,9,3814,388,1694,6000
"Rappi Turbo PE",PE,121,1330,9,36,3799,4114,84,1206,316,479,2088
"Condis ES",ES,120,6506,2,3,6871,0,3,2115,129,1,2254
"Mercado Libre CL",CL,114,45959,1246,1652,73370,1006,150,749,806,178,1976
"Rappi Farmacity AR",AR,112,4706,65,235,13373,1329,88,1793,838,116,2849
"Comfandi Supermercados CO",CO,106,9565,43,69,29269,667,9,2882,333,233,3472
"Coop EE",EE,105,1263,0,7,3004,1181,4,88,5,57,157
"Rappi Turbo AR",AR,105,705,19,42,2344,1060,77,840,175,117,1211
"Flaschenpost DE",DE,103,46,4,46,4674,344,5,126,47,17,199
"E-tinex MK",MK,102,4232,2,72,8464,411,4,74,33,28,150
"Savage & Whitten IE",IE,100,3687,2,158,7374,1003,9,421,83,81,600
"Vitania BG",BG,97,7144,17,156,7144,4306,5,339,162,149,672
"Farmacity AR",AR,94,379,10,379,4939,7636,8,196,175,504,886
"Tiendas D1 CO",CO,91,1065,17,1009,2174,0,7,84,467,1,561
"Kaufland DE",DE,90,35280,825,1136,43817,694,65,1058,625,44,1850
"PriceSmart GT",GT,90,1615,9,27,13426,1958,5,2553,23,541,3130
"PriceSmart PA",PA,90,1737,7,37,20178,912,4,4394,26,313,4752
"Koffievoordeel NL",NL,87,470,0,2,2705,0,3,310,3,1,323
"Brack CH",CH,81,8211,34,115,20513,2123,78,353,157,240,865
"Okey RU",RU,80,12189,1633,1750,12218,1392,12,2078,5165,106,7374
"Kaffedeal DK",DK,77,356,12,44,863,762,3,39,22,33,98
"Droguerias Cafam CO",CO,69,4028,1392,2996,10358,2361,22,641,5914,106,6693
"Durst DE",DE,69,1095,64,1095,1159,0,6,31,16,6,64
"Carrefour FR",FR,65,6642,15,290,10808,3584,6,349,216,187,779
"Emag RO",RO,64,58350,291,3375,58353,9047,19,1303,3304,275,4947
"Pretty Little Thing UK",UK,63,2060,32,36,8794,0,14,2634,337,1,3000
"Rozetka UA",UA,62,85013,696,1336,103825,0,101,5735,453,1,6406
"PedidosYa DIA AR",AR,59,2349,4,179,2349,4565,7,50,80,208,349
"Rappi Cruz Verde CL",CL,58,1373,77,319,1824,2188,182,1927,2019,186,4319
"Comfandi Droguerias CO",CO,57,4591,264,2039,9132,426,6,938,7234,460,8649
"Kaffekapslen DK",DK,56,786,0,59,1791,1463,79,81,58,105,324
"iDrinks HU",HU,54,5783,205,219,12641,252,5,1144,231,78,1469
"Amazon Fresh DE",DE,53,3500,118,165,5026,6305,482,1331,127,280,2230
"Leclerc FR",FR,52,1893,7,244,22646,2338,5,326,296,79,729
"Bigshop MK",MK,51,1004,0,78,3756,600,124,196,58,120,501
"Kapselkongen DK",DK,51,236,0,49,459,634,21,50,54,32,157
"PedidosYa Carrefour AR",AR,50,3239,12,365,3239,7887,5,47,170,209,436
"Winelivery IT",IT,45,1349,26,40,3012,0,5,187,21,1,216
"Very UK",UK,44,3728,5,22,3918,0,17,102,23,1,157
"Bol NL",NL,42,6,4,6,183,2400,27,1791,20,538,2386
"Altex RO",RO,40,2384,14,118,4662,1039,3,270,196,127,598
"El Corte Ingles ES",ES,39,9554,12,167,12205,816,65,761,980,96,1914
"BilkaToGo DK",DK,37,10941,737,1011,58559,1804,6,117,507,38,751
"Datart CZ",CZ,37,1083,7,29,1484,0,4,89,14,27,138
"Selver EE",EE,37,4056,25,69,10907,2968,5,310,139,534,1001
"Wolt Online Prima HU",HU,37,3168,0,442,3168,5128,4,102,438,252,801
"Jumia EG",EG,35,2233,30,110,3764,19,62,222,152,60,500
"Ep DE",DE,34,195,0,0,619,0,70,113,0,0,185
"Galaxus CH",CH,34,9828,60,115,17335,1319,19,3453,105,1415,5022
"John Lewis UK",UK,32,25,9,25,561,0,5,85,26,47,164
"Intermarche FR",FR,31,2161,0,202,29188,2657,9,2230,922,782,3967
"Avansas TR",TR,28,542,1,6,578,0,3,22,7,0,33
"EDostavka BY",BY,21,701,0,182,1392,4096,4,44,326,303,688
"Euronics DE",DE,20,9313,61,182,37724,0,41,1054,37683,2,38862
"MyDeal AU",AU,19,18,9,18,9390,0,12,235,26,1,275
"Shoplink IE",IE,19,150,1,129,450,1789,29,38,83,99,249
"Boulanger FR",FR,17,1004,21,52,2321,0,17,150,154,6,330
"BCC NL",NL,10,1615,8,21,2173,0,12,103,22,9,151
"Wildberries RU",RU,10,61408,851,1852,63176,1572,10,169,996,26,1318
"Mediaworld IT",IT,9,236,0,0,472,593,50,247,293,672,1264
"Coles AU",AU,8,157,0,57,161,255,6,86,807,437,1336
"AO UK",UK,7,407,1,5,599,0,58,25,6,80,175
"Unieuro IT",IT,6,1561,12,20,1978,1124,3,15,12,65,99
"Barrys Beacon IE",IE,4,160,6,121,160,408,7,23,74,72,176
Allegro,PL,0,1903,0,1903,0,0,0,0,26895,0,26895
"Carrefour BR",BR,0,0,0,0,0,0,6,21,0,239,266
"Coop UK",UK,0,0,0,0,0,6070,660,4,1,507,1172
"Easy CL",CL,0,0,0,0,0,0,2,26,8,9,45
"Everli - Coop IT",IT,0,0,0,0,0,0,74,0,0,104,178
"Everli - Kaufland",PL,0,0,0,0,0,0,67,0,2,317,386
"Everli - Lidl",PL,0,0,0,0,0,0,67,1,1,317,386
"Everli Netto",PL,0,0,0,0,0,0,72,0,0,228,300
"Farmaonline AR",AR,0,0,0,0,0,4206,5,17,2,204,230
"Linio CL",CL,0,0,0,0,0,0,3,41,2,0,46
"Metro Delivery RU",RU,0,0,0,0,0,0,18,1,0,178,197
"Nemlig DK",DK,0,0,0,0,0,0,0,0,0,0,0
"Newpharma BE",BE,0,0,0,0,0,0,46219,0,0,0,46219
"Ozon RU",RU,0,0,0,0,0,735,81,82,81,158,402
"Plus NL",NL,0,0,0,0,0,0,1773,1,1,1829,3606
"Rappi - Carulla Express CO",CO,0,0,0,0,0,1527,42,5,1,140,191
"Rappi Turbo CO",CO,0,0,0,0,0,3616,20,23,0,358,405
"Samokat RU",RU,0,0,0,0,0,0,33,32,0,33,98
"Sodimac CL",CL,0,0,0,0,0,0,26,33,1,1,61
"Subra BG",BG,0,0,0,0,0,0,2,13,1,295,311
"Перекрёсток Впрок RU",RU,0,0,0,0,0,1225,3,3,1,36,43
"Утконос RU",RU,0,0,0,0,0,0,15,0,0,123,138
