﻿Site,Country,Categories,Prices,"Products changed","Products downloads",Relations,Search,"Categories time","Prices time","Products time","Search time","Total time"
"Mytime DE",DE,5179,10651,364,10640,103485,2715,2334,2903,5360,155,10818
frisco,PL,4707,16498,330,16497,312957,99563,96,6002,22084,239,28787
"Rohlik CZ",CZ,3498,24449,641,24419,273208,30980,2361,14912,29713,698,47837
"Albert Heijn NL",NL,3452,21102,260,20181,105651,9774,447,1615,5290,176,7632
"Makro CZ",CZ,3429,2736,69,2736,275124,503,3191,26690,1587,48,31701
"Pilulka SK",SK,3275,37186,17148,37184,295852,10723,31,5256,17411,241,23157
"Coto Digital AR",AR,3079,0,0,0,123076,0,305,0,0,0,305
"Metro SK",SK,3037,7362,120,7362,217930,0,2714,20900,6785,1,30550
"Albert Heijn BE",BE,2874,10897,157,10897,54231,9192,417,1382,2305,203,4368
Auchan,PL,2832,19930,1025,19930,338647,26282,78,17676,12426,2065,32936
"Galen BG",BG,2795,14324,12,14315,106058,5248,1502,2458,11625,202,15857
"Kosik CZ",CZ,2731,16529,8970,16527,92655,30141,511,1722,7730,823,10876
"Pilulka CZ",CZ,2642,31209,16252,31207,180617,34625,31,4748,28882,994,34786
"Drogeo CZ",CZ,2387,31287,14,31287,129705,34103,28,3080,18956,776,22967
"Notino SK",SK,2306,40479,1139,40479,114295,221,1158,7413,22918,19,31723
"Notino CZ",CZ,2302,45272,1079,45272,116371,18054,1118,7600,25887,1161,35968
"Nemlig DK",DK,2255,9199,180,9189,158429,1465,339,6137,7392,82,14077
"Chronodrive FR",FR,2176,8410,4939,7282,47498,0,223,1066,13390,0,14718
"Jumbo NL",NL,2062,17758,4781,17758,94370,9620,1497,2409,21266,271,25529
"Conad IT",IT,1990,9374,1808,9374,38314,2018,304,1371,7841,67,9611
"Auchan HU",HU,1805,27043,1701,27041,200696,15964,26,5948,14947,725,21863
"Amazon Fresh IT",IT,1799,8129,6236,8120,39999,3403,3837,3365,8666,123,16015
"Musgrave IE",IE,1644,11268,80,13718,52546,4374,40,3150,13108,113,16431
"Minti Shop",PL,1571,14829,52,14827,128742,33878,48,4798,13848,1439,20280
"Delhaize BE",BE,1566,13146,450,13144,55191,20389,21,2406,8763,633,11887
"Yuga RO",RO,1529,6316,66,6316,30836,0,1852,3744,20092,1,25709
"Picnic NL",NL,1508,7296,215,7295,18083,5503,636,5852,15576,811,22899
"Apteka Nowa Farmacja",PL,1446,16977,312,16965,80459,36922,12136,3528,20282,3174,39280
"Kifli HU",HU,1446,14090,525,14060,66092,12227,663,2784,13248,427,17188
"Carrefour BE",BE,1400,20293,238,20288,535774,23133,1311,15499,5098,1343,23809
"Alza CZ",CZ,1397,33557,0,0,121091,29424,66,949,8204,0,9219
"Coop CH",CH,1365,19412,2883,19411,71500,2322,346,2116,38054,199,40779
"Apteka Melissa",PL,1360,25337,659,25170,96307,78285,59,12252,24709,1660,38813
"Rewe DE",DE,1343,10460,95,10446,37276,2952,18,1591,10747,359,12772
" SberMarket - Lenta RU",RU,1339,12860,426,12860,84251,1328,16,7222,17779,93,25145
"Remedium BG",BG,1308,27565,27,27457,99847,1531,938,8651,25479,145,35305
eZebra,PL,1298,37835,174,37805,142017,41204,42,7348,25177,6799,39673
"Amazon BR",BR,1270,28,24,28,1478074,2553,0,0,21591,286,21877
"SberMarket - Metro RU",RU,1270,6486,37,6486,56399,0,15,3754,6484,1,10286
Hebe,PL,1253,28737,1715,25010,267970,9544,1558,10151,54230,0,65939
"Knuspr DE",DE,1248,12489,80,12247,67429,2041,565,2399,11722,149,14884
"Barbora EE",EE,1244,13777,266,13777,49740,1370,55,2214,6417,230,8955
"Moja Lekaren SK",SK,1241,26216,143,26216,114359,7214,786,3232,15753,635,20515
"Lekarna CZ",CZ,1236,31186,171,31190,137461,7179,793,3756,20041,648,25384
"Barbora LT",LT,1232,17488,71,17484,60572,1871,51,2069,8592,147,10903
"Amazon DE",DE,1227,176,159,176,181786,12961,0,0,5604,4981,10585
"iGlobus Zlicin CZ",CZ,1223,22275,48,22266,86759,2801,23,3766,33677,110,37639
"E-Fresh GR",GR,1200,11715,466,11711,56635,7186,2298,4043,24093,745,31236
"Farmaline BE",BE,1165,30266,269,30266,144840,2785,1311,2510,41012,68,45040
"Picnic DE",DE,1157,7218,166,7218,14919,1495,91,996,3461,149,4711
"Coop NL",NL,1127,14052,1641,14052,60414,1813,1864,1893,18504,93,22421
"Vkusvill RU",RU,1123,11977,633,11898,57039,1612,289,5042,25491,127,30970
"S-kaupat FI",FI,1114,39872,783,39855,285009,0,16,20072,29218,1,49534
"Albert App CZ",CZ,1110,8133,199,8133,24399,1833,514,2077,3762,54,6472
"Ebag BG",BG,1064,12647,2506,12605,52779,2075,26,1569,5800,41,7490
"Amazon IT",IT,1057,537,455,537,202662,6675,0,0,4984,816,5800
"Alza SK",SK,1052,16190,2459,16278,62057,205,50,495,3971,10,4569
"Mall CZ",CZ,1039,3628,520,3628,14875,7996,982,1245,10878,6949,20150
"Eroski ES",ES,1035,25669,1653,25659,54738,0,17,3563,14021,0,17644
"Mathem SE",SE,1034,8567,26,8405,24994,4846,12,1153,9052,434,10683
"Benu CZ",CZ,1012,14954,14197,14954,77155,6700,581,5783,16254,93,22792
"Barbora LV",LV,1007,14606,193,14606,48716,2028,38,1185,6783,231,8272
"Metro AT",AT,1006,26279,3028,26279,78834,3731,25,1078,13161,133,14463
Selgros,PL,999,20253,7813,20252,69903,29615,458,1379,9360,1496,12841
"Dr Max SK",SK,995,27207,110,27236,114910,7317,409,1499,25205,516,27714
"Zakaz - Novus UA",UA,989,30847,0,0,61436,0,9,1581,17866,0,19491
"Apteka Gemini",PL,983,26153,264,26369,100276,81744,17,9371,41829,979,52321
"Cefarm 24",PL,980,12199,70,12156,76700,18549,1260,2674,15389,4025,23459
"Tigros IT",IT,960,10033,139,10032,30145,8121,14,551,5614,244,6451
"Yerevan City AM",AM,948,20146,18,20040,60220,408,17,1770,11023,43,12873
"Coop Shop IT",IT,934,11536,101,11535,34629,6506,15,674,8050,390,9158
"Kolichka BG",BG,916,8317,18,8317,30998,1311,217,421,3855,44,4576
"Coop SE",SE,914,7091,79,7091,24174,4806,10,934,3782,192,4941
"Migros Online CH",CH,904,11728,948,11728,42912,1336,29,2641,8650,198,11552
"Pilulka RO",RO,886,7208,1204,7218,30499,3270,8,441,3273,57,3797
"Unipatika HU",HU,869,4444,51,4445,30437,4707,571,1150,2393,326,4472
"Superpharm Drogeria",PL,865,18968,291,18954,99349,56587,30,1946,40650,565,43296
"Apteka Manada",PL,843,13396,608,12843,43037,52413,34,3259,29426,5441,38290
"Tesco IE",IE,839,18166,222,18111,450264,3368,16,12387,7151,796,20606
"SuperValu IE",IE,838,15994,134,15994,211508,9384,874,16883,17202,464,35599
"eZiko Apteka",PL,821,7724,73,7698,48421,38654,372,2082,6466,2256,11399
Bee,PL,815,32594,3830,32593,105051,9718,383,2969,18165,283,21955
"Dr Max CZ",CZ,813,25078,81,25096,108211,4849,423,1163,22951,148,24818
"Auchan RU",RU,802,27680,151,27680,84849,357,10,2663,21310,36,24075
"Gurkerl AT",AT,792,9633,84,9585,43163,3599,374,1528,8952,128,11018
"Benulekaren SK",SK,784,9795,9302,9795,55427,7031,545,3695,8965,147,13426
"Zakaz - Metro UA",UA,754,17763,0,0,33182,0,7,1941,20032,1,21999
"Cruz Verde CL",CL,743,8766,27,8764,155205,405,17,18146,4008,5,22238
Spar,PL,739,23910,12126,23910,522090,82590,64,10690,12735,2738,27349
"Rimi EE",EE,737,13252,308,13252,39224,3282,16,1215,25002,140,26400
"Lunys SK",SK,732,5625,810,5625,19260,2089,538,1042,4147,182,5927
"Polski Koszyk",PL,728,16888,27,16786,50851,4687,11,725,7740,303,9062
"Sezamo RO",RO,728,10052,51,10007,40192,4526,330,1409,9153,113,11025
"Esselunga A Casa IT",IT,716,15396,1184,15396,47999,17166,19,1749,9480,436,11721
"Bringmeister DE",DE,708,15312,479,15312,42067,4403,9,403,6857,142,7456
"Newpharma BE",BE,708,22197,2205,22197,43659,2446,488,3257,13656,118,17580
"Salcobrand CL",CL,706,7851,7,7847,29066,346,911,1267,13894,17,16103
"Rossmann DE",DE,699,16646,163,16646,58870,0,897,1850,15385,1,18174
"Rimi LV",LV,698,15906,277,15906,46975,5486,17,1301,30086,199,31648
"Falabella Tottus CL",CL,697,5683,2462,5682,17074,75,2440,1851,25419,21,29741
"Intervare DK",DK,694,7945,7323,7945,23124,0,15,326,3607,111,4092
"Sklavenitis GR",GR,691,4470,55,4470,13410,2881,295,1960,7663,737,10670
"DOZ.pl",PL,680,23921,443,23921,96306,71472,385,5200,21915,2716,30377
"Bennet IT",IT,679,20054,12947,18949,40387,15262,13,1089,10013,835,11984
Amazon,PL,673,1127,698,1124,1335693,30274,0,0,7631,4762,12393
"DM SK",SK,673,12621,35,12621,36081,6099,13,1450,5668,248,7413
Barbora,PL,668,10364,101,10362,130889,24824,36,4520,4894,3320,13314
"Rimi LT",LT,665,16540,291,16540,49336,3568,16,1299,31087,130,32568
"Poiesz NL",NL,664,7234,0,7228,9376,938,16,541,7011,45,7633
"Tesco CZ",CZ,652,14975,440,14975,491057,19140,16,16744,16622,4747,38464
"Hoogvliet NL",NL,651,8514,34,8511,13876,2345,20,718,8913,125,9797
"Apteka Rosa",PL,648,10262,55,10262,43709,8044,16,9557,6581,641,16870
"Rossman HU",HU,640,14789,300,14789,53631,7948,821,727,21163,212,22991
"Easy Coop IT",IT,639,9396,60,9396,36507,9865,360,2677,23212,1196,27473
"E.Leclerc Bielany",PL,633,32627,297,32303,103913,28578,117,5774,18431,22132,46657
"Yandex Lavka RU",RU,632,3702,188,3689,11797,1514,364,2548,23063,273,26254
"Crai Spesa Online",IT,628,6458,51,6461,23310,6749,542,1325,17392,804,20077
"Mercator SI",SI,622,12195,11987,12195,36585,2199,271,289,5414,82,6113
"Tesco SK",SK,615,14916,334,14916,212061,2716,17,6059,13477,482,20250
Apteline,PL,614,14761,51,14760,24385,2223,1156,1887,22305,1529,26932
"Tesco HU",HU,612,13962,1531,13962,904254,9482,16,31702,14790,2730,49825
"Carrefour EG",EG,608,17829,85,17332,114597,789,17,4053,48217,60,52426
"Lopido CO",CO,606,0,0,0,36244,0,18,289,0,0,307
"Colruyt BE",BE,602,7771,26,7771,91768,13179,14,9518,26140,1162,36986
"Thanopoulos GR",GR,598,15684,361,15684,52760,8234,20,2421,16973,517,19978
"Libertad AR",AR,583,0,0,0,26865,0,15,290,0,0,305
"Plus NL",NL,582,16254,677,16253,30888,8353,66,1680,8876,302,10965
"Willys SE",SE,575,10370,135,10366,33802,6472,6,945,16187,813,17988
"Vasalekaren SK",SK,570,10635,266,10635,65436,6314,917,6812,16307,726,24805
"Dr Max",PL,567,18952,72,18562,64138,46365,241,849,19376,1970,22670
"E.Leclerc Wroclaw",PL,567,16205,116,16195,16393,14692,473,1875,24715,5127,32333
"Perfumeria Douglas",PL,567,56042,3185,56041,191801,60285,180,3544,43159,101,47130
"Glovo Express Milano IT",IT,566,3542,2,3542,11478,3577,9,248,100,92,461
Lek24,PL,566,6867,66,6867,24551,9403,23,1357,4978,458,6887
"Zakaz - Metro MD",MD,566,13496,0,0,22747,0,15,1131,14406,0,15574
"Kritikos GR",GR,565,7350,7,7350,20938,0,19,273,3333,6090,9748
"DM HU",HU,564,12418,64,12061,33638,9982,12,1433,6047,320,7853
"Pingvinpatika HU",HU,557,7822,300,7821,43080,3596,17,5096,9474,66,14705
"Spar HU",HU,556,16048,2999,16048,376565,13993,15,7994,25078,476,33787
"DM CZ",CZ,549,12837,105,12480,34829,28462,10,1304,6210,932,8513
"Pão de Açucar BR",BR,548,0,0,0,75979,0,15,283,0,0,298
"Jumbo CL",CL,546,22380,52,21128,578258,971,16,7927,10593,65,18837
"AB GR",GR,544,11345,250,11345,34248,10145,20,726,5510,210,6514
"City Gross SE",SE,543,12164,140,12170,25612,5740,6,327,5616,278,6250
"Freshful RO",RO,541,17394,7097,17394,35637,6669,7,785,8199,392,9408
"E.Leclerc Rzeszów",PL,540,12746,17,12741,36466,23657,40,923,5265,761,7065
"Apteka Prima 24",PL,533,4536,7,4448,15042,7603,23,735,7058,270,8163
"Carrefour ES",ES,530,14156,93,13781,19128,543,52,588,10065,34,10772
"MyMarket GR",GR,529,14184,5,14184,51443,7530,20,2318,20563,406,23350
Rossmann,PL,527,24312,33,24309,78587,33228,10,910,23496,799,25333
"Drogeria Olmed",PL,526,39460,25234,39460,157342,0,13,15201,51387,0,66601
"Clube Extra BR",BR,523,0,0,0,13175,0,15,285,0,0,300
"Cooperativa Obrera AR",AR,520,0,0,0,19207,0,30,275,0,0,305
"Apteka Zawiszy",PL,512,20002,4534,20132,77366,33096,265,2283,14263,843,17779
"Metro RU",RU,506,20011,378,20011,26820,846,11,1941,11301,33,13315
"Hemkop SE",SE,501,10133,140,10130,31637,7271,12,981,18225,759,19997
"Interspar AT",AT,500,22078,116,22037,281912,6948,18,3608,26569,180,30627
eKobieca,PL,497,10375,55,10375,44324,15242,7,2147,17157,1907,21299
"Dr Max Drogeria",PL,496,20209,72,20196,68883,38206,20,1061,19646,1725,22560
Aptelia,PL,491,14477,51,14477,58799,30735,226,3156,11624,1122,16193
Intermarche,PL,488,18675,143,18675,138132,12684,15,5464,8492,949,15233
"Auchan RO",RO,487,26432,25990,25990,272286,8150,11,6056,36810,211,43215
"Famila a casa IT",IT,483,12188,77,11726,26477,6433,924,1601,21238,335,24121
"Spar SI",SI,483,16599,515,16599,58439,2706,17,625,19187,104,19977
"Mega Image RO",RO,482,11775,60,11774,35228,12090,7,581,5326,199,6132
"E.Leclerc Radom",PL,472,12180,410,12171,38348,9763,107,2778,9303,3168,15427
"Apteka Olmed",PL,471,47852,14175,47852,168815,32023,9,13530,43622,2369,59641
"Carulla CO",CO,470,0,0,0,63565,0,18,282,0,0,300
"Patika24 HU",HU,464,4290,69,4289,8741,3216,12,854,14186,167,15229
"Basko IT",IT,463,8459,78,8456,25837,4453,7,274,9288,158,9746
Ceneo,PL,463,0,1833,133792,279427,0,939,6150,59517,0,66606
"GPSfarma AR",AR,460,0,0,0,26010,0,16,290,0,0,306
"eTabletka SK",SK,457,11628,152,11628,80839,7319,478,19229,23775,92,43639
"MegaMarket RO",RO,447,4972,0,4972,6071,542,8,1201,5485,170,6868
"Ecofamily HU",HU,445,7041,100,6538,23179,4441,12,3970,60994,0,64976
"Elefant RO",RO,437,38105,41209,41209,74301,2343,8,1139,16275,50,17498
"Cornershop - Jumbo CL",CL,435,7754,16,7754,42680,409,14,629,2767,23,3455
"E.Leclerc Lublin Turystyczna",PL,432,11333,83,11333,14075,11363,20,348,11716,982,13117
"Unimarc CL",CL,432,9566,7849,9566,28581,352,15,3933,24660,33,28649
"Dr Max RO",RO,425,14879,97,14949,51621,9067,205,583,16010,436,17256
"E.Leclerc Katowice",PL,424,8677,42,8655,9182,10113,94,531,6674,1343,8749
"Cornershop - Lider CL",CL,422,9821,24,9814,49457,407,14,733,1831,22,2627
"iFresh SK",SK,418,7863,7704,7863,177879,0,12,4938,27911,2,32987
"Farmacia Tei RO",RO,413,23652,23645,23647,23652,3475,5,518,10438,135,11113
"Ica New Version SE",SE,411,7495,6583,7495,159742,4222,7,2562,3389,185,6261
"Glovo Express Bucuresti RO",RO,406,3021,0,3021,5794,3251,5,218,91,111,428
"Teta Drogerie CZ",CZ,403,5396,52,5393,15635,654,10,730,3463,20,4244
"Apteki 36.6 BG",BG,401,11261,83,11261,53135,1314,17,1870,6467,91,8502
"Lider CL",CL,401,10747,148,9223,170320,848,13,2743,23755,13,26610
"Glovo Biedronka Warszawa",PL,399,3065,6,3065,6093,1668,17,195,319,77,665
"Cruz Verde CO",CO,397,0,0,0,19616,0,12,294,0,0,306
"Talabat Mart EG",EG,393,6937,6314,6929,36739,500,6,2398,44213,13,46669
"Kruidvat NL",NL,392,8202,184,8194,23749,1730,191,840,7398,123,8594
"Feedo CZ",CZ,391,18295,5836,18295,52649,579,173,1148,29330,24,30774
"Unimarkt AT",AT,391,3399,322,3396,15417,3648,145,452,2864,262,3742
"Drogas La Rebaja CO",CO,389,0,0,0,41441,0,17,291,0,0,308
"Bebe Tei RO",RO,388,24978,375,24956,26375,1714,5,1018,11119,77,12228
"Azbuka Vkusa RU",RU,385,14086,881,14085,30641,964,19,2987,56122,138,59286
"Świat Leku",PL,385,11604,15,11604,36525,3651,161,1419,10874,421,12934
"DrankDozijn BE",BE,383,3769,28,3769,15311,2210,10,677,5902,345,6956
"DrankDozijn NL",NL,383,3768,28,3768,15308,300,11,654,5897,20,6601
"Carrefour IT",IT,379,14773,3366,14762,41145,4704,312,1079,7034,327,8792
"Ica SE",SE,378,11536,75,11536,705747,11020,6,22449,5082,182,28196
"Billa AT",AT,375,10272,753,10272,33780,8255,15,822,27752,310,28937
"Walmart GT",GT,371,0,0,0,182721,0,17,283,0,0,300
"Glovo Biedronka Express Warszawa",PL,367,1414,2,1414,3106,526,17,209,177,46,489
Stokrotka,PL,364,7598,17,7598,154001,29009,22,4633,4537,945,10840
"Lisek App",PL,360,2108,45,2103,3297,3253,23,22,973,333,1395
"Ulabox ES",ES,356,5630,40,5630,11976,0,5,220,2559,1,2803
"Glovo Kaufland RO",RO,353,7507,0,7507,12840,0,5,205,73,10,303
"E.Leclerc Lublin Tomasza Zana",PL,352,11187,55,11184,14824,9956,10,516,10535,917,12052
"Rappi - Exito CO",CO,352,0,0,0,31312,0,112,193,0,0,305
"Dia AR",AR,351,0,0,0,14825,0,11,295,0,0,306
"Gall & Gall NL",NL,346,3631,3611,3631,24919,66,12,3966,7016,16,11035
"Justo MX",MX,345,0,0,0,12206,0,9,290,0,0,299
"Magnit App RU",RU,344,4240,263,4240,11084,0,5,733,2488,1,3233
"Mas Online AR",AR,343,0,0,0,30901,0,18,290,0,0,308
"Bringo RO",RO,341,32120,14,26011,80675,7507,25,3988,1601,458,6107
"Globus RU",RU,339,19083,18200,18790,63398,312,6,2359,10357,18,12773
Carrefour,PL,337,15886,211,15885,131347,32951,191,2134,8100,1877,12625
"Rossmann App CZ",CZ,337,11485,76,8917,36200,0,11,3103,4398,207,7752
Allecco,PL,334,13527,17,13526,43954,22200,24,1000,8752,466,10351
"Roastmarket DE",DE,332,3178,3077,3178,30104,373,21,692,11462,16,12209
"E.Leclerc Elblag",PL,330,9628,108,9599,26679,13785,49,2193,11438,3580,17303
"Mpreis AT",AT,325,8172,239,8171,29048,4940,718,978,10086,117,11927
"Sipo HU",HU,324,5072,44,5070,12287,1137,8,772,2753,112,3667
"Istegelsin TR",TR,317,3858,16,3858,8144,0,24,150,1773,1,1954
Makeup,PL,315,68169,3698,68168,565349,0,4,40639,25961,0,66604
"Alfies App AT",AT,312,3780,0,3780,11414,5393,36,142,1616,113,1924
"Gastronom BG",BG,312,6991,4,6991,21564,1057,16,389,5371,240,6049
"Pyaterochka App RU",RU,312,3612,21,3612,8346,1260,6,675,1678,15,2382
"Spring RO",RO,311,8892,59,8846,24341,6049,24,1702,11463,1021,14222
"Mall SK",SK,309,709,51,709,1887,292,438,509,2615,736,4338
"Cora RO",RO,302,0,42,46543,122270,0,5,5134,61463,0,66602
"Amazon NL",NL,299,33,32,33,137396,0,0,0,3636,34,3670
"Bipa AT",AT,299,11814,121,11814,25322,583,15,345,16113,17,16519
DoDomku,PL,299,6110,635,6110,17943,2321,48,517,4942,222,5883
Empik,PL,297,0,37677,79609,150635,0,84,20418,46091,0,66593
"Apteka Nove BG",BG,296,11344,34,11344,44485,4950,14,2790,17205,457,20499
"Mercado Libre AR",AR,296,0,0,0,63678,0,177,127,0,0,304
"Tudrogueria Virtual CO",CO,292,0,0,0,16830,0,10,297,0,0,307
"SOpharmacy BG",BG,289,10740,3712,10740,33551,6288,501,927,11274,473,13209
"Apteka Medea BG",BG,284,8978,10,8978,26866,0,12,1169,5480,0,6693
"Sephora US",US,283,0,0,0,128982,0,11,284,0,0,295
"E.Leclerc Tychy",PL,276,8443,109,8434,8619,9968,60,390,5665,1428,7585
"Jumbo AR",AR,274,0,0,0,43538,0,202,102,0,0,304
"i-apteka",PL,274,10144,1012,10144,21913,15659,5,562,10901,1615,13150
"Helpnet RO",RO,273,6398,6002,6408,18064,5269,173,1219,2841,249,4491
"Apteka Medkon",PL,271,9161,9159,9159,37320,8922,7,4756,18976,3807,27662
"Groby HU",HU,271,7920,17,7920,20816,4345,7,1110,7811,360,9313
"Cornershop - Santa Isabel CL",CL,270,2304,4,2074,3426,291,11,709,5540,23,6286
"Konzum HR",HR,268,10617,63,10617,16790,3476,317,2339,32425,437,35536
Makro,PL,265,2825,91,2825,7904,27441,8,499,1304,1484,3400
"Dunnes IE",IE,264,14712,122,14691,33100,9177,4,301,7088,115,7529
"Carrefour AR",AR,263,0,0,0,95301,0,11,292,0,0,303
"E.Leclerc Gliwice",PL,260,8577,16,8577,23472,7918,29,2013,9205,2963,14291
Wapteka,PL,258,18599,16188,18573,63561,59528,10,4660,10138,1171,16077
"Benu HU",HU,257,5077,10,5077,16510,4514,10,2630,6806,639,10103
"Mercado Livre BR",BR,249,0,0,0,867776,0,301,0,0,0,301
"Edeka DE",DE,247,3847,1369,3847,5015,102,7,226,3979,137,4359
"Yandex Market RU",RU,247,0,0,0,0,1771,17,253,2,155,427
"Supermarket AM",AM,245,7512,242,7326,18163,369,7,1041,16809,186,18051
"Olimpica CO",CO,241,0,0,0,206440,0,8,295,0,0,303
"Szybki Koszyk",PL,241,4321,55,4318,14922,1566,115,653,2117,92,3043
"Auchan FR",FR,240,2820,691,2820,9425,1696,355,599,3655,355,4992
"Farmatodo CO",CO,238,0,0,0,61596,0,12,448,0,0,460
"Afya Pharmacy BG",BG,237,11197,638,11167,38043,2064,14,2745,12108,296,15189
"Panda Market HU",HU,235,2831,3,2831,6500,1724,11,194,1321,224,1756
"Перекрёсток Впрок RU",RU,235,0,0,0,0,1409,6,380,0,55,441
"Central Oeste AR",AR,234,0,0,0,16879,0,6,298,0,0,304
Cocolita,PL,229,12307,109,12256,53441,18092,4,3285,25181,1745,30307
"Minifarm RO",RO,228,5333,4,5329,14522,0,7,1263,2971,1,4248
"Disco AR",AR,227,0,0,0,29125,0,166,138,0,0,304
"Metroiroda HU",HU,227,3245,75,3236,6543,1243,9,799,3772,173,4764
"Breadfast App EG",EG,221,4536,46,4536,105944,389,4,2598,2369,12,5055
"Vea Digital AR ",AR,220,0,0,0,23122,0,168,136,0,0,304
"Igooods RU",RU,217,19220,13,19219,43300,415,5,345,10720,30,11125
"Delitea SE",SE,216,8553,8102,8555,21582,0,5,201,3910,8,4146
"La Anonima AR",AR,214,0,0,0,17333,0,12,291,0,0,303
"Superpharm Apteka",PL,214,12594,109,12587,31968,32560,4,505,25532,472,26605
"Exito CO",CO,213,0,0,0,39212,0,223,78,0,0,301
"Merqueo - Bogota CO",CO,212,0,0,259,3313,0,8,163,134,0,305
"Linella MD",MD,206,7956,2,933,16946,0,11,877,34210,1,35115
"Mano NG",NG,204,2193,11,2193,4521,193,17,14,1001,12,1048
"Emag HU",HU,200,147941,8005,147847,147991,7474,8,1757,46796,63,48818
"Farmacia Dav RO",RO,193,5825,12,5825,13786,1572,7,364,2576,65,3021
"Merqueo - Medellin CO",CO,192,0,0,305,3259,0,6,151,152,0,309
"Subra BG",BG,192,9536,1657,9536,26732,1566,139,843,4415,120,5556
"Rappi Lider CL",CL,189,9452,2986,9357,32491,300,77,3027,15528,37,18691
"Atomo AR",AR,188,0,0,139,6404,0,8,205,91,0,304
"Glovo Bargains Supermarket Lagos NG",NG,185,1080,1,1080,2094,190,4,85,41,11,144
"Rappi Jumbo CL",CL,183,9366,2933,9302,34719,369,72,2992,18353,36,21471
"Rappi - Carulla CO",CO,181,0,0,0,23106,0,87,217,0,0,304
"Vodovoz RU",RU,181,988,68,988,2025,0,4,304,1757,1,2068
"Coursesu FR",FR,180,3561,3125,3561,4717,1340,49,9584,3393,182,13218
"Pigmento AR",AR,177,0,0,0,12546,0,64,242,0,0,306
"Rappi - Carulla Express CO",CO,177,0,0,0,9601,0,96,211,0,0,307
"Tiendas Jumbo CO",CO,175,0,0,0,31245,0,12,292,0,0,304
"Rappi Turbo CL",CL,174,1149,274,1135,3479,329,96,1162,2472,37,3770
"PennyDomu CZ",CZ,173,1383,11,1383,3851,0,77,237,653,29,1001
"Rappi Unimarc CL",CL,173,5745,1398,5687,10005,364,67,1634,13084,36,14829
"Hitri Nakup SI",SI,167,13510,68,13510,26986,7225,9,113,6170,239,6580
"Professional Farmaline RO",RO,155,6186,18,6186,9949,5457,3,344,3841,112,4310
"Rappi Coto AR",AR,152,0,0,0,12156,0,74,230,0,0,304
"Dirck3 NL",NL,151,553,22,553,2583,144,8,99,250,31,393
"Alerzo NG",NG,149,99,2,99,166,36,5,76,50,13,144
"Rappi Carrefour AR",AR,149,0,0,0,4831,0,70,235,0,0,305
"Medexpressz HU",HU,148,1309,1,1309,2792,0,8,567,1743,1,2336
"Alcampo ES",ES,138,2054,281,2053,6902,749,292,772,3703,127,4902
"Nazuby CZ",CZ,136,1798,1,1797,6051,161,7,186,848,15,1062
"Superxtra PA",PA,135,0,0,334,13685,0,64,67,165,0,296
"Alkohol CZ",CZ,131,4125,930,4126,11518,0,21,1118,3364,1,4516
"Rappi - Exito Express CO",CO,131,0,0,0,12659,0,127,175,0,0,302
"Aromatico DE",DE,129,2275,105,2275,9889,665,5,1661,6741,110,8522
"Extra BR",BR,129,0,0,0,73926,0,68,229,0,0,297
"Rappi Turbo PE",PE,129,0,0,0,4386,0,96,200,0,0,296
"Cora Drive BE",BE,121,14388,3230,14388,93076,5826,11,3769,15363,1436,20694
"Condis ES",ES,120,6560,139,6413,6922,0,4,1633,28932,1,30577
"Rappi Turbo CO",CO,118,0,0,0,9461,0,79,229,0,0,308
"Rappi Farmacity AR",AR,116,0,0,0,13670,0,69,236,0,0,305
"Mercado Libre CL",CL,113,48597,21976,48431,76347,266,111,732,23515,51,24469
"Comfandi Supermercados CO",CO,106,0,0,0,22658,0,9,294,0,0,303
"Coop EE",EE,105,1253,11,1253,2976,1055,4,89,598,43,737
"Flaschenpost DE",DE,103,4664,92,4664,4820,360,4,111,2575,16,2711
"E-tinex MK",MK,102,4102,0,4102,8204,405,3,71,1832,28,1942
"Rappi Turbo AR",AR,102,0,0,0,1872,0,77,229,0,0,306
"Amazon Fresh DE",DE,100,2678,2126,2674,5010,5967,232,543,2446,734,3968
"Savage & Whitten IE",IE,100,3701,34,3701,7402,1007,8,242,1641,73,1972
"Siempre Bien AR",AR,98,0,0,118,14772,0,5,245,57,0,307
"Vitania BG",BG,97,7075,213,7075,7075,4305,9,305,3324,178,3837
"Farmacity AR",AR,94,144,0,144,5497,0,5,232,69,0,306
"Tiendas D1 CO",CO,91,0,2,449,2154,0,9,82,217,0,308
"Kaufland DE",DE,90,36224,995,34561,45616,689,62,1032,17734,44,18932
"PriceSmart PA",PA,90,0,0,0,17571,0,4,290,0,0,294
"Masoutis GR",GR,89,3885,15,3698,8014,4792,13,160,2090,180,2455
"PriceSmart GT",GT,89,0,0,0,14689,0,5,293,0,0,298
"Okey RU",RU,81,13556,9673,13473,13639,1407,12,498,36428,97,37051
"Brack CH",CH,78,8262,672,8146,18197,2125,177,323,8853,204,9591
"Kaffedeal DK",DK,76,346,6,346,848,0,5,49,159,1,215
"Droguerias Cafam CO",CO,69,0,0,0,10373,0,22,281,0,0,303
"Durst DE",DE,69,1158,67,1158,1226,0,5,54,18,7,87
"Carrefour FR",FR,66,19156,15236,19148,26705,3591,9,680,8996,198,9922
"Emag RO",RO,64,63308,947,63293,63308,9155,12,1201,37464,249,38975
"Rozetka UA",UA,62,88858,60428,88743,109979,0,116,6625,22151,1,29040
"Comfandi Droguerias CO",CO,57,0,0,0,9219,0,7,299,0,0,306
"Kaffekapslen DK",DK,56,782,147,812,1792,1454,36,38,628,58,762
"Rappi Cruz Verde CL",CL,54,1595,455,1578,3041,335,47,632,3607,36,4325
"iDrinks HU",HU,54,5851,5816,5851,12794,252,9,892,6600,63,7580
"O'Reillys IE",IE,53,5041,5041,5041,10082,0,5,398,2320,0,2729
"Bigshop MK",MK,51,1000,1,1000,3740,603,156,342,1390,147,2039
"Kapselkongen DK",DK,51,231,0,231,449,0,21,50,216,1,289
"Koffievoordeel NL",NL,48,468,10,470,2178,0,3,209,274,2,494
"Leclerc FR",FR,47,1765,69,1765,21797,2263,5,267,1635,76,2010
"Altex RO",RO,45,2371,18,2371,4642,1048,3,263,4376,160,4805
"Winelivery IT",IT,45,1327,92,1327,2922,0,4,182,623,1,813
"Bol NL",NL,42,21544,10569,21631,37795,2334,28,1996,21118,379,23564
"El Corte Ingles ES",ES,39,9562,43,9555,12219,892,93,785,54744,105,55747
"Euronics DE",DE,39,9293,4,167,39684,0,89,1058,41842,1,43034
"BilkaToGo DK",DK,37,11984,527,11984,63009,1858,14,135,5082,40,5394
"Datart CZ",CZ,37,1096,55,1096,1515,0,6,120,843,24,996
"Selver EE",EE,37,3927,10,3927,10664,2452,8,566,4445,89,5120
"Wolt Online Prima HU",HU,37,3254,16,3254,3254,5261,5,143,3264,247,3673
"Ep DE",DE,35,213,24,213,678,0,80,123,438,1,644
"Galaxus CH",CH,34,10114,269,6188,17702,1394,19,3500,9431,1423,14393
"Jumia EG",EG,34,2263,6,2261,3896,15,65,212,2762,43,3086
"Avansas TR",TR,28,526,29,526,561,0,3,21,445,2,472
"Shoplink IE",IE,19,160,0,160,480,1849,30,53,96,103,283
"Boulanger FR",FR,17,1021,15,1019,2322,0,24,170,3140,1,3338
"Rappi - Pricesmart CO",CO,17,0,0,0,0,547,69,147,2,84,303
"Supermag BG",BG,15,2547,1133,2547,2834,900,24,51,5399,687,6169
"BCC NL",NL,11,1503,12,1502,2029,0,7,115,1452,1,1581
"Wildberries RU",RU,10,62984,5420,62961,64679,1492,10,176,31747,20,32072
"Unieuro IT",IT,6,1528,748,1524,1929,0,3,27,1500,1,1535
"Barrys Beacon IE",IE,4,164,9,158,164,417,10,51,93,78,233
"Proshop DK",DK,2,4921,781,4938,5299,374,23,687,2572,147,3440
Allegro,PL,0,2411,0,2411,0,0,0,0,14643,0,14643
"Apteka Galen",PL,0,0,0,0,0,0,29,7,25,2697,2781
"Carrefour BR",BR,0,0,0,0,0,0,7,23,1,221,252
"Drogerie Natura",PL,0,0,0,0,0,0,4,1,6,2525,2552
"Easy CL",CL,0,0,0,0,0,0,3,35,6,1,46
"Everli - Coop IT",IT,0,0,0,0,0,0,108,1,1,126,236
"Everli - Kaufland",PL,0,0,0,0,0,0,83,1,4,341,429
"Everli - Lidl",PL,0,0,0,0,0,0,89,1,2,331,423
"Everli Netto",PL,0,0,0,0,0,0,87,1,0,230,318
"Farmacia Pasteur CO",CO,0,0,0,0,0,0,4,97,3,177,282
"Farmaonline AR",AR,0,0,0,0,0,3872,3,35,2,165,206
"Getir IT",IT,0,0,0,0,0,0,2,11,1,116,132
"Intermarche FR",FR,0,0,0,0,0,1299,24,3,5,1241,1277
"Linio CL",CL,0,0,0,0,0,0,2,47,2,1,53
"Metro Delivery RU",RU,0,0,0,0,0,6,28,0,0,45,73
"Ozon RU",RU,0,0,0,0,0,0,752,154,153,166,1225
"PedidosYa Carrefour AR",AR,0,0,0,0,0,7851,3,23,6,216,249
"PedidosYa DIA AR",AR,0,0,0,0,0,4415,4,37,2,207,250
"Samokat RU",RU,0,0,0,0,0,0,33,34,1,34,102
"Sodimac CL",CL,0,0,0,0,0,0,20,55,2,2,79
"Утконос RU",RU,0,0,0,0,0,0,18,1,1,117,137
