﻿Site,Country,Categories,Prices,"Products changed","Products downloads",Relations,Search,"Categories time","Prices time","Products time","Search time","Total time"
"Ocado UK",UK,7166,50014,1014,50009,2332165,43561,648,20098,13367,1183,36935
"Mytime DE",DE,4776,11756,198,11756,105193,2980,2648,2774,5320,151,10962
frisco,PL,4711,16954,5428,16953,315260,95547,95,4924,22507,1462,29380
"Asda UK",UK,3565,29773,371,29773,1153604,59225,43,14098,18612,1342,34847
"Albert Heijn NL",NL,3461,21608,1091,21608,105773,6282,447,1675,2734,120,5084
"Makro CZ",CZ,3396,7720,26,7720,822732,487,3513,40954,3984,47,49357
"Coto Digital AR",AR,3301,18558,57,18554,127510,1592,2218,3576,9322,54,15255
"Morrisons UK",UK,3202,21612,260,21588,1096995,33347,124,6189,485,418,8217
"Rohlik CZ",CZ,3101,24242,3372,24242,230878,31740,2586,4408,15841,947,24192
"Metro SK",SK,3046,6423,31,6422,294137,0,2870,25297,7913,2,36492
"Waitrose UK",UK,3021,15693,950,15693,1426388,37982,91,20582,5616,978,28220
"Albert Heijn BE",BE,2906,10985,684,10985,54863,7592,418,1338,1949,162,3916
"Notino SK",SK,2745,42230,650,42230,122528,303,1273,8572,40701,18,50887
"Pilulka SK",SK,2729,39442,13650,39436,263931,11090,28,8779,27377,262,36808
"Galen BG",BG,2725,14279,55,14279,101558,4958,1416,2484,6977,112,11063
"Kosik CZ",CZ,2700,17382,368,17382,100272,35519,475,1758,8441,1017,11882
Auchan,PL,2620,16652,363,16652,275490,26312,60,15032,9344,1589,26505
"Drogeo CZ",CZ,2478,30793,17,30793,128316,42700,28,2679,17867,794,21574
"Amazon Fresh UK",UK,2466,9494,9457,9483,55274,17295,860,8041,5617,1276,15889
"Notino CZ",CZ,2388,55888,1108,39527,409070,82436,1105,9103,58259,0,68467
"Pilulka CZ",CZ,2369,32072,8202,32059,159304,34335,24,7488,43401,1120,52189
"Amazon UK",UK,2207,2012,1991,2012,1586327,35394,0,0,0,15736,15736
"Sainsburys UK",UK,2172,29327,376,29327,1901540,97672,402,30520,22095,2234,57492
"Boots UK",UK,2036,26505,2022,26493,167905,8678,39,4729,38787,264,43963
"Drogerie Natura",PL,1979,15444,77,15444,83932,50286,61,4256,24392,3456,32310
"Amazon Fresh IT",IT,1961,8286,8168,8281,40364,3364,2692,1905,7382,306,12313
"Brakes UK",UK,1895,9619,240,9619,28782,47646,868,1797,4164,467,7348
"Jumbo NL",NL,1808,17942,1002,17942,68045,5990,1153,1796,16093,173,19265
"Otto DE",DE,1752,14830,712,15575,54396,180,813,1399,7075,16,9352
"Musgrave IE",IE,1683,10896,74,13636,53377,3980,41,2444,12466,160,15136
"Auchan HU",HU,1674,22660,287,22656,164831,20143,21,4461,12210,815,17826
"Yuga RO",RO,1666,8850,83,8850,44006,0,2112,4569,19798,1,26531
"Cefarm 24",PL,1657,13364,11393,13341,97690,15821,2124,3765,17168,5739,28905
"Alza CZ",CZ,1600,30857,230,23,120041,28928,298,2108,290,2174,4935
"Delhaize BE",BE,1582,14289,5261,14285,59996,18826,19,2928,9894,750,13640
"Apteka Nowa Farmacja",PL,1382,15539,333,15533,78782,23429,11494,3630,18338,2088,35645
eZebra,PL,1375,42756,76,42752,152350,40610,45,10717,23875,8341,43266
"Alza SK",SK,1373,13923,0,0,59457,776,205,601,3607,0,4413
"Tesco UK",UK,1338,30578,472,30309,423478,25138,22,11097,13682,9658,34859
"Picnic NL",NL,1316,7206,142,7156,16727,3268,563,1021,3372,122,5100
"Remedium BG",BG,1309,26663,411,26552,96783,1538,224,6233,23324,156,30008
"Barbora EE",EE,1301,13054,1134,13054,46400,1258,36,1362,6006,70,7512
"Amazon BR",BR,1271,0,0,0,837270,0,0,0,0,20,20
"Coop CH",CH,1259,18553,622,18552,66840,1944,295,1955,32541,190,35035
"Rewe DE",DE,1255,0,0,0,34598,0,23,1609,0,0,1632
"Kifli HU",HU,1245,13769,227,13713,54740,12951,631,617,6563,432,8321
"Moja Lekaren SK",SK,1224,24243,170,24243,131122,4722,645,4380,24500,187,29941
"Amazon DE",DE,1213,171,171,171,604115,13163,0,0,0,5024,5024
"Lekarna CZ",CZ,1209,29328,191,29328,129362,5132,625,4349,29803,185,35266
"iGlobus Zlicin CZ",CZ,1205,19329,8,19327,35503,10463,24,3982,44771,327,49188
"E-Fresh GR",GR,1203,11803,354,11799,56732,6776,2297,4058,24334,704,31434
"Barbora LT",LT,1193,16484,249,16480,53684,1330,35,1218,7706,65,9079
"Farmaline BE",BE,1173,30793,380,30793,147128,0,866,2198,34956,1,38126
"S-kaupat FI",FI,1167,17832,1818,17830,125496,6453,21,5185,12020,112,17435
Hebe,PL,1160,20356,3850,20351,186813,29502,1035,5089,32919,1111,40341
"Picnic DE",DE,1113,7306,11,719,14984,1880,485,869,3964,168,5505
"Barbora LV",LV,1081,13829,129,13829,45785,1387,36,1289,6421,99,7880
"Albert App CZ",CZ,1078,7959,83,7958,43998,1708,485,2305,3841,63,6744
"Dr Max SK",SK,1077,22871,39,22923,98438,7151,718,6898,31056,413,39213
"Knuspr DE",DE,1064,10377,28,1453,42299,1631,537,483,5257,154,6479
"Eroski ES",ES,1043,18140,927,18131,24198,573,21,2573,9845,43,12510
"Amazon IT",IT,1030,539,539,539,391732,6504,0,0,0,707,707
"Mathem SE",SE,1027,12295,1,537,33961,7646,22,1137,13335,520,15053
"Salcobrand CL",CL,1014,7677,2,7676,34631,2584,309,636,4122,40,5139
"Auchan RO",RO,1002,23660,20,23618,407771,7509,30,5345,16443,596,22823
Bee,PL,1001,52116,4995,52115,187660,9391,454,3486,24378,236,28818
"Vkusvill RU",RU,998,11623,11395,11621,48189,1593,336,5860,24718,168,31119
"Zakaz - Novus UA",UA,998,17903,218,17903,37216,0,19,2036,9321,2,11440
Selgros,PL,978,20180,4629,20173,70240,28326,441,1079,8946,1579,12161
"Coop NL",NL,975,13094,1651,13094,56203,1602,1913,1861,17458,97,21372
"Tigros IT",IT,973,9892,20,9891,29719,6217,14,786,5629,238,6711
"Carrefour BE",BE,931,18771,45,17518,271102,22044,876,10909,5071,1221,18258
"Coop Shop IT",IT,927,11253,59,11252,33785,6428,14,667,8038,383,9132
"Coop SE",SE,914,1538,17,1539,5494,8231,21,950,5142,228,6357
"Pilulka RO",RO,870,10054,452,10064,43418,3447,19,458,4672,56,5269
"Unipatika HU",HU,864,4367,93,4368,30400,4696,523,1215,4330,269,6365
"Magnit App RU",RU,855,4189,271,4189,11644,0,20,1180,3171,1,4398
"SuperValu IE",IE,843,16125,35,16125,220451,13972,875,16649,17352,689,35820
"Ebag BG",BG,840,11405,2659,11345,43415,1779,16,1331,5706,32,7119
"Tesco IE",IE,832,16779,186,16747,418162,4638,10,7758,5196,881,14258
"Apteka Manada",PL,811,14294,400,13928,48078,39057,27,2831,23462,2681,29084
"Wong PE",PE,811,23847,148,20322,147387,1882,19,8560,19201,80,27949
"Superpharm Drogeria",PL,801,17417,789,17417,92956,37958,26,2000,30935,432,33488
"Polski Koszyk",PL,788,19526,58,19507,63140,1753,18,824,9166,68,10194
"Walmart MX",MX,788,23488,2428,23460,99572,3320,80,19331,21429,534,41434
"Auchan RU",RU,779,25321,229,25321,77644,301,16,1804,19535,34,21486
"eZiko Apteka",PL,777,7259,16,7234,43835,20068,355,1835,4302,1132,7681
"Alcampo ES",ES,771,0,0,0,0,568,1600,2110,2,872,4584
"Gurkerl AT",AT,771,9531,1355,9531,41723,3393,423,358,4276,112,5206
"Dr Max CZ",CZ,766,22946,223,22962,98822,8042,332,5952,22758,541,29823
"Zakaz - Metro UA",UA,754,11834,367,11834,22865,0,17,2418,9514,1,11983
"Coop DK",DK,750,11076,8085,11074,89859,1196,346,3300,13407,40,17164
Barbora,PL,743,10608,285,10606,135524,8469,37,3660,4937,917,9741
"Masxmenos CR",CR,730,9176,27,9175,25193,0,30,1781,10488,1,12322
"Walmart CR",CR,730,14359,62,14359,183700,5061,20,5458,16202,226,22011
"Cruz Verde CL",CL,729,9505,105,9505,131081,3100,39,18219,4325,38,22701
"Sklavenitis GR",GR,728,9902,38,9902,29706,4542,107,1080,4900,283,6404
"Esselunga A Casa IT",IT,722,15384,1493,15384,48146,16855,17,4706,27231,1362,33358
"Lunys SK",SK,720,5343,280,5343,18748,0,498,1228,6760,0,8507
"Apteka Gemini",PL,718,26927,5113,26945,93539,65840,25,5061,24204,808,30240
"Rimi LV",LV,716,14988,63,14988,44074,5420,16,793,15675,119,16633
"Bringmeister DE",DE,710,15588,40,2833,42646,4302,15,393,7449,142,8042
"Rimi EE",EE,709,12508,65,12508,36769,3727,15,764,13164,117,14081
"Intervare DK",DK,703,8951,8411,8951,25969,0,10,328,4111,112,4589
"Mall CZ",CZ,688,22580,565,22580,100471,0,572,941,0,0,1513
"Rossmann DE",DE,681,0,0,0,56353,0,844,0,0,0,844
"Bennet IT",IT,680,19517,232,18776,39357,14923,12,1081,9347,864,11339
"Tesco CZ",CZ,678,15877,76,15877,499637,24588,19,19503,13743,3991,38067
"Poiesz NL",NL,669,7686,0,7680,9905,1005,19,521,6462,45,7062
"DM SK",SK,661,12459,244,12105,35695,6069,14,1284,6282,273,7924
"Rimi LT",LT,661,14933,47,14933,44912,3421,14,767,15563,84,16457
"Hoogvliet NL",NL,658,8646,172,8646,14175,2404,14,756,8741,130,9657
Amazon,PL,657,686,677,679,1108558,25251,0,0,0,2340,2340
"Apteka Rosa",PL,648,9590,190,9590,56813,2167,20,4443,16309,145,21018
"City Gross SE",SE,646,12793,21,2769,27979,9144,15,383,6482,372,7284
"Crai Spesa Online",IT,644,7542,56,7542,27120,7072,460,1274,17747,980,20477
"Rossman HU",HU,640,14716,57,14716,53903,7750,588,742,26527,172,28159
"DOZ.pl",PL,629,19535,309,19533,77681,57409,527,3751,16550,2259,23247
"Mercator SI",SI,625,12817,13,12817,38451,2254,292,287,5735,78,6431
"Tesco HU",HU,625,14747,104,14747,985062,9777,13,34363,9728,2284,47707
"E.Leclerc Bielany",PL,620,32275,40,31890,102827,35905,107,3876,16724,23005,43871
Apteline,PL,616,14116,8,14115,23225,1711,605,1061,10011,392,12103
"Tesco SK",SK,610,15196,65,15196,219083,815,14,8494,17337,120,26318
"Colruyt BE",BE,606,7873,53,7885,93393,16418,11,13893,21982,2137,38135
"Thanopoulos GR",GR,597,15545,387,15545,52577,8794,17,4928,19462,722,25175
"Apteka Galen",PL,596,8348,6,6708,21738,3407,20,2532,20123,706,23426
"Benu CZ",CZ,593,13934,142,14048,63829,5910,14,6184,13398,71,19803
"Pingvinpatika HU",HU,591,7641,7309,7648,41562,2848,16,5727,10147,338,16320
"Plus NL",NL,586,15677,110,15677,32882,5648,46,2330,7475,232,10123
"Willys SE",SE,581,10473,65,2564,34403,7086,16,423,5527,232,6230
"Vasalekaren SK",SK,579,10127,64,10127,64134,4130,1165,8967,20599,684,31526
"Bestway Foodservice UK",UK,576,10135,444,10134,32190,3932,303,441,4826,106,5715
"Sams MX",MX,576,5184,10,5184,37020,679,23,3336,7681,190,11250
"Superdrug UK",UK,574,13854,129,13853,43518,6709,19,488,10010,1105,11676
"Carrefour EG",EG,572,18074,1480,18049,98361,457,14,2194,11924,22,14218
"DM HU",HU,570,12576,396,12576,34255,9789,12,1222,5908,315,7501
"Bestway Best-one UK",UK,569,6406,202,6404,20764,11976,296,375,2999,308,4047
"Bestway UK",UK,569,8736,445,8733,28177,40310,298,393,4157,852,5806
"E.Leclerc Wroclaw",PL,569,15756,125,15747,15951,12596,466,1790,23053,4922,30293
"Spar HU",HU,568,15412,2843,15409,356812,13875,17,8519,36347,636,45943
"Dr Max",PL,567,17790,79,17485,60085,26727,250,3249,17658,1498,22747
"Zakaz - Metro MD",MD,567,9797,213,9797,16711,0,12,1431,7528,1,8992
"Glovo Kaufland RO",RO,564,8996,37,8996,16020,0,16,318,131,39,529
"Kritikos GR",GR,564,16841,12863,16841,47650,0,14,26,7517,7334,14934
Lek24,PL,563,6034,65,6034,21513,4423,13,1189,2811,220,4274
Spar,PL,563,25482,12799,25478,667345,77275,25,12089,11729,2377,27178
"Metro RU",RU,562,19995,361,19993,26063,1436,13,2021,18914,52,21075
"Yandex Lavka RU",RU,554,2735,615,2725,7800,2516,337,2534,18703,535,22122
"Apteka Melissa",PL,552,26758,24205,26582,99017,61703,30,7493,16965,945,25566
"Chronodrive FR",FR,549,8456,19,1740,15388,2107,18,513,5384,105,6047
"DM CZ",CZ,549,12209,466,11854,33354,32788,15,1177,6184,1093,8509
"Pão de Açucar BR",BR,548,24886,630,24885,59070,0,18,2784,11976,1,14836
"AB GR",GR,547,11324,66,11324,33687,8768,14,994,5487,269,6796
"Plazavea PE",PE,545,27288,623,27277,199087,1919,17,4721,12324,110,17313
"Freshful RO",RO,543,18931,196,18931,38696,359,15,898,9304,14,10289
"Jumbo CL",CL,543,21388,87,20217,574867,2672,41,7900,10272,180,18815
"MyMarket GR",GR,537,14417,2181,14417,51872,7212,14,2830,18752,404,22051
"Carrefour ES",ES,533,14917,11,1920,18023,423,37,627,8721,41,9462
"E.Leclerc Rzeszów",PL,531,11261,22,8887,32813,0,34,619,24506,729,25945
"Drogeria Olmed",PL,524,44805,1478,44802,152176,26690,23,12192,44239,0,56454
"Clube Extra BR",BR,523,11401,227,11402,30810,0,17,1090,5487,1,6631
"Cold Storage SG",SG,518,9495,0,41,29810,0,601,1981,48,1,2639
"Apteka Zawiszy",PL,505,20546,4298,20661,80735,21971,270,1432,14047,472,16326
"Hemkop SE",SE,504,10356,75,2709,32482,7421,15,366,5393,231,6040
Rossmann,PL,504,24390,2693,24385,79151,31857,25,868,25436,728,27155
"Benulekaren SK",SK,501,9052,26,9069,48456,6884,13,3396,6503,142,10112
"Interspar AT",AT,500,21964,80,21964,265724,6276,15,2548,26862,142,29744
Intermarche,PL,499,19525,1,19525,164941,14883,23,4282,8901,1386,14940
"Migros Online CH",CH,486,12265,1086,12265,38020,1345,27,1213,9949,190,11416
"Spar SI",SI,482,16491,590,16491,58034,2713,15,624,18868,105,19657
"Dr Max Drogeria",PL,480,17981,66,17973,58344,6801,13,2699,17225,307,20330
"Mega Image RO",RO,479,12467,77,12465,37313,9785,15,772,5578,216,6630
"Famila a casa IT",IT,474,12117,88,12098,29353,6452,812,1493,18931,316,21577
"E.Leclerc Radom",PL,472,13575,339,13567,42803,10644,89,2802,7706,2487,13163
"e-Dostavka BY",BY,469,35249,1194,35246,98417,2315,12,8447,16440,169,25157
"Carulla CO",CO,464,11348,122,11344,64178,904,44,1845,5981,49,8012
"Apteka Olmed",PL,463,47351,29866,47350,163476,21010,18,11140,40467,2551,54320
"Basko IT",IT,462,8434,26,8432,25785,1570,8,276,9527,47,9879
Ceneo,PL,462,186870,5132,132066,241876,46525,948,6064,62637,0,69649
Aptelia,PL,459,14465,24,14465,65938,11569,208,2211,9409,390,12279
"GPSfarma AR",AR,458,5255,458,5255,13079,1548,30,2275,8734,127,11180
"Cornershop - Jumbo CL",CL,454,23235,11,23132,135217,2555,35,1028,5972,199,7377
"Ecofamily HU",HU,448,6773,47,6773,22153,4218,12,2321,39634,628,42660
"MegaMarket RO",RO,447,5175,0,5175,6273,563,13,1294,5958,185,7468
"eTabletka SK",SK,442,11322,119,11322,76940,6823,197,3811,6901,90,11078
"Patika24 HU",HU,441,4383,5,4382,10626,3228,13,982,8995,277,10284
"Dr Max RO",RO,439,14257,443,14319,41808,7643,208,2141,14740,523,17654
Stokrotka,PL,435,7669,7,7669,175931,12454,24,3892,3594,413,8198
"Cornershop - Lider CL",CL,434,19833,13,19201,129742,2217,34,924,4467,187,5750
"Unimarc CL",CL,433,10634,175,10634,31901,2347,36,734,10707,115,11627
"E.Leclerc Lublin Turystyczna",PL,432,12325,2,12324,15291,12564,16,1064,23853,4458,29452
"Soriana MX",MX,432,16430,45,1450,32261,1962,27,4640,4700,745,10146
"E.Leclerc Katowice",PL,413,9160,5,9150,9660,10198,88,434,5239,1528,7326
"iFresh SK",SK,412,7040,6838,7040,159808,0,15,4807,33628,1,38753
"Farmacia Tei RO",RO,408,24421,24414,24419,26096,3271,13,752,12624,169,13579
"Ica New Version SE",SE,407,6368,1558,6368,88337,5999,12,3123,2943,232,6411
"Elefant RO",RO,401,43714,46831,46831,98056,2403,218,4344,27991,85,32696
"Teta Drogerie CZ",CZ,401,8572,25,8566,24887,6721,9,779,7576,199,8596
"Kruidvat NL",NL,399,8668,134,8661,23876,1739,184,678,7218,95,8207
"Glovo Biedronka Warszawa",PL,396,3022,59,3022,5788,681,10,180,149,735,1152
"Apteki 36.6 BG",BG,395,9910,22,9910,47062,1342,11,1371,4689,87,6197
"OnlinePrima HU",HU,395,8128,30,8128,24935,7400,9,1056,16029,369,17521
"Majestic UK",UK,389,1369,10,1369,17897,1217,182,1820,1130,142,3303
"Mercado Libre MX",MX,389,39993,598,39582,85303,2756,739,947,10278,352,12381
"Unimarkt AT",AT,389,3436,300,3435,15920,3293,120,442,3105,289,3973
"Świat Leku",PL,385,11521,42,11521,35806,2083,211,1419,9756,201,11652
"DrankDozijn BE",BE,380,3682,27,3682,14982,2114,7,657,5789,333,6798
"DrankDozijn NL",NL,380,3682,27,3682,14982,299,7,645,5784,20,6470
"Ica SE",SE,379,0,0,0,0,12876,13,21744,8,221,22061
"Talabat Mart EG",EG,378,5807,5331,5807,42707,548,13,2653,51776,13,54489
"Bebe Tei RO",RO,371,26256,178,26246,27186,1569,12,882,12485,91,13501
"Billa AT",AT,371,9362,750,9362,30480,6711,11,506,22530,187,23258
"Walmart GT",GT,369,9426,53,9423,162351,4307,15,4706,10232,150,15211
"Ulabox ES",ES,364,3184,13,3185,6806,0,9,224,3196,1,3451
"Carrefour IT",IT,359,13888,3601,13875,38831,4613,240,1312,8066,336,9994
"Globus RU",RU,357,18247,17478,18100,61117,316,11,2124,10308,18,12553
"Bringo RO",RO,356,30250,104,27431,44415,7045,25,1479,1115,858,3582
"Feedo CZ",CZ,356,21093,6608,21093,58041,444,153,1287,39753,30,41423
"Apteka Prima 24",PL,355,4532,12,4531,20315,1257,10,419,2732,102,3308
"E.Leclerc Lublin Tomasza Zana",PL,352,10813,58,10810,14012,9461,12,448,7365,1006,8877
"Gall & Gall NL",NL,347,3212,3139,3213,23379,65,8,5048,7394,22,12488
"Jumbo AR",AR,346,12238,162,12223,64185,1113,26,2782,5971,42,8868
"Cornershop - Santa Isabel CL",CL,343,8468,7,8467,10321,1754,33,676,11592,175,12493
"Iceland UK",UK,342,5424,234,5424,28727,17201,9,2699,7130,2567,12439
"Rossmann App CZ",CZ,340,11254,157,8685,36396,0,8,3254,4333,2,7642
"E.Leclerc Elblag",PL,339,10307,35,10279,28554,14605,39,1934,10393,2888,15301
"Istegelsin TR",TR,338,4105,55,4105,9177,0,23,164,1886,1,2088
"Roastmarket DE",DE,335,3444,3,3444,32019,371,107,394,13099,16,13634
Allecco,PL,334,11573,10658,11572,40187,9961,22,686,6131,199,7101
"Mercado Livre BR",BR,328,109390,1941,109376,1295844,0,602,13821,26591,1,41938
"Sipo HU",HU,327,5102,290,5082,10691,1441,6,734,4268,123,5166
"Cornershop - Metro PE",PE,325,14743,4,14680,47844,1795,14,589,8455,148,9251
"Mpreis AT",AT,325,8040,249,8039,28180,4616,292,838,8115,99,9377
"Cornershop - Wong PE",PE,322,16667,6,16666,49351,1844,15,550,9592,161,10362
"Mercado Libre AR",AR,319,38539,948,16036,82167,376,193,903,29746,111,31027
"Gastronom BG",BG,309,7459,7216,7459,23192,964,11,388,4429,210,5063
"Amazon NL",NL,302,0,0,0,121013,0,0,0,0,20,20
Empik,PL,302,111236,37446,90570,219283,33234,79,6943,56192,0,63214
"Bipa AT",AT,300,12174,142,12174,26163,573,13,366,16681,17,17105
"Cora RO",RO,300,52184,2,42175,105711,6535,10,4725,60961,0,65696
DoDomku,PL,299,5987,512,5987,17482,2361,42,451,3326,327,4222
"Easy Coop IT",IT,299,8783,78,8783,26253,8824,8,1884,17793,865,20568
"Lisek App",PL,298,2105,14,2105,2948,1296,7,10,973,100,1102
"Mall SK",SK,298,11720,167,11720,29822,1087,344,856,25288,1346,27940
"SOpharmacy BG",BG,296,9824,211,9824,31107,6291,371,977,11315,552,13248
"E.Leclerc Gdansk",PL,295,9294,0,9294,25558,8221,38,1693,9303,2494,13573
Makeup,PL,292,71643,2060,71643,484814,89114,13,32601,42491,0,75105
"Tudrogueria Virtual CO",CO,291,8032,4,8032,15508,939,22,370,3682,43,4132
"Apteka Nove BG",BG,289,0,0,0,0,0,9,499,1,198,711
"Apteka Medea BG",BG,284,8680,147,8679,26112,0,8,1072,5337,1,6444
"Sephora US",US,283,20214,2539,20214,131316,0,20,892,14830,1,15798
"E.Leclerc Tychy",PL,277,8632,81,8626,8773,9790,55,376,4376,1572,6411
"Konzum HR",HR,277,10869,130,10866,17146,3509,315,2414,33211,436,36391
"i-apteka",PL,276,10162,871,10162,21887,6832,6,459,10706,537,11783
"Argos UK",UK,274,5305,10,5301,7906,0,6,557,18482,2,19065
Makro,PL,272,3086,9,3086,8465,31946,4,528,1417,1637,3607
"Edeka DE",DE,268,3714,0,0,4951,106,14,195,3911,119,4271
"Groby HU",HU,268,8116,41,8116,21562,4393,7,1042,9006,352,10452
"Farmacia la Pret Mic RO",RO,266,8157,62,8157,26505,5937,37,3357,11600,850,15872
"Farmacia Pasteur CO",CO,265,8696,79,8119,60957,1074,22,1778,5151,47,7058
"E.Leclerc Gliwice",PL,260,7808,3,7808,21369,6985,33,1476,7236,2183,10991
"Dunnes IE",IE,256,13471,105,12688,21485,13418,5,697,18520,603,19845
"Carrefour BR",BR,255,9106,10,8981,44569,0,15,6822,13760,1,20647
"Apteka Medkon",PL,254,8027,8023,8023,33061,4651,12,4446,17103,1697,23305
"Azbuka Vkusa RU",RU,254,9697,8120,9697,20547,1176,24,1549,36425,161,38186
"La Comer MX",MX,254,22271,86,22271,22028,3964,13,446,61845,169,62483
"PriceSmart CR",CR,253,2925,68,2921,42702,3333,10,8601,2740,665,12051
Wapteka,PL,252,18939,18157,18909,64897,42657,6,3995,10805,747,15642
"Delitea SE",SE,247,3195,45,3198,9166,5679,9,209,4850,84,5179
"Supermarket AM",AM,247,6569,3,6447,16745,0,9,945,13323,0,14295
"Szybki Koszyk",PL,247,4258,31,4258,14642,654,118,627,1950,42,2763
"Helpnet RO",RO,245,6695,420,6712,18871,5134,10,1340,3013,240,4631
"Merqueo - Bogota CO",CO,245,2174,6,2174,4910,2201,15,278,1083,92,1474
"Panda Market HU",HU,242,2576,302,2576,6403,1478,6,288,1221,140,1671
"Olimpica CO",CO,241,10206,592,10157,42403,2440,18,1952,14356,143,16509
"Benu HU",HU,240,4958,1,4958,15825,2761,4,2406,6254,394,9080
"Farmatodo CO",CO,238,13999,274,13999,62301,3269,27,502,17793,69,18455
"Look Fantastic UK",UK,237,26237,106,26213,93836,0,6,1263,11964,1,13355
"Afya Pharmacy BG",BG,234,10295,3,10295,32254,1865,8,2191,11887,327,14440
"Coop UK",UK,232,8600,96,8600,182911,7673,9,6112,4372,762,11429
"Metroiroda HU",HU,228,3460,54,3453,6997,1275,8,680,4326,175,5214
"Disco AR",AR,227,7777,61,5848,32440,1319,99,2868,12349,45,15385
"Linio CL",CL,227,47773,74,47305,80750,0,117,788,17843,0,18881
"Beauty Bay UK",UK,220,11523,38,11519,49424,0,7,325,5166,1,5546
"Getir IT",IT,218,1901,24,1901,5661,8164,9,118,978,107,1218
"Rappi - Carulla Express CO",CO,217,12416,5770,8663,29189,1234,127,6523,40826,91,47590
"MaxiCoffee FR",FR,215,1498,383,414,2248,1579,275,306,2895,202,3685
"Booker Foodservice UK",UK,214,11799,2869,11799,22101,2727,134,450,5386,96,6094
"Igooods RU",RU,214,16977,26,16976,36934,549,8,248,7785,19,8119
"Superpharm Apteka",PL,214,12081,1281,12081,30924,25680,3,593,21367,347,22353
"Exito CO",CO,210,9552,105,9547,38478,1493,138,2942,16796,123,20049
Cocolita,PL,208,11164,96,11136,47950,16181,4,2171,23104,1691,27039
"Pyaterochka App RU",RU,207,5490,17,5490,13470,1255,7,244,2595,22,2891
"Yandex Market RU",RU,207,36767,4837,36729,47299,1508,20,2607,44825,112,47655
"Booker UK",UK,206,8955,1944,8955,17066,8959,126,374,4083,826,5443
"Subra BG",BG,206,8558,10,8558,23247,4804,10,269,4019,658,4985
"Merqueo - Medellin CO",CO,205,1405,0,1405,3118,1674,19,238,690,79,1035
"Minifarm RO",RO,203,4894,0,4891,13578,518,14,896,4948,249,6122
"Emag HU",HU,199,0,2993,49011,119579,0,8,3085,0,0,3093
"Rappi Lider CL",CL,197,16478,12612,14572,76991,3351,21,5354,17867,84,23396
"Утконос RU",RU,194,0,0,0,0,0,0,0,0,0,0
"Vodovoz RU",RU,185,1091,93,1091,2236,0,8,330,1944,1,2288
"Deliberry - Caprabo ES",ES,184,8523,0,40,9627,0,21,1456,61505,0,62982
"Coursesu FR",FR,183,1814,915,1764,2368,1223,35,3180,16406,1248,20876
"Deliberry - Solri ES",ES,178,9114,0,54,10223,0,20,1402,62195,0,63617
"Tiendas Jumbo CO",CO,176,16033,57,16031,65340,2788,18,1701,17130,100,19031
"Deliberry - Mercadona Barcelona ES",ES,175,5685,0,57,6815,0,19,1342,50888,1,52255
"Rappi - Exito Express CO",CO,175,13101,6236,11067,31204,985,123,6887,52329,93,59453
"Deliberry - Mercadona Madrid ES",ES,173,5614,0,65,6715,0,17,1224,49835,1,51084
"PennyDomu CZ",CZ,173,1573,4,1573,4470,0,76,241,740,0,1063
"Rappi Jumbo CL",CL,172,15477,12354,15152,55580,3693,21,4715,16520,84,21403
"Linella MD",MD,171,4882,4599,4882,7354,0,9,200,3281,1,3501
"Rappi Turbo CL",CL,167,905,13,905,1910,591,134,1397,2785,55,4374
"Rappi Unimarc CL",CL,167,12095,5907,11582,23153,3404,18,2754,12929,85,15825
"Deliberry - Supercor ES",ES,161,4065,0,90,4980,0,19,1134,36345,1,37506
"Everli - Coop IT",IT,160,12075,102,12075,13244,7506,66,848,12843,634,14406
"Auchan FR",FR,156,1393,1090,1393,4688,618,210,335,1808,187,2598
"Professional Farmaline RO",RO,155,8307,2,8307,17633,5353,8,564,4920,104,5622
"Rappi Turbo CO",CO,154,2248,1210,2248,8854,2715,105,5918,8876,196,15107
"Dirck3 NL",NL,151,537,12,537,2521,144,5,92,244,28,374
"Rappi Coto AR",AR,151,9965,197,9853,22784,2073,123,2442,28802,86,31470
"Rappi Carrefour AR",AR,149,5520,91,5508,6787,2112,123,1176,16901,78,18287
"Deliberry - Dia ES",ES,143,4140,0,104,4991,0,16,979,37130,1,38132
"Deliberry - La Plaza ES",ES,143,4218,0,108,5068,0,15,995,38076,0,39093
"Everli - Metro IT",IT,142,2481,7,2480,3306,1501,63,307,2667,313,3355
"Medexpressz HU",HU,137,1350,0,1350,2889,0,5,271,726,32,1039
"Rappi Turbo PE",PE,137,1177,1008,1177,3524,1679,137,2162,3489,111,5904
"Rappi Turbo AR",AR,136,1082,13,1082,4202,1475,142,2205,2301,78,4729
"Nazuby CZ",CZ,135,1723,2,1723,5935,161,6,132,811,17,981
"Superxtra PA",PA,135,6477,0,6477,13685,0,68,65,3169,3,3318
"Alkohol CZ",CZ,131,4536,152,4536,12627,0,16,1379,4164,1,5584
"Extra BR",BR,129,78143,177,78143,78143,0,42,1235,19208,16,20576
"Ozon RU",RU,127,0,0,0,87351,0,860,3518,0,0,4378
"Automercado CR",CR,126,12037,7,11966,18779,0,48,2356,32072,1,34495
"Перекрёсток Впрок RU",RU,122,15264,20,3052,30069,2715,6,818,9743,66,10690
"Cora Drive BE",BE,121,14005,9758,14005,91876,5786,10,3879,15213,1637,20808
"Condis ES",ES,120,6602,41,2954,6981,0,5,204,3663,1,3892
"Amazon Fresh DE",DE,113,9397,2,2,14749,5911,317,1307,7500,479,9624
"Rappi Farmacity AR",AR,113,6386,4558,6085,18430,1884,123,3278,20652,78,24149
"Mercado Libre CL",CL,111,49295,26137,49254,66125,2245,117,741,23369,151,24447
"E-tinex MK",MK,108,4207,2,4207,8414,391,5,83,1905,29,2028
"Coop EE",EE,105,1375,14,1375,3253,1220,4,95,660,56,819
"Vea Digital AR ",AR,104,2392,21,1559,9340,1162,96,1220,5876,49,7252
"Savage & Whitten IE",IE,101,3745,50,3745,7490,941,8,380,1646,75,2155
"Vitania BG",BG,98,7254,70,7254,7254,4307,7,354,5022,219,5622
"Everli - Kaufland",PL,94,0,2054,4713,48099,0,48,23761,0,0,23809
"Farmacity AR",AR,94,3371,18,3371,5233,1230,11,359,1204,59,1636
"Everli - Lidl",PL,90,2432,2427,2432,17516,3216,46,21449,21595,383,43502
"Kaufland DE",DE,90,28498,86,2134,35379,735,63,690,13880,34,14720
"PriceSmart PA",PA,90,1678,38,1670,19550,1040,6,4138,1231,272,5670
"Koffievoordeel NL",NL,89,472,12,475,2816,1267,4,293,447,29,777
"PriceSmart GT",GT,87,1541,23,1538,11378,2145,6,2675,1146,704,4543
"Kaffedeal DK",DK,83,391,5,391,989,882,4,48,185,32,270
"Brack CH",CH,79,8424,6891,8303,20323,1823,72,277,8061,163,8598
"Comfandi Supermercados CO",CO,72,4601,4383,4599,9278,768,15,1629,14286,233,16173
"Durst DE",DE,69,1113,69,1113,1182,0,6,27,30,5,74
"Droguerias Cafam CO",CO,68,4370,1545,4369,11175,2238,61,744,7583,102,8502
"Media Markt DE",DE,68,906,93,886,1395,441,507,1945,5172,556,8195
"Rappi Cruz Verde CL",CL,67,4538,2545,3420,29965,3237,10,1963,4841,84,6926
"Pretty Little Thing UK",UK,65,2155,10,2155,9838,0,14,2816,20350,1,23194
"Rozetka UA",UA,62,72446,1756,72363,91101,0,145,6562,20457,1,27425
"Emag RO",RO,60,59603,881,59575,59609,5152,7,1100,43078,240,44519
"PedidosYa DIA AR",AR,59,1576,2,1576,1576,406,13,150,689,22,876
"Comfandi Droguerias CO",CO,56,4664,2369,4661,9207,1573,13,1465,9998,319,11804
"Kapselkongen DK",DK,54,249,0,249,498,645,23,52,230,33,338
"iDrinks HU",HU,54,6708,6572,6708,14522,253,5,1120,7885,56,9093
"Bigshop MK",MK,51,1022,0,1022,3813,558,168,385,1285,163,2005
"Expert DE",DE,51,0,0,0,959,0,0,0,0,0,0
"PedidosYa Carrefour AR",AR,48,4169,7,4169,4169,858,8,162,1809,22,2008
"Very UK",UK,47,3981,8,1,4385,0,17,49,16,1,92
"Jumia EG",EG,43,2339,25,2338,4451,15,35,139,1244,22,1447
"Carrefour AR",AR,41,3251,582,3213,10934,495,84,628,5644,38,6408
"BilkaToGo DK",DK,37,10198,20,10198,54253,1757,7,122,4393,38,4665
"Selver EE",EE,37,4358,7,4343,11529,2854,4,277,5757,160,6212
"Altex RO",RO,36,1625,110,1547,3201,1894,5,152,1736,129,2028
"Bol NL",NL,36,16518,6474,16639,27678,2384,28,1851,17951,530,20383
"Ep DE",DE,36,220,54,220,700,0,76,123,452,1,656
"Saturn DE",DE,34,594,37,258,978,370,203,510,2654,2433,5810
"Winelivery IT",IT,34,1258,35,1258,2672,0,4,174,704,2,887
"Galaxus CH",CH,33,8765,7341,8765,8765,1015,20,1870,8363,1245,11518
"John Lewis UK",UK,33,395,71,395,585,203,6,32,400,156,595
"Kesko FI",FI,31,4380,0,0,59530,8722,810,1526,0,1373,3794
"Avansas TR",TR,28,596,17,587,633,0,5,23,4737,2,4770
"Americanas BR",BR,27,5215,538,5199,40568,0,347,1622,42822,1,44815
"Carrefour FR",FR,24,694,95,694,2376,1527,7,907,13036,200,14168
"MyDeal AU",AU,20,12,0,12,9396,928,4,68,6,179,259
"Shoplink IE",IE,19,147,0,147,441,1743,30,77,89,105,302
"Boulanger FR",FR,17,939,380,939,2175,380,28,113,2781,148,3073
"Euronics DE",DE,15,9558,13,193,37680,0,33,915,42290,1,43325
"Qvc US",US,14,15340,869,15340,16871,0,18,221,17753,1,18015
"El Corte Ingles ES",ES,11,3919,0,127,5101,682,57,427,29804,109,30414
"BCC NL",NL,10,1711,8,1711,2285,664,5,125,1605,55,1795
"Leclerc FR",FR,10,241,0,0,482,823,28,489,12950,1030,14505
"Wildberries RU",RU,10,57673,5395,57622,59789,1583,10,181,30096,36,30542
"Myer AU",AU,9,8234,148,473,10302,0,12,1562,1033,0,2611
"Coles AU",AU,8,322,16,99,650,403,11,141,402,359,913
"Intermarche FR",FR,8,442,122,440,849,814,5,34,1375,711,2136
"AO UK",UK,7,825,137,825,1128,285,69,9,706,8,799
"Woolworths AU",AU,7,1469,0,122,2329,365,2,80,49,34,166
"Unieuro IT",IT,6,1670,792,1668,2093,1178,3,18,782,45,853
"Barrys Beacon IE",IE,4,158,20,158,158,397,7,55,79,74,216
" SberMarket - Lenta RU",RU,0,0,0,0,0,0,2406,4,0,2380,4791
Allegro,PL,0,2375,0,2375,0,0,0,0,52611,0,52611
Carrefour,PL,0,0,0,0,0,37580,1063,22,12,2320,3451
"Chedraui MX",MX,0,0,0,0,0,0,4,104,2,62,172
"Cruz Verde CO",CO,0,0,0,0,0,0,2,172,3,49,227
"Datart CZ",CZ,0,0,0,0,0,153,10,121,30,3950,4116
"Dia AR",AR,0,0,0,0,0,0,2,166,6,86,261
"Drogas La Rebaja CO",CO,0,0,0,0,0,0,60,3669,2,141,3872
"Easy CL",CL,0,0,0,0,0,0,2,254,2,1,259
"Heb MX",MX,0,0,0,0,0,0,4,116,0,14,142
"Kaffekapslen DK",DK,0,0,0,0,0,0,3,8,0,70,81
"Lider CL",CL,0,0,0,0,0,1913,5,122,69,212,467
"Lopido CO",CO,0,0,0,0,0,826,16,123,20,41,226
"Mediaworld IT",IT,0,0,0,0,0,0,33,1,2,239,275
"Metro Delivery RU",RU,0,0,0,0,0,0,94,2,1,308,405
"Okey RU",RU,0,0,0,0,0,0,10,22,1,308,342
"Rappi - Carulla CO",CO,0,0,0,0,0,4636,39,122,40,332,541
"Rappi - Exito CO",CO,0,0,11302,14324,0,0,134,8503,0,0,8637
"Rappi - Pricesmart CO",CO,0,0,0,0,0,3070,36,122,24,270,454
"Samokat RU",RU,0,0,0,0,0,0,4,33,1,19,58
"SberMarket - Metro RU",RU,0,0,0,0,0,0,2193,11,1,2535,4741
"Sodimac CL",CL,0,0,0,0,0,0,19,121,53,8,204
"Tottus CL",CL,0,0,0,0,0,1997,2,122,70,54,249
