﻿Site,Country,Categories,Prices,"Products changed","Products downloads",Relations,Search,"Categories time","Prices time","Products time","Search time","Total time"
"Pilulka CZ",CZ,8193,46827,177,468,745919,21630,9684,18026,2095,0,29805
"Ocado UK",UK,6525,46327,92,2639,440354,42035,1350,11493,2309,2078,17581
"Mytime DE",DE,5550,11292,42,198,111280,2960,2614,3330,105,156,6258
"Pilulka SK",SK,4706,40538,0,0,487613,10239,7647,24228,0,0,31875
frisco,PL,4701,15491,14,2925,283994,116179,57,11724,9773,2668,24542
"Samokat RU",RU,3561,6197,19,239,77248,205,29,61,264,80,493
"Albert Heijn NL",NL,3500,21369,11,230,107375,4308,449,1546,28,80,2160
"Morrisons UK",UK,3283,21145,237,2213,98634,32609,612,5675,1907,2140,10405
"Asda UK",UK,3186,28500,69,2248,890600,40593,8,9944,1105,1155,12697
"Waitrose UK",UK,3083,16379,103,1232,1501827,34110,32,23606,473,849,25585
"Albert Heijn BE",BE,2911,9988,8,91,51382,6171,418,1303,12,123,1889
"Rohlik CZ",CZ,2735,23643,89,814,212601,12230,2478,3921,554,649,7752
"Drogeo CZ",CZ,2516,6357,5703,6357,122932,26280,10,2120,2970,553,5692
"Galen BG",BG,2511,12015,29,187,84839,2738,1332,2156,118,59,3723
"Coto Digital AR",AR,2483,18743,83,411,94070,1208,1795,3550,279,38,5706
"Kosik CZ",CZ,2455,15274,199,717,85942,24570,437,1515,334,717,3042
"Amazon Fresh UK",UK,2437,8750,612,612,51197,16660,3932,4034,568,564,9138
"Sainsburys UK",UK,2241,30760,47,2422,1648370,86359,239,26833,1913,3754,34017
"Amazon Fresh IT",IT,2146,7579,690,713,33254,2322,6766,1944,442,196,9363
"Notino SK",SK,2139,97,95,97,3161,160,969,5737,149,13,6881
Auchan,PL,2050,12869,650,1504,240111,26423,21,7580,990,4221,13060
"Drogerie Natura",PL,1982,21401,39,1933,94286,68238,58,3624,2262,2538,8615
"Boots UK",UK,1908,23661,1011,9430,122177,7783,12,3345,15466,1450,20348
"Brakes UK",UK,1895,9324,0,199,28016,30956,888,1828,94,315,3142
"Auchan HU",HU,1862,34260,96,2361,358635,11311,4,13645,1262,516,15618
"Jumbo NL",NL,1839,18912,42,339,72604,4271,1257,1951,319,124,3695
"Notino CZ",CZ,1753,230,226,230,4344,20113,790,5897,284,1088,8124
"Yuga RO",RO,1688,0,27,98,0,526,1622,3880,4143,355,10000
"Drogas La Rebaja CO",CO,1687,11965,308,3923,358957,6634,65,10887,4722,460,16257
"Cefarm 24",PL,1646,13256,59,977,98795,12499,2139,3783,1272,5933,13291
"Otto DE",DE,1640,341,258,346,65644,849,763,987,388,31,2203
"Delhaize BE",BE,1553,14277,497,587,60070,15257,8,2762,373,371,3549
"Alcampo ES",ES,1455,15911,395,644,53423,542,4940,7041,986,197,13200
eZebra,PL,1317,41119,101,2688,145462,42144,25,5922,3174,3866,13257
"Tesco UK",UK,1284,28877,99,2719,335356,25133,9,13239,1767,11490,26863
"Kifli HU",HU,1255,14991,1587,1620,61156,10007,602,587,741,382,2340
"Barbora EE",EE,1248,11962,88,157,42670,1065,30,1193,75,70,1390
"Picnic NL",NL,1239,6958,7,90,15163,2262,528,955,44,80,1619
"Apteka Nowa Farmacja",PL,1216,14940,60,997,69735,21989,9722,2302,861,1487,14437
"Coop CH",CH,1198,17836,36,142,64517,1901,265,1903,291,134,2634
"E-Fresh GR",GR,1165,12204,30,562,58831,6159,2227,4090,1169,633,8154
"Amazon DE",DE,1153,294,294,297,396526,15108,0,0,0,2579,3936
"Lekarna CZ",CZ,1138,28786,80,459,125994,4232,565,3236,233,158,4265
"Moja Lekaren SK",SK,1136,24406,85,268,107784,4199,571,2766,142,151,3678
"S-kaupat FI",FI,1125,40733,2164,37952,356424,5023,3,6594,18655,97,25505
"Barbora LV",LV,1116,11332,53,125,40481,1248,36,1246,62,86,1450
"Mall CZ",CZ,1094,6156,892,6154,131236,13091,665,2386,7380,4756,15287
"Barbora LT",LT,1089,12045,7,81,39913,1215,26,1093,41,65,1243
"Carrefour BE",BE,1054,0,0,0,0,21506,1064,75,1,2606,3790
"Coop NL",NL,1040,17328,76,177,73339,915,1149,3712,333,70,5314
"Mathem SE",SE,1037,13368,18,534,36228,5417,6,1101,764,381,2277
"Salcobrand CL",CL,1017,6253,6,6252,28663,1149,289,592,3150,15,4064
"Walmart AR",AR,1017,13695,90,441,55410,1196,506,4238,2991,52,7816
Hebe,PL,1012,2422,445,2422,126232,40791,494,2166,2995,857,6619
"Eroski ES",ES,1003,24152,7,158,50236,490,6,2955,118,37,3157
"Knuspr DE",DE,996,10891,51,214,41092,1259,469,465,96,154,1220
"Remedium BG",BG,995,26804,17,259,77703,702,234,7695,706,134,8818
"Picnic DE",DE,978,7120,12,208,14294,1849,462,850,95,165,1583
"Amazon IT",IT,968,540,539,540,435836,6182,0,0,0,769,769
Selgros,PL,950,22695,1033,1312,76824,26212,422,925,599,1435,3502
"Auchan RO",RO,942,22310,95,699,92327,8683,19,866,369,150,1492
"Coop Shop IT",IT,932,10451,0,77,31274,5506,4,703,56,357,1139
"Coop SE",SE,925,9960,56,576,33678,5424,5,905,266,159,1358
"Magnit App RU",RU,913,4142,19,138,11541,997,10,1672,124,153,1966
"Alza CZ",CZ,868,21650,480,1430,75892,20071,159,1108,328,1480,3150
"Unipatika HU",HU,854,4362,7,304,31057,2549,482,996,173,128,1793
"SuperValu IE",IE,849,16711,19,953,227425,11683,484,9210,574,500,10949
"Tigros IT",IT,849,3508,7,199,9898,6463,3,1012,123,248,1396
"Dr Max SK",SK,846,19067,414,414,83673,5006,516,3582,479,250,4872
"Superpharm Drogeria",PL,813,2236,74,2236,86261,57791,10,1927,4205,639,6856
"Wong PE",PE,811,21094,21094,21094,52342,0,3,2290,11361,2,13671
"Polski Koszyk",PL,801,20132,105,1027,66111,8759,15,841,585,479,2011
"Pilulka RO",RO,791,39977,113,298,147377,3566,408,2544,423,122,18254
"Tesco IE",IE,776,17229,110,914,422356,4445,8,10818,616,1082,12740
"Superdrug UK",UK,774,15764,10,272,45168,6856,12,972,720,449,2193
"Auchan RU",RU,767,26637,354,840,85402,2559,9,1686,632,87,2469
"Bringmeister DE",DE,734,16332,45,287,42251,5406,5,468,129,144,777
"Intervare DK",DK,732,8997,213,298,26267,0,3,326,131,104,580
"Masxmenos CR",CR,730,14041,6133,6172,35494,0,96,2293,8017,1,10421
"Walmart CR",CR,730,0,0,0,0,0,10,2981,1,1,3004
"Sklavenitis GR",GR,723,10010,73,396,30015,5816,142,1237,215,334,1955
"eZiko Apteka",PL,723,6732,63,635,38573,28932,317,1591,297,1397,3640
"Apteka Gemini",PL,713,25886,106,2441,90335,74668,14,2899,1165,1064,5260
"Zakaz - Metro UA",UA,711,14886,9,10,29983,2147,6,1802,18,158,2034
"Rimi LV",LV,702,15237,15,95,44827,5318,6,1053,154,143,1380
"Tottus CL",CL,696,8521,145,1482,43548,1070,3,576,713,28,1346
"Tesco CZ",CZ,695,17303,92,1173,550998,13521,6,12585,908,3232,17002
"Dr Max CZ",CZ,689,21014,422,423,86585,6836,571,4326,578,312,5826
"Gurkerl AT",AT,688,9966,31,179,35464,3092,803,320,80,101,1329
"Rimi EE",EE,688,12746,31,125,37105,3728,5,1016,211,148,1400
"Liki24 UA",UA,680,0,99,165,0,4139,9,4964,2729,1205,8907
"Bennet IT",IT,674,18600,19,259,37460,14769,4,1031,122,468,1650
"Rossman HU",HU,664,14635,50,986,53555,7574,491,609,2087,186,3399
"Maxi RS",RS,662,7980,14,135,27693,5889,4,434,64,99,614
"Poiesz NL",NL,659,8329,1,13,10565,134,9,536,2396,7,2960
"Mat SE",SE,655,10499,142,385,32248,8407,2085,290,359,146,2899
"Vasalekaren SK",SK,654,9967,45,179,66442,3602,1473,9404,411,664,11979
"Rossmann DE",DE,648,15507,46,239,54024,441,498,990,219,22,1780
"Crai Spesa Online",IT,647,393,385,393,27447,6583,489,1284,688,905,3378
"DOZ.pl",PL,645,15394,298,1496,62015,51934,340,2055,812,1970,5243
"City Gross SE",SE,641,12721,2,523,26747,6043,5,414,255,271,966
"Rimi LT",LT,641,14842,1,53,44571,3429,5,977,90,103,1195
"Esselunga A Casa IT",IT,633,14946,14,624,44571,15070,12,4032,1013,1172,6256
"Tesco SK",SK,631,15216,95,227,183235,211,5,4399,155,25,4733
"DM SK",SK,624,12081,283,325,34880,2178,3,1152,140,45,1358
"Hoogvliet NL",NL,620,8941,58,143,13937,1868,6,505,135,67,727
Apteline,PL,609,991,11,991,82861,18201,446,1393,693,653,3284
Barbora,PL,606,7637,0,506,61057,6244,24,1357,248,931,2780
"E.Leclerc Bielany",PL,603,30231,78,2607,95273,34779,66,3658,1197,20305,25765
"Tesco HU",HU,603,15705,82,2381,859380,9469,6,17938,2191,2667,23234
Amazon,PL,596,429,425,428,797424,17735,0,0,0,549,549
"Pingvinpatika HU",HU,594,7479,14,316,39756,2854,6,4925,430,346,5724
"Thanopoulos GR",GR,593,15889,39,378,53231,9104,12,4324,424,655,5460
"Apteka Galen",PL,589,8687,4,318,40444,3369,14,1438,276,213,2127
"Willys SE",SE,589,10538,16,458,34897,4975,4,333,222,166,757
"Nuko LV",LV,582,8109,138,138,34922,0,446,546,352,1,1373
"Bestway Foodservice UK",UK,580,11001,75,391,34903,4724,308,481,237,122,1169
"Bestway Best-one UK",UK,575,6585,55,142,21423,13002,315,398,86,337,1149
"Bestway UK",UK,575,10084,76,877,32332,30358,299,457,429,704,1907
"Alza SK",SK,572,9812,135,306,42818,2479,85,411,72,88,676
"Dr Max",PL,569,12637,772,772,48322,24876,311,2591,867,1017,4890
"Spar HU",HU,567,13989,416,1777,180188,11182,7,9012,20381,335,29812
"E.Leclerc Wroclaw",PL,565,15998,201,1612,16195,14285,486,1892,2477,6637,11909
"Zakaz - Metro MD",MD,564,11511,2002,2030,19487,0,6,1247,2004,2,3278
"Plus NL",NL,563,15604,173,393,30606,3830,26,1874,187,144,2274
"Benu CZ",CZ,562,14661,129,725,66847,5312,4,5319,463,62,5876
"AB GR",GR,561,11647,33,398,34922,6964,12,484,184,175,894
"DM HU",HU,556,11699,13,726,32292,9472,3,1069,313,168,1570
"Kritikos GR",GR,555,16098,15,345,45463,0,12,30,164,7072,7329
"Apteka Melissa",PL,552,27485,1309,1309,85190,56463,18,6337,806,790,8054
"Freshful RO",RO,551,20782,67,113,42396,321,8,787,53,11,944
"Easy Coop IT",IT,550,9947,17,685,36287,17771,3,241,1334,293,1892
Spar,PL,550,24367,1615,1957,726140,84462,17,12974,947,2286,16962
"Vkusvill RU",RU,545,11403,155,155,31717,1077,49,1013,155,55,1307
"Sok FI",FI,543,9573,27,336,36724,3216,76,1111,168,337,1716
"DM CZ",CZ,541,11446,21,846,31576,20869,4,1027,366,363,1780
"ADD UA",UA,540,4484,31,111,15761,2249,14,1371,447,151,2006
"E.Leclerc Rzeszów",PL,540,12135,66,1487,35574,36160,32,637,532,1097,2356
"Yandex Lavka RU",RU,540,3000,59,277,8828,2450,103,935,402,105,1553
"MyMarket GR",GR,537,14539,26,396,50436,5627,13,1712,512,535,2813
"Chronodrive FR",FR,530,8442,383,487,16866,2137,11,431,273,43,770
"Jumbo CL",CL,528,20674,14,1541,586237,1370,3,9265,1325,69,10927
"Apteka 9-1-1 UA",UA,525,21220,14,87,56393,1775,44,705,151,59,1019
"Univerexport RS",RS,523,9863,2,133,19726,1194,10,548,140,219,930
"Ebag BG",BG,522,11647,72,147,39981,1470,12,1065,93,28,1238
Ceneo,PL,521,198383,1619,7306,268434,27697,886,3293,3078,237,7899
"Cold Storage SG",SG,515,9397,15,79,29564,0,545,2770,91,0,3412
"Metro RU",RU,510,19076,54,719,22505,889,8,1945,827,116,2930
"Drogeria Olmed",PL,509,1206,896,1206,127825,28280,13,8512,658,2992,12272
"Apteka Zawiszy",PL,507,19426,71,999,77145,14266,241,820,570,345,2147
"Hemkop SE",SE,501,10551,9,503,32966,5161,4,283,262,167,743
Rossmann,PL,498,2615,90,2612,79066,34383,13,1030,3140,866,5142
"Colruyt BE",BE,495,6256,21,205,72116,14342,6,20169,12729,2392,35363
Intermarche,PL,495,18255,21,3347,172925,21504,13,3081,1583,1806,7285
"Interspar AT",AT,490,21271,24,236,66269,6146,7,805,314,145,1312
"Migros Online CH",CH,486,12696,91,97,38214,1389,16,683,98,68,894
"Spar SI",SI,485,17650,25,235,62221,2218,12,3006,270,65,3399
"Mega Image RO",RO,479,13073,85,425,39826,11017,7,636,195,166,1060
"Silpo UA",UA,475,10776,0,1,26886,0,6,240,3,1,282
"E.Leclerc Radom",PL,472,14389,501,1247,45503,12585,51,3231,622,1588,5548
"Benulekaren SK",SK,471,8896,58,351,45734,6130,3,2546,162,124,2855
"e-Dostavka BY",BY,470,24910,1966,2235,70782,2913,5,4870,1146,258,6351
"Idea RS",RS,463,12032,16,191,19929,6439,85,508,89,94,791
"Basko IT",IT,461,8520,5,442,26045,837,3,262,480,35,796
"GPSfarma AR",AR,460,5797,27,512,27405,1155,8,2047,436,68,2572
"Cornershop - Lider CL",CL,457,20935,2,1638,129884,1363,5,1089,1166,65,2416
"Apteka Olmed",PL,456,1147,791,1147,144148,20990,12,9975,746,2087,12919
"MegaMarket RO",RO,447,5572,6,129,6682,569,7,1306,151,193,1668
"Feedo CZ",CZ,440,92,53,92,61111,548,183,876,127,32,1237
"Lopido CO",CO,433,10273,13,81,18952,569,7,5399,322,55,5794
"Ecofamily HU",HU,432,6201,17,883,21444,4235,4,1117,7847,309,9301
"Unimarc CL",CL,432,9992,86,220,29936,0,3,2369,340,0,2727
"E.Leclerc Lublin Turystyczna",PL,430,11627,16,977,14516,13023,13,445,809,2499,3807
"Patika24 HU",HU,426,5132,10,278,15757,4426,4,590,347,102,1052
"E.Leclerc Katowice",PL,422,10866,32,1318,11389,13168,293,1358,2094,6695,10533
"Dr Max RO",RO,419,12390,551,551,39323,5997,232,1599,592,195,2648
"Eva UA",UA,415,485,395,485,59242,655,490,11024,7455,73,19395
"Lider CL",CL,414,11563,74,1730,212379,1127,6,11078,3363,94,14655
"Kruidvat NL",NL,408,8284,37,64,20896,1747,196,773,65,89,1142
Stokrotka,PL,404,7280,24,124,165213,983,25,2290,71,58,2755
"Teta Drogerie CZ",CZ,399,9080,4,426,26483,6881,3,663,373,147,1206
"eTabletka SK",SK,396,11323,62,194,67825,6085,577,12388,325,78,13395
"Apteki 36.6 BG",BG,394,10102,9,155,47269,686,11,1457,83,48,1636
"Dia AR",AR,394,3691,9,176,11490,527,12,579,199,20,816
"Unimarkt AT",AT,394,3273,18,149,15174,3096,167,317,146,238,878
"Istegelsin TR",TR,392,5208,5,68,11478,0,15,177,33,1,234
"OnlinePrima HU",HU,392,7402,11,1141,22751,6176,4,1303,746,201,2263
"Cornershop - Jumbo CL",CL,388,26003,11,534,133809,1345,5,717,320,58,1198
"DrankDozijn BE",BE,382,3572,21,85,14551,2290,4,627,134,561,1332
"DrankDozijn NL",NL,382,3572,21,89,14551,245,3,622,140,68,842
"Majestic UK",UK,374,1351,6,73,19443,1144,187,1919,69,131,2315
"Carrefour IT",IT,372,13064,343,1103,37945,11611,20,402,564,312,1322
"Bringo RO",RO,366,31252,319,28292,51413,11321,23,1389,872,650,2982
"Iceland UK",UK,364,5440,33,340,26254,15262,4,922,272,1601,2814
"Świat Leku",PL,359,11791,4,342,36453,1844,149,1270,244,181,2081
"Mercado Libre AR",AR,357,31869,500,1854,70553,678,197,764,2674,82,3769
"Ica New Version SE",SE,356,5473,5318,5331,105686,4067,4,1699,2436,192,4395
"Ulabox ES",ES,355,6114,6,62,12836,0,3,221,31,1,264
"Farmacia Tei RO",RO,351,23660,331,341,25245,5324,7,611,172,235,1065
"Cruz Verde CO",CO,347,3756,22,2357,14873,1188,64,1149,1095,81,2397
"E.Leclerc Lublin Tomasza Zana",PL,346,11220,5,1306,14209,11317,11,472,676,1404,2633
"Globus RU",RU,341,14004,36,451,44171,37,7,1366,284,7,1714
"Gall & Gall NL",NL,340,3505,31,62,24258,68,4,3391,74,12,3495
"E.Leclerc Elblag",PL,339,10707,30,1071,29611,16845,31,1463,977,1831,4358
"Ica SE",SE,338,11633,3,646,687593,9537,4,21245,317,156,22118
Allecco,PL,336,11325,34,886,38729,15396,19,601,414,282,1384
Carrefour,PL,334,16073,216,3939,125756,35138,143,2221,2642,2506,7952
"Ulta US",US,334,26,25,26,93150,0,4,223,28,1,285
"Elefant RO",RO,330,466,480,480,95607,2028,101,975,256,20,1417
"Jumbo AR",AR,327,9138,60,407,51750,757,7,2244,267,31,2582
"Bebe Tei RO",RO,325,24828,114,222,24828,3493,8,794,125,202,1175
"Mpreis AT",AT,325,7785,7,127,27439,4076,355,757,216,91,1437
"Amazon NL",NL,320,0,0,0,71530,0,0,0,0,17,17
"Roastmarket DE",DE,316,114,75,114,33392,396,18,544,471,17,1071
"Sipo HU",HU,307,4292,171,171,9418,1307,5,495,89,115,711
Empik,PL,301,175376,1539,2306,537641,25071,78,14221,1032,167,16110
"SOpharmacy BG",BG,301,9515,23,196,29607,3523,377,881,229,110,1625
DoDomku,PL,300,6209,176,471,18301,1974,42,217,263,300,840
"MaxiCoffee FR",FR,300,5590,80,134,15039,1019,525,714,599,117,1962
"Watsons UA",UA,300,79,0,79,23164,324,5,389,425,33,873
"Tudrogueria Virtual CO",CO,299,8686,76,4112,16754,491,6,449,1888,27,2382
Makro,PL,298,3236,1,541,8764,30241,3,546,253,1477,2299
"Bipa AT",AT,296,9937,93,93,21767,541,10,280,129,17,460
"Mall SK",SK,296,2048,146,2048,27000,882,376,752,4561,774,6491
"E.Leclerc Gdansk",PL,295,8466,44,766,23439,10117,29,1266,663,1559,3574
"Rappi - Exito CO",CO,295,20683,7392,8086,73905,9455,7,6518,12309,246,19117
"Apteka Nove BG",BG,294,11606,20,149,40193,3384,497,2020,224,159,2936
"Cornershop - Santa Isabel CL",CL,294,6952,5,243,8597,992,9,538,372,47,973
"Rappi Lider CL",CL,290,14804,9025,9135,86802,1236,3,7733,14067,31,21877
"E.Leclerc Tychy",PL,286,9493,76,1285,9709,11849,53,298,614,1993,2994
"Rappi - Carulla CO",CO,285,14908,4457,4855,60271,9066,6,6141,8238,249,14664
"Apteka Medea BG",BG,284,8608,26,181,26030,0,12,1551,168,1,1759
"Cora RO",RO,284,38836,105,375,77199,6833,6,3188,245,702,18903
"Merqueo - Bogota CO",CO,284,3083,31,233,7897,5444,6,237,111,204,563
"Sephora US",US,283,166,155,166,129568,0,7,919,120,1,1084
"Rappi - Carulla Express CO",CO,281,13441,2508,2894,49432,8784,6,6040,6116,250,12436
"i-apteka",PL,281,9551,520,611,20498,7750,8,442,649,801,2017
"Konzum HR",HR,280,10831,15,201,17481,3573,316,2521,615,441,3912
"Azbuka Vkusa RU",RU,277,12646,47,310,24838,210,11,2045,1130,29,3243
Makeup,PL,277,2976,611,2976,415373,84929,4,10291,1260,1282,13129
"Argos UK",UK,273,5834,51,4162,7993,0,3,511,17958,1,18486
"PriceSmart CR",CR,272,3536,6,6,53359,0,4,8734,15,1,8779
"Groby HU",HU,267,8311,5,530,22065,3574,3,1091,542,248,1895
"Rappi - Exito Express CO",CO,266,17626,1858,2307,39929,7300,6,5631,5590,248,11501
"Afya Pharmacy BG",BG,265,8803,28,179,28941,689,9,2355,323,235,2945
"E.Leclerc Gliwice",PL,262,7539,30,780,20658,7702,24,1035,616,1180,3028
"Farmacia la Pret Mic RO",RO,258,7733,41,257,23686,4115,19,1679,293,692,2701
"Apteka Medkon",PL,254,5113,536,536,18868,8232,12,3675,1130,1269,6114
"Delitea SE",SE,254,9801,20,309,23522,1800,4,171,143,27,369
"Rappi Jumbo CL",CL,254,14491,9812,9894,60135,1381,3,6703,11079,31,17852
"Supermarket AM",AM,254,7861,81,90,20707,0,4,890,252,1,1164
Wapteka,PL,252,17365,844,1266,60662,37928,7,2893,417,727,4126
"Dunnes IE",IE,251,14261,43,903,31489,11750,2,602,442,229,1290
"Farmatodo CO",CO,249,12751,101,3718,56962,5285,7,860,4650,94,5650
"Edeka DE",DE,248,3409,52,84,4635,93,4,207,52,116,385
"Olimpica CO",CO,247,10623,995,1227,72765,0,6,1931,2899,0,4903
"Rappi Unimarc CL",CL,246,10829,377,491,26374,1277,3,3932,1002,31,4985
"Helpnet RO",RO,245,6736,59,297,18987,2440,6,1281,136,118,1562
"Szybki Koszyk",PL,240,4164,6,99,14270,1458,104,1089,92,100,1413
"Merqueo - Medellin CO",CO,237,2784,20,222,6374,5146,5,192,105,200,507
"Rappi Santa Isabel CL",CL,233,5323,7,145,6523,1192,3,1230,377,32,1646
"Metroiroda HU",HU,231,3615,2,252,7275,1337,4,815,470,143,1437
"Linio CL",CL,229,50735,2570,2871,82568,0,387,2659,4725,1,7838
"Merqueo - Cali CO",CO,227,1884,15,103,4513,820,4,156,50,29,246
"Утконос RU",RU,224,916,189,916,44289,2354,5,370,827,125,1357
"Makeup UA",UA,220,4079,1728,4079,644029,2851,4,26142,1200,67,27678
"Igooods RU",RU,218,18078,11,390,38200,91,7,209,264,6,534
"Kesko FI",FI,218,0,0,0,222908,0,0,0,0,0,0
"Coop UK",UK,214,9777,7,829,218615,19220,4,2104,396,661,3294
"Перекрёсток Впрок RU",RU,213,15787,219,966,33860,2988,6,2652,1678,240,4646
"Booker Foodservice UK",UK,212,11928,26,1691,22328,3564,158,507,872,157,1714
"Superpharm Apteka",PL,211,591,48,591,28958,20931,3,770,1040,294,2179
Cocolita,PL,208,9945,123,286,43659,13551,4,1561,572,1143,3339
"Rappi - Pricesmart CO",CO,208,1896,15,27,5218,747,5,2121,683,34,2846
"Beauty Bay UK",UK,207,13943,20,137,54194,0,3,331,69,1,432
"Booker UK",UK,206,9164,46,1933,17491,10028,142,404,974,767,2303
"Yandex Market RU",RU,206,38283,2492,4630,59512,3821,15,1549,2193,156,4038
"Minifarm RO",RO,203,2749,5,134,4634,140,7,661,109,143,932
"Auchan FR",FR,199,1690,24,93,5897,620,390,758,196,151,1498
"Benu HU",HU,198,5123,3,349,17545,2749,3,2644,535,420,3610
"Parfums UA",UA,187,492,33,492,142034,0,3,3565,638,94,4388
"Deliberry - Caprabo ES",ES,184,8534,5,20,9652,0,5,313,38,1,365
"Vodovoz RU",RU,177,1028,20,70,2115,0,5,176,83,1,270
"Coursesu FR",FR,176,4277,41,74,13025,1117,14,8648,878,1535,11081
"Deliberry - Solri ES",ES,176,8021,6,8,9121,0,5,316,12,1,345
"Deliberry - Mercadona Barcelona ES",ES,175,5876,0,0,7030,0,6,314,5,1,339
"Linella MD",MD,174,6926,34,1024,6926,0,6,189,14921,0,15123
"Deliberry - Mercadona Madrid ES",ES,173,5726,1,1,6844,0,6,308,8,1,331
"Everli - Coop IT",IT,163,11926,10,209,13289,0,20,4800,110,1565,6506
"Deliberry - Supercor ES",ES,161,4084,0,0,5008,0,6,235,9,1,255
"Panda Market HU",HU,158,2184,2,155,4937,1383,3,114,74,86,281
"Professional Farmaline RO",RO,155,8592,6,137,18279,2457,5,791,147,60,1029
"Dirck3 NL",NL,151,482,4,4,2314,0,4,89,4,4,105
"Look Fantastic UK",UK,148,17215,21,48,50171,0,3,629,47,1,735
"Everli - Metro IT",IT,146,2649,1,44,3568,1560,16,166,25,694,904
"Pyaterochka App RU",RU,146,6382,32,428,12858,2627,5,193,203,34,459
"Tiendas Jumbo CO",CO,145,12180,4,585,61025,4885,5,6757,730,202,7733
"Deliberry - Dia ES",ES,143,4151,0,0,5012,0,4,265,1,1,275
"Deliberry - La Plaza ES",ES,143,4235,0,0,5095,0,4,267,32,1,309
"Nazuby CZ",CZ,137,1634,3,57,5630,134,3,83,27,13,131
"Medexpressz HU",HU,136,1298,80,81,2770,0,3,254,56,1,316
"Ozon RU",RU,136,64386,3210,3998,104704,3553,494,2839,4032,275,22235
"Subra BG",BG,131,6298,49,209,16443,2609,11,184,105,281,602
"Automercado CR",CR,129,13251,3,21,20195,0,9,2013,84,1,2122
"Coop EE",EE,129,9382,39,39,20419,1928,2,433,21,57,523
"Zakaz - Auchan UA",UA,127,4756,2,2,9618,0,3,485,4,1,502
"Condis ES",ES,120,6526,17,18,6892,0,2,194,22,0,226
"Cora Drive BE",BE,118,13413,7749,7795,88710,4454,7,3985,9598,1310,14954
"Farmacia Pasteur CO",CO,114,8885,14,4007,56088,562,5,1768,3236,28,5075
"Auchan UA",UA,110,3150,0,2,9356,0,8,3167,10,10,3204
"Rappi Cruz Verde CL",CL,110,5105,1820,2121,36505,1224,3,3096,4258,32,7408
"Amazon Fresh DE",DE,109,9243,350,351,14217,6189,2238,1162,187,117,3715
"E-tinex MK",MK,109,4351,0,32,8683,374,2,79,17,34,137
"Produktoff UA",UA,102,14096,0,0,14229,0,3,393,1,1,424
"Savage & Whitten IE",IE,99,3708,8,135,7416,1168,8,327,63,99,501
"Koffievoordeel NL",NL,98,516,0,66,3185,1270,2,629,82,29,746
"Farmacity AR",AR,97,241,0,241,6103,1156,3,273,109,42,429
"Vitania BG",BG,97,7171,9,133,7171,2271,8,336,66,80,502
"Carrefour ES",ES,94,5876,17,165,6096,606,12,203,550,243,1016
"Kaufland DE",DE,90,3,1,1,3,682,150,232,22,88,494
"Brack CH",CH,81,8285,20,107,19921,1746,63,300,96,223,701
"Okey RU",RU,80,8819,1693,2050,8739,322,6,694,6831,27,22011
"Comfandi Supermercados CO",CO,72,4506,195,195,9153,0,6,1001,162,1,1174
"Durst DE",DE,69,1062,77,1062,1133,0,4,17,15,1,39
"Droguerias Cafam CO",CO,67,2554,806,1589,4526,1407,52,2527,12425,55,15063
"Rozetka UA",UA,62,54669,542,2229,71573,3116,86,3792,718,158,19533
"Sanctuary UK",UK,62,114,0,0,490,0,3,49,2,30,84
"Kaffekapslen DK",DK,60,783,0,63,1786,1332,83,74,67,234,459
"Comfandi Droguerias CO",CO,56,4706,199,199,9272,0,4,532,107,0,648
"Saturn DE",DE,56,2147,0,0,4624,892,339,2722,300,3963,7328
"Bol NL",NL,55,326,250,332,41861,2415,69,2815,1133,482,4525
"Asos UK",UK,52,8524,17,198,20101,0,62,371,211,1,664
"iDrinks HU",HU,52,6429,166,185,14060,252,6,1257,249,52,1572
"Expert DE",DE,49,1895,0,0,2039,0,93,74,33265,0,33432
"Pretty Little Thing UK",UK,49,2478,9,11,7043,0,4,284,7,1,300
"Winelivery IT",IT,49,1504,22,98,3276,0,4,260,87,1,355
"Very UK",UK,47,3877,8,52,4203,0,12,48,33,1,98
"Fudge UK",UK,45,93,0,0,528,0,3,36,2,45,86
"Media Markt DE",DE,45,1677,0,11,4542,1025,625,6150,515,2323,9617
"Altex RO",RO,38,2111,1,52,4154,2473,3,154,60,142,365
"Selver EE",EE,37,3502,11,27,9438,2725,5,349,67,281,709
"Ep DE",DE,35,216,2,6,691,237,73,124,15,85,298
"John Lewis UK",UK,27,17,4,17,460,129,4,29,19,46,98
"Mercator SI",SI,27,12687,26,182,12687,1766,7,26,91,51,195
"Carrefour FR",FR,25,10913,20,207,14932,1716,13,2765,2420,395,5617
"StTropez UK",UK,25,23,0,0,64,0,3,23,2,56,84
"Avansas TR",TR,24,517,7,10,523,0,2,18,6,1,29
"Qvc US",US,24,17810,206,592,22206,0,30,183,1748,1,1983
"St. Tropez US",US,23,19,0,0,56,0,3,16,1,1,21
"MyDeal AU",AU,20,14,4,14,6950,629,4,68,9,51,133
"Shoplink IE",IE,20,144,0,113,432,1939,26,37,72,122,257
"Boulanger FR",FR,17,744,1,47,1750,356,24,113,129,161,429
"Euronics DE",DE,15,8662,7,30,27761,1162,25,1033,37240,0,38298
"Mercado Libre CL",CL,12,6668,132,335,12804,0,12,336,358,0,715
"BCC NL",NL,11,1251,1,14,1752,569,6,85,16,60,171
"El Corte Ingles ES",ES,11,3000,0,138,4099,637,39,260,854,80,1237
"Sodimac CL",CL,11,115,0,1,245,0,50,66,121,1,238
"Leclerc FR",FR,10,240,1,70,459,472,29,245,1187,512,1974
"Wildberries RU",RU,10,89681,4017,4525,90555,1468,20,1601,2197,99,4184
"Mediaworld IT",IT,9,275,1,44,550,1213,877,109,117,316,1421
"Myer AU",AU,9,7365,368,468,9117,0,9,1301,992,0,2304
"Coles AU",AU,8,279,2,89,561,400,4,37,226,172,439
"Intermarche FR",FR,8,348,66,100,669,993,9,74,446,531,1061
"Sushi33 UA",UA,8,47,0,24,92,0,3,15,13,1,32
"AO UK",UK,7,764,7,18,1057,244,73,8,24,7,113
"Woolworths AU",AU,7,1329,1,110,2126,360,4,122,117,60,304
"Unieuro IT",IT,6,1611,18,38,2024,1073,1,13,23,46,86
"Costcutter IE",IE,4,159,5,116,159,417,6,11,57,85,159
"Easy CL",CL,3,601,2,2,685,0,2,16,4,1,24
"Zakaz - Novus UA",UA,2,1,0,0,1,1614,2,14,1,96,113
" SberMarket - Lenta RU",RU,0,0,0,0,0,0,10,29,1,173,213
"0815 DE",DE,0,0,0,0,0,0,2,9,1,347,359
"Amazon UK",UK,0,1960,23850,23873,0,39143,0,30707,0,7590,38297
"Apteka Manada",PL,0,0,0,0,0,34709,4,6,3,2896,2941
AptekaLeki,PL,0,0,0,0,0,0,2,1,0,454,457
"Billa AT",AT,0,0,0,0,0,0,181,0,1,4978,5163
"Carrefour AR",AR,0,0,0,0,0,513,5,4,1,24,35
"Carulla CO",CO,0,0,0,0,0,0,7,13,1,119,145
"Disco AR",AR,0,0,0,0,0,989,56,0,0,76,135
"Emag HU",HU,0,0,0,0,0,7136,20,55,6,187,274
"Emag RO",RO,0,0,0,0,0,5119,34,3,5,187,231
"Exito CO",CO,0,0,0,0,0,0,100,1,1,112,220
"Famila a casa IT",IT,0,0,0,0,0,0,2,3,0,338,348
"Metro Delivery RU",RU,0,0,0,0,0,0,10,30,1,19,60
"Rewe DE",DE,0,0,0,0,0,0,3,8,0,623,635
"SberMarket - Metro RU",RU,0,0,0,0,0,0,8,30,1,170,209
"Vea Digital AR ",AR,0,0,0,0,0,956,609,0,0,35,644
"iGlobus Zlicin CZ",CZ,0,0,0,0,0,0,3,26,1,92,126
