﻿Site,Country,Categories,Prices,"Products changed","Products downloads",Relations,Search,"Categories time","Prices time","Products time","Search time","Total time"
"Ocado UK",UK,6549,48348,2907,48340,461318,40518,1367,11450,41264,1903,56315
"Mytime DE",DE,4647,11507,261,11507,101192,2908,2005,3505,5745,156,11463
"Asda UK",UK,3459,29483,614,29483,932982,50845,48,10885,17278,1137,30029
"Makro CZ",CZ,3424,7324,12,7324,743097,411,3348,38439,4449,33,46637
"Morrisons UK",UK,3192,21166,2094,21166,97020,31473,632,5492,17978,2078,26271
"Waitrose UK",UK,3078,16112,1073,16112,1525315,32305,222,22587,5658,804,31050
"Metro SK",SK,3029,6245,26,6245,286589,0,2933,23524,6318,0,32942
"Rohlik CZ",CZ,2969,23973,2911,23973,224470,22844,2049,3781,14476,849,21372
"Albert Heijn BE",BE,2820,10118,9578,9918,50043,6139,1065,3012,9954,277,14352
"Coto Digital AR",AR,2776,17281,90,17255,95026,1199,1867,3032,8616,39,13598
"Notino SK",SK,2708,40115,521,40115,113880,155,1245,7495,30600,16,39549
"Galen BG",BG,2684,13868,347,13868,99679,5029,1351,2333,6425,109,10294
"Kosik CZ",CZ,2673,17007,304,17006,97734,33458,469,1723,7978,1269,11554
Auchan,PL,2545,16111,920,16105,455928,26500,43,15735,8490,3737,28551
"Samokat RU",RU,2522,0,3249,3491,61048,0,31,107,0,0,138
"Pilulka SK",SK,2463,40170,12112,40168,248962,11045,22,8038,19325,248,27780
"Amazon Fresh UK",UK,2366,9509,9485,9502,50139,16818,1689,18667,6877,897,28169
"Notino CZ",CZ,2311,58773,1306,58773,375929,65696,1050,7657,43682,1414,53938
"Pilulka CZ",CZ,2268,34282,9134,34274,168092,34054,20,9744,26221,848,36954
"Amazon UK",UK,2210,2073,2067,2073,1543673,36984,0,0,0,12174,12174
"Drogeo CZ",CZ,2175,24072,5,24072,90696,42715,21,1787,11072,860,13838
"Sainsburys UK",UK,2143,30293,651,30293,1753286,83610,401,26691,22749,1820,53457
"Drogerie Natura",PL,1991,13769,19,13768,78932,39092,37,2982,18022,3577,24726
"Amazon Fresh IT",IT,1972,8346,8272,8341,40624,2816,3299,5677,7962,148,17109
"Boots UK",UK,1896,25479,1928,25461,132545,7653,45,3690,36546,250,40730
"Brakes UK",UK,1895,9072,192,9072,27261,30663,912,1814,4403,317,7482
"Jumbo NL",NL,1849,18397,1420,18397,71823,4215,1248,1935,18189,118,21541
"Auchan HU",HU,1830,28041,121,28040,212532,10246,18,4637,14952,562,20403
"Yuga RO",RO,1689,9528,175,9528,47378,1129,1976,4720,20628,129,27502
"Cefarm 24",PL,1663,13904,217,13881,102425,14188,2136,3862,17742,5074,28931
"Otto DE",DE,1600,16234,366,16954,67060,208,737,962,7787,17,9535
"Delhaize BE",BE,1588,14213,2444,14209,60547,15609,16,1349,7652,400,9478
"Albert Heijn NL",NL,1517,20631,10453,13304,58689,2147,995,1543,14485,209,17286
"Barbora EE",EE,1410,13411,407,13411,49749,1346,40,1668,6297,80,8120
"Barbora LT",LT,1379,15543,162,15535,55235,1364,40,1703,7260,73,9127
eZebra,PL,1373,42964,0,0,152933,34074,31,5528,53104,0,58663
"Tesco UK",UK,1323,28466,296,28315,351322,23785,29,12049,11581,8500,32561
"Remedium BG",BG,1302,26783,190,26669,94583,1523,324,6866,28943,186,36392
"Coop CH",CH,1285,18437,726,18437,68486,2074,302,2051,28451,167,31015
"Kifli HU",HU,1284,14411,215,14411,59064,10338,599,660,6527,366,8229
"Picnic NL",NL,1238,7028,227,6982,15370,2229,527,963,3242,80,4830
"Rewe DE",DE,1235,9729,239,9729,35604,3278,24,1372,10341,380,12142
"E-Fresh GR",GR,1232,12775,292,12770,62133,6748,2355,4319,26365,657,33737
"iGlobus Zlicin CZ",CZ,1229,19388,18519,19388,36388,7713,19,3648,49827,332,53888
"Amazon DE",DE,1204,170,170,170,512229,13326,0,0,0,2775,2775
Hebe,PL,1184,17395,15301,17393,167789,27853,651,3809,24812,633,30032
"Moja Lekaren SK",SK,1167,24301,45,24301,132293,4693,578,3875,16352,178,21115
"Lekarna CZ",CZ,1161,28737,105,28737,126963,5112,569,3806,19751,171,24427
"S-kaupat FI",FI,1156,42306,3540,42303,323641,6370,21,4267,50445,111,55010
"Albert App CZ",CZ,1073,8127,221,8127,59013,0,560,1846,3677,0,6155
"Alza CZ",CZ,1069,23855,56,15,89147,28380,189,1619,251,1776,3879
"Mathem SE",SE,1048,12662,44,12615,34628,7473,19,1131,13390,502,15075
"Eroski ES",ES,1047,25884,400,25876,54949,573,21,3702,15368,44,19170
"Picnic DE",DE,1033,7172,213,7172,14428,1863,484,895,3252,162,4807
"Knuspr DE",DE,1025,11473,3582,11473,47431,1504,525,483,5095,150,6288
"Salcobrand CL",CL,1022,6505,0,0,29080,1083,261,616,4142,15,5052
"Amazon IT",IT,1018,535,533,535,399662,6771,0,0,0,583,583
"Dr Max SK",SK,1012,23094,12,23094,97585,6964,800,6277,35501,536,43178
"Coop NL",NL,1010,16707,2084,16707,71936,1197,1483,2236,21842,110,25726
"Auchan RO",RO,1000,24646,95,24621,435847,7748,27,5166,15400,454,21503
"Zakaz - Novus UA",UA,1000,17482,312,17482,37185,0,19,1999,8678,1,10750
Bee,PL,986,53219,7986,53218,188603,9640,461,3508,24512,237,28927
Selgros,PL,973,21936,18211,21935,76603,28354,437,927,9736,1521,12751
"Alza SK",SK,971,10626,0,0,46750,3222,125,367,2362,0,2854
"Carrefour BE",BE,962,18814,134,17864,252021,20273,899,11092,9237,6200,27616
"Coop SE",SE,926,10050,206,10050,34411,8064,18,938,4729,224,5933
"Coop Shop IT",IT,924,9814,63,9814,29488,5522,14,677,6651,360,7729
"Unipatika HU",HU,870,4375,45,4374,31130,4675,541,1238,4097,288,6200
"Magnit App RU",RU,868,4089,474,4089,11596,0,18,1357,2876,0,4270
"Pilulka RO",RO,865,0,0,0,0,0,19,610,0,84,713
"SuperValu IE",IE,845,16270,74,16270,221539,10403,900,16836,17500,526,36085
"Tigros IT",IT,840,10168,110,10168,30545,7060,12,511,5812,251,6626
"Superpharm Drogeria",PL,838,16405,9237,16405,102514,35374,22,1416,22296,395,24228
"Apteka Manada",PL,817,15020,123,14184,45868,33599,20,3040,29876,2830,35821
"Wong PE",PE,811,0,0,0,0,1855,15,0,37,78,145
"Polski Koszyk",PL,793,23277,34,23235,74695,7369,20,928,10926,301,12266
"Tesco IE",IE,783,17063,165,17029,415097,4081,8,9443,5769,718,16354
"Zakaz - Metro UA",UA,768,10434,73,10433,21246,0,13,2451,8179,2,10685
"Auchan RU",RU,767,24118,458,24118,76950,350,17,1616,16111,21,17853
"eZiko Apteka",PL,760,7178,39,7149,43115,18774,340,1766,3323,936,6413
"Coop DK",DK,755,11295,8365,11294,91682,1188,350,3330,13955,42,17753
"Dr Max CZ",CZ,733,21191,51,21191,89421,7879,374,3593,23017,281,27349
"Ebag BG",BG,730,11447,2412,11360,41920,1610,12,1208,5361,28,6646
"Masxmenos CR",CR,730,8922,4,8919,24494,0,25,1533,9599,5,11174
"Walmart CR",CR,730,13503,50,13499,174160,4924,18,5138,14192,138,19556
"Sklavenitis GR",GR,729,10100,119,10100,30298,4409,111,1185,5028,285,6638
"Mall CZ",CZ,722,34024,726,34024,106554,14988,530,1150,75820,0,77500
"Apteka Gemini",PL,718,27054,703,27054,92920,56892,21,3299,17158,683,21278
"Cruz Verde CL",CL,717,10188,92,10188,173814,0,17,20876,4548,1,25505
"Bringmeister DE",DE,714,16608,219,16608,44931,4398,14,373,7391,142,7958
"Intervare DK",DK,712,9355,8727,9355,27076,0,11,330,4253,110,4730
"Lunys SK",SK,712,5328,179,5328,19102,0,540,1285,6542,0,8390
"Rimi EE",EE,700,12298,67,12298,36091,3750,15,672,12337,104,13156
"Gurkerl AT",AT,692,9561,2359,9560,34548,3330,368,326,4208,109,5042
"Walmart AR",AR,692,0,0,0,0,0,500,1160,1,7,1668
Barbora,PL,691,8979,49,8974,116596,7035,31,2684,4228,808,7884
"Bennet IT",IT,683,19065,353,18334,38457,15058,12,1054,9809,477,11397
"Tesco CZ",CZ,681,16529,379,16529,512865,23368,17,16235,10091,3518,30294
"Rossman HU",HU,665,15323,66,15323,56297,7741,543,674,19958,168,21411
"DM SK",SK,659,12741,16,12741,36332,2176,17,1266,5704,102,7155
"Rossmann DE",DE,658,16056,26,16056,55632,454,586,1069,14587,19,16297
"Poiesz NL",NL,656,7915,0,7909,10127,128,18,530,6361,13,6940
"Rimi LT",LT,654,14400,57,14400,43237,3404,13,668,14455,74,15236
"Hoogvliet NL",NL,652,8804,28,8804,14368,1867,14,731,9525,92,10380
"City Gross SE",SE,646,12789,18,12789,28050,8906,13,348,5990,369,6743
"DOZ.pl",PL,645,18749,220,18747,76863,49713,380,2755,12527,1750,17503
"Esselunga A Casa IT",IT,644,15220,1500,15220,45436,16673,27,4706,28330,1465,34560
Amazon,PL,640,569,565,568,1027860,19493,0,0,0,1009,1009
"Crai Spesa Online",IT,638,6890,49,7275,26349,6891,412,1127,18281,878,20713
"Tesco SK",SK,628,15651,113,15651,227001,835,16,8055,11528,122,19954
"E.Leclerc Bielany",PL,625,31712,341,31316,101130,36323,74,3839,14372,20677,39086
"Mercator SI",SI,625,12664,20,12664,37992,2281,300,287,5723,82,6428
Apteline,PL,618,24946,20,24945,81599,14269,502,1543,16514,454,19084
"Tesco HU",HU,616,15283,200,15283,993784,8756,15,26410,9222,1564,37859
"Vasalekaren SK",SK,610,10208,76,10208,68351,3932,1319,8929,22757,615,33656
"Colruyt BE",BE,605,8005,96,8005,94093,14484,12,15034,20956,1605,37732
"Glovo Kaufland RO",RO,599,9134,36,9134,16535,0,15,327,129,1,507
"Thanopoulos GR",GR,598,15824,743,15824,52907,9130,11,4846,19224,662,24779
"Apteka Galen",PL,593,8736,7,8183,29453,3413,22,1776,11648,279,13773
"Willys SE",SE,588,10761,155,10761,35603,7018,12,363,4951,236,5585
"Pingvinpatika HU",HU,587,7535,512,7535,40674,2841,15,5436,9149,347,14980
"Plus NL",NL,587,15952,149,15952,31207,3808,39,2415,10234,625,13377
"Apteka Nowa Farmacja",PL,585,15066,187,13045,47480,18160,5533,1797,22893,2375,32642
"Benu CZ",CZ,584,14199,140,14198,66363,5899,14,5259,10088,70,15520
"Vkusvill RU",RU,577,6207,859,6207,22742,1095,235,2731,13153,148,16290
"Bestway Best-one UK",UK,571,6514,269,6513,21143,12587,302,388,3102,328,4153
"Bestway UK",UK,571,9072,533,9069,29270,29767,298,528,4326,695,5882
"Bestway Foodservice UK",UK,569,10382,547,10382,32991,4747,301,453,4971,114,5885
"Dr Max",PL,567,12645,95,12393,48218,22077,467,3690,19442,1576,25234
"Spar HU",HU,564,14883,2787,14881,341935,11511,16,7990,27339,467,36015
"DM HU",HU,562,12517,58,12304,34215,9710,10,1208,5861,317,7453
"Kritikos GR",GR,561,16626,7574,16626,47002,0,11,21,7383,6916,14370
"AB GR",GR,560,11336,222,11336,34841,7494,11,765,5220,200,6233
"E.Leclerc Wroclaw",PL,556,15463,131,15456,15855,13514,469,1801,23222,5322,30867
"Carrefour EG",EG,554,14369,458,14356,67580,434,11,1171,7657,21,8903
"Apteka Melissa",PL,552,27440,17672,27256,80093,53719,20,5036,16807,686,22685
"Chronodrive FR",FR,551,7868,94,7212,14755,2117,15,510,4359,119,5018
"Yandex Lavka RU",RU,550,3099,2884,3099,8811,2278,122,710,5177,166,6203
"DM CZ",CZ,548,12420,88,12420,33916,32497,13,1176,5554,1042,7831
"Jumbo CL",CL,546,20974,225,20012,576368,1377,13,7803,9663,74,17810
"MyMarket GR",GR,546,14379,10,14379,51592,5574,12,2605,18270,306,21234
"Freshful RO",RO,543,19850,751,19850,40515,363,15,897,9298,14,10284
Spar,PL,538,24619,12836,24617,673016,76602,21,12011,11253,2037,26151
"E.Leclerc Rzeszów",PL,534,11875,308,11875,35024,25933,27,634,4176,863,5753
"Carrefour ES",ES,532,14960,83,14656,18024,414,34,506,7763,32,8362
"Drogeria Olmed",PL,521,43868,1600,43865,145457,23559,20,8262,26379,1642,36402
"Plazavea PE",PE,516,24968,23,24968,184961,1864,11,4404,11302,109,15909
"Cold Storage SG",SG,507,9566,1,31,29905,0,587,2455,39,0,3088
"Apteka Zawiszy",PL,505,20268,13296,20268,80128,15576,238,845,9683,318,11174
"Hemkop SE",SE,503,10447,196,10447,32732,7159,10,285,4797,218,5337
Rossmann,PL,502,24573,18,24568,79691,26885,14,899,31157,587,32731
"Interspar AT",AT,499,21128,1552,21128,66989,6329,11,657,28662,146,29519
Intermarche,PL,498,18891,133,18891,163009,19002,10,3491,8566,1388,13719
"Benulekaren SK",SK,495,9167,234,9167,47639,6725,12,2568,6116,151,8932
"Metro RU",RU,492,19222,546,19209,22469,44,14,2091,18891,14,21083
"Migros Online CH",CH,484,12318,814,12318,38195,1446,28,1335,10149,198,11745
"Spar SI",SI,484,16772,808,16772,58943,2691,11,629,19484,102,20268
"Mega Image RO",RO,483,12628,81,12626,37803,9670,15,525,5697,171,6476
"Dr Max Drogeria",PL,476,15679,93,15678,49857,0,322,2536,20811,0,23736
"Famila a casa IT",IT,476,12289,84,12259,29609,6402,812,1496,19132,314,21775
"E.Leclerc Radom",PL,472,13056,372,13052,41035,10755,61,2574,6209,2064,10965
"e-Dostavka BY",BY,468,32948,1580,32947,94880,2096,12,7338,16285,163,23890
"Basko IT",IT,464,8412,71,8410,25732,1499,10,266,9310,46,9657
"GPSfarma AR",AR,463,0,0,0,0,1169,18,0,34,88,142
"Apteka Olmed",PL,462,45969,1586,45965,158020,19485,19,9606,27565,1543,38835
Ceneo,PL,462,207439,17301,199739,275303,37705,872,3226,54088,0,58186
"Cornershop - Lider CL",CL,462,0,0,0,0,1336,15,0,37,103,163
"Carulla CO",CO,455,9938,47,9934,29646,4852,19,1128,4979,216,6370
Aptelia,PL,454,13279,34,13279,67351,10011,207,1870,6523,321,8976
"Mercado Libre MX",MX,450,52426,1924,52396,108616,0,843,1292,23688,0,25870
"MegaMarket RO",RO,447,5423,0,5423,6533,572,14,1291,6141,190,7652
"Cornershop - Jumbo CL",CL,444,28197,117,27988,148365,1351,14,842,11471,116,12541
"eTabletka SK",SK,441,12024,49,12024,81613,6744,337,7487,13299,94,21279
"Patika24 HU",HU,440,4381,6,4380,10642,3216,10,558,5301,89,5973
"Feedo CZ",CZ,434,21500,1401,21500,63574,457,186,986,17356,33,18613
"Lopido CO",CO,433,10178,15,10162,19820,595,12,5161,32373,50,37607
"Unimarc CL",CL,433,0,0,0,0,1179,9,0,0,66,80
"E.Leclerc Lublin Turystyczna",PL,431,12984,2,12984,15946,13646,16,493,11011,2083,13635
"Lider CL",CL,429,12287,1281,12249,234822,1100,19,23106,37360,182,60765
"Ecofamily HU",HU,427,6923,25,6922,22465,4236,11,1388,30471,382,32283
"Kruidvat NL",NL,425,9076,102,9073,25357,1827,174,757,6878,93,7928
"Dr Max RO",RO,419,13918,195,13918,41603,8327,278,2014,17601,415,20354
Stokrotka,PL,418,7771,48,7771,176039,12460,21,3126,3625,419,7403
"E.Leclerc Katowice",PL,417,8991,50,8986,9469,10475,92,393,4221,1544,6279
"iFresh SK",SK,405,7226,7132,7226,160098,0,20,4853,44256,1,49230
"Teta Drogerie CZ",CZ,400,8738,338,8737,25338,6786,11,833,6208,195,7279
"OnlinePrima HU",HU,397,7554,69,7554,23441,6110,11,682,12254,279,13257
"Apteki 36.6 BG",BG,395,9915,22,9915,46876,1204,9,1395,4891,87,6419
"Dia AR",AR,394,5275,14,5271,16483,681,18,546,2531,18,3123
"Bringo RO",RO,393,32011,135,28885,52633,7048,30,1845,1253,660,3865
"Unimarkt AT",AT,392,3417,331,3416,15974,3260,128,390,2667,223,3425
"Glovo Biedronka Warszawa",PL,379,2899,78,2899,5635,547,5,172,66,174,443
"Iceland UK",UK,378,5621,299,5621,30001,15528,15,1574,6734,1529,9885
"DrankDozijn BE",BE,377,3629,223,3629,14774,2079,9,638,5744,386,6793
"DrankDozijn NL",NL,377,3628,223,3628,14771,250,9,620,5744,44,6434
"Billa AT",AT,371,9248,187,9248,30039,6658,9,415,19955,174,20578
"Walmart GT",GT,369,9080,18,9078,157122,4337,13,4540,10353,137,15107
"Świat Leku",PL,365,11826,303,11826,36244,1892,162,1343,9075,180,10815
"Cornershop - Metro PE",PE,364,17000,57,16995,56112,1853,12,548,11441,173,12209
"Majestic UK",UK,363,1356,39,1356,18053,1167,169,1751,996,135,3083
"Ulabox ES",ES,363,5875,31,5875,12354,0,9,216,2661,1,2900
"Carrefour IT",IT,360,13146,3800,13128,36230,4643,178,1277,5888,452,7830
"Cornershop - Wong PE",PE,354,19845,72,19783,59676,1919,10,581,11137,155,11921
"Farmacia Tei RO",RO,354,24464,21306,24460,25918,3030,12,715,11784,143,12702
"Ica New Version SE",SE,354,6803,5633,6803,138356,5524,8,2216,3151,222,5698
"Istegelsin TR",TR,354,4832,3,4832,10840,0,25,173,2210,2,2427
"E.Leclerc Lublin Tomasza Zana",PL,352,11096,46,11086,14347,10045,9,447,5200,1066,6754
"Jumbo AR",AR,352,10495,50,10421,66015,767,13,2622,5316,29,8019
"Talabat Mart EG",EG,348,6097,4676,5118,41941,511,10,1883,57429,0,59322
"Gall & Gall NL",NL,347,3131,927,3131,23359,69,9,5533,6669,24,12254
"Rossmann App CZ",CZ,345,11207,24,8857,36365,0,9,3042,5116,0,8242
"Ica SE",SE,342,10847,1,10847,638418,12650,9,19852,4778,209,25193
"E.Leclerc Elblag",PL,339,10543,39,10511,29238,15230,34,1508,8955,2382,12911
Allecco,PL,336,11318,15,11317,38845,10705,20,618,5276,178,6152
Carrefour,PL,334,16135,47,16132,125837,36756,164,2214,8504,2015,13051
"Roastmarket DE",DE,334,3679,3561,3681,35003,387,23,484,15411,16,15949
"Bebe Tei RO",RO,325,26171,424,26163,27028,1266,12,895,12575,83,13607
"Mpreis AT",AT,325,7965,7840,7965,27947,4602,406,800,9313,100,10643
"Mercado Livre BR",BR,323,101934,2105,101906,776234,0,579,11524,67873,1,80463
"Sipo HU",HU,321,5751,12,5736,12922,1446,9,724,4489,106,5353
"Mercado Libre AR",AR,312,33099,499,11341,72155,333,169,767,25685,78,26751
"Cornershop - Santa Isabel CL",CL,311,7039,24,7038,8748,1027,11,629,10214,74,10935
"Alcampo ES",ES,308,8987,571,3554,14509,322,2552,770,25482,92,28911
"Gastronom BG",BG,305,7689,7689,7689,24070,0,8,337,4104,1,4462
"SOpharmacy BG",BG,304,10091,485,10091,32287,6464,374,931,11534,258,13126
Empik,PL,302,189724,40550,118529,552844,27795,67,19031,55978,0,75076
"Bipa AT",AT,300,11069,148,11069,24338,565,12,321,15131,19,15508
"Cora RO",RO,299,45803,121,45803,91962,6546,11,3735,29385,908,34127
DoDomku,PL,299,6511,559,6511,19018,2508,43,253,3370,375,4101
"Easy Coop IT",IT,299,9232,368,9232,27481,9973,9,1985,19281,931,22224
"Amazon NL",NL,298,0,0,0,125688,0,0,0,0,19,19
"Mall SK",SK,298,11559,250,11559,29582,1125,309,778,22582,1191,24898
"E.Leclerc Gdansk",PL,295,10245,0,10245,28166,9252,31,1435,8525,2068,12092
"Tudrogueria Virtual CO",CO,291,8404,21,8404,16215,459,10,360,3882,24,4287
"Apteka Nove BG",BG,288,11566,16,11566,41666,6241,9,2706,15008,369,18121
"Apteka Medea BG",BG,284,8713,30,8712,26224,0,5,590,4668,1,5291
"Sephora US",US,283,19434,2492,19434,123814,0,7,730,13167,1,13941
Makeup,PL,282,107048,19284,107048,486351,65272,4,21906,38546,0,60456
"i-apteka",PL,281,9791,677,9791,20979,5881,8,418,10384,472,11315
"Argos UK",UK,278,5457,3,5456,8004,0,9,533,17936,0,18501
"E.Leclerc Tychy",PL,278,8804,78,8795,9023,10415,53,286,3906,1663,5935
"Azbuka Vkusa RU",RU,275,11396,958,11395,22524,135,29,1854,41936,81,43931
"Edeka DE",DE,272,3740,1442,3740,5008,139,14,185,4080,103,4392
Makro,PL,271,3060,4,3060,8350,32144,5,519,1401,1646,3588
"Groby HU",HU,268,8239,22,8239,21917,3577,9,1121,8909,247,10316
"Farmacia la Pret Mic RO",RO,264,8799,37,8799,26913,5530,25,2040,10515,959,13570
"PriceSmart CR",CR,264,3522,158,3522,51449,3452,7,11171,2708,702,14612
"E.Leclerc Gliwice",PL,260,7928,3,7928,21705,7523,29,1111,6224,1780,9189
"MaxiCoffee FR",FR,258,5560,282,5514,13887,1576,396,607,9558,181,10752
"Merqueo - Bogota CO",CO,256,2021,0,2021,4883,4585,9,251,1015,178,1455
"Dunnes IE",IE,255,13682,48,12980,24504,9719,5,881,18970,398,20279
"Apteka Medkon",PL,254,6754,6751,6751,28206,8365,6,4041,14192,1236,19508
"Globus RU",RU,254,13299,13148,13257,44526,24,11,1695,7235,6,9020
Wapteka,PL,252,18722,17838,18704,64410,36310,6,4491,11112,601,16284
"Delitea SE",SE,251,10079,97,10079,24635,5636,9,191,4530,82,4840
"Afya Pharmacy BG",BG,250,9841,150,9841,32717,1804,9,2032,11019,323,13405
"Supermarket AM",AM,248,6946,87,6843,17465,0,11,714,8511,1,9258
"Szybki Koszyk",PL,246,4296,18,4292,14733,565,117,629,1958,39,2768
"Helpnet RO",RO,245,6911,569,6911,19528,4778,11,1355,3070,222,4681
"Olimpica CO",CO,241,10476,645,10437,42715,1075,8,1692,15605,55,17388
"Farmatodo CO",CO,238,0,0,0,0,6403,10,0,0,123,183
"Lisek App",PL,236,1898,87,1898,2381,1046,6,10,873,93,990
"Metroiroda HU",HU,230,3409,46,3400,6896,1299,9,738,4113,197,5077
"Disco AR",AR,228,8087,52,7718,32002,1179,93,2514,12896,39,15559
"Merqueo - Medellin CO",CO,227,1800,1,1800,4210,4177,8,224,878,170,1282
"Coop UK",UK,223,9077,53,9077,213262,8753,10,4275,6745,1364,12590
"Benu HU",HU,219,4974,10,4974,15951,2744,6,3379,7890,410,11709
"Rappi - Exito CO",CO,218,17589,10396,13413,51789,9609,130,6908,67658,353,75088
"Beauty Bay UK",UK,217,12056,9,12039,50013,0,10,329,5432,1,5825
"Merqueo - Cali CO",CO,216,1429,1,1429,3513,884,7,212,692,35,948
"Перекрёсток Впрок RU",RU,215,16145,219,16143,35859,2517,10,941,8879,57,9949
"Booker Foodservice UK",UK,214,11863,1574,11863,22128,3534,139,450,5420,116,6151
"Superpharm Apteka",PL,214,11631,5596,11631,30708,14441,3,472,15039,207,15750
"Igooods RU",RU,213,15980,5,15979,34723,83,12,225,7343,6,7639
"Exito CO",CO,210,9404,70,9397,37944,3052,109,2624,15788,258,18809
"Rappi - Carulla Express CO",CO,209,0,3685,5024,30033,0,85,5555,0,0,5640
Cocolita,PL,208,10447,87,10439,44754,13290,5,1570,18455,1213,21292
"Yandex Market RU",RU,206,0,1,4,62218,0,18,5036,0,0,5054
"Booker UK",UK,205,8933,1208,8933,16972,9166,130,372,4079,667,5274
"Утконос RU",RU,205,33100,2097,33100,83015,1152,20,443,20775,36,21344
"Pyaterochka App RU",RU,204,5549,539,5549,14661,385,10,240,2634,5,2916
"Minifarm RO",RO,203,2603,4,2603,4417,469,13,703,2428,192,3352
"Emag HU",HU,199,105710,3774,31024,105750,7274,9,2857,67907,0,70773
"Getir IT",IT,197,1883,17,1883,4780,8269,6,101,913,109,1134
"Rappi Lider CL",CL,196,16537,11680,14686,77118,1282,5,5347,17806,32,23231
"Rappi - Carulla CO",CO,195,13966,7909,10425,41389,9465,94,6609,54605,344,61675
"Vodovoz RU",RU,189,1144,142,1144,2345,0,8,347,2038,1,2401
"Panda Market HU",HU,188,2414,54,2414,5950,1235,6,184,1119,84,1403
"Deliberry - Caprabo ES",ES,184,8543,0,8528,9657,0,13,842,36797,0,37662
"Deliberry - Solri ES",ES,178,9124,0,9116,10235,0,13,833,37867,1,38720
"Mercado Libre CL",CL,177,43273,1117,43246,66858,1151,203,649,20623,50,21574
"Tiendas Jumbo CO",CO,177,0,0,0,0,5163,8,0,40,160,210
"Coursesu FR",FR,176,4118,2046,4115,9470,1254,16,11442,43571,1101,56141
"Deliberry - Mercadona Barcelona ES",ES,175,5718,0,5132,6855,0,12,782,27671,1,28469
"Deliberry - Mercadona Madrid ES",ES,173,5651,0,4978,6764,0,10,741,26955,1,27711
"PennyDomu CZ",CZ,173,1722,16,1722,4870,0,75,235,815,1,1133
"Rappi Jumbo CL",CL,172,16314,6945,16127,59799,1417,6,4728,17412,31,22214
"Rappi Unimarc CL",CL,168,12418,982,12046,24530,1304,5,2758,13334,31,16152
"Rappi Turbo CL",CL,167,1024,169,1024,2361,0,144,1168,3148,21,4483
"Rappi - Exito Express CO",CO,163,11373,6195,10045,28000,5299,127,5487,45626,301,51557
"Everli - Coop IT",IT,162,1109,9,1109,1473,0,35,3772,1168,2466,7445
"Deliberry - Supercor ES",ES,161,4086,0,4084,5010,0,11,674,20076,1,20766
"Professional Farmaline RO",RO,155,8562,222,8562,18225,5029,9,572,5070,98,5775
"Auchan FR",FR,154,1645,51,1645,5509,574,209,336,1841,131,2523
"Rappi - Pricesmart CO",CO,152,1846,1166,1460,5030,1104,71,2497,6416,90,9077
"Rappi Carrefour AR",AR,152,5799,796,5780,6912,0,87,1150,17739,25,19005
"Rappi Turbo PE",PE,152,1321,1139,1321,4135,1762,140,2086,4194,128,6552
"Dirck3 NL",NL,151,516,4,516,2449,144,7,94,229,24,359
"Rappi Turbo CO",CO,151,2162,1352,2161,7432,0,174,4967,7780,25,12952
"Rappi Coto AR",AR,150,7850,938,7715,19292,0,88,2462,16039,30,18630
"Look Fantastic UK",UK,147,16886,16329,16864,54473,0,7,815,7979,1,8865
"Everli - Metro IT",IT,145,2506,30,2506,3336,1456,32,250,2637,299,3224
"Deliberry - Dia ES",ES,143,4171,0,4171,5032,0,14,617,20521,1,21156
"Deliberry - La Plaza ES",ES,143,4250,0,4220,5109,0,7,626,21156,2,21794
"Subra BG",BG,139,8020,58,8020,20210,4701,10,201,3724,616,4574
"Medexpressz HU",HU,137,1359,0,1359,2914,0,7,329,840,25,1206
"Nazuby CZ",CZ,135,1768,7,1768,6080,163,6,120,811,35,978
"Gorillas App IT",IT,133,277,0,277,647,2517,7,14,7,205,237
"Alkohol CZ",CZ,131,4168,3850,4168,11634,0,16,1039,2637,1,3705
"Automercado CR",CR,131,12183,39,12126,18892,0,9,2495,32237,1,34753
"Superxtra PA",PA,131,4539,355,4539,9511,0,59,63,2120,3,2250
"Rappi Turbo AR",AR,130,962,150,962,3327,0,151,1930,2441,18,4542
"Extra BR",BR,127,94074,94,94018,94074,0,66,2002,21286,18,23437
"Ozon RU",RU,124,57052,0,0,90146,1486,651,2889,56401,0,59941
"Coop EE",EE,123,6239,27,6225,13327,1575,5,293,2885,57,3252
"Condis ES",ES,121,6664,52,6512,7045,0,4,192,3181,1,3387
"Cora Drive BE",BE,120,13817,9844,13817,90412,4376,9,3839,15189,1201,20314
"Rappi Farmacity AR",AR,114,6209,4642,6001,19517,0,163,3348,23213,22,26756
"Amazon Fresh DE",DE,108,9664,9584,9662,15031,6705,864,7724,7809,748,17155
"E-tinex MK",MK,107,4409,0,4409,8818,339,4,75,2088,30,2203
"Vea Digital AR ",AR,104,2442,0,1773,9669,1003,93,1080,5691,34,6905
"Farmacia Pasteur CO",CO,103,6702,642,6491,42045,598,5,1261,3830,26,5153
"Farmacity AR",AR,97,3190,35,3190,6090,1172,4,353,1177,38,1574
"Savage & Whitten IE",IE,97,3625,34,3625,7250,910,10,459,1624,77,2185
"Vitania BG",BG,96,7328,54,7328,7328,4276,7,337,3397,174,3929
"Koffievoordeel NL",NL,95,480,356,480,2930,1256,7,401,381,29,822
"Kaufland DE",DE,90,28403,421,27954,35977,737,64,629,13657,46,14441
"PriceSmart PA",PA,90,0,0,0,18669,0,0,0,0,0,0
"Kaffedeal DK",DK,88,379,0,379,959,775,6,47,175,34,263
"PriceSmart GT",GT,88,1595,29,1592,14173,2203,5,4017,1131,504,5666
"Brack CH",CH,81,7811,610,7686,19371,1885,57,243,6523,152,6999
"Okey RU",RU,81,4204,2114,4144,4239,275,6,333,13542,25,13932
"Comfandi Supermercados CO",CO,72,0,0,0,0,0,6,0,37,1,45
"Durst DE",DE,69,1121,69,1121,1190,0,4,21,21,3,52
"Droguerias Cafam CO",CO,68,0,0,0,0,1426,20,0,0,66,94
"Pretty Little Thing UK",UK,68,2137,14,2137,11386,0,22,2564,20141,1,22742
"Media Markt DE",DE,67,2280,0,645,6803,462,247,1727,6062,309,8354
"Rappi Cruz Verde CL",CL,65,4460,2555,3420,29549,1349,6,1899,4766,33,6722
"Rozetka UA",UA,62,68003,4061,67907,87355,0,159,5704,18622,1,24733
"Kaffekapslen DK",DK,61,810,163,810,1856,1521,65,46,648,163,924
"PedidosYa DIA AR",AR,61,2480,0,2480,2480,0,5,112,1146,1,1266
"Emag RO",RO,60,56428,855,56423,56433,5195,8,1140,43131,237,44590
"Kapselkongen DK",DK,57,267,1,267,540,689,24,56,243,32,356
"Comfandi Droguerias CO",CO,56,4440,3956,4434,8776,922,9,854,8198,134,9200
"iDrinks HU",HU,53,6513,6384,6513,14081,252,6,664,6460,54,7201
"Bigshop MK",MK,51,1031,0,1031,3817,553,174,401,1335,162,2076
"Expert DE",DE,51,983,12,978,1054,0,113,83,2279,9,2487
"Winelivery IT",IT,49,1364,8,1364,3004,0,4,207,711,0,925
"PedidosYa Carrefour AR",AR,48,4024,12,4024,4024,0,3,126,1849,0,1981
"Very UK",UK,47,3672,2,2,3973,0,17,48,3,1,73
"Bol NL",NL,45,18837,13012,19028,34330,2398,35,2214,21046,549,23870
"Carrefour AR",AR,41,3235,2199,3204,10784,507,82,484,5482,25,6081
"BilkaToGo DK",DK,37,3835,507,3835,22027,1538,9,86,1601,37,1762
"Selver EE",EE,37,3750,9,3736,10261,2759,5,198,2633,133,2980
"Altex RO",RO,36,1392,37,1392,2749,1843,6,145,1461,118,1735
"Ep DE",DE,36,224,9,224,719,0,77,133,461,2,675
"Jumia EG",EG,35,2249,1,2249,4135,62,54,102,1159,22,1341
"Saturn DE",DE,34,1118,0,341,2162,408,178,842,4004,2381,7410
"Galaxus CH",CH,33,9596,3034,9596,9596,977,19,1871,9505,1293,12704
"Kesko FI",FI,31,4490,0,0,62932,9179,33,1084,0,1008,2193
"Americanas BR",BR,28,5036,15,3009,40703,0,659,1790,44037,0,46505
"Avansas TR",TR,28,600,20,600,649,0,4,27,796,1,831
"John Lewis UK",UK,28,381,53,385,502,190,8,24,307,21,366
"Carrefour FR",FR,24,10417,960,10407,15151,1551,7,966,10469,241,11699
"Datart CZ",CZ,23,0,0,0,1332,0,0,0,0,0,0
"MyDeal AU",AU,20,12,4,12,9686,941,4,71,6,56,138
"Shoplink IE",IE,19,148,0,148,444,1789,33,199,102,126,464
"Boulanger FR",FR,17,881,2,881,2065,380,22,114,2066,150,2354
"Euronics DE",DE,15,9661,6,196,38049,0,33,907,42186,2,43204
"Everli - Lidl",PL,14,0,0,0,0,0,177,1043,3,1268,2510
"Qvc US",US,14,15518,1814,15518,16982,0,17,193,18807,1,19030
"Everli - Kaufland",PL,13,0,0,0,0,0,167,973,9,1269,2458
"BCC NL",NL,11,1887,39,1887,2495,661,4,131,1837,84,2063
"El Corte Ingles ES",ES,11,3926,23,3925,5096,672,58,213,19481,61,19821
"Leclerc FR",FR,10,262,87,262,524,819,26,324,8852,1000,10204
"Wildberries RU",RU,10,53850,2652,53731,55873,1580,11,172,28217,41,28683
"Mediaworld IT",IT,9,278,25,274,556,1516,33,119,589,226,969
"Myer AU",AU,9,7612,150,497,9382,0,11,1350,1051,1,2416
"Coles AU",AU,8,324,3,113,651,428,7,85,458,309,860
"Intermarche FR",FR,8,449,0,449,866,890,11,53,1051,255,1371
"AO UK",UK,7,844,135,844,1145,284,63,10,899,7,989
"Woolworths AU",AU,7,1442,3,121,2298,365,3,79,61,37,181
"Unieuro IT",IT,6,1735,499,1732,2169,1196,3,18,792,45,862
"Barrys Beacon IE",IE,4,157,8,157,157,395,7,132,87,68,296
" SberMarket - Lenta RU",RU,0,0,0,0,0,0,8,25,0,90,123
Allegro,PL,0,1335,0,1335,0,0,0,0,21462,0,21462
"Carrefour BR",BR,0,0,0,0,0,0,0,98,4,0,107
"Chedraui MX",MX,0,0,0,0,0,0,4,44,22,1,73
"Cruz Verde CO",CO,0,0,0,0,0,0,3,77,2,22,104
"Drogas La Rebaja CO",CO,0,0,0,0,0,0,22,0,0,259,304
"Easy CL",CL,0,0,0,0,0,0,3,0,0,0,44
"Elefant RO",RO,0,0,0,0,0,1869,2,39,1,30,72
"Linio CL",CL,0,0,0,0,0,0,0,124,11,0,140
"Metro Delivery RU",RU,0,0,0,0,0,0,23,42,24,31,120
"Pão de Açucar BR",BR,0,0,0,0,0,0,2,91,6,0,103
"SberMarket - Metro RU",RU,0,0,0,0,0,0,7,23,1,118,150
"Sodimac CL",CL,0,0,0,0,0,0,23,124,1,1,150
"Soriana MX",MX,0,0,0,0,0,0,1,0,0,1,2
"Superdrug UK",UK,0,0,0,0,0,0,37,1,4,105,147
"Tottus CL",CL,0,0,0,0,0,1241,3,112,3,20,139
frisco,PL,0,0,0,0,0,87194,51,12,6,2023,2175
