﻿Site,Country,Categories,Prices,"Products changed","Products downloads",Relations,Search,"Categories time","Prices time","Products time","Search time","Total time"
"Ocado UK",UK,6652,43962,75,2369,1833641,40487,753,20769,907,1133,25433
"Mytime DE",DE,4806,11676,6,125,102504,2986,2380,3027,62,155,5670
frisco,PL,4707,2090,6,2090,315218,95405,129,7659,3285,738,12103
"Asda UK",UK,3440,28947,120,2204,905116,50877,30,12105,942,1128,15121
"Albert Heijn NL",NL,3412,21706,18,268,105250,4408,457,1566,36,79,2221
"Makro CZ",CZ,3412,8422,1090,3211,848148,462,3021,26114,2033,93,31907
"Metro SK",SK,3219,6401,1,4,294340,0,2883,22813,26,1,25828
"Morrisons UK",UK,3139,21249,35,1999,96377,31475,620,5505,1764,2084,10114
"Waitrose UK",UK,3088,15709,312,1311,1455176,31542,106,20935,520,799,24084
"Rohlik CZ",CZ,3014,24352,54,1698,228298,31873,2161,3788,1057,916,8049
"Albert Heijn BE",BE,2875,10164,10,97,50686,6477,440,1330,59,124,1996
"Coto Digital AR",AR,2837,17976,117,1231,107778,1599,2989,6754,1338,89,11219
"Notino SK",SK,2760,2743,588,2743,124246,318,1308,6809,3368,15,11650
"Kosik CZ",CZ,2685,17497,64,1145,101576,35563,475,1692,570,1009,3818
"Galen BG",BG,2673,14139,17,198,97429,4939,1435,2456,123,114,4193
"Pilulka SK",SK,2622,39477,190,418,254043,11534,38,3656,224,318,4388
Auchan,PL,2604,16906,112,1344,281709,70136,76,14871,1042,4465,20801
"Amazon Fresh UK",UK,2542,13044,4025,4027,57465,17418,1269,3793,2905,514,8598
"Drogeo CZ",CZ,2475,704,27,704,130926,42674,35,2528,389,953,3989
"Notino CZ",CZ,2401,390,78,390,55982,86281,1119,7449,491,1463,10681
"Pilulka CZ",CZ,2359,33045,256,619,160586,34765,32,6291,383,1016,7809
"Sainsburys UK",UK,2260,29476,42,2574,1993282,82687,231,31467,2013,1823,40165
"Amazon UK",UK,2205,1599,45026,45029,1633781,36622,0,0,0,25531,25531
"Boots UK",UK,2030,25937,885,6737,161586,7938,31,3900,10469,256,14916
"Drogerie Natura",PL,1981,14460,3,602,79900,50120,84,4515,935,4951,10610
"Amazon Fresh IT",IT,1977,7925,965,966,29705,3244,3996,3645,2995,458,11113
"Brakes UK",UK,1895,9715,205,422,29069,30778,860,1816,190,320,3237
"Jumbo NL",NL,1810,17769,31,304,67476,4181,1185,1789,283,114,3429
"Auchan HU",HU,1748,23020,63,1938,171568,17764,37,4444,1155,695,6447
"Yuga RO",RO,1686,8979,10,109,44874,1245,2082,4761,3295,140,10317
"Otto DE",DE,1662,241,99,251,67976,202,779,1032,529,17,2386
"Cefarm 24",PL,1660,13480,3,808,98574,14691,2171,4045,1062,5436,12782
"Alza CZ",CZ,1630,30187,146,185,121109,34833,300,1921,263,1046,3592
"Delhaize BE",BE,1603,0,0,0,59200,0,29664,0,0,0,29664
"Apteka Nowa Farmacja",PL,1383,15886,112,1009,84624,22940,10611,3485,1116,1907,17193
"Alza SK",SK,1380,13770,94,205,58669,3826,179,502,62,126,896
eZebra,PL,1366,42828,29,1501,152596,37449,52,15116,527,14161,30001
"Amazon BR",BR,1322,0,0,0,684662,0,0,0,0,19,19
"Tesco UK",UK,1322,28635,582,3111,389620,23658,21,12871,1624,8112,23316
"Picnic NL",NL,1315,7108,4,98,16412,2254,555,992,53,79,1697
"Remedium BG",BG,1309,26751,13,217,90212,1544,418,9055,595,184,10319
"Barbora EE",EE,1305,13270,94,141,47306,1329,47,1740,69,84,1971
"Barbora LT",LT,1296,16925,17,80,59760,1441,50,2212,45,85,2431
" SberMarket - Lenta RU",RU,1266,13412,13199,13205,89941,851,41,4260,7096,63,11500
"Coop CH",CH,1256,18276,51,502,65918,2006,335,2296,847,164,3692
"Rewe DE",DE,1251,8786,6,200,31023,3293,20,1898,265,358,2569
"Kifli HU",HU,1243,13878,45,1593,55360,11298,634,583,746,363,2384
"E-Fresh GR",GR,1218,12180,45,723,58974,6683,2333,4161,1493,659,8684
"Farmaline BE",BE,1205,30830,88,103,147356,0,1019,2690,239,1,4087
"iGlobus Zlicin CZ",CZ,1202,19715,70,482,36524,10463,27,2549,836,578,4032
"SberMarket - Metro RU",RU,1200,7414,7298,7298,58924,372,281,2872,6453,47,9691
Hebe,PL,1181,1113,78,1113,173941,29469,935,4914,1731,971,8674
"Moja Lekaren SK",SK,1181,24631,54,271,133558,4722,701,3757,149,188,4870
"Lekarna CZ",CZ,1174,29329,65,509,129170,5140,704,3663,277,190,4927
"Barbora LV",LV,1170,13973,73,107,52857,1338,99,3419,66,113,3738
"S-kaupat FI",FI,1165,43493,140,437,331889,6411,18,2792,433,139,3536
"Albert App CZ",CZ,1121,7946,35,69,43656,2688,507,2266,38,68,2919
"Amazon DE",DE,1072,170,170,170,524092,13078,0,0,0,3566,5511
"Dr Max SK",SK,1070,23214,25,502,99758,7210,823,6884,650,398,8803
"Knuspr DE",DE,1066,11827,12,134,50243,1638,539,491,64,146,1270
"Eroski ES",ES,1045,26041,106,206,55310,566,22,3287,139,41,3519
"Mathem SE",SE,1044,12258,5,516,33771,7443,17,1123,767,522,2454
"Amazon IT",IT,1041,540,537,540,568537,6594,0,0,0,1232,1232
"Picnic DE",DE,1037,7086,11,158,14258,1838,453,850,68,165,1545
"Auchan RO",RO,1011,24950,13,739,430487,7477,38,5916,624,462,7363
"Salcobrand CL",CL,1011,7561,300,7560,31774,2582,304,616,4413,37,5397
"Vkusvill RU",RU,1004,8009,48,121,14795,1516,322,2272,301,243,3159
"Zakaz - Novus UA",UA,1001,17893,30,103,37872,0,28,1869,54,1,1999
Bee,PL,989,51748,235,697,176630,9277,460,3341,342,238,4697
"Coop NL",NL,988,16339,32,128,70179,993,1712,2077,268,70,4180
Selgros,PL,976,21048,553,1267,73051,28523,456,1058,576,1576,3795
"Carrefour BE",BE,932,18845,80,662,236459,17627,948,11699,435,18245,31475
"Coop Shop IT",IT,924,11197,0,366,33620,6245,18,668,264,385,1375
"Coop SE",SE,914,9941,4,476,33914,7951,15,920,224,216,1397
"Unipatika HU",HU,875,4379,5,297,30759,4686,582,1311,148,283,2348
"Pilulka RO",RO,870,10566,26,106,44982,3430,30,483,55,67,722
"Magnit App RU",RU,856,4047,11,79,11073,0,29,1325,62,1,1432
"SuperValu IE",IE,843,16211,20,2494,221742,12832,870,16685,2714,645,21230
"Tigros IT",IT,836,10010,4,544,30072,7089,16,479,316,244,1098
"Tesco IE",IE,833,17307,15,863,429183,4363,21,10819,421,927,12588
"Ebag BG",BG,823,11424,61,127,42727,1783,19,1302,202,30,1592
"Wong PE",PE,811,23791,38,330,147040,1835,17,8220,7150,64,15526
"Apteka Manada",PL,810,14477,36,1188,53709,38304,49,2442,2049,2701,7348
"Superpharm Drogeria",PL,794,856,55,856,90870,38109,29,1969,1742,442,4283
"Walmart MX",MX,789,23301,40,140,100820,3068,83,10554,114,105,10914
"Polski Koszyk",PL,784,20252,6,973,65486,1990,24,891,674,66,1778
"eZiko Apteka",PL,770,7293,9,565,43877,18734,348,1816,414,1036,3664
"Dr Max CZ",CZ,763,21831,14,407,93083,7987,578,5673,530,586,7423
"Zakaz - Metro UA",UA,761,12028,381,689,23433,0,25,2269,518,1,2850
"Auchan RU",RU,760,24668,36,564,74847,391,25,1751,437,39,2332
"Coop DK",DK,752,11219,462,486,89243,1206,350,3514,358,40,4335
"Sklavenitis GR",GR,731,9863,27,295,29575,4399,118,1237,143,251,1779
"Masxmenos CR",CR,730,9295,12,21,25333,0,26,2656,59,0,2755
"Walmart CR",CR,730,14164,3,305,180619,4989,19,7744,492,193,8538
"Mall CZ",CZ,728,7372,1612,7372,108274,15841,573,768,10378,3269,15121
"Cruz Verde CL",CL,727,9383,31,970,130131,3076,15,18186,447,38,18746
"Apteka Gemini",PL,718,27299,515,1442,94897,64699,39,4203,793,797,5993
"Rimi LV",LV,717,14589,23,79,42829,5374,19,750,83,116,1008
"Bringmeister DE",DE,716,15256,52,196,41703,4359,12,380,89,143,656
"Lunys SK",SK,714,5310,12,12,18524,0,470,978,21,0,1485
"Esselunga A Casa IT",IT,713,15130,31,656,46317,16947,19,4710,1124,1325,7223
"Tesco CZ",CZ,711,16893,8,1530,554988,24847,8,11788,967,3839,16881
"Intervare DK",DK,708,9008,239,339,26103,0,8,328,153,110,620
"Rimi EE",EE,707,12326,17,48,36172,3705,18,720,52,113,939
Barbora,PL,689,9488,50,857,122211,10211,46,2894,449,947,4473
"Gurkerl AT",AT,685,9671,28,123,34901,3416,370,313,60,108,891
"Bennet IT",IT,682,19252,38,494,38819,15180,18,1074,945,712,2787
"Poiesz NL",NL,666,7841,0,10,10067,124,27,515,3128,12,3698
"DM SK",SK,660,12413,1,23,35440,2162,11,1340,16,102,1509
"Maxi RS",RS,660,7884,8,136,26055,6926,13,588,64,122,812
"Rimi LT",LT,658,14845,79,119,44539,3413,17,736,125,83,1007
"Rossmann DE",DE,655,15913,3,84,54912,457,672,1249,79,21,2053
Amazon,PL,654,679,654,672,999998,25558,0,0,0,663,663
"Hoogvliet NL",NL,652,8760,42,118,14312,1852,10,730,128,105,995
"Tesco HU",HU,651,15696,8,2249,1041376,8634,31,19778,1290,1669,23271
"Tesco SK",SK,650,15961,4,66,230443,835,9,5292,55,125,5612
"Apteka Rosa",PL,648,9807,43,161,59296,2113,16,3574,222,143,4030
"City Gross SE",SE,645,12769,21,535,27861,8929,12,367,248,366,1014
"DOZ.pl",PL,644,19582,25,1425,79063,55813,465,3232,848,2149,6806
"Rossman HU",HU,640,14565,11,976,52916,7696,669,811,1620,171,3330
"Crai Spesa Online",IT,638,404,2,404,26323,7013,372,919,879,709,2896
Apteline,PL,620,686,10,686,67351,15563,428,1164,401,451,2532
"Mercator SI",SI,616,12674,1,163,38022,2291,291,281,79,80,785
"E.Leclerc Bielany",PL,609,32077,55,2562,101936,35453,133,4265,1194,21890,27619
"Colruyt BE",BE,606,7855,7,281,93232,14845,9,14505,804,1811,17236
"Thanopoulos GR",GR,598,15630,16,325,52121,9111,20,4633,380,706,5777
"Benu CZ",CZ,597,14205,63,426,66533,5892,30,8918,517,68,9567
"Apteka Galen",PL,594,8732,0,355,25554,3559,19,2575,1281,1031,4957
"Pingvinpatika HU",HU,588,7618,124,721,40958,2850,34,4987,933,299,6278
"Plus NL",NL,583,15655,7,267,31505,3770,42,3683,139,170,4092
"Willys SE",SE,583,10479,13,463,34625,6860,12,376,237,275,923
"Vasalekaren SK",SK,582,10180,0,105,64072,4118,1206,8068,240,641,10182
"Carrefour EG",EG,578,16611,13,32,77122,429,11,3139,98,28,3322
"E.Leclerc Wroclaw",PL,574,16366,61,1365,16874,12761,505,1944,2114,5115,9747
"Superdrug UK",UK,574,13624,13,205,43749,6730,16,575,607,1146,2430
"Glovo Kaufland RO",RO,572,9020,39,9020,16022,0,24,329,153,1,534
"Bestway Foodservice UK",UK,570,10483,34,229,33299,3940,326,481,165,107,1131
"Bestway Best-one UK",UK,568,6460,35,115,20898,12014,326,405,80,333,1224
"Bestway UK",UK,568,8987,58,597,28877,29040,324,464,314,742,1894
"Zakaz - Metro MD",MD,567,10483,14,66,17676,0,19,1210,376,1,1633
"DM HU",HU,566,12641,18,836,34428,9735,8,1236,373,329,1982
"Dr Max",PL,566,13263,19,596,48708,25542,238,2753,579,1170,4801
"Spar HU",HU,565,15356,483,1873,355007,11440,34,7835,3465,430,11942
Lek24,PL,562,6052,21,72,21620,4407,14,1179,53,378,1672
"Kritikos GR",GR,561,16740,29,364,47308,0,18,33,171,7059,7355
Spar,PL,561,25593,1758,2060,677558,76927,32,12073,1005,2170,15818
"Yandex Lavka RU",RU,553,2610,19,139,7388,0,112,731,213,181,1251
"Apteka Melissa",PL,552,27949,156,1885,103255,60828,34,9299,1748,1029,12218
"Chronodrive FR",FR,549,8397,43,135,15317,2117,15,475,108,117,731
"AB GR",GR,548,11211,68,578,33293,8040,16,766,265,222,1307
"DM CZ",CZ,548,12375,11,854,33727,32893,12,1196,384,1034,2658
"Pão de Açucar BR",BR,548,23937,202,331,57805,0,14,2046,224,1,2323
"Freshful RO",RO,543,19177,18,89,39194,361,25,1103,51,18,1258
"Jumbo CL",CL,540,21178,20,2267,543938,2690,12,7355,1569,248,9459
"Univerexport RS",RS,540,9754,135,135,19508,1454,23,578,153,255,1043
"MyMarket GR",GR,538,14572,128,310,52175,6916,19,2053,472,381,2977
"E.Leclerc Rzeszów",PL,534,12221,26,1423,36115,25495,39,713,598,845,2268
"Drogeria Olmed",PL,524,85,76,85,121524,26603,14,8810,475,2728,12111
"Plazavea PE",PE,516,26502,78,288,193271,1899,14,5029,135,166,5452
"Idea RS",RS,514,11901,6,227,21067,7212,99,557,107,110,904
"Metro RU",RU,514,20457,55,563,25992,1430,18,2154,643,64,2934
Rossmann,PL,510,1229,33,1229,79488,31715,33,895,1370,702,3115
"Apteka Zawiszy",PL,505,20554,82,1128,80834,21243,247,1344,626,455,2803
"Hemkop SE",SE,504,10364,12,482,32469,7267,11,360,249,224,871
"Interspar AT",AT,500,22020,16,226,266010,6373,21,2570,293,143,3257
Intermarche,PL,498,18593,6,2498,160571,14606,26,3766,1192,1407,6696
"Benulekaren SK",SK,496,9205,12,317,47664,6830,8,4702,264,136,5134
"Migros Online CH",CH,484,12230,2,61,37899,1322,29,1215,56,191,1539
"Spar SI",SI,482,16677,38,223,58227,2695,20,632,272,105,1101
"Mega Image RO",RO,479,12623,50,423,37779,9752,24,782,195,238,1291
"Famila a casa IT",IT,477,12194,12,139,28996,6473,817,1494,266,313,2916
"Dr Max Drogeria",PL,476,17492,19,571,55460,6727,17,3144,756,347,4334
"E.Leclerc Radom",PL,472,13385,36,1294,42153,10256,122,2691,625,2349,5845
"e-Dostavka BY",BY,468,34266,302,930,87625,1989,20,7052,443,165,7747
"Carulla CO",CO,464,11296,9,269,64280,911,17,2018,179,71,2342
"Apteka Olmed",PL,463,1089,60,1089,162372,20614,15,14412,819,2244,17605
"Basko IT",IT,463,8432,25,438,25784,1572,10,273,498,46,865
Ceneo,PL,462,197984,1682,7362,263816,45815,1013,3896,3586,416,9285
Aptelia,PL,459,498,18,498,72008,10073,235,2332,268,327,3222
"GPSfarma AR",AR,456,9218,69,497,41041,1584,13,3546,694,179,4456
"Glovo Biedronka Warszawa",PL,451,3051,574,3051,5881,570,11,210,85,73,395
"Bringo RO",RO,448,31337,181,27341,54384,7013,29,1892,1411,829,4223
"MegaMarket RO",RO,447,5297,0,9,6401,569,23,1322,13,188,1558
"eTabletka SK",SK,442,11911,10,188,80287,6793,294,8502,177,85,9091
"Patika24 HU",HU,441,4397,1,244,10619,3228,7,558,613,88,1274
"Lider CL",CL,439,12945,435,2435,244789,1946,16,15592,5193,223,21148
"Ecofamily HU",HU,435,6618,1,707,21341,4158,31,2164,4004,618,6833
"Dr Max RO",RO,434,14628,55,1116,43632,8719,217,2344,1067,430,4125
"Unimarc CL",CL,433,10925,13,574,32765,2355,12,792,1109,133,2066
"E.Leclerc Lublin Turystyczna",PL,432,13002,11,1479,16008,13288,18,1234,3105,4444,8855
"Lopido CO",CO,431,10955,4,28,19721,876,12,8249,264,43,8581
"Cornershop - Lider CL",CL,428,18786,0,2413,122907,2169,14,899,844,191,2052
"Cornershop - Jumbo CL",CL,426,26633,5,1047,148232,2627,11,847,350,219,1567
"E.Leclerc Katowice",PL,416,8929,2,1086,9441,9900,97,433,811,1448,2830
"iFresh SK",SK,409,7106,51,51,140479,0,9,4130,992,0,5209
"Kruidvat NL",NL,405,8726,5,16,24322,1776,193,771,31,100,1128
"Farmacia Tei RO",RO,404,297,297,297,25823,3248,21,800,210,223,1278
"Majestic UK",UK,401,1322,1,69,19389,1203,205,2037,57,133,2472
"Teta Drogerie CZ",CZ,399,8390,2,447,24363,6748,35,751,349,166,1333
"OnlinePrima HU",HU,397,7516,12,1211,23041,6067,7,1444,755,310,2536
"Apteki 36.6 BG",BG,395,9982,8,162,47397,1344,15,1572,93,90,1817
"Unimarkt AT",AT,391,3418,13,125,15356,3292,315,818,149,264,1560
"Mercado Libre MX",MX,388,40165,255,1258,86587,2849,722,916,347,346,2389
"DrankDozijn BE",BE,378,3657,1,85,14894,2306,6,637,135,557,1346
"DrankDozijn NL",NL,378,3657,1,83,14894,250,4,625,131,60,834
"Talabat Mart EG",EG,377,6494,308,309,44465,536,10,2180,870,13,3104
Stokrotka,PL,372,7705,31,524,164693,12562,25,3107,266,419,4055
"Bebe Tei RO",RO,371,192,76,192,27493,1548,21,881,110,91,1127
"Billa AT",AT,370,9383,32,225,30362,6657,19,330,391,140,922
"Walmart GT",GT,369,9317,25,341,160335,4250,15,6282,734,264,7375
"Świat Leku",PL,367,11850,5,349,38659,1914,176,1368,294,183,2090
"Ica SE",SE,365,11054,4,654,654448,12646,9,20632,318,210,21476
"Carrefour IT",IT,363,13430,336,1022,37350,4676,255,1845,614,462,3213
"Ulabox ES",ES,363,5710,29,41,12002,0,8,212,24,1,255
"Iceland UK",UK,356,5478,22,342,29379,15209,30,4364,321,3125,7878
"Apteka Prima 24",PL,355,4551,14,52,20604,1484,10,558,56,124,781
"E.Leclerc Lublin Tomasza Zana",PL,355,10844,37,1388,14116,9430,13,488,1224,1064,2834
"Feedo CZ",CZ,351,355,203,355,57827,469,149,1185,365,26,1797
"Cornershop - Wong PE",PE,348,16622,12,229,49911,1808,11,478,131,167,830
"Gall & Gall NL",NL,347,3248,5,66,24105,68,8,5476,135,19,5656
"Rossmann App CZ",CZ,344,10766,28,116,35244,0,10,2957,58,1,3064
"Cornershop - Metro PE",PE,339,14607,6,209,47775,1757,12,454,122,175,805
"E.Leclerc Elblag",PL,339,10543,8,1027,29212,14503,69,1911,1305,2565,5888
"Mercado Livre BR",BR,337,104756,838,2431,1136718,0,709,12566,1046,0,15012
Carrefour,PL,336,14362,29,2627,121792,35221,934,3417,2640,2847,9950
"Roastmarket DE",DE,336,60,14,60,32308,384,24,613,268,15,935
Allecco,PL,335,11867,9,678,40905,10769,25,712,469,181,1458
"Mpreis AT",AT,325,8006,2,129,28042,4564,384,818,163,101,1501
"Jumbo AR",AR,323,11790,10,423,53495,1093,11,2290,231,44,2609
"Sipo HU",HU,320,4789,54,229,10426,1439,5,765,128,119,1031
"Cornershop - Santa Isabel CL",CL,316,7559,11,422,9341,1506,11,586,590,163,1364
"Gastronom BG",BG,309,7814,55,142,24346,950,14,465,88,223,832
"Mercado Libre AR",AR,304,35285,767,2783,76412,615,181,828,6712,118,7914
Empik,PL,302,177782,2212,3406,429451,33301,88,9689,1278,236,11747
"Amazon NL",NL,300,0,0,0,96506,0,0,0,0,20,20
"Cora RO",RO,300,50791,1,380,104302,6484,18,4580,198,1102,6015
"Bipa AT",AT,299,12181,15,68,26583,569,18,392,101,18,577
"Easy Coop IT",IT,299,9062,7,581,27086,9894,10,1956,1197,923,4112
DoDomku,PL,298,5818,109,451,17094,2308,40,252,221,311,840
"Mall SK",SK,298,2053,135,2053,29571,1068,327,797,5151,1416,7736
"SOpharmacy BG",BG,296,10016,65,178,31557,6295,386,975,218,537,2150
"E.Leclerc Gdansk",PL,295,10039,4,786,27564,8613,56,1789,1032,2290,5226
"Ica New Version SE",SE,294,5046,4444,4454,109396,5803,7,1821,2007,221,4117
Makeup,PL,292,2118,720,2118,524802,85530,9,15900,1366,1061,18662
"Tudrogueria Virtual CO",CO,291,8713,18,3793,16648,942,10,344,1748,43,2158
"Apteka Nove BG",BG,287,11383,21,168,38690,6244,14,2856,258,438,3601
"Apteka Medea BG",BG,284,8618,6,180,25865,0,10,1736,159,0,1935
"Sephora US",US,283,77,75,77,127863,0,9,915,54,1,1035
"E.Leclerc Tychy",PL,278,8997,9,1193,9140,9978,56,370,744,1562,2772
"Konzum HR",HR,278,10431,3,93,16278,3397,319,4467,292,434,5526
"i-apteka",PL,276,10073,134,552,21683,5880,11,482,584,412,1530
"Argos UK",UK,274,5338,20,3674,7920,0,8,578,14041,2,14659
Makro,PL,272,3135,3,512,8576,31492,12,532,241,1634,2440
"Edeka DE",DE,270,3759,87,113,4991,115,12,231,112,119,483
"Groby HU",HU,269,8165,33,540,21719,3587,5,1127,621,274,2053
"Farmacia la Pret Mic RO",RO,265,8383,6,242,27283,5940,40,1649,408,820,2944
"E.Leclerc Gliwice",PL,260,8024,6,659,21987,6766,52,1508,672,1977,4293
"Apteka Medkon",PL,254,7730,517,517,31838,4327,11,4336,1105,1396,6896
"Azbuka Vkusa RU",RU,254,10094,22,82,21297,1201,37,1756,354,118,2290
"La Comer MX",MX,254,171,62,171,22248,3930,9,353,446,174,991
"Dunnes IE",IE,253,13394,10,751,23569,11731,6,679,1084,493,2316
"PriceSmart CR",CR,253,2965,5,40,41430,3370,10,10042,40,889,11001
"Globus RU",RU,252,13041,321,321,42360,322,16,1604,199,18,1886
Wapteka,PL,252,18762,1296,1341,64319,42096,11,3867,698,736,5408
"Szybki Koszyk",PL,247,4247,1,99,14515,632,118,621,51,41,856
"Lisek App",PL,246,2027,9,207,2902,1156,11,28,102,282,440
"Supermarket AM",AM,246,6824,13,72,17049,0,14,1023,164,2,1230
"Helpnet RO",RO,245,6775,37,266,19142,5131,17,1933,219,385,2574
"Delitea SE",SE,242,9419,31,276,23009,5673,10,192,124,81,429
"Olimpica CO",CO,241,9576,38,344,29824,2493,9,2231,749,189,3208
"Farmatodo CO",CO,238,13252,147,3647,61231,3885,8,655,4552,69,5331
"Carrefour BR",BR,237,8770,4,12,43514,0,14,9532,57,0,9640
"Afya Pharmacy BG",BG,234,10197,2,165,31934,1842,11,2428,227,333,3026
"Metroiroda HU",HU,230,3291,12,255,6646,1248,3,665,471,127,1271
"Coop UK",UK,226,8623,0,614,205472,8054,9,6107,286,662,7364
"Disco AR",AR,226,7825,37,440,31584,1527,133,3344,1758,98,5352
"Linio CL",CL,226,46037,83,223,77935,0,110,646,712,1,1602
"Merqueo - Bogota CO",CO,225,1334,1,53,3116,1617,8,150,28,81,272
"Benu HU",HU,221,4922,2,342,13297,2750,5,4178,539,445,5184
"Перекрёсток Впрок RU",RU,220,15741,58,547,32586,2667,13,915,446,71,1501
"Getir IT",IT,218,1745,4,56,4479,7947,10,123,33,124,296
"Beauty Bay UK",UK,217,11920,19,61,50832,0,6,395,43,2,534
"Booker Foodservice UK",UK,214,11923,221,1648,22315,2745,152,466,767,100,1528
"Superpharm Apteka",PL,214,572,42,572,30488,24472,9,642,1091,337,2123
"Igooods RU",RU,213,16322,0,310,36517,455,11,273,220,18,602
"Pyaterochka App RU",RU,211,5504,10,295,14516,1250,12,273,144,17,485
"MaxiCoffee FR",FR,210,5381,11,106,13260,1576,548,947,472,261,2237
Cocolita,PL,208,11249,9,838,48864,16151,9,2353,1627,1541,5599
"Exito CO",CO,208,9271,22,649,37285,1471,180,3843,1628,237,5934
"Subra BG",BG,207,8532,82,226,23000,4906,17,287,138,668,1170
"Yandex Market RU",RU,206,45276,1635,1958,58538,1542,17,2993,4818,103,8062
"Booker UK",UK,204,8883,228,1526,16920,8468,144,371,705,694,1944
"Minifarm RO",RO,203,4879,11,119,13001,531,24,843,117,278,1280
"Утконос RU",RU,203,0,0,0,0,1460,28,1156,2,77,1264
"Panda Market HU",HU,201,2501,1,157,6290,1058,5,192,82,106,391
"Emag HU",HU,199,112024,981,2368,112059,7129,6,1942,3705,218,6024
"Rappi Lider CL",CL,196,16581,9138,9330,76271,3356,6,5301,12222,84,17671
"Merqueo - Medellin CO",CO,185,1058,2,65,2256,1552,9,122,34,78,246
"Deliberry - Caprabo ES",ES,184,8543,0,0,9657,0,19,991,90,2,1109
"Vodovoz RU",RU,184,1120,5,18,2297,0,11,353,38,0,409
"Farmacia Pasteur CO",CO,181,7393,18,3458,45846,1152,9,1394,2764,58,4267
"Coursesu FR",FR,178,4341,67,120,8929,1358,12,1517,375,358,2270
"Deliberry - Solri ES",ES,178,9124,0,0,10235,0,21,976,62,0,1069
"Tiendas Jumbo CO",CO,176,15864,24,702,62145,2775,10,1382,985,120,2572
"Deliberry - Mercadona Barcelona ES",ES,175,5718,0,0,6855,0,19,952,1941,1,2920
"Deliberry - Mercadona Madrid ES",ES,173,5651,0,0,6764,0,18,920,2001,0,2944
"PennyDomu CZ",CZ,173,1644,0,2,4643,0,169,259,4,1,437
"Linella MD",MD,172,6211,60,61,12320,0,19,292,70,0,414
"Rappi Jumbo CL",CL,172,16010,5682,5946,55464,3638,7,4680,6677,84,11490
"Rappi Carrefour AR",AR,168,3656,24,201,7601,1915,90,1318,645,72,2130
"Rappi Unimarc CL",CL,168,12110,578,710,23181,3362,7,2704,1403,85,4221
"Deliberry - Supercor ES",ES,161,4086,0,0,5010,0,20,852,14,1,891
"Everli - Coop IT",IT,160,1421,0,207,1842,0,54,418,221,293,992
"Professional Farmaline RO",RO,155,8334,6,124,17700,5348,11,618,85,104,849
"Dirck3 NL",NL,151,532,0,26,2493,144,4,92,17,24,142
"Rappi Coto AR",AR,150,8191,0,0,19116,1732,85,2462,12715,84,15360
"Rappi - Pricesmart CO",CO,149,1767,15,24,4781,3105,72,2782,1047,168,4072
"Look Fantastic UK",UK,146,16848,222,253,53474,0,5,770,171,1,1041
"Everli - Metro IT",IT,144,2474,1,205,3297,1496,42,339,218,473,1081
"Rappi Turbo AR",AR,144,1117,23,50,3972,1435,183,2357,153,72,2768
"Deliberry - Dia ES",ES,143,4171,0,0,5032,0,21,773,2,1,803
"Deliberry - La Plaza ES",ES,143,4250,0,0,5109,0,19,769,143,0,935
"Rappi Turbo PE",PE,143,1156,36,43,4078,1680,155,2164,153,92,2567
"Superxtra PA",PA,138,6483,0,0,13703,0,65,68,3,1,153
"Medexpressz HU",HU,137,1377,2,85,2938,0,4,341,52,0,400
"Nazuby CZ",CZ,135,1716,0,74,5872,161,8,184,36,15,248
"Alkohol CZ",CZ,131,4617,2,13,12881,0,26,1173,15,1,1231
"Extra BR",BR,128,77547,227,436,77547,0,54,1025,153,17,1338
"Ozon RU",RU,124,61152,2441,2695,92199,1446,540,3020,1559,670,6097
"Condis ES",ES,121,6663,9,10,7056,0,5,190,30,1,236
"Cora Drive BE",BE,121,14008,5848,5863,91686,4555,10,3869,6792,1265,11993
"Auchan FR",FR,118,1576,2,82,4700,690,134,245,96,150,632
"Rappi Farmacity AR",AR,112,5873,438,502,17618,1859,111,3383,2579,85,6172
"Mercado Libre CL",CL,110,48297,765,1354,64965,2279,135,613,676,169,1681
"E-tinex MK",MK,109,4308,1,34,8616,393,4,90,16,31,153
"Coop EE",EE,105,1388,0,7,3288,1225,6,97,4,56,169
"Vea Digital AR ",AR,104,2360,9,202,9151,1134,106,1473,2846,85,4517
"Amazon Fresh DE",DE,103,9411,801,801,14159,6839,1164,8846,1839,503,12360
"Savage & Whitten IE",IE,100,3701,8,155,7402,926,11,364,75,76,543
"Vitania BG",BG,98,7260,28,187,7260,4268,10,376,113,253,769
"Farmacity AR",AR,97,279,1,279,6102,1226,7,296,135,57,499
"Everli - Kaufland",PL,94,0,0,0,19709,0,2984,0,0,0,2984
"Everli - Lidl",PL,91,0,0,0,23548,0,2983,0,0,0,2983
"Kaufland DE",DE,90,30367,167,406,37990,735,66,668,286,37,1098
"Koffievoordeel NL",NL,89,485,1,51,2863,1289,3,521,55,29,611
"PriceSmart GT",GT,86,1547,1,17,13432,2308,6,2912,19,491,3436
"Kaffedeal DK",DK,84,390,0,39,985,878,4,48,19,36,109
"Okey RU",RU,82,4266,910,1268,4355,939,16,1070,8471,109,9691
"Brack CH",CH,80,8432,25,125,21125,1786,83,326,145,185,776
"Comfandi Supermercados CO",CO,72,4534,216,216,9142,764,9,1637,564,243,2459
"Durst DE",DE,69,1123,69,1123,1192,0,6,35,19,2,65
"Droguerias Cafam CO",CO,68,4581,1352,3075,11687,2312,18,730,5770,106,6632
"Media Markt DE",DE,68,1255,18,56,3065,451,642,3452,518,752,5368
"Rappi Cruz Verde CL",CL,67,4548,1716,1851,30223,3146,8,1916,3518,83,5548
"Pretty Little Thing UK",UK,65,2056,15,23,9963,0,13,2324,236,2,2593
"Rozetka UA",UA,62,71937,565,717,91250,0,105,4249,475,2,5008
"Kaffekapslen DK",DK,61,789,0,70,1808,1513,81,57,79,197,415
"Emag RO",RO,60,58436,216,828,58443,5104,11,1106,1170,198,2597
"PedidosYa DIA AR",AR,59,2338,28,215,2338,672,5,47,96,23,176
"Comfandi Droguerias CO",CO,56,4444,2435,2435,8793,1831,9,1143,5422,325,6905
"Kapselkongen DK",DK,54,253,0,53,508,644,23,53,53,41,171
"iDrinks HU",HU,53,6591,154,173,14424,253,6,1253,227,52,1554
"Bigshop MK",MK,51,1020,0,53,3805,562,140,228,42,138,551
"Expert DE",DE,51,933,0,2,1001,0,111,75,272,10,470
"PedidosYa Carrefour AR",AR,48,4076,17,155,4076,979,5,51,69,22,155
"Very UK",UK,47,4038,30,62,4383,0,17,74,31,1,129
"Jumia EG",EG,45,2405,14,51,4800,29,43,178,34,24,283
"BilkaToGo DK",DK,37,10798,174,342,57835,1720,8,126,239,37,494
"Datart CZ",CZ,37,982,11,22,1352,1335,9,147,29,71,261
"Ep DE",DE,37,220,1,2,702,0,76,133,5,1,216
"Selver EE",EE,37,4095,3,20,10988,2840,4,156,29,141,344
"Altex RO",RO,36,1460,1,81,2893,1803,8,159,185,128,493
"Bol NL",NL,36,169,122,174,26056,2301,27,1884,449,509,2891
"John Lewis UK",UK,35,17,5,17,613,196,4,96,21,83,207
"Saturn DE",DE,34,660,2,4,1385,395,329,683,17,2446,3477
"Winelivery IT",IT,34,1373,1,13,2893,0,4,199,9,0,217
"Galaxus CH",CH,33,8597,44,121,8597,1010,21,1888,111,1239,3277
"Kesko FI",FI,31,4371,0,0,61295,8767,424,992,1,1154,2613
"Americanas BR",BR,29,5057,0,0,40886,0,269,1513,3,1,1815
"Carrefour FR",FR,24,10812,19,190,16077,1524,6,1015,878,355,2270
"Shoplink IE",IE,20,152,0,127,456,1816,29,44,85,151,310
"Boulanger FR",FR,17,918,1,48,2131,371,30,127,124,153,436
"Euronics DE",DE,15,9551,61,317,37671,0,40,1100,37889,0,39064
"Automercado CR",CR,14,8243,22,52,8243,0,10,1248,177,7,1454
"Qvc US",US,14,15550,44,77,17057,0,23,190,407,1,643
"BCC NL",NL,11,1809,2,38,2397,659,16,150,40,81,293
"El Corte Ingles ES",ES,11,3910,0,138,5092,679,59,699,813,76,1653
"Leclerc FR",FR,10,263,38,77,526,780,16,365,3270,946,4601
"Wildberries RU",RU,10,56881,1367,3458,58923,1578,10,205,2050,45,2575
"Intermarche FR",FR,8,441,2,112,852,846,7,33,246,218,507
"AO UK",UK,7,771,4,19,1063,289,60,28,15,84,200
"Unieuro IT",IT,6,1670,8,20,2086,1135,3,26,12,59,111
"Barrys Beacon IE",IE,4,154,6,121,154,390,7,34,63,59,164
"Musgrave IE",IE,3,0,0,0,0,4016,3,24,2,1203,1238
"Alcampo ES",ES,0,0,0,0,0,462,31,13,9,177,230
Allegro,PL,0,2113,0,1819,0,0,0,0,44861,0,44862
"Carrefour AR",AR,0,0,0,0,0,513,175,2,1,76,254
"Carrefour ES",ES,0,0,0,0,0,403,52,2,0,74,130
"Chedraui MX",MX,0,0,0,0,0,0,6,6,1,68,82
"Cruz Verde CO",CO,0,0,0,0,0,0,4,25,2,42,74
"Dia AR",AR,0,0,0,0,0,0,7,16,1,159,183
"Drogas La Rebaja CO",CO,0,0,0,0,0,0,20,3560,1,141,3722
"Easy CL",CL,0,0,0,0,0,0,2,35,7,8,52
"Elefant RO",RO,0,0,0,0,0,1979,278,3,1,95,378
"Heb MX",MX,0,0,0,0,0,0,0,0,0,0,0
"Mediaworld IT",IT,0,0,0,0,0,0,43,2,1,235,281
"Merqueo - Cali CO",CO,0,0,0,0,0,0,3,16,3,207,229
"Metro Delivery RU",RU,0,0,0,0,0,0,262,4,3,294,563
"Rappi - Carulla CO",CO,0,0,0,0,0,3711,30,10,25,327,398
"Rappi - Carulla Express CO",CO,0,0,0,0,0,1469,28,9,28,324,393
"Rappi - Exito CO",CO,0,0,0,0,0,3998,26,11,30,282,355
"Rappi - Exito Express CO",CO,0,0,0,0,0,839,135,2,21,166,327
"Rappi Turbo CL",CL,0,0,0,0,0,586,27,82,27,90,228
"Rappi Turbo CO",CO,0,0,0,0,0,2704,31,6,21,308,368
"Samokat RU",RU,0,0,0,0,0,0,6,61,2,20,91
"Sodimac CL",CL,0,0,0,0,0,0,23,83,2,1,109
"Soriana MX",MX,0,0,0,0,0,0,1,7,1,231,240
"Tottus CL",CL,0,0,0,0,0,2051,5,51,1,55,112
