﻿Site,Country,Categories,Prices,"Products changed","Products downloads",Relations,Search,"Categories time","Prices time","Products time","Search time","Total time"
"Ocado UK",UK,6534,44057,0,0,415718,42126,1339,11437,41562,2164,56903
"Mytime DE",DE,4853,11624,20,170,105144,3013,2143,2824,80,160,5255
frisco,PL,4707,15937,2182,2204,302400,90104,72,18176,5568,4890,28935
"Asda UK",UK,3465,29713,2070,2085,953783,41565,30,11042,1260,1148,14275
"Makro CZ",CZ,3438,7768,6,10,788918,389,3609,25010,44,38,29026
"Albert Heijn NL",NL,3417,21684,155,363,104936,4329,579,2010,151,98,2921
"Morrisons UK",UK,3244,21024,0,0,97905,32432,616,5587,1788,2113,10252
"Waitrose UK",UK,3095,16368,1125,1168,1557318,34303,92,23935,463,1708,27890
"Metro SK",SK,3046,6312,0,0,287768,0,3214,23039,19,1,26384
"Rohlik CZ",CZ,2963,24219,816,877,225607,22859,2028,3625,555,833,7177
"Albert Heijn BE",BE,2857,10108,158,158,50473,6248,938,2818,199,260,4251
"Notino SK",SK,2673,1537,451,1537,119038,160,1230,6437,2183,30,10047
"Kosik CZ",CZ,2646,17094,632,751,98279,33205,458,1697,359,1121,3704
"Galen BG",BG,2636,13895,16,177,96768,4335,1360,2350,90,97,3962
"Samokat RU",RU,2598,5062,160,160,63125,17,33,49,77,217,458
Auchan,PL,2532,16123,1251,1269,470101,27467,48,16059,873,3859,21209
"Coto Digital AR",AR,2492,17848,355,389,89317,1185,1761,3131,280,42,5269
"Drogeo CZ",CZ,2477,581,547,581,122749,41836,20,2368,369,860,3692
"Amazon Fresh UK",UK,2411,9018,639,639,52109,16926,733,6351,491,406,8041
"Pilulka SK",SK,2357,40335,418,496,246401,11555,12,3899,257,282,4592
"Notino CZ",CZ,2294,2411,723,2411,53732,64882,1048,6770,394,2802,11274
"Sainsburys UK",UK,2262,30719,2388,2420,1785771,84756,233,27887,1926,0,32133
"Pilulka CZ",CZ,2259,35033,632,693,170721,34692,23,4904,459,797,6276
"Amazon UK",UK,2205,2053,2652,2658,1448645,37087,2052,31061,0,17434,50547
"Drogerie Natura",PL,1991,15182,375,449,83154,37261,47,3416,595,2842,6992
"Amazon Fresh IT",IT,1974,7388,696,698,35738,2884,3123,1378,1353,112,5990
"Boots UK",UK,1909,25688,8430,8541,133496,7896,26,3757,12686,250,17002
"Brakes UK",UK,1895,9165,234,238,27535,30717,902,1811,108,315,3174
"Jumbo NL",NL,1859,18665,16,288,73053,4220,1505,2002,344,121,4032
"Auchan HU",HU,1836,29304,255,2322,335383,10190,11,13795,1324,595,15895
"Cefarm 24",PL,1657,13962,885,940,102413,14125,2273,3982,1231,5116,12672
"Delhaize BE",BE,1579,14359,411,472,60492,15411,43,2038,309,481,2931
"Barbora EE",EE,1462,13438,171,324,49914,1332,43,2005,153,75,2308
"Barbora LT",LT,1427,14453,480,550,51661,1366,47,1922,264,68,2336
"Yuga RO",RO,1393,6274,48,68,30341,390,1355,2738,2220,49,6390
eZebra,PL,1368,43075,548,731,153474,31764,17,5936,863,2935,9911
"Tesco UK",UK,1323,28905,3364,20105,353530,24453,22,10855,8032,8749,28164
"Remedium BG",BG,1306,27342,3,247,96875,1314,730,8973,675,165,10605
"Barbora LV",LV,1289,12725,55,124,46451,1346,103,2179,67,108,2486
"Kifli HU",HU,1284,14849,64,1678,60864,10094,592,622,776,366,2417
"Coop CH",CH,1283,18295,26,94,67933,2061,284,1943,170,153,2597
"Picnic NL",NL,1237,6927,2,84,15165,2234,536,944,51,80,1626
"Rewe DE",DE,1233,9016,4,215,33050,3175,18,1373,232,381,2045
"E-Fresh GR",GR,1229,12819,519,715,62271,6738,2350,4301,1490,657,8840
"iGlobus Zlicin CZ",CZ,1229,22614,440,478,89662,7721,10,5264,830,405,6568
Hebe,PL,1179,727,679,727,158195,27680,694,3946,972,935,6656
"Moja Lekaren SK",SK,1164,24248,133,328,132026,4689,578,3513,181,172,4535
"Lekarna CZ",CZ,1158,28723,382,605,126748,5132,570,3380,312,173,4551
"S-kaupat FI",FI,1158,42673,527,780,325648,6347,4,2842,586,111,3717
"Alza CZ",CZ,1098,23905,148,154,90176,28677,197,1499,259,1438,3436
"Albert App CZ",CZ,1068,8141,0,1,59244,0,512,1802,5,1,2368
"Mathem SE",SE,1049,12371,451,623,33922,7532,15,1125,874,531,2580
"Eroski ES",ES,1046,25680,113,186,54415,601,16,3034,127,40,3247
"Amazon IT",IT,1037,545,545,545,365291,6864,0,0,0,689,689
"Amazon DE",DE,1036,266,4227,4229,602972,13956,0,0,0,2762,2762
"Picnic DE",DE,1034,7124,26,171,14302,1824,492,894,78,163,1651
"Apteka Nowa Farmacja",PL,1015,15326,906,1029,62776,19131,9848,2643,1556,2101,16208
"Knuspr DE",DE,1014,9541,11,139,37165,1460,472,470,65,156,1192
"Dr Max SK",SK,1005,22534,875,1053,95911,6928,451,3221,1029,246,5016
"Salcobrand CL",CL,1004,6524,0,0,29081,1095,274,622,4125,15,5060
"Zakaz - Novus UA",UA,1002,18315,43,121,39034,0,9,1989,68,1,2113
"Coop NL",NL,1001,16924,39,141,72201,1210,1399,2444,316,74,4301
"Auchan RO",RO,1000,24971,543,606,439487,7746,28,5133,619,486,6550
"Alcampo ES",ES,995,10265,363,710,16595,295,3093,3669,25232,208,32225
"Alza SK",SK,978,10722,98,175,47574,3276,121,402,40,128,713
Bee,PL,976,40896,119,262,145675,0,463,2695,139,2,3477
"Carrefour BE",BE,962,18610,539,546,204136,20275,913,10415,350,19022,30846
Selgros,PL,954,22433,1228,1233,78339,28997,433,926,557,1539,3552
"Coop SE",SE,925,10028,493,499,34330,7965,15,932,242,213,1434
"Coop Shop IT",IT,924,9978,1,327,29978,5642,13,839,241,393,1512
"Otto DE",DE,902,85,50,91,45157,691,428,580,448,33,1521
"Unipatika HU",HU,867,4385,7,303,31322,4680,538,1378,161,359,2460
"Pilulka RO",RO,865,0,0,0,0,0,10,839,1,116,973
"SuperValu IE",IE,845,16333,10,1070,221246,10498,869,16842,1219,531,19815
"Magnit App RU",RU,843,3956,26,126,11151,0,13,1354,110,0,1489
"Tigros IT",IT,839,10041,102,578,30166,7014,10,481,369,234,1131
"Superpharm Drogeria",PL,824,745,701,745,100685,32695,8,1705,879,377,3133
"Apteka Manada",PL,815,15314,1100,1102,47361,31972,28,3140,2193,2750,8174
"Wong PE",PE,811,23652,77,390,147351,1828,17,8853,8434,77,17468
"Polski Koszyk",PL,798,23686,887,1071,76005,8049,31,944,769,320,2166
"Tesco IE",IE,787,16971,58,930,413117,3992,20,9136,513,713,10769
"Cruz Verde CL",CL,768,6557,2,2,97286,0,8,18207,4,1,18266
"Zakaz - Metro UA",UA,768,10605,48,240,21441,0,9,2490,189,1,2722
"Auchan RU",RU,762,24747,105,807,78757,350,12,1426,550,8,2080
"eZiko Apteka",PL,760,7065,536,556,42550,19150,336,1762,267,948,3384
"Coop DK",DK,758,11474,395,418,93662,1208,361,3378,342,44,4199
"Masxmenos CR",CR,730,8835,32,85,24241,0,19,2274,195,10,2514
"Walmart CR",CR,730,13644,71,472,175754,4572,13,6703,747,175,7726
"Sklavenitis GR",GR,729,10059,251,269,30160,3979,123,1293,145,242,1829
"Ebag BG",BG,728,11747,62,131,42913,1550,13,1239,91,27,1401
"Dr Max CZ",CZ,726,21783,390,472,91237,7803,400,3199,523,299,4486
"Rimi LV",LV,725,14776,12,88,43503,5308,12,796,98,113,1063
"Mall CZ",CZ,720,5791,4804,5791,105868,19223,590,1131,8068,4811,14704
"Apteka Gemini",PL,717,26642,1261,1310,91255,54395,27,2962,604,658,4354
"Intervare DK",DK,713,9400,265,368,27215,0,31,336,170,112,672
"Lunys SK",SK,713,5365,38,44,19188,0,582,1294,71,2,1970
"Bringmeister DE",DE,712,16090,30,261,43649,4328,10,396,117,143,700
"Rimi EE",EE,698,12519,70,160,36658,3740,8,764,168,110,1077
"Gurkerl AT",AT,697,9388,46,221,33956,3142,343,326,101,113,913
"Tesco CZ",CZ,693,16661,1172,1176,552670,23454,9,12574,658,3551,17084
"Walmart AR",AR,692,0,0,0,0,0,500,1160,3,9,1672
Barbora,PL,690,8688,676,679,112592,6904,24,2737,365,812,4051
"Bennet IT",IT,681,19064,32,438,38454,15277,9,1063,211,484,1814
"Drogas La Rebaja CO",CO,674,11635,3790,3797,343766,7092,64,11412,4528,535,16682
"Tottus CL",CL,672,9943,38,1572,47168,1216,9,529,725,22,1320
"Rossman HU",HU,665,15322,18,1050,56323,7728,390,874,1687,169,3170
"DM SK",SK,659,12681,103,104,36224,2173,7,1300,51,152,1542
"Poiesz NL",NL,658,7978,2,14,10198,130,31,569,2937,6,3559
"Rossmann DE",DE,658,16152,16,215,55942,454,507,1025,200,20,1806
"Mat SE",SE,657,10389,357,373,31972,12039,2237,289,344,196,3082
"Maxi RS",RS,654,7938,3,116,26079,6030,9,425,55,102,613
"Rimi LT",LT,654,14680,16,69,44030,3395,10,747,74,78,953
"Hoogvliet NL",NL,652,8816,56,142,14387,1882,30,823,156,103,1140
"City Gross SE",SE,646,12789,558,559,28058,8900,11,347,264,371,1020
"DOZ.pl",PL,646,18185,1150,1469,74893,47721,327,2366,693,1560,5020
"Crai Spesa Online",IT,643,366,2,366,27067,7224,545,1287,616,939,3405
"Esselunga A Casa IT",IT,634,15210,18,634,45068,16468,17,4821,1090,1484,7452
"Tesco SK",SK,634,15745,81,128,228099,845,8,4781,78,115,5129
"E.Leclerc Bielany",PL,625,31804,2493,2557,101396,36052,95,3872,1163,20622,25859
"Tesco HU",HU,621,15618,6,2444,1055874,8873,7,18163,1687,1765,22178
Amazon,PL,616,478,473,477,974828,18475,0,0,0,491,491
Apteline,PL,612,951,865,951,82997,14483,458,1608,677,478,3301
"Vasalekaren SK",SK,609,10113,111,111,67806,3955,1225,9061,261,623,11197
"Colruyt BE",BE,605,7984,250,257,93789,14586,18,14611,804,1796,17329
"Thanopoulos GR",GR,599,16040,274,331,53875,9093,13,4906,413,675,6045
"Apteka Galen",PL,593,8628,283,437,31864,3395,21,1601,654,214,2546
"Pingvinpatika HU",HU,590,7619,28,330,41808,2850,18,5108,448,311,5916
"Willys SE",SE,587,10808,442,457,35726,7042,12,403,366,336,1144
"Benu CZ",CZ,584,14534,328,538,67978,5894,7,5768,405,69,6288
"Bestway Best-one UK",UK,573,6511,81,134,21160,12725,302,376,79,350,1138
"Bestway UK",UK,573,9131,552,705,29470,29732,294,429,358,716,1874
"Vkusvill RU",RU,573,6296,54,191,21593,1105,214,2752,454,145,3582
"Carrefour EG",EG,572,15840,173,257,80246,393,3,1545,183,34,1804
"Bestway Foodservice UK",UK,567,10262,288,375,32635,4752,294,447,232,127,1142
"Dr Max",PL,567,12329,692,802,46787,21964,260,1740,785,673,3507
"Glovo Kaufland RO",RO,566,9159,9155,9159,16086,0,9,303,128,0,458
"Zakaz - Metro MD",MD,566,10763,39,67,18109,0,6,1294,458,1,1775
"Spar HU",HU,565,14794,464,1847,339774,10993,10,8615,3225,450,12473
"DM HU",HU,562,12481,84,878,34159,9687,8,1233,395,332,2005
"Kritikos GR",GR,558,16558,362,362,46825,0,12,43,177,7173,7455
"AB GR",GR,556,11309,553,592,34585,7392,11,795,314,179,1332
"E.Leclerc Wroclaw",PL,555,15781,1141,1347,15996,13598,469,1812,2031,5300,9661
"Yandex Lavka RU",RU,555,3138,12,153,9038,2256,87,592,121,73,885
"Apteka Melissa",PL,552,27723,1097,1201,81703,51441,27,5026,693,1319,7137
"Chronodrive FR",FR,551,8523,340,416,15916,2136,11,436,262,113,832
"Plus NL",NL,551,15667,66,293,28844,3821,53,4179,322,196,4806
"DM CZ",CZ,549,12271,894,894,33466,32392,6,1163,398,1086,2687
"Pão de Açucar BR",BR,548,32739,975,1110,77813,0,7,1919,567,1,2538
Spar,PL,546,24714,2005,2035,683520,77288,20,12205,1056,2317,16065
"Freshful RO",RO,545,20291,62,108,41422,369,9,877,53,228,1216
"Jumbo CL",CL,544,20653,51,2376,581751,1376,8,7771,1623,105,9812
"MyMarket GR",GR,544,14364,299,300,51833,5563,12,1758,388,303,2496
"Carrefour ES",ES,536,14542,175,233,17488,275,20,907,620,36,1616
"E.Leclerc Rzeszów",PL,534,12914,1220,1491,38553,28568,36,705,595,1174,2562
"Univerexport RS",RS,534,9998,9,240,19996,1185,19,574,262,219,1106
"Drogeria Olmed",PL,521,481,481,481,143100,21217,18,8763,215,1549,10613
"Plazavea PE",PE,516,26701,21,385,192230,1839,18,5165,191,158,5659
"Apteka Zawiszy",PL,505,20100,941,941,79375,10111,240,817,472,228,1847
"Cold Storage SG",SG,502,9507,15,33,29677,0,551,2380,42,0,2981
"Hemkop SE",SE,502,10621,453,474,33261,7228,10,281,897,222,1441
Rossmann,PL,502,786,785,786,78590,25510,8,881,1054,586,2621
"Interspar AT",AT,500,21192,15,230,66704,6111,14,661,279,146,1151
Intermarche,PL,496,18736,2376,2382,163785,18811,29,3316,1114,1387,6133
"Benulekaren SK",SK,491,9349,316,366,48416,6778,7,2742,185,152,3119
"Spar SI",SI,488,17326,54,280,60577,2740,14,648,327,104,1147
"Idea RS",RS,485,12155,71,249,20802,6534,86,527,116,95,851
"Metro RU",RU,485,18699,178,582,22136,58,11,1987,680,47,2764
"Migros Online CH",CH,484,12352,68,124,38181,1446,16,1233,103,189,1569
"Dr Max Drogeria",PL,483,15359,19,139,48564,0,233,1879,417,2,2588
"Mega Image RO",RO,481,12668,362,379,37902,9657,8,598,174,156,979
"Famila a casa IT",IT,480,12373,39,174,30070,6405,821,1518,529,314,3211
"E.Leclerc Radom",PL,472,13253,1182,1197,41768,11354,64,2717,577,2041,5458
"e-Dostavka BY",BY,469,31506,187,658,90174,2070,9,6809,335,155,7377
"Basko IT",IT,466,8417,54,432,25726,1512,6,277,483,46,840
"Apteka Olmed",PL,463,1084,1084,1084,156155,19386,9,10857,680,1687,13333
"Cornershop - Lider CL",CL,463,19067,149,2441,122911,1343,8,1085,714,56,1977
"GPSfarma AR",AR,463,8708,454,454,32961,1159,14,1642,218,77,1968
Ceneo,PL,462,194511,5397,9313,260440,35430,924,2398,3452,193,7297
"Carulla CO",CO,455,9908,356,372,29701,4838,15,1760,308,370,2486
Aptelia,PL,454,726,453,726,70458,10035,205,2062,344,323,2989
"Mercado Libre MX",MX,454,52602,870,3103,109489,0,902,1263,928,0,3151
"MegaMarket RO",RO,447,5367,9,9,6471,570,10,1298,14,192,1526
"Feedo CZ",CZ,444,495,474,495,67168,468,191,1031,366,38,1659
"Patika24 HU",HU,440,4462,1,243,10843,3216,8,614,340,89,1059
"eTabletka SK",SK,439,12035,144,200,81673,6726,191,6986,165,87,7464
"Cornershop - Jumbo CL",CL,437,27638,0,1012,144674,1346,10,764,470,44,1417
Stokrotka,PL,434,7671,153,162,1574181,13035,20,14609,116,445,15770
"Unimarc CL",CL,433,10728,146,146,32159,1169,7,480,144,42,689
"Lopido CO",CO,432,10609,86,96,20043,596,6,7517,355,80,7971
"E.Leclerc Lublin Turystyczna",PL,431,12429,1161,1444,15413,13188,18,477,1222,2039,3788
"Lider CL",CL,427,10725,114,2102,244985,1105,14,14943,4532,120,19750
"Ecofamily HU",HU,426,6919,21,824,22499,4246,6,2320,5006,666,8026
"Kruidvat NL",NL,424,8634,30,165,24127,1802,230,807,142,100,1315
"E.Leclerc Katowice",PL,423,10768,1029,1112,11326,12296,299,1346,1725,5435,8844
"Dr Max RO",RO,419,13840,193,194,37584,6303,202,1088,305,188,1833
"iFresh SK",SK,405,8156,122,124,177241,0,5,4818,642,0,5578
"Teta Drogerie CZ",CZ,400,8596,427,503,24979,6726,7,764,506,224,1524
"Glovo Biedronka Warszawa",PL,398,3303,3303,3303,6489,24,4,181,71,71,337
"OnlinePrima HU",HU,397,7551,25,1235,23133,6144,6,1734,720,262,2740
"Apteki 36.6 BG",BG,394,9996,1,151,47256,1065,12,1394,83,79,1600
"Dia AR",AR,394,5035,96,106,15730,661,18,545,171,16,760
"Unimarkt AT",AT,392,3403,32,158,15835,3248,156,313,143,298,923
"Carrefour IT",IT,386,12976,179,864,38141,11809,223,634,383,334,1622
"Bringo RO",RO,382,28427,27707,27822,45102,7115,25,1959,1055,661,3771
"Iceland UK",UK,378,5591,347,349,30873,15500,9,3412,430,1778,5667
"DrankDozijn BE",BE,376,3577,79,91,14545,2255,12,666,144,573,1409
"DrankDozijn NL",NL,376,3576,9,91,14542,250,10,660,145,60,889
"Billa AT",AT,371,9260,69,265,30107,6663,11,473,702,189,1407
"Walmart GT",GT,369,9078,41,382,157465,4095,21,5148,774,195,6220
"Ica New Version SE",SE,366,7171,5882,5882,146965,5564,8,2337,2685,224,5331
"Majestic UK",UK,366,1273,55,65,16775,1170,208,1935,57,133,2358
"Świat Leku",PL,365,11549,258,303,35492,1880,168,1349,238,181,1982
"Cornershop - Metro PE",PE,362,16862,6,189,55836,1861,18,523,196,117,898
"Ulabox ES",ES,362,5924,11,21,12458,0,6,220,14,1,252
"Cornershop - Wong PE",PE,360,19679,15,211,59094,1916,17,526,161,148,897
"Ica SE",SE,356,11226,628,634,661596,12707,8,20530,318,208,21423
"Farmacia Tei RO",RO,353,24588,323,323,26124,2430,8,689,168,115,1026
"E.Leclerc Lublin Tomasza Zana",PL,352,10881,1131,1258,14055,10290,15,465,646,1163,2319
"Cruz Verde CO",CO,348,4367,2652,2654,19810,1240,59,1474,1191,92,2829
"Gall & Gall NL",NL,347,3106,7,65,21886,68,11,5099,148,20,5295
"E.Leclerc Elblag",PL,339,10629,1028,1072,29293,15593,44,1413,963,2320,4779
"Talabat Mart EG",EG,337,6085,562,564,42040,475,4,2091,1521,13,3703
Allecco,PL,336,11673,644,806,40293,10629,19,635,388,180,1271
"Mercado Livre BR",BR,336,100500,1803,3329,1180066,0,705,14093,883,1,16511
Carrefour,PL,332,13130,2041,2091,101164,32105,471,1983,1777,2032,6371
"Roastmarket DE",DE,332,90,34,90,34392,384,21,335,1151,15,1557
"Jumbo AR",AR,330,9524,301,418,53796,777,15,2213,224,30,2510
"Bebe Tei RO",RO,325,26426,99,139,27325,513,8,859,84,48,1037
"Mpreis AT",AT,325,8010,0,129,28096,4605,345,796,127,100,1391
"Carrefour BR",BR,324,15580,84,98,120901,0,10,15019,284,1,15399
"Sipo HU",HU,321,5713,21,180,12620,1439,6,620,104,152,893
"Mercado Libre AR",AR,314,31739,619,1679,69927,526,190,760,3298,79,4403
"Azbuka Vkusa RU",RU,309,13703,13,244,28343,132,24,2073,936,89,3151
"SOpharmacy BG",BG,304,9874,3,184,31040,5617,408,1399,223,234,2292
"Cornershop - Santa Isabel CL",CL,302,7011,6,496,8671,1016,6,521,703,48,1288
"Bipa AT",AT,301,11008,53,93,24210,559,11,346,130,20,537
Empik,PL,301,178437,1366,1821,450375,25769,90,14204,606,181,15596
"Amazon NL",NL,299,0,0,0,100999,0,0,0,0,17,17
DoDomku,PL,299,6379,137,450,18661,2443,45,261,256,359,932
"Easy Coop IT",IT,299,9137,51,635,27079,9851,6,1805,1301,862,3998
"Cora RO",RO,298,45967,394,394,91947,6377,7,4400,213,765,5468
"Mall SK",SK,298,2073,1997,2073,30102,1168,324,823,4921,1078,7174
"Gorillas App IT",IT,297,1351,0,1351,3703,6304,8,21,19,195,249
"E.Leclerc Gdansk",PL,295,10519,793,874,28999,9148,37,1434,726,1986,4226
"Tudrogueria Virtual CO",CO,291,7976,3771,3773,15491,460,6,325,1736,25,2108
"Apteka Nove BG",BG,288,11628,0,145,42139,5464,10,2836,988,329,4197
"Apteka Medea BG",BG,284,8748,4,164,26542,0,8,1194,121,1,1348
"Sephora US",US,283,191,178,191,120572,0,9,868,78,1,1003
"i-apteka",PL,281,9851,509,523,21118,5872,5,456,560,454,1504
"E.Leclerc Tychy",PL,279,9309,1044,1210,9504,11401,65,287,566,1677,2624
Makeup,PL,278,6301,2974,6300,481534,57917,5,11395,2781,875,15335
"Konzum HR",HR,275,10836,6,178,17091,3350,309,2445,547,438,3755
"Argos UK",UK,273,5661,3869,3871,8272,0,5,513,14549,1,15099
"Edeka DE",DE,272,3721,66,91,4987,130,10,239,92,110,461
Makro,PL,272,3090,490,491,8398,32272,3,521,235,1664,2439
"Groby HU",HU,267,8266,2,509,21969,3564,5,1408,705,243,2382
"Merqueo - Bogota CO",CO,265,2869,136,266,7044,5974,5,217,152,255,634
"PriceSmart CR",CR,265,3472,12,49,45553,3304,4,10832,53,671,11582
"Farmacia la Pret Mic RO",RO,263,8822,251,268,26931,4282,25,2031,419,808,3307
"E.Leclerc Gliwice",PL,260,7850,666,713,21507,7142,39,1114,493,1672,3349
"MaxiCoffee FR",FR,258,5596,140,140,13985,1599,510,877,547,277,2219
"Apteka Medkon",PL,254,6786,466,466,24787,8327,7,3947,984,1375,6341
"Globus RU",RU,254,13280,292,346,44251,33,8,1559,214,6,1856
"Dunnes IE",IE,252,13063,19,791,22261,9993,6,751,1230,421,2449
Wapteka,PL,252,18565,1186,1186,63970,34243,9,4398,656,586,5709
"Delitea SE",SE,251,9860,293,300,23749,5581,6,184,140,88,441
"Supermarket AM",AM,248,7278,11,98,18049,0,6,950,181,1,1157
"Afya Pharmacy BG",BG,247,9665,22,185,32376,1453,10,2325,246,253,2853
"Helpnet RO",RO,245,6929,263,270,19375,2868,6,1456,148,147,1778
"Szybki Koszyk",PL,245,4268,78,96,14552,614,117,626,48,138,948
"Olimpica CO",CO,241,10942,402,2060,46279,1012,6,2431,3906,58,6438
"Farmatodo CO",CO,238,12730,3591,3596,58996,5884,8,752,4516,100,5431
"Merqueo - Medellin CO",CO,230,2220,146,201,5140,5126,5,175,105,226,514
"Metroiroda HU",HU,230,3408,7,265,6894,1300,4,809,495,148,1461
"Linio CL",CL,228,53011,307,949,84463,0,106,718,497,0,1416
"Chedraui MX",MX,227,30379,50,112,91429,0,14,1442,73,0,1571
"Lisek App",PL,227,1843,129,136,2232,871,5,7,65,286,381
"Coop UK",UK,223,9216,683,684,214994,9657,4,4451,555,1329,6557
"Benu HU",HU,219,5003,15,348,16292,2733,5,2620,529,833,4000
"Rappi - Exito CO",CO,218,0,5882,5874,0,0,123,13558,0,0,13681
"Pyaterochka App RU",RU,217,5520,311,334,14725,389,18,246,169,6,465
"Beauty Bay UK",UK,216,12648,16,234,52146,0,14,334,148,1,559
"Перекрёсток Впрок RU",RU,213,16117,66,746,34629,2224,12,2609,1251,204,4109
"Igooods RU",RU,212,15330,11,364,33067,92,6,205,260,6,523
"Superpharm Apteka",PL,212,523,502,523,30273,14284,3,616,702,208,1558
"Merqueo - Cali CO",CO,209,1589,63,84,3797,959,5,143,45,38,234
Cocolita,PL,208,10445,223,399,44714,11493,5,1555,751,1184,3546
"Yandex Market RU",RU,206,56689,2401,3594,71980,0,17,4074,2714,89,7009
"Утконос RU",RU,204,804,173,804,81846,1154,17,392,431,41,931
"Minifarm RO",RO,203,2636,76,110,4385,141,8,636,87,129,871
"Rappi - Carulla CO",CO,200,0,5087,5079,0,0,108,10429,0,0,10537
"Emag HU",HU,199,104798,554,1712,104839,7315,7,2403,1929,221,4715
"Getir IT",IT,198,1741,10,84,4386,8146,6,122,51,137,320
"Rappi Lider CL",CL,198,16550,2857,3001,77442,56,4,5359,15502,31,20946
"Vodovoz RU",RU,191,1093,28,64,2244,0,8,363,110,1,486
"Deliberry - Caprabo ES",ES,184,8543,0,0,9657,0,16,821,80,2,930
"Rappi - Exito Express CO",CO,181,12583,3829,3833,25486,6128,123,9967,30317,676,41104
"Mercado Libre CL",CL,180,42187,654,1017,66819,1129,225,651,503,57,1496
"Deliberry - Solri ES",ES,178,9124,0,0,10235,0,19,816,50,0,895
"Panda Market HU",HU,178,2323,3,154,5804,1404,4,124,75,106,321
"Coursesu FR",FR,176,4240,85,95,12077,1292,14,11573,876,1200,13670
"Deliberry - Mercadona Barcelona ES",ES,175,5718,0,0,6855,0,15,780,1797,1,2600
"Jumia NG",NG,174,8299,90,159,18852,450,86,310,74,21,509
"Deliberry - Mercadona Madrid ES",ES,173,5651,0,0,6764,0,15,735,1895,0,2651
"PennyDomu CZ",CZ,173,1762,0,4,5072,0,192,247,5,1,450
"Rappi Jumbo CL",CL,173,15882,10745,11654,56680,1383,4,4643,12658,32,17382
"Linella MD",MD,172,6213,18,1002,6213,0,4,170,21605,1,21787
"Rappi Unimarc CL",CL,167,12466,514,714,24687,1279,4,2669,1359,31,4084
"Everli - Coop IT",IT,162,11788,20,294,12939,7457,49,709,149,566,1501
"Deliberry - Supercor ES",ES,161,4086,0,0,5010,0,15,684,21,1,725
"Rappi Turbo CL",CL,159,990,3,11,2126,0,159,2261,83,47,2552
"Professional Farmaline RO",RO,155,8603,131,138,18334,2680,6,551,93,59,735
"Auchan FR",FR,154,1546,79,92,5169,592,174,315,109,147,749
"Rappi Carrefour AR",AR,153,6032,169,276,7346,0,114,2228,895,47,3289
"Rappi Turbo CO",CO,152,2186,119,146,7526,0,148,8403,615,46,9216
"Dirck3 NL",NL,151,514,2,29,2401,144,9,135,18,30,198
"Rappi Coto AR",AR,150,8799,303,320,20693,0,113,4375,1707,45,6257
"Rappi - Pricesmart CO",CO,148,495,50,50,1266,1076,100,3826,924,178,5029
"Look Fantastic UK",UK,147,17099,16,92,54273,0,4,769,78,1,937
"Everli - Metro IT",IT,145,2339,4,163,3162,1445,37,288,85,298,713
"Deliberry - Dia ES",ES,143,4171,0,0,5032,0,18,621,1,2,648
"Deliberry - La Plaza ES",ES,143,4250,0,0,5109,0,15,618,305,2,945
"Rappi Turbo PE",PE,139,1335,37,38,3833,1755,169,3793,233,282,4480
"Medexpressz HU",HU,137,1372,0,85,2933,0,4,329,65,2,406
"Ozon RU",RU,136,0,0,0,0,0,1887,293,25,275,2480
"Nazuby CZ",CZ,135,1762,69,69,6050,163,4,117,42,36,205
"Subra BG",BG,133,7653,47,217,19890,4239,9,231,111,558,938
"Exito CO",CO,132,8809,507,529,36146,3052,14,4385,1056,260,5751
"Alkohol CZ",CZ,131,4211,20,98,11771,0,17,1012,105,2,1146
"Automercado CR",CR,131,12123,14,91,18767,0,168,2349,408,1,2939
"Superxtra PA",PA,131,4385,1,1,9176,0,67,63,3,0,139
"Coop EE",EE,128,9070,2,36,19779,1908,2,425,18,55,516
"Extra BR",BR,127,95651,274,427,95651,0,51,1414,179,17,1752
"Cora Drive BE",BE,122,13721,8054,8056,88228,4292,16,4031,10179,1330,15619
"Condis ES",ES,121,6608,21,21,6988,0,4,193,24,0,231
"Rappi Turbo AR",AR,121,849,3,9,2959,0,183,3497,81,45,3808
"Rappi Farmacity AR",AR,114,6544,444,488,19529,0,149,6446,4894,46,11549
"Amazon Fresh DE",DE,113,9203,330,330,14301,6740,113,935,328,286,1681
"E-tinex MK",MK,108,4401,4,36,8802,334,3,77,20,33,142
"Vea Digital AR ",AR,104,2372,204,232,9517,856,100,1162,2725,44,4039
"Farmacia Pasteur CO",CO,103,7651,3719,3759,48945,606,3,1361,2500,26,3925
"Farmacity AR",AR,97,276,243,276,6436,1167,10,315,127,38,492
"Savage & Whitten IE",IE,96,3660,0,146,7321,910,12,384,69,79,557
"Vitania BG",BG,96,7372,14,154,7372,3713,6,349,75,148,593
"Koffievoordeel NL",NL,95,450,4,55,2824,1251,9,601,62,29,705
"Everli - Kaufland",PL,94,19554,245,259,47429,3627,28,2067,256,269,2716
"Everli - Lidl",PL,91,3408,18,18,23513,3070,34,1336,43,276,1727
"Kaufland DE",DE,90,27425,169,398,32377,725,63,693,336,44,1181
"PriceSmart PA",PA,88,1640,7,37,19080,964,10,4613,29,301,4965
"Kaffedeal DK",DK,87,380,0,31,974,818,8,69,15,34,127
"PriceSmart GT",GT,86,1591,7,25,13559,2065,12,3301,41,521,3882
"Okey RU",RU,82,4040,547,881,4145,280,7,231,2550,23,2826
"Brack CH",CH,81,7835,12,110,19063,1889,70,264,94,154,600
"Comfandi Supermercados CO",CO,72,2726,780,780,3415,0,14,739,1019,1,1777
"Durst DE",DE,69,1121,113,1121,1190,0,4,33,22,19,83
"Droguerias Cafam CO",CO,68,4338,2958,2962,11128,1409,16,569,4674,56,5324
"Pretty Little Thing UK",UK,68,2261,1,11,12099,0,11,2653,100,1,2777
"Media Markt DE",DE,66,2140,161,1120,5342,1072,220,7578,15697,2400,25902
"Rappi Cruz Verde CL",CL,65,4490,2522,2711,29471,1398,4,1831,2893,32,4781
"PedidosYa DIA AR",AR,64,2801,3,19,2801,0,7,74,10,0,94
"Rozetka UA",UA,62,65610,1189,1732,84417,0,109,5388,636,1,6287
"Kaffekapslen DK",DK,61,799,1,71,1820,1529,65,72,79,198,416
"Kapselkongen DK",DK,57,273,4,62,553,690,29,64,174,33,301
"Comfandi Droguerias CO",CO,56,4512,0,0,5664,0,19,503,1,0,528
"Asos UK",UK,55,8561,129,186,21900,0,29,158,89,2,308
"Emag RO",RO,54,55074,469,812,55079,5127,9,1476,1321,276,3198
"iDrinks HU",HU,52,6506,174,193,14235,252,10,1209,200,56,1490
"Expert DE",DE,51,1042,0,3,1121,431,121,74,245,47,489
"Winelivery IT",IT,49,1401,23,88,3128,0,5,220,81,1,310
"PedidosYa Carrefour AR",AR,48,4116,56,326,4116,0,7,79,152,0,241
"Very UK",UK,47,3745,114,131,4057,0,14,58,60,1,147
"Bol NL",NL,46,537,321,539,30789,2224,45,2561,783,458,3872
"Carrefour AR",AR,41,3327,316,328,11105,509,93,592,1272,26,1990
"Jumia EG",EG,39,2372,6,42,4649,76,32,128,25,21,209
"Altex RO",RO,37,1883,94,95,3731,2014,4,227,115,125,477
"BilkaToGo DK",DK,37,3837,2,154,22159,1546,17,107,71,36,255
"Selver EE",EE,37,3890,20,36,10480,2649,5,198,54,171,437
"Ep DE",DE,35,248,49,58,806,299,74,137,122,96,430
"Saturn DE",DE,34,91,0,13,92,49,141,4286,9194,16376,30002
"Galaxus CH",CH,33,9727,112,117,17638,979,16,3242,106,1304,4684
"Kesko FI",FI,31,4417,0,0,61533,9194,22,1257,0,1102,2423
"John Lewis UK",UK,28,19,17,19,492,173,5,25,19,63,114
"Americanas BR",BR,27,4987,65,69,38225,0,757,2111,200,0,3092
"Mercator SI",SI,27,12744,6,170,12744,2274,5,24,83,80,220
"Carrefour FR",FR,24,10836,183,226,15529,1544,5,1305,891,218,2428
"Datart CZ",CZ,20,915,33,35,1338,948,12,138,31,53,237
"MyDeal AU",AU,20,17,3,17,9551,828,4,70,11,49,136
"Deeski NG",NG,19,193,0,17,302,242,14,56,40,32,143
"Officeworks AU",AU,19,384,0,53,390,392,89,10,227,19,346
"Shoplink IE",IE,19,143,0,122,429,1752,34,48,79,109,271
"Boulanger FR",FR,17,783,45,46,1842,361,21,119,114,160,416
"Euronics DE",DE,15,9551,72,254,37962,1211,33,968,39477,225,40741
"The Good Guys AU",AU,15,794,0,14,1504,394,4,45,25,116,192
"Qvc US",US,14,14798,64,94,16212,0,21,149,289,1,476
"BCC NL",NL,11,1836,13,38,2420,669,6,257,40,60,369
"El Corte Ingles ES",ES,11,3936,143,143,5108,674,78,215,942,56,1298
"Leclerc FR",FR,10,247,5,12,247,743,17,264,5304,704,6291
"Wildberries RU",RU,10,53934,1209,2101,55930,1602,10,163,1319,76,1799
"Mediaworld IT",IT,9,286,3,49,572,1536,31,101,133,249,516
"Myer AU",AU,9,7972,101,220,10258,0,12,1551,475,1,2043
"Coles AU",AU,8,328,3,98,655,385,5,99,474,342,921
"Intermarche FR",FR,8,438,117,121,843,877,3,83,592,489,1167
"AO UK",UK,7,787,19,36,1054,276,66,7,250,7,338
"Woolworths AU",AU,7,860,6,107,1564,373,4,50,54,36,144
"Unieuro IT",IT,6,1712,26,27,2137,1126,2,25,15,62,111
"Harvey Norman AU",AU,5,17,1,17,298,282,13,36,68,294,411
"Barrys Beacon IE",IE,4,157,6,118,157,389,8,43,61,74,187
"Konga NG",NG,3,60,25,60,3000,232,140,35,247,18,442
" SberMarket - Lenta RU",RU,0,0,0,0,0,0,7,17,1,93,118
"0815 DE",DE,0,0,0,0,0,0,3,21,1,44,69
Allegro,PL,0,1109,0,1109,0,0,0,0,13248,0,13248
"Booker Foodservice UK",UK,0,0,0,0,0,0,9,1,5,276,305
"Booker UK",UK,0,0,0,0,0,0,9,1,5,1335,1360
"Disco AR",AR,0,0,0,0,0,982,45,1,1,43,99
"Easy CL",CL,0,0,0,0,0,0,3,27,2,4,37
"Elefant RO",RO,0,0,0,0,0,1979,2,40,1,26,69
"Metro Delivery RU",RU,0,0,0,0,0,0,26,18,18,40,102
"Rappi - Carulla Express CO",CO,0,0,0,0,0,7424,73,1,62,685,823
"SberMarket - Metro RU",RU,0,0,0,0,0,0,8,17,2,115,142
"Sodimac CL",CL,0,0,0,0,0,0,18,30,1,1,50
"Soriana MX",MX,0,0,0,0,0,0,2,23,3,1,29
"Superdrug UK",UK,0,0,0,0,0,0,49,1,1,84,137
"Tiendas Jumbo CO",CO,0,0,0,0,0,0,3,13,2,418,436
