﻿Site,Country,Categories,Prices,"Products changed","Products downloads",Relations,Search,"Categories time","Prices time","Products time","Search time","Total time"
"Pilulka CZ",CZ,12629,47740,389,1034,1304423,22135,10084,20472,579,1071,32979
"Ocado UK",UK,6468,46304,122,2624,437778,42220,1326,11387,2276,2044,17248
"Mytime DE",DE,5386,11029,11,167,106186,2934,2426,3000,79,153,5702
frisco,PL,4704,15500,74,1532,284675,96619,45,11729,7434,2173,21565
"Pilulka SK",SK,4583,34289,4092,7038,442818,10141,2174,9378,3304,250,15261
"Samokat RU",RU,3596,6230,35,191,77809,15,22,58,212,13,349
"Albert Heijn NL",NL,3504,21435,13,230,107637,4307,452,1532,30,81,2153
"Morrisons UK",UK,3284,21081,204,2149,98697,32663,613,5672,1839,2143,10325
"Asda UK",UK,3202,28117,176,2351,842495,41230,8,9806,1162,1204,12604
"Waitrose UK",UK,3089,16591,373,1500,1514666,34364,18,24412,971,1697,28741
"Albert Heijn BE",BE,2946,10283,4,85,52904,6217,412,1312,12,122,1893
"Coto Digital AR",AR,2943,16130,592,908,111191,1212,2838,6054,887,56,9880
"Rohlik CZ",CZ,2742,23612,185,890,211942,13130,2337,3820,577,637,7496
"Galen BG",BG,2537,12407,99,272,87885,2740,1294,2152,135,59,3698
"Drogeo CZ",CZ,2515,626,46,626,122484,26417,14,2326,388,550,3336
"Kosik CZ",CZ,2487,15448,48,675,87614,28388,452,1555,318,933,3317
"Amazon Fresh UK",UK,2412,8635,458,458,50415,16812,1871,3158,305,392,5755
"Sainsburys UK",UK,2242,30977,23,2466,1740295,85669,238,27455,1935,1917,32724
"Notino SK",SK,2138,874,662,874,109213,137,971,5791,1963,16,8894
"Amazon Fresh IT",IT,2086,7606,708,710,36642,2312,2442,1280,629,394,4761
"Amazon UK",UK,2084,1988,15269,15278,1793604,39472,0,0,0,7887,7887
Auchan,PL,2071,13178,465,1170,240204,24903,22,7500,776,3064,11509
"Drogerie Natura",PL,1979,20133,50,600,87698,37575,45,3099,680,1339,5370
"Boots UK",UK,1911,25758,1536,13163,130892,7763,13,3287,19089,239,22691
"Jumbo NL",NL,1897,19011,68,435,74099,4358,1437,2163,427,136,4204
"Brakes UK",UK,1895,9296,4,204,27932,30959,881,1798,92,316,3105
"Auchan HU",HU,1874,34877,332,2416,366219,11539,5,11950,1262,510,13939
"Notino CZ",CZ,1758,226,226,226,46250,20100,797,6047,408,1090,8491
"Otto DE",DE,1677,178,110,180,66916,838,796,1045,353,30,2254
"Yuga RO",RO,1660,10105,1,63,50666,516,1543,3685,2725,49,8033
"Cefarm 24",PL,1644,13527,39,954,100575,14245,2210,3851,1294,4743,12150
"Alcampo ES",ES,1628,16924,335,538,57924,467,3450,14050,1437,512,19478
"Delhaize BE",BE,1561,14365,112,482,60810,15366,11,3379,340,444,4218
eZebra,PL,1320,40632,226,711,143148,31130,20,5584,814,2713,9235
"Picnic NL",NL,1294,6844,18,100,16205,2245,608,1109,49,79,1859
"Kifli HU",HU,1278,14820,50,1543,61020,10049,626,609,699,393,2363
"Tesco UK",UK,1278,29247,107,2691,339257,25415,8,10363,1225,7645,19529
"Barbora EE",EE,1258,11855,33,123,43131,1061,30,1268,58,75,1450
"E-Fresh GR",GR,1240,13031,72,505,67360,6239,2353,4500,1052,632,8572
"Rewe DE",DE,1238,9566,25,235,34796,3180,13,1350,253,373,2013
"Apteka Manada",PL,1225,14630,41,1069,44401,30884,24,4050,1871,2228,8211
"Apteka Nowa Farmacja",PL,1217,15155,85,981,70183,20429,9290,2339,789,1278,13733
"Coop CH",CH,1192,17729,75,179,63808,1917,276,1915,320,121,2671
"Amazon DE",DE,1183,260,259,260,559350,15406,0,0,0,2632,3881
"Barbora LV",LV,1147,11128,152,320,41858,1225,37,1480,151,92,1776
"S-kaupat FI",FI,1140,39260,0,0,302266,3236,3,2996,18510,95,21760
"Lekarna CZ",CZ,1138,28849,138,558,128158,4626,570,3261,294,172,4370
"Moja Lekaren SK",SK,1135,24475,72,294,107998,5931,573,2795,152,171,3762
"Mall CZ",CZ,1111,4946,1166,4944,133728,13358,688,2491,6078,5536,14896
Hebe,PL,1075,925,308,925,122051,26131,499,2017,1119,549,4327
"SberMarket - Metro RU",RU,1071,7229,168,324,47310,637,13,3231,1543,55,4870
"Carrefour BE",BE,1055,19559,151,536,577734,21447,956,14556,452,3337,19568
" SberMarket - Lenta RU",RU,1042,8783,260,513,55717,580,14,3588,2386,99,6120
"Mathem SE",SE,1039,13414,17,514,36299,7629,12,1106,748,491,2389
"Coop NL",NL,1036,17321,39,138,73410,918,894,2932,274,68,4220
"Eroski ES",ES,1009,24556,71,283,51692,497,12,3010,174,38,3264
"Salcobrand CL",CL,1007,6588,0,0,29888,1147,243,614,3496,14,4384
"Auchan RO",RO,1006,22537,64,595,98763,7584,22,1015,325,139,1593
"Knuspr DE",DE,1003,8658,75,177,33014,1196,472,469,86,149,1199
"Alza CZ",CZ,998,24341,262,366,92840,20299,205,1692,329,853,3217
"Amazon IT",IT,991,539,539,539,409439,5655,0,0,0,305,305
"Remedium BG",BG,984,27470,22,256,85572,700,225,7795,683,121,8872
"Picnic DE",DE,980,7067,2,150,14188,1842,451,843,82,165,1551
Selgros,PL,949,22667,797,1179,79145,25942,427,920,526,1436,3429
"Vkusvill RU",RU,933,10388,154,154,37032,1069,210,1431,159,109,1952
"Coop Shop IT",IT,932,10390,0,320,31116,5409,6,641,229,388,1281
"Coop SE",SE,926,10055,71,548,34116,8081,13,915,264,220,1441
"Magnit App RU",RU,923,3902,8,120,11482,0,6,2104,104,1,2231
"Tigros IT",IT,859,10009,36,597,30401,6444,4,486,348,263,1120
"Unipatika HU",HU,853,4357,3,299,30975,4657,438,881,147,194,1681
"SuperValu IE",IE,846,16776,14,1005,228436,11175,877,16616,1120,567,19341
"Wong PE",PE,811,21430,149,286,52870,0,4,2040,229,1,2298
"Superpharm Drogeria",PL,806,743,72,743,86952,32588,8,1735,860,377,3058
"Polski Koszyk",PL,800,19562,0,730,64129,8532,6,825,409,476,1808
"Pilulka RO",RO,793,39191,107,250,147116,3560,397,2292,366,106,3253
"Tesco IE",IE,778,17169,65,897,421189,4379,6,9839,379,726,11178
"Superdrug UK",UK,774,15544,31,278,44182,6888,10,901,765,411,2129
"Coop DK",DK,750,11079,112,126,88350,1180,342,3205,182,38,3830
"Auchan RU",RU,747,21692,159,1038,69873,350,6,1376,810,10,2290
"eZiko Apteka",PL,735,7012,106,638,40921,19094,325,1641,302,938,3236
"Intervare DK",DK,731,9073,200,224,26473,0,4,332,99,110,562
"Masxmenos CR",CR,730,8748,0,0,24182,0,19,1645,21,1,1699
"Walmart CR",CR,730,13935,0,0,179812,0,6,5610,3,1,5700
"Bringmeister DE",DE,728,15300,17,223,39945,5418,10,418,102,143,705
"Sklavenitis GR",GR,727,10101,71,374,30294,5860,123,1313,200,332,1993
"Apteka Gemini",PL,713,26036,126,1394,89486,54136,14,2664,647,652,4130
"Rimi LV",LV,704,15181,19,101,44668,5312,6,1064,158,144,1392
"Dr Max CZ",CZ,703,21411,423,424,89943,7795,561,4197,587,347,5741
"Gurkerl AT",AT,701,9963,87,156,35719,3098,391,329,73,101,917
Barbora,PL,699,7753,25,591,66336,5691,22,1700,290,953,3026
"Walmart AR",AR,692,0,0,0,0,0,490,1177,1,23,1692
"Rimi EE",EE,689,12687,5,47,37195,3745,7,1004,75,142,1245
"Tottus CL",CL,689,8925,45,1525,44914,1078,4,519,729,23,1299
"Tesco CZ",CZ,684,16796,9,1146,553807,16944,5,9130,598,2422,12471
"Bennet IT",IT,676,18728,123,608,37704,14759,4,1043,293,486,1851
"Drogas La Rebaja CO",CO,674,11868,309,3852,348794,6629,65,11898,4714,459,17250
"Rossman HU",HU,665,14468,282,1209,53085,7855,369,541,1892,168,3000
"Hoogvliet NL",NL,660,9009,34,108,15400,1861,8,551,99,68,742
"Poiesz NL",NL,658,8296,0,11,10528,134,18,513,2545,18,3105
"Mat SE",SE,656,10689,130,368,32838,11761,2568,288,461,193,3526
"DOZ.pl",PL,655,15539,51,1256,62650,46791,396,1925,663,1516,4566
"City Gross SE",SE,648,12802,6,533,27214,8682,10,394,253,359,1041
"Rossmann DE",DE,648,15820,37,169,55078,445,676,1025,157,18,1927
"Crai Spesa Online",IT,647,420,414,420,26879,6512,444,1279,738,1171,3645
"Rimi LT",LT,644,14824,154,201,44354,3381,6,989,317,102,1432
"DM SK",SK,631,12522,74,107,35958,2166,3,1164,48,45,1278
"Tesco SK",SK,624,15784,26,91,227176,211,5,3414,53,23,3666
"Esselunga A Casa IT",IT,619,14878,7,646,43995,14765,11,3998,1053,1179,6264
Apteline,PL,610,907,10,907,82734,15128,479,1361,631,492,3030
"Vasalekaren SK",SK,605,9901,20,149,66289,3643,1306,8646,336,564,10879
"E.Leclerc Bielany",PL,603,29755,114,2810,93766,34594,55,3614,1272,20343,25351
Amazon,PL,600,415,411,414,816171,18093,0,0,0,272,272
"Tesco HU",HU,597,15237,49,2290,852921,9491,5,14026,1398,1657,17536
"Apteka Galen",PL,591,8767,22,342,40686,3382,13,1406,322,231,2116
"Thanopoulos GR",GR,590,15996,50,371,53508,9112,13,4728,446,688,5910
"Willys SE",SE,588,10729,18,469,35467,6914,9,331,228,899,1492
"Pingvinpatika HU",HU,587,7362,67,367,39588,2856,6,4603,495,320,5454
"Nuko LV",LV,584,8101,93,93,35691,0,515,681,199,1,1411
"Bestway Foodservice UK",UK,582,11207,86,396,35518,4717,310,473,234,115,1150
"Alza SK",SK,579,10258,98,147,44507,2484,98,376,46,86,626
"Bestway Best-one UK",UK,574,6837,31,108,22250,12590,310,388,69,324,1122
"Bestway UK",UK,574,10329,54,746,33174,30492,299,453,363,709,1843
"E.Leclerc Wroclaw",PL,571,16017,360,1478,16256,14181,488,1895,2302,6617,11346
"Spar HU",HU,570,13810,550,1466,178827,11151,7,8968,14202,329,23580
"Dr Max",PL,569,13524,854,854,51286,23877,301,2403,916,791,4580
"Zakaz - Metro MD",MD,566,11188,48,74,19078,0,8,1196,426,1,1645
"Benu CZ",CZ,565,14421,57,454,65692,5537,5,5281,305,71,5693
"AB GR",GR,564,11608,25,338,34785,6949,24,524,165,171,923
"Plus NL",NL,564,15913,14,224,30495,3844,30,5371,239,190,5868
"Easy Coop IT",IT,563,9903,24,666,36412,17393,3,250,1938,287,2496
"Kritikos GR",GR,558,16142,243,349,45598,0,11,20,167,7043,7284
"DM HU",HU,555,11838,53,762,32678,9453,3,1067,327,165,1584
Spar,PL,553,24646,1643,1950,726255,84826,17,12935,960,2401,16684
"Apteka Melissa",PL,552,27513,1321,1321,81743,51568,16,5772,1077,659,7578
"Freshful RO",RO,550,20840,274,360,42521,322,8,850,165,11,1093
"Sok FI",FI,545,9674,38,332,36964,3235,66,1111,167,273,1636
"DM CZ",CZ,542,11574,10,856,31893,21212,4,1092,373,381,1879
"Yandex Lavka RU",RU,542,3033,21,197,8872,2324,100,770,244,83,1207
"E.Leclerc Rzeszów",PL,539,13436,39,1517,39363,38154,30,679,616,1080,2472
"MyMarket GR",GR,537,15326,153,381,56528,5647,13,1704,461,528,2751
"Chronodrive FR",FR,536,8500,99,174,16908,2149,10,356,124,42,544
"Ebag BG",BG,536,11630,36,90,40353,1466,11,1101,68,29,1245
"Cold Storage SG",SG,535,9259,9,30,29452,0,578,2652,35,1,3273
"Carrefour ES",ES,532,14740,14,172,16579,255,26,1900,578,23,2545
"Jumbo CL",CL,528,20375,36,1820,585378,1218,4,7878,1326,136,9604
"Metro RU",RU,528,19132,82,617,23107,39,5,1799,544,15,2411
"Drogeria Olmed",PL,512,0,382,553,130509,20478,10,7006,212,1943,9229
"Apteka Zawiszy",PL,507,19464,117,917,77076,9976,234,779,475,228,1797
"Hemkop SE",SE,504,10796,7,492,33719,7175,7,274,225,217,750
Rossmann,PL,502,682,37,682,76535,24356,14,964,824,562,2515
"Colruyt BE",BE,496,6312,15,186,68256,14450,8,10908,7954,1930,20877
Intermarche,PL,496,18196,13,2255,165308,20097,10,3280,1064,1587,6278
"Interspar AT",AT,490,21301,25,237,66391,6155,8,831,310,148,1336
"Spar SI",SI,486,17671,30,223,62934,2248,13,3040,261,66,3416
"Migros Online CH",CH,485,12653,2,68,38051,1380,15,667,68,66,838
"Mega Image RO",RO,483,12832,4,326,39225,9734,9,667,150,161,1029
"Benulekaren SK",SK,477,8971,10,268,47335,6072,4,2626,131,115,2904
"Famila a casa IT",IT,476,12450,1,131,29230,5420,812,1548,1300,264,3943
"E.Leclerc Radom",PL,472,14017,554,1331,44299,12214,45,3034,666,1686,5604
"e-Dostavka BY",BY,472,25167,1169,1271,71845,2859,3,4702,625,228,5641
"GPSfarma AR",AR,465,1561,36,166,8394,1158,3,896,100,74,1079
"Carulla CO",CO,464,10920,22,426,61635,4199,10,1731,258,193,2235
"Basko IT",IT,463,8454,4,438,25847,828,3,266,479,35,797
Ceneo,PL,463,191422,4035,5753,258382,27595,798,2754,2103,123,6019
"Cornershop - Lider CL",CL,459,20819,8,1726,130273,1353,5,1116,745,71,2023
"Apteka Olmed",PL,457,2,57,1063,146380,18976,8,8088,512,1515,10183
Aptelia,PL,454,618,146,618,62412,9924,202,1937,296,313,2800
"MegaMarket RO",RO,447,5543,0,9,6652,569,9,1296,13,193,1554
"Feedo CZ",CZ,442,135,83,135,64900,539,186,1059,209,24,1503
"eTabletka SK",SK,437,11445,91,197,76545,6115,397,6178,258,89,6963
"Lopido CO",CO,433,10478,70,190,19598,574,3,5480,607,50,6152
"Unimarc CL",CL,432,10497,26,204,31479,428,4,2512,327,49,2907
"E.Leclerc Lublin Turystyczna",PL,430,13776,8,1301,16766,15027,12,461,1096,2385,3989
"Ecofamily HU",HU,428,6062,21,853,20578,4208,2,2007,7711,698,10433
"Lider CL",CL,428,12115,35,1843,234930,1138,10,12285,4054,100,16562
"Patika24 HU",HU,426,5180,15,284,15842,4430,3,588,334,102,1036
Stokrotka,PL,425,7312,50,566,172745,971,18,2425,275,60,2959
"Dr Max RO",RO,419,12796,331,331,41133,5919,238,1561,342,190,2365
"E.Leclerc Katowice",PL,419,11045,25,1232,11583,13273,294,1382,1993,6667,10542
"Kruidvat NL",NL,409,8694,18,28,21661,1781,169,656,42,85,971
"Teta Drogerie CZ",CZ,397,9007,10,438,26320,6866,4,670,379,158,1230
"Apteki 36.6 BG",BG,394,10081,7,160,45604,682,12,1300,85,48,1478
"Dia AR",AR,394,3987,34,212,12398,547,12,500,226,18,763
"OnlinePrima HU",HU,394,7375,16,1104,22893,5991,3,567,689,277,1548
"Unimarkt AT",AT,394,3310,26,145,15422,3096,140,314,129,223,816
"Cornershop - Jumbo CL",CL,387,26080,5,678,133932,1348,4,785,281,55,1225
"Iceland UK",UK,382,5476,25,331,29691,16023,5,1324,288,2183,3817
"DrankDozijn BE",BE,381,3505,2,68,14244,2294,4,625,108,591,1338
"DrankDozijn NL",NL,381,3505,2,73,14244,245,4,620,116,66,817
"Billa AT",AT,372,9019,61,199,28960,6222,6,465,513,179,1181
"Bringo RO",RO,372,32427,110,29390,54104,10015,24,1437,922,593,3033
"Walmart GT",GT,371,8670,3,5,152299,0,14,4849,17,1,4954
"Carrefour IT",IT,370,12828,169,825,37658,11562,32,592,370,349,1365
"Majestic UK",UK,369,1337,8,82,18137,1142,203,2056,76,149,2494
"Świat Leku",PL,362,11536,9,353,34378,1848,150,1291,249,181,1955
"Istegelsin TR",TR,361,4972,13,63,11075,0,14,174,31,0,227
"Ulabox ES",ES,357,6082,1,9,12786,0,6,237,8,1,265
"Ica New Version SE",SE,354,5723,5570,5580,108490,5532,6,2306,2465,592,5436
"Farmacia Tei RO",RO,351,23666,306,321,25176,5440,7,621,160,253,1074
"Cruz Verde CO",CO,350,3501,12,2300,15159,1151,60,953,1025,105,2154
"Mercado Libre AR",AR,350,32137,457,893,69449,726,190,751,1788,69,2836
"E.Leclerc Lublin Tomasza Zana",PL,348,11015,22,1284,14034,11170,8,520,638,1499,2689
"Jumbo AR",AR,346,10316,48,449,57072,758,4,2377,224,30,2667
"Ica SE",SE,345,11500,33,666,701845,12170,6,21681,342,214,22599
"Ulta US",US,343,152,148,152,100153,0,2,290,151,0,472
"Elefant RO",RO,340,293,469,469,103233,2092,98,1091,241,20,1527
"E.Leclerc Elblag",PL,339,10745,46,1105,29766,16937,25,1319,873,2004,4265
"Globus RU",RU,339,14218,375,376,50323,37,6,2090,235,8,2426
Allecco,PL,336,11650,72,738,39849,10547,19,588,350,178,1175
"Amazon NL",NL,335,0,0,0,110037,0,0,0,0,19,19
Carrefour,PL,329,16055,100,2556,125249,33241,150,2291,2036,2354,6963
"Bebe Tei RO",RO,325,25009,90,190,25009,3495,10,843,137,202,1235
"Mpreis AT",AT,325,7812,4,124,27485,4125,337,768,210,91,1425
"Roastmarket DE",DE,316,93,21,93,33703,396,16,598,1396,15,2040
"Sipo HU",HU,306,4560,183,183,10426,1307,2,512,93,120,734
Empik,PL,301,96590,1171,1877,228062,25063,66,2161,1016,155,4149
"SOpharmacy BG",BG,301,9744,32,219,30512,3517,365,842,251,119,1601
DoDomku,PL,300,6134,126,416,18104,1951,38,220,272,407,948
"Bipa AT",AT,299,10211,106,106,22463,541,10,304,146,20,503
"Mall SK",SK,296,1375,67,1375,26999,820,327,688,2952,815,4805
"E.Leclerc Gdansk",PL,295,8048,41,867,22069,9486,22,1036,654,1677,3501
"Merqueo - Bogota CO",CO,295,3285,23,356,8289,5504,3,247,171,207,634
"Rappi - Carulla CO",CO,294,16175,484,928,63006,8958,4,6195,7279,249,13758
"Apteka Nove BG",BG,293,11645,14,158,40410,3391,380,1873,200,129,2606
"Cora RO",RO,293,42208,218,453,84884,6273,6,8960,292,703,10022
Makro,PL,292,3184,3,512,8719,30512,5,541,237,1481,2277
"Cornershop - Santa Isabel CL",CL,291,6924,6,301,8569,1013,4,559,461,48,1078
"Tudrogueria Virtual CO",CO,291,8505,1113,4042,16381,485,2,340,1862,25,2241
"Rappi - Exito CO",CO,289,22559,1718,1860,88450,8927,2,6382,8978,246,15648
"Rappi Lider CL",CL,288,14999,8318,8417,87557,1283,4,7695,13088,32,20865
"Apteka Medea BG",BG,284,8664,5,153,26498,0,9,1606,243,1,1882
"Rappi - Carulla Express CO",CO,283,14265,569,791,51646,7367,2,5910,6584,229,12751
"Sephora US",US,283,207,199,207,125627,0,6,820,80,1,942
"E.Leclerc Tychy",PL,282,9038,21,1110,9244,11390,54,282,540,1962,2858
"i-apteka",PL,282,9607,511,601,20646,5885,6,441,635,415,1520
Makeup,PL,277,5154,3151,5154,428834,55573,4,9117,2176,865,12325
"Azbuka Vkusa RU",RU,275,12999,34,287,25585,207,9,2354,1241,35,3671
"Argos UK",UK,273,5857,4,3776,8269,0,3,529,14257,1,14805
"PriceSmart CR",CR,272,3568,12,13,53629,0,4,8145,14,1,8188
"Groby HU",HU,268,8256,10,528,21941,3549,5,1060,565,222,1864
"E.Leclerc Gliwice",PL,262,7771,28,788,21297,7853,17,951,545,1285,2875
"Farmacia la Pret Mic RO",RO,258,8062,17,245,24669,4175,28,1698,326,695,2769
"Rappi - Exito Express CO",CO,257,18414,430,913,48630,6298,2,5467,5700,215,11416
"Rappi Jumbo CL",CL,255,15406,6759,6859,64084,1386,3,6776,7934,32,14785
"Apteka Medkon",PL,254,5167,372,372,21647,8324,8,3619,787,1259,5718
"Delitea SE",SE,254,9819,58,294,23533,5503,6,176,136,82,430
"Dunnes IE",IE,252,14246,24,834,31432,11228,4,950,696,397,2070
"Rappi Unimarc CL",CL,252,12161,464,592,28989,1271,3,4048,1188,33,5290
Wapteka,PL,252,17811,937,1260,62085,34210,3,2881,424,585,4100
"Edeka DE",DE,248,3441,88,99,4647,92,7,201,54,113,382
"Supermarket AM",AM,248,7588,84,93,19919,0,4,989,178,1,1188
"Olimpica CO",CO,247,11186,24,336,47687,773,4,1632,677,38,2386
"Afya Pharmacy BG",BG,246,8858,2,162,29020,719,12,2329,266,194,2819
"Helpnet RO",RO,245,6843,38,292,19313,2442,7,1263,131,115,1535
"Szybki Koszyk",PL,240,4282,16,131,14785,1321,101,1131,122,99,1476
"Farmatodo CO",CO,238,12676,79,3766,55956,5306,5,854,4760,94,5750
"Rappi Santa Isabel CL",CL,235,5464,6,174,6671,0,3,1212,3059,0,4278
"Metroiroda HU",HU,231,3581,3,251,7208,1338,4,755,424,130,1317
"Merqueo - Medellin CO",CO,229,2488,10,221,5652,4889,3,185,103,228,523
"Disco AR",AR,228,7871,23,381,32583,977,88,2324,677,35,3144
"MaxiCoffee FR",FR,228,4312,85,119,8834,1022,462,567,399,140,1572
"Linio CL",CL,227,47282,148,810,71063,0,105,673,374,0,1224
"Merqueo - Cali CO",CO,220,1763,2,134,4275,783,2,157,62,29,254
"Lisek App",PL,217,1785,2,2,2086,0,4,7,3,181,213
"Coop UK",UK,213,9735,6,823,216084,19227,3,2101,396,644,3261
"Перекрёсток Впрок RU",RU,213,15550,49,714,34375,2975,7,2527,1148,165,3886
"Booker Foodservice UK",UK,212,11910,17,1426,22256,3565,130,439,676,113,1371
"Superpharm Apteka",PL,212,544,43,544,28821,14140,3,638,640,208,1518
"Rappi - Pricesmart CO",CO,209,1888,15,30,6188,729,2,2128,690,33,2857
Cocolita,PL,208,10075,47,243,42790,13558,4,1271,434,1135,3041
"Beauty Bay UK",UK,207,13697,24,150,53617,0,10,351,76,2,465
"Booker UK",UK,206,9062,19,1424,17288,9904,122,365,660,675,1833
"Minifarm RO",RO,203,2728,2,159,4651,140,9,601,135,106,862
"Auchan FR",FR,200,1544,3,75,5399,625,258,315,87,149,813
"Emag HU",HU,198,98967,338,1799,99017,7159,5,1381,1878,184,3532
"Benu HU",HU,196,5129,16,347,17684,2757,2,2806,537,413,3771
"Утконос RU",RU,196,254,26,254,7049,1102,5,181,230,71,497
"Deliberry - Caprabo ES",ES,184,8599,1,16,9720,0,7,237,77,2,341
"Panda Market HU",HU,177,2144,12,161,5333,1354,3,115,74,104,299
"Coursesu FR",FR,176,4280,44,75,12381,1131,60,17224,1451,1361,20102
"Deliberry - Solri ES",ES,176,8011,1,5,9111,0,7,212,29,0,259
"Vodovoz RU",RU,176,1051,9,55,2159,0,3,178,80,1,265
"Deliberry - Mercadona Barcelona ES",ES,175,5937,0,2,7092,0,7,215,861,1,1093
"Linella MD",MD,175,6763,10,1068,6764,0,7,188,9320,0,9521
"Deliberry - Mercadona Madrid ES",ES,173,5858,2,3,6979,0,6,220,960,1,1193
"PennyDomu CZ",CZ,173,1672,0,0,4881,0,74,154,1,1,233
"Everli - Coop IT",IT,163,12121,4,188,13660,6185,20,2146,101,2265,4541
"Deliberry - Supercor ES",ES,161,4084,0,0,5008,0,8,166,7,1,188
"Professional Farmaline RO",RO,155,8644,3,116,18382,2467,5,806,124,61,1015
"Look Fantastic UK",UK,152,17492,96,169,51132,0,2,645,108,1,787
"Dirck3 NL",NL,151,480,0,24,2199,144,3,85,15,7,114
"Pyaterochka App RU",RU,149,6313,40,435,12843,389,3,194,206,5,425
"Vea Digital AR ",AR,148,3767,128,572,15386,953,91,1579,4127,40,5852
"Everli - Metro IT",IT,147,2578,6,45,3457,1550,20,190,27,655,896
"Deliberry - Dia ES",ES,143,4159,0,0,5021,0,6,180,2,6,199
"Deliberry - La Plaza ES",ES,143,4239,0,0,5099,0,8,180,32,1,225
"Exito CO",CO,138,12056,19,819,69313,2797,13,4089,1458,209,5815
"Nazuby CZ",CZ,137,1627,1,70,5626,163,4,116,33,15,172
"Medexpressz HU",HU,136,1346,85,86,2878,0,3,263,60,1,330
"Ozon RU",RU,136,73322,4659,5352,111820,1809,489,5025,5149,133,10991
"Automercado CR",CR,133,13295,2,25,20371,0,13,2095,192,1,2315
"Metro Delivery RU",RU,133,6655,156,453,17796,48,25,541,532,30,1146
"Subra BG",BG,132,6277,3,158,17010,2619,13,191,81,271,583
"Alkohol CZ",CZ,131,3874,31,38,10845,0,14,691,20,1,732
"Coop EE",EE,129,9430,27,27,20555,1933,3,441,15,57,526
"Condis ES",ES,121,6558,9,9,6926,0,4,188,17,1,220
"Cora Drive BE",BE,118,13594,5505,5520,89680,4437,9,3984,6831,1279,12159
"Amazon Fresh DE",DE,110,8888,672,672,13864,6683,265,1204,381,143,2006
"Farmacia Pasteur CO",CO,103,8712,31,3971,56730,564,3,1614,2775,29,4462
"Savage & Whitten IE",IE,99,3773,29,171,7546,1089,9,343,86,88,530
"Koffievoordeel NL",NL,98,513,0,66,3169,1272,2,645,105,30,785
"Farmacity AR",AR,97,252,0,252,6927,1160,4,286,114,41,447
"Vitania BG",BG,97,7167,5,144,7167,2276,7,330,68,76,491
"Rappi Cruz Verde CL",CL,93,5101,2106,2201,36147,1307,3,2660,3886,32,6599
"Kaufland DE",DE,90,30176,178,351,37576,704,68,715,326,49,1196
"PriceSmart PA",PA,90,1651,5,5,18842,0,3,3356,17,1,3385
"PriceSmart GT",GT,88,1611,1,2,14177,0,2,2617,5,1,2632
"Kaffedeal DK",DK,83,377,0,37,960,777,3,43,18,33,98
"Brack CH",CH,80,8299,33,119,19829,1752,56,263,129,191,657
"Okey RU",RU,80,3967,395,917,3984,211,4,246,2572,23,2861
"Kesko FI",FI,74,7238,7329,7329,101302,8010,123,9481,6649,4050,20391
"Comfandi Supermercados CO",CO,72,4389,0,0,8926,0,5,991,2,1,1003
"Durst DE",DE,69,1038,68,1038,1105,0,4,20,18,2,46
"Droguerias Cafam CO",CO,67,4239,1598,3020,10872,1398,14,533,4305,55,4913
"Media Markt DE",DE,67,2382,37,128,6704,1087,850,9420,1437,1693,13410
"Sanctuary UK",UK,62,108,0,0,465,0,3,65,1,40,109
"Kaffekapslen DK",DK,60,782,0,63,1795,1516,31,29,49,240,350
"Comfandi Droguerias CO",CO,56,4651,0,0,9165,0,3,535,2,1,546
"Kapselkongen DK",DK,56,279,0,58,583,684,21,54,55,33,163
"Saturn DE",DE,56,1738,26,87,3422,965,338,2472,674,4638,8125
"Asos UK",UK,55,8452,31,147,20925,0,43,153,70,1,277
"Emag RO",RO,54,38402,147,458,38404,5233,7,551,735,159,1514
"iDrinks HU",HU,52,6427,162,181,14040,252,8,1437,166,61,1681
"Expert DE",DE,49,0,2,14,1065,0,110,0,0,27,141
"Pretty Little Thing UK",UK,49,2092,18,19,6084,0,3,288,11,1,307
"Winelivery IT",IT,49,1519,0,24,3344,0,3,260,18,1,284
"Very UK",UK,47,3833,199,217,4176,0,14,75,102,1,202
"Bol NL",NL,46,286,204,287,30333,2464,31,2018,897,495,3461
"Fudge UK",UK,45,90,0,0,502,0,2,53,2,53,111
"Carrefour AR",AR,41,3505,7,323,11698,514,84,535,591,25,1246
"Altex RO",RO,38,2327,23,94,4510,2103,3,240,152,135,537
"BilkaToGo DK",DK,37,3792,0,144,22266,1485,6,81,64,36,209
"Selver EE",EE,37,4028,446,463,10498,2737,6,285,840,257,1395
"Ep DE",DE,34,210,1,10,670,254,70,120,22,83,296
"John Lewis UK",UK,28,18,3,18,483,151,3,58,15,46,122
"Mercator SI",SI,27,12781,7,161,12781,1762,6,23,80,50,178
"StTropez UK",UK,26,25,0,0,75,0,3,43,2,62,110
"Carrefour FR",FR,25,11215,108,1265,15874,1776,8,968,955,227,2167
"Avansas TR",TR,24,543,8,9,548,0,2,20,5,1,29
"Qvc US",US,24,17805,234,266,22217,0,26,228,1255,1,1527
"St. Tropez US",US,24,17,0,0,55,0,2,18,1,14,35
"MyDeal AU",AU,20,65,31,65,7030,654,3,69,33,50,156
"Shoplink IE",IE,20,146,1,119,438,1845,28,37,74,110,249
"Boulanger FR",FR,17,782,7,53,1838,357,18,106,129,152,406
"Euronics DE",DE,15,9730,72,276,38466,1198,27,679,37927,204,38872
"Mercado Libre CL",CL,12,6736,56,117,12880,0,17,884,133,48,1092
"BCC NL",NL,11,1947,6,22,2567,647,6,130,26,56,222
"El Corte Ingles ES",ES,11,3845,5,142,5017,685,46,279,932,75,1338
"Leclerc FR",FR,11,238,16,117,451,543,17,230,2329,546,3123
"Sodimac CL",CL,11,115,0,0,242,0,20,67,77,1,165
"Wildberries RU",RU,10,124033,2435,3533,129233,1520,10,1214,1774,103,3336
"Mediaworld IT",IT,9,277,9,46,554,1409,6,140,211,490,848
"Myer AU",AU,9,7686,113,192,9599,0,9,1332,417,1,1763
"Coles AU",AU,8,0,0,0,0,0,3,26,1,101,131
"Intermarche FR",FR,8,352,73,103,676,956,4,41,379,429,854
"AO UK",UK,7,724,7,24,1011,281,63,9,29,16,120
"Woolworths AU",AU,7,995,0,109,1727,359,5,71,67,43,187
"Unieuro IT",IT,6,1735,3,21,2149,1115,2,15,16,57,94
"Costcutter IE",IE,4,158,6,117,158,416,7,12,57,76,153
"Easy CL",CL,3,392,0,0,469,0,2,20,2,2,27
"0815 DE",DE,0,0,0,0,0,0,2,13,0,51,66
"Barbora LT",LT,0,0,0,0,0,0,62,1,0,1588,1654
"Dr Max SK",SK,0,0,0,0,0,5068,3,17,2,249,277
"Gall & Gall NL",NL,0,0,0,0,0,0,24,0,1,34,59
"Igooods RU",RU,0,0,0,0,0,0,32,9,1,49,93
"Tiendas Jumbo CO",CO,0,0,0,0,0,4982,3,15,1,229,248
"Yandex Market RU",RU,0,0,0,0,0,0,3,29,7,92,135
"iGlobus Zlicin CZ",CZ,0,0,0,0,0,0,7,87,3,706,803
