﻿Site,Country,Categories,Prices,"Products changed","Products downloads",Relations,Search,"Categories time","Prices time","Products time","Search time","Total time"
"Ocado UK",UK,6848,45275,292,3320,1832457,43387,584,21490,1774,1058,26114
"Mytime DE",DE,4946,11746,13,131,104492,2976,2419,2990,63,156,5672
frisco,PL,4711,2093,28,2093,315563,95203,157,7330,2766,393,10891
"Asda UK",UK,3524,29516,49,2120,1112357,58886,13,15614,978,1298,18702
"Albert Heijn NL",NL,3435,21067,44,300,102790,4947,453,1572,39,90,2228
"Makro CZ",CZ,3390,7710,8,18,822828,487,3225,27555,59,43,31354
"Morrisons UK",UK,3161,21129,22,1992,1060135,33404,135,5561,254,503,7132
"Coto Digital AR",AR,3112,18491,36,426,115424,1596,2641,5413,370,61,8562
"Rohlik CZ",CZ,3078,24236,131,1703,229018,31739,2315,4006,1104,927,8538
"Metro SK",SK,3060,6439,0,5,295768,0,2862,21292,30,1,24372
"Waitrose UK",UK,3056,15629,23,1053,1430039,38023,44,20556,426,959,23184
"Albert Heijn BE",BE,2913,11059,25,126,55258,6628,441,1359,34,125,1997
"Galen BG",BG,2750,14281,10,199,98489,4947,1471,2513,117,113,4278
"Notino SK",SK,2726,531,83,531,117687,324,1304,6725,1960,18,10209
"Amazon Fresh UK",UK,2706,13549,2509,2519,59050,17367,1212,24013,1504,1143,27956
"Pilulka SK",SK,2691,39285,171,450,251428,11356,32,5438,238,312,6222
"Kosik CZ",CZ,2690,17549,98,1204,101400,35567,468,1740,610,991,3927
Auchan,PL,2619,16845,72,1329,283888,26358,102,15000,972,1605,18012
"Drogeo CZ",CZ,2483,614,35,614,126516,42302,31,2828,437,815,4221
"Notino CZ",CZ,2405,284,16,284,56376,60955,1121,7609,499,1327,10762
"Pilulka CZ",CZ,2363,31648,148,527,151602,34710,30,5016,613,1322,7193
"Sainsburys UK",UK,2267,29763,215,362,2028927,97177,235,31796,2134,1827,38070
"Amazon UK",UK,2215,2009,1991,2014,1515088,35546,0,0,0,16968,16968
"Boots UK",UK,2030,24326,610,5195,117038,8973,23,3392,7663,264,11463
"Amazon Fresh IT",IT,1992,8062,924,932,26862,3434,3793,2545,1954,535,8844
"Drogerie Natura",PL,1979,15691,3,747,83164,50275,101,7132,1390,7381,16192
"Brakes UK",UK,1895,9704,3,221,29036,47640,865,1798,99,478,3271
"Jumbo NL",NL,1807,17696,53,340,67155,4736,1538,1811,354,131,3885
"Otto DE",DE,1711,176,71,182,72149,192,814,1078,557,17,2507
"Yuga RO",RO,1683,9084,24,167,45285,0,2104,4722,3584,1,10457
"Auchan HU",HU,1657,22487,43,1941,161698,20301,24,4107,1098,804,6206
"Cefarm 24",PL,1657,13442,39,821,98190,15756,2135,3761,1096,5532,12643
"Alza CZ",CZ,1589,30568,199,296,119661,28965,371,3121,429,1593,5632
"Delhaize BE",BE,1583,14451,93,503,59692,16928,37,2972,387,706,4152
"Alza SK",SK,1384,13969,62,172,59745,783,197,596,58,41,932
"Apteka Nowa Farmacja",PL,1382,15721,47,1008,80310,23525,11144,3483,1132,2061,17898
eZebra,PL,1370,42399,21,1339,150034,40448,63,8837,397,6800,16266
"Barbora EE",EE,1336,13357,95,149,47703,1350,49,1789,77,97,2054
"Tesco UK",UK,1324,30528,135,2695,418700,25174,11,13350,1201,8989,23971
"Picnic NL",NL,1318,7139,7,105,16593,2687,572,1010,62,91,1749
"Remedium BG",BG,1306,26832,42,335,94410,1543,281,6646,460,148,7615
"Rewe DE",DE,1256,9158,6,195,33679,2901,27,1376,232,360,2025
"Coop CH",CH,1254,18418,42,115,68641,1936,299,2141,201,151,2863
"Amazon BR",BR,1238,0,0,0,828013,0,0,0,0,22,22
"Moja Lekaren SK",SK,1222,24589,34,226,133260,4744,690,3756,127,174,4857
"Amazon DE",DE,1220,170,170,170,600699,13113,0,0,0,3799,3799
"Kifli HU",HU,1218,13703,92,1667,53847,12831,714,587,785,433,2596
"iGlobus Zlicin CZ",CZ,1216,19486,11,386,36076,10463,20,3079,983,323,4500
"Lekarna CZ",CZ,1215,29559,60,482,130362,5159,681,3731,255,177,4972
"E-Fresh GR",GR,1212,11963,19,630,58201,6658,2336,4115,1312,705,8512
"Barbora LT",LT,1174,16355,8,51,53206,1403,40,1450,33,69,1637
"Farmaline BE",BE,1173,31008,36,69,148582,0,1441,3128,68,1,4751
Hebe,PL,1168,1189,118,1189,174815,29519,935,5899,1624,1540,10148
"S-kaupat FI",FI,1165,43196,55,322,331368,6389,26,2823,263,112,3396
"Barbora LV",LV,1142,13775,61,102,47301,1372,48,1649,71,105,1915
"Albert App CZ",CZ,1078,7999,0,28,44250,1710,486,2175,41,51,2811
"Dr Max SK",SK,1076,23045,21,698,99486,7154,755,6938,938,398,9099
"Picnic DE",DE,1067,7171,72,225,14658,1853,467,898,111,167,1654
"Knuspr DE",DE,1049,11976,55,178,50452,1642,618,493,85,148,1379
"Eroski ES",ES,1044,25419,81,224,53864,568,29,3296,144,41,3543
"Mathem SE",SE,1043,12719,13,550,34819,7660,23,1115,813,530,2509
"Amazon IT",IT,1027,540,532,540,203615,6554,0,0,0,891,891
"Salcobrand CL",CL,1016,7593,50,7592,34407,2572,306,628,4499,38,5508
"Auchan RO",RO,1010,24781,54,621,426074,7482,32,5630,542,473,7045
Bee,PL,1002,52481,204,715,182249,9392,464,3392,349,245,4588
"Zakaz - Novus UA",UA,998,17929,42,171,37097,0,13,2017,95,2,2167
"Vkusvill RU",RU,990,11656,53,179,47071,1596,502,5642,427,169,6776
"Coop NL",NL,983,16235,11,115,69535,983,2134,2134,238,65,4622
Selgros,PL,978,20561,222,1253,71579,28578,452,973,564,1584,3678
"Carrefour BE",BE,933,18784,6,424,220979,20221,900,10614,221,965,12833
"Coop Shop IT",IT,927,11151,4,372,33479,6358,21,656,263,390,1363
"Coop SE",SE,914,9988,17,510,34034,8130,21,910,240,225,1419
"Pilulka RO",RO,870,10181,108,236,44360,3457,13,475,121,101,775
"Unipatika HU",HU,865,4381,4,299,30500,4690,576,1238,176,283,2299
"Magnit App RU",RU,852,4052,6,72,11031,0,7,1151,54,1,1227
"SuperValu IE",IE,845,16182,61,1131,219350,14080,871,16843,1263,801,19994
"Ebag BG",BG,835,11577,58,137,43915,1778,19,1328,113,32,1536
"Tesco IE",IE,835,16736,47,925,418638,4671,8,8425,441,879,10087
"Tigros IT",IT,832,9814,3,530,29486,6464,18,467,310,242,1071
"Apteka Manada",PL,811,14529,33,1117,47361,38660,44,2407,1693,2735,6971
"Wong PE",PE,811,23185,746,968,119757,1828,40,7986,6699,75,14904
"Superpharm Drogeria",PL,797,755,57,755,90800,37773,47,2447,1351,442,4447
"Polski Koszyk",PL,792,19594,42,854,63323,1789,46,885,443,67,1560
"Walmart MX",MX,788,23476,38,154,102251,3118,92,11559,137,124,11988
"Auchan RU",RU,777,26494,90,827,81537,432,7,1598,618,31,2347
"eZiko Apteka",PL,772,7224,10,583,43615,20098,353,1823,293,1129,3646
"Dr Max CZ",CZ,766,22908,29,407,99485,8026,582,5876,617,560,7713
"Gurkerl AT",AT,759,9695,29,132,41773,3399,465,359,64,109,1042
"Zakaz - Metro UA",UA,754,11691,30,161,22556,0,11,2464,126,1,2624
"Coop DK",DK,753,11101,446,477,90228,1223,361,3331,365,39,4165
Barbora,PL,747,10657,1267,2077,130726,9712,56,3286,1023,1006,5521
"Sklavenitis GR",GR,731,9968,19,296,29899,4546,142,1136,144,306,1767
"Mall CZ",CZ,730,3529,545,3529,108667,16205,601,974,5790,2964,10508
"Masxmenos CR",CR,730,14125,11,51,35938,0,43,2648,7705,1,10423
"Walmart CR",CR,730,14288,24,327,182557,5057,41,6654,595,203,7618
"Esselunga A Casa IT",IT,729,15587,483,1100,48964,16961,22,4879,1830,1461,8234
"Cruz Verde CL",CL,728,9457,1,944,133622,3077,19,18227,439,39,18799
"Apteka Gemini",PL,718,27216,474,1402,95244,65923,43,3673,945,811,5601
"Lunys SK",SK,717,5321,13,13,18612,0,539,1174,52,0,1787
"Rimi LV",LV,717,14867,16,73,43672,5415,21,823,83,120,1093
"Bringmeister DE",DE,712,14558,27,173,40042,4420,17,360,79,143,633
"Rimi EE",EE,708,12511,56,92,36841,3736,20,786,99,118,1053
"Intervare DK",DK,706,9057,124,227,26255,0,21,340,106,110,597
"Bennet IT",IT,681,19482,43,483,39285,14907,16,1081,822,708,2692
"Tesco CZ",CZ,676,15814,6,1562,480815,24638,16,10085,873,3635,14979
"Poiesz NL",NL,667,7667,0,10,9870,123,79,538,3137,11,3781
"Maxi RS",RS,665,7856,113,254,25908,6848,15,547,118,120,825
"DOZ.pl",PL,661,19657,44,1474,81502,57381,526,3093,956,2007,6682
"DM SK",SK,660,12398,90,138,35481,6066,14,1256,70,264,1646
"Hoogvliet NL",NL,658,8646,43,119,14163,1859,25,815,136,102,1100
Amazon,PL,655,687,677,680,1084072,25553,0,0,0,1043,1043
"Rossmann DE",DE,655,16337,67,151,56155,450,1050,1672,147,20,2922
"Apteka Rosa",PL,648,9873,126,307,58406,2162,47,3615,408,142,4283
"City Gross SE",SE,646,12989,3,535,28298,9166,16,361,254,378,1033
"Crai Spesa Online",IT,642,413,1,414,27035,7112,426,1045,968,812,3268
"Rossman HU",HU,640,14775,87,1044,54033,7793,621,786,1939,169,3588
"Tesco HU",HU,636,14695,12,2391,979922,9708,16,19006,1382,1949,23252
"Mercator SI",SI,623,12900,6,195,38700,2289,287,289,97,82,804
"E.Leclerc Bielany",PL,619,32391,73,2603,103147,35960,182,3537,1189,22465,27511
Apteline,PL,616,905,9,905,23298,1711,846,1473,843,492,3683
"Colruyt BE",BE,606,7864,11,293,93715,14886,19,13945,814,1661,16553
"Tesco SK",SK,602,15069,3,104,218584,803,16,5387,80,120,5789
"Thanopoulos GR",GR,596,15610,26,325,52745,8847,18,4875,411,749,6096
"Apteka Galen",PL,594,8492,1,256,23754,3009,44,2431,893,987,4403
"Benu CZ",CZ,592,13932,43,390,64589,5911,13,7353,506,67,8000
"Pingvinpatika HU",HU,592,7599,25,391,41046,2848,17,5094,542,306,5997
"Plus NL",NL,580,15704,2,264,31368,4280,83,2323,218,176,2859
"Willys SE",SE,580,10385,11,486,34223,7067,14,401,306,310,1054
"Vasalekaren SK",SK,579,10117,32,137,63819,4103,1250,8309,299,597,10491
"Bestway Foodservice UK",UK,577,10483,136,260,33193,3935,299,470,177,104,1079
"Sams MX",MX,576,5277,47,62,42671,648,27,3764,91,163,4067
"Carrefour EG",EG,575,18609,48,145,112360,429,15,1485,187,18,1770
"Glovo Kaufland RO",RO,574,8991,236,8991,16007,0,11,317,131,1,487
"Superdrug UK",UK,574,13968,7,193,44454,6743,13,482,466,1066,2075
"Bestway Best-one UK",UK,573,6532,40,76,21209,11986,300,390,53,313,1079
"Bestway UK",UK,573,9121,192,514,29365,40092,297,450,263,1078,2115
"DM HU",HU,570,12581,5,843,34282,9735,14,1221,382,333,2003
"E.Leclerc Wroclaw",PL,570,16268,28,1383,16484,12818,516,1888,2111,5057,9633
"Spar HU",HU,569,15362,554,1977,354359,13880,19,7881,3354,487,11991
"Dr Max",PL,567,17518,251,1104,59186,26528,256,3540,3126,1573,8580
"Zakaz - Metro MD",MD,567,9847,14,47,16829,0,16,1219,334,1,1596
Spar,PL,564,25569,71,2060,677451,77358,41,12105,1011,2316,15982
"Kritikos GR",GR,563,16743,264,369,47365,0,17,42,182,7514,7826
Lek24,PL,563,6023,16,41,21494,4417,39,1227,23,223,1548
"Yandex Lavka RU",RU,563,2865,177,178,8456,2620,316,2566,1073,556,4520
"Apteka Melissa",PL,552,27147,143,1798,100888,61934,43,8397,1357,875,10780
"Chronodrive FR",FR,550,8746,57,290,16412,2048,19,437,172,95,739
"DM CZ",CZ,549,12264,26,851,33574,32789,20,1183,383,1103,2750
"Metro RU",RU,549,20126,179,582,25637,1430,6,1867,521,49,2489
"Pão de Açucar BR",BR,548,22901,188,318,55302,0,44,1924,260,1,2286
"AB GR",GR,547,11298,21,554,33592,8751,18,996,263,269,1594
"Plazavea PE",PE,545,26935,539,716,196017,1904,26,4770,334,132,5404
"Freshful RO",RO,543,19156,100,189,39152,359,10,854,91,14,1017
"Jumbo CL",CL,543,21334,12,987,613001,2705,43,8356,1195,227,10208
"Univerexport RS",RS,539,9525,27,142,19050,1450,22,578,161,255,1046
"MyMarket GR",GR,537,14406,119,298,52382,7208,18,1715,378,529,2692
"Carrefour ES",ES,533,15874,9,228,19089,425,25,782,677,44,1554
"E.Leclerc Rzeszów",PL,531,12134,16,1553,35489,25747,44,735,667,855,2367
"Drogeria Olmed",PL,524,671,69,671,153570,26710,39,11927,415,2395,14864
"Clube Extra BR",BR,523,8453,135,135,24186,0,37,981,68,1,1112
"Cold Storage SG",SG,516,9545,0,11,29781,0,553,1999,15,1,2575
"Idea RS",RS,515,11900,3,210,20942,7240,99,551,101,111,899
Rossmann,PL,508,1221,22,1221,78203,31827,31,925,1505,739,3292
"Apteka Zawiszy",PL,505,20472,265,1071,80593,21996,267,1235,796,472,2896
"Hemkop SE",SE,504,10319,14,477,32345,7407,12,277,219,232,768
"Benulekaren SK",SK,501,9352,8,350,49927,6787,14,3798,208,136,4220
"Interspar AT",AT,500,21951,325,535,265336,6337,17,2571,633,144,3578
Intermarche,PL,496,18726,150,2641,160502,14802,30,3658,1248,1403,6637
"Migros Online CH",CH,486,12284,13,74,38067,1356,34,1259,69,218,1634
"Spar SI",SI,482,16688,45,259,58197,2730,18,636,307,105,1133
"Mega Image RO",RO,478,12573,28,374,37754,9733,12,881,175,222,1336
"Famila a casa IT",IT,477,12145,15,109,28808,6456,818,1506,220,312,2884
"Dr Max Drogeria",PL,476,17641,17,662,55444,6775,35,3300,995,439,4853
"E.Leclerc Radom",PL,472,13459,9,1236,42356,10468,149,2750,608,2489,6081
"e-Dostavka BY",BY,468,26076,185,523,60657,2277,10,3832,242,172,4305
"Carulla CO",CO,464,11391,35,303,64652,906,33,2004,183,51,2342
"Apteka Olmed",PL,463,1091,685,1091,164702,21365,36,11808,721,2186,14844
"Basko IT",IT,463,8456,7,427,25861,1577,9,262,488,47,834
Ceneo,PL,463,203081,1182,9240,270029,46354,1026,2853,4436,273,9201
Aptelia,PL,459,604,87,604,71647,11561,248,2123,309,421,3161
"GPSfarma AR",AR,457,1612,31,156,7926,1549,33,1093,114,127,1378
"Ecofamily HU",HU,449,6802,25,714,22197,4195,14,2252,3969,654,6923
"Cornershop - Jumbo CL",CL,448,23259,3,966,135388,2555,40,912,596,213,1930
"Glovo Biedronka Warszawa",PL,447,3429,373,3429,6553,766,31,206,112,64,431
"MegaMarket RO",RO,447,5184,0,9,6282,561,10,1272,12,180,1483
"eTabletka SK",SK,442,11140,8,199,74731,6813,212,3988,146,85,4480
"Lider CL",CL,441,13402,95,1097,253824,1890,40,13006,2117,220,15591
"Patika24 HU",HU,441,4396,0,245,10662,3232,14,563,369,88,1046
"Cornershop - Lider CL",CL,435,19834,7,1125,129063,2218,44,1047,366,197,1838
"Dr Max RO",RO,434,130,0,1,135,0,207,2438,3,181,2834
"Lopido CO",CO,434,10899,5,64,20923,825,32,8360,219,38,8669
"Unimarc CL",CL,433,10788,15,559,32360,2317,39,1107,1155,162,2488
"E.Leclerc Lublin Turystyczna",PL,432,12708,5,1424,15681,13068,32,1069,2662,4274,8093
"Soriana MX",MX,432,16447,747,4029,30658,2062,45,5744,13113,748,19676
Stokrotka,PL,428,7726,0,146,175047,12704,40,3153,84,426,3927
"E.Leclerc Katowice",PL,416,9409,8,1252,9933,10539,103,433,792,1463,2830
"iFresh SK",SK,412,7146,619,619,137214,0,14,4131,1777,1,6081
"Farmacia Tei RO",RO,407,341,341,341,25926,3266,10,772,207,185,1194
"Ica New Version SE",SE,407,7400,6259,6758,157824,6072,13,2625,3087,232,6027
"Kruidvat NL",NL,403,8511,120,167,23469,1705,204,850,156,92,1331
"Teta Drogerie CZ",CZ,402,8579,2,489,24916,6762,11,717,331,174,1262
"OnlinePrima HU",HU,397,8151,5,1330,24716,7426,11,819,2034,407,3309
"Apteki 36.6 BG",BG,395,9930,1,153,47165,1340,16,1566,88,90,1803
"Majestic UK",UK,390,1350,6,91,19679,1211,194,2144,81,145,2579
"Unimarkt AT",AT,390,3422,18,238,15961,3267,147,521,259,310,1259
"Mercado Libre MX",MX,388,40355,259,1154,82761,2901,781,917,304,369,2447
"Świat Leku",PL,386,11672,6,312,37581,2084,206,1413,285,201,2171
"Talabat Mart EG",EG,381,6432,256,258,50062,535,14,2949,745,18,3767
"DrankDozijn BE",BE,379,3671,10,92,14920,2302,14,678,145,560,1413
"DrankDozijn NL",NL,379,3671,10,90,14920,250,14,646,143,59,876
"Ica SE",SE,379,11145,5,667,665405,12837,13,21319,326,217,22242
"Billa AT",AT,372,9389,39,204,30474,6726,14,489,448,184,1176
"Bebe Tei RO",RO,371,117,16,117,27148,1566,10,999,89,106,1224
"Walmart GT",GT,369,9266,22,335,159761,4320,45,5469,546,210,6370
"Ulabox ES",ES,363,5833,0,9,12257,0,13,208,10,1,241
"Carrefour IT",IT,361,13595,234,868,37754,4656,182,974,590,347,2132
"Apteka Prima 24",PL,355,4508,4,38,20292,1234,28,486,29,111,702
"Cornershop - Metro PE",PE,354,14603,0,177,48338,1747,20,532,118,155,899
"Bringo RO",RO,353,31193,486,31189,46973,7041,29,1555,1103,943,3671
"E.Leclerc Lublin Tomasza Zana",PL,352,11028,50,1354,14246,9796,28,493,1050,1080,2691
"Feedo CZ",CZ,351,146,107,146,58680,474,158,1238,142,40,1660
"Cornershop - Wong PE",PE,348,16730,6,218,50272,1819,20,529,137,161,928
"Gall & Gall NL",NL,347,3242,10,66,23544,65,14,5109,124,15,5277
"Iceland UK",UK,341,5413,30,314,27069,17193,10,2713,794,2051,5597
"Jumbo AR",AR,341,10998,132,595,58681,1111,18,2426,315,42,2851
"E.Leclerc Elblag",PL,339,10445,4,1016,28905,14770,79,1791,1143,2771,5827
Carrefour,PL,337,15217,68,2762,128585,37812,258,2640,2998,2270,8346
"Rossmann App CZ",CZ,337,10835,44,197,35272,0,10,2957,102,3,3112
"Istegelsin TR",TR,336,4459,5,37,9994,0,27,166,20,1,226
"Roastmarket DE",DE,335,62,24,62,32859,374,28,460,224,16,748
Allecco,PL,334,11657,9,602,40197,9928,27,730,395,199,1410
"Mercado Livre BR",BR,334,92278,543,1694,1162084,0,661,13363,513,1,15545
"Cornershop - Santa Isabel CL",CL,330,8365,1,506,10210,1744,42,649,686,161,1557
"Globus RU",RU,328,18078,473,473,60413,319,6,1688,286,17,2066
"Sipo HU",HU,327,4946,54,226,10238,1442,10,638,178,120,965
"Mpreis AT",AT,325,8033,31,155,28149,4611,352,884,166,103,1543
"Mercado Libre AR",AR,317,32658,322,1718,70669,659,205,789,6791,111,7996
"Gastronom BG",BG,309,7684,49,103,23841,962,14,464,102,219,842
Empik,PL,302,163662,2792,4013,427053,33220,81,7234,1846,285,10013
"Bipa AT",AT,300,12195,8,60,26198,575,18,371,91,23,570
"Cora RO",RO,300,52001,20,409,107312,6487,10,10683,559,1173,12514
"Amazon NL",NL,299,0,0,0,125834,0,0,0,0,22,22
DoDomku,PL,299,5942,100,467,17336,2371,43,278,243,317,898
"Easy Coop IT",IT,299,8759,20,587,26176,9910,11,1825,1204,859,3929
"Mall SK",SK,298,1326,49,1326,29994,1087,346,859,3709,1230,6189
"Lisek App",PL,296,2018,5,191,2681,1268,33,32,93,290,475
"SOpharmacy BG",BG,296,9979,13,166,31493,6292,398,1042,199,556,2229
"E.Leclerc Gdansk",PL,295,10043,5,859,27571,8739,60,1725,892,2402,5126
Makeup,PL,292,7225,5065,7225,489743,85857,20,16626,11086,1062,29133
"Tudrogueria Virtual CO",CO,291,8074,53,3433,15564,940,25,376,1585,42,2046
"Apteka Nove BG",BG,289,11362,7,152,40049,6241,14,2770,201,398,3422
"Apteka Medea BG",BG,284,8633,2,152,26030,0,14,1314,113,2,1477
"Sephora US",US,283,86,83,86,129185,0,24,928,69,1,1097
"E.Leclerc Tychy",PL,277,8844,20,1189,8985,10026,76,408,667,1567,2756
"Konzum HR",HR,277,10751,10,183,16897,3471,320,2441,561,434,3771
"i-apteka",PL,275,10181,194,618,21976,6859,21,495,655,475,1689
"Argos UK",UK,274,5212,21,3444,7742,0,5,525,13960,1,14520
Makro,PL,272,3107,0,500,8510,32075,17,531,235,1633,2435
"Edeka DE",DE,269,3740,39,61,4978,101,14,183,61,116,386
"Groby HU",HU,268,8128,5,543,21604,4390,10,1142,591,372,2145
"Farmacia la Pret Mic RO",RO,266,8248,19,240,26774,5955,31,1381,157,895,2486
"Farmacia Pasteur CO",CO,265,8564,3,3342,60276,1059,26,1777,2793,47,4699
"E.Leclerc Gliwice",PL,260,8040,11,728,22020,7071,65,1475,616,2130,4325
"Carrefour BR",BR,255,9085,11,34,45105,0,37,8501,85,0,8685
"PriceSmart CR",CR,255,2940,7,42,42253,3348,26,11708,57,732,12550
"Apteka Medkon",PL,254,7911,465,465,32588,4640,18,4263,983,1696,7007
"Azbuka Vkusa RU",RU,254,9731,31,89,20558,1208,18,1532,399,162,2140
"La Comer MX",MX,254,133,22,133,22406,3921,14,416,344,172,964
Wapteka,PL,252,18965,1331,1378,65042,42522,17,3937,801,752,5584
"Supermarket AM",AM,249,6806,15,38,17296,0,10,999,80,0,1109
"Delitea SE",SE,248,9724,101,321,24485,5694,9,192,146,83,451
"Szybki Koszyk",PL,246,4270,12,104,14554,639,125,621,52,41,864
"Helpnet RO",RO,245,6759,22,261,19018,5134,9,1929,218,382,2551
"Olimpica CO",CO,241,10081,46,430,38601,2660,21,2120,1396,174,3756
"Benu HU",HU,239,4946,5,351,14818,2759,10,2656,535,458,3678
"Farmatodo CO",CO,238,13933,78,3632,62223,3275,20,503,4580,69,5232
"Merqueo - Bogota CO",CO,236,2109,0,93,4817,2294,17,241,52,114,432
"Afya Pharmacy BG",BG,234,10278,4,167,32187,1863,12,2404,197,312,2954
"Coop UK",UK,233,8589,1,620,182538,8112,10,9112,282,810,10372
"Metroiroda HU",HU,229,3528,197,435,7127,1284,5,746,613,118,1489
"Перекрёсток Впрок RU",RU,229,16521,47,478,38629,2813,4,1071,404,81,1610
"Linio CL",CL,227,46229,253,1066,78839,0,122,695,1036,0,2001
"Getir IT",IT,219,1838,19,63,5244,7906,9,110,37,120,281
"Rappi - Carulla Express CO",CO,219,12551,1674,2086,29657,1523,117,6571,15168,76,21964
"Beauty Bay UK",UK,218,11677,71,131,50256,0,3,329,71,1,439
"Booker Foodservice UK",UK,214,11815,96,1034,22121,2694,134,466,512,96,1227
"Igooods RU",RU,214,16899,8,350,37090,450,3,266,230,17,559
"MaxiCoffee FR",FR,214,5438,40,157,13344,1581,442,1078,563,292,2384
"Superpharm Apteka",PL,214,555,48,555,30446,25658,17,690,1004,355,2129
"Exito CO",CO,210,9382,32,630,37816,1465,173,3134,1451,181,5001
Cocolita,PL,208,10995,12,727,47243,15979,20,2016,1451,1520,5075
"Rappi Lider CL",CL,207,16688,2041,2691,82585,3373,29,5654,5613,84,11471
"Yandex Market RU",RU,207,36404,2515,3519,46123,7,15,2001,5151,115,7378
"Rappi - Carulla CO",CO,206,14608,782,874,43034,4773,95,7779,16301,164,24367
"Subra BG",BG,206,8591,20,159,23334,4913,16,297,95,699,1155
"Booker UK",UK,205,8904,161,1293,16957,8907,128,384,638,819,1985
"Panda Market HU",HU,204,2609,2,214,6543,1390,9,161,104,163,446
"Minifarm RO",RO,203,4859,5,113,12893,531,9,834,110,275,1242
"Pyaterochka App RU",RU,201,5423,7,283,13291,1242,3,232,132,16,403
"Emag HU",HU,199,113729,1084,2248,113764,7029,11,2338,3156,206,5964
"Merqueo - Medellin CO",CO,197,1047,3,70,2336,1502,14,195,36,83,332
"Утконос RU",RU,195,100,9,100,0,0,17,189,0,0,206
"Vodovoz RU",RU,186,1106,2,19,2265,0,5,321,33,1,367
"Deliberry - Caprabo ES",ES,184,8543,0,0,9657,0,20,1323,70,1,1421
"Coursesu FR",FR,183,4170,40,76,8000,1107,81,5919,917,1343,8268
"Rappi - Exito Express CO",CO,182,12950,286,378,31404,1103,110,7195,15237,81,22647
"Deliberry - Solri ES",ES,178,9124,0,0,10235,0,20,1301,53,1,1383
"Rappi Jumbo CL",CL,178,15801,1596,1783,58870,3641,26,4908,2269,84,7356
"Tiendas Jumbo CO",CO,176,13361,5,633,29777,2775,21,1457,1091,91,2707
"Deliberry - Mercadona Barcelona ES",ES,175,5718,0,0,6855,0,23,1273,2345,1,3648
"Deliberry - Mercadona Madrid ES",ES,173,5651,0,0,6764,0,18,1234,2462,1,3720
"Linella MD",MD,173,6514,36,36,12929,0,16,302,45,0,398
"PennyDomu CZ",CZ,173,1595,0,0,4501,0,81,253,2,1,342
"Rappi Unimarc CL",CL,173,12122,36,513,28413,3337,18,2887,1224,84,4245
"Rappi Turbo CL",CL,170,0,0,0,0,591,144,512,20,52,730
"Deliberry - Supercor ES",ES,161,4086,0,0,5010,0,16,1141,34,1,1199
"Everli - Coop IT",IT,160,12139,10,251,13297,7510,47,836,268,637,1810
"Professional Farmaline RO",RO,155,8354,4,125,17743,5351,8,559,88,106,791
"Auchan FR",FR,154,1554,3,80,5197,567,187,271,77,143,685
"Dirck3 NL",NL,151,537,0,24,2527,144,10,122,14,28,181
"Rappi Carrefour AR",AR,151,5495,45,280,6640,2123,85,1252,881,82,2309
"Rappi Coto AR",AR,151,9807,153,414,22196,1864,112,2646,1324,76,4183
"Look Fantastic UK",UK,145,17315,50,79,55108,0,4,704,61,2,814
"Deliberry - Dia ES",ES,143,4171,0,0,5032,0,20,1064,2,1,1093
"Deliberry - La Plaza ES",ES,143,4250,0,0,5109,0,18,1053,168,2,1245
"Everli - Metro IT",IT,143,2482,0,49,3303,1508,36,267,72,317,697
"Rappi Turbo PE",PE,138,1195,28,29,3513,1704,144,2097,117,119,2480
"Medexpressz HU",HU,137,1359,1,85,2909,0,8,308,53,1,375
"Nazuby CZ",CZ,135,1745,2,75,5992,161,8,223,36,17,291
"Superxtra PA",PA,135,6477,0,0,13685,0,76,68,3,1,174
"Rappi Turbo AR",AR,133,0,0,0,0,1490,135,638,21,83,877
"Alkohol CZ",CZ,131,4498,14,36,12529,0,19,1291,37,2,1365
"Extra BR",BR,128,76916,89,269,76916,0,46,1242,153,18,1565
"Ozon RU",RU,127,58956,4248,4507,88647,1748,547,4451,3616,198,9047
"Automercado CR",CR,126,11985,6,37,18700,0,60,1930,121,6,2140
"Condis ES",ES,121,6596,2,2,6980,0,8,190,24,1,234
"Cora Drive BE",BE,121,14011,98,313,91804,4546,11,3906,403,1376,5770
"Amazon Fresh DE",DE,117,10685,1752,1765,15323,6736,245,1756,2682,387,5088
"Rappi Farmacity AR",AR,112,6894,316,369,19713,1897,110,3533,2369,80,6115
"Mercado Libre CL",CL,110,49146,1532,1726,66097,2308,136,651,841,153,1893
"Coop EE",EE,105,1382,0,7,3265,1222,5,97,5,57,172
"Savage & Whitten IE",IE,100,3694,35,175,7388,931,8,323,81,73,491
"Vitania BG",BG,98,7243,14,156,7243,4292,12,367,125,230,757
"Farmacity AR",AR,94,280,1,280,5136,1237,17,310,136,57,526
"Jumia NG",NG,92,2210,45,83,2964,86,48,96,39,26,213
"Everli - Kaufland",PL,90,0,0,0,0,0,0,0,0,0,0
"Everli - Lidl",PL,90,0,0,0,10820,0,0,0,0,0,0
"Kaufland DE",DE,90,31435,200,388,39160,717,64,698,288,39,1132
"PriceSmart PA",PA,90,1659,3,32,19571,1025,19,3633,27,343,4039
"Koffievoordeel NL",NL,89,478,3,53,2842,1287,10,438,35,29,517
"PriceSmart GT",GT,88,1558,5,22,13937,2375,19,2535,22,524,3111
"Kaffedeal DK",DK,84,384,0,37,972,869,6,66,18,33,125
"Brack CH",CH,80,8429,15,114,20761,1824,79,314,126,181,746
"Comfandi Supermercados CO",CO,72,4537,255,255,9155,771,19,1730,624,234,2615
"Durst DE",DE,69,1123,69,1123,1192,0,5,35,23,3,71
"Droguerias Cafam CO",CO,68,4470,1307,2981,11409,2303,35,787,5534,105,6472
"Media Markt DE",DE,68,1286,2,32,3191,430,204,994,90,208,1502
"Rappi Cruz Verde CL",CL,66,4560,964,1075,30327,3239,19,1942,2560,83,4633
"Pretty Little Thing UK",UK,65,2155,58,69,9860,0,11,2815,657,0,3495
"Rozetka UA",UA,62,73405,495,658,93514,0,122,5291,445,1,6081
"Emag RO",RO,60,57785,262,670,57793,5003,9,1002,907,182,2176
"PedidosYa DIA AR",AR,60,2357,8,87,2357,713,16,101,41,22,190
"Comfandi Droguerias CO",CO,56,4436,2418,2418,8783,1838,12,1235,5248,305,6806
"Kapselkongen DK",DK,54,249,0,53,498,645,25,63,50,35,173
"iDrinks HU",HU,53,6614,192,211,14318,253,11,1689,226,66,2007
"Expert DE",DE,51,912,0,3,976,0,136,87,336,9,571
"PedidosYa Carrefour AR",AR,48,4099,13,201,4099,1009,13,103,92,22,239
"Very UK",UK,47,4027,15,62,4426,0,14,51,29,1,105
"Jumia EG",EG,44,2333,37,70,4486,14,44,152,50,25,276
"BilkaToGo DK",DK,37,10523,598,1377,54969,1750,14,143,674,39,956
"Datart CZ",CZ,37,1001,8,29,1388,784,6,155,49,75,293
"Selver EE",EE,37,4429,213,532,11677,2873,4,207,478,137,846
"Altex RO",RO,36,1579,0,73,3095,1840,5,163,168,114,456
"Bol NL",NL,36,196,133,199,28164,2371,40,1923,483,523,2991
"Ep DE",DE,34,216,4,6,690,0,71,122,14,1,210
"John Lewis UK",UK,34,19,5,19,610,217,3,29,16,98,147
"Saturn DE",DE,34,656,1,3,1402,378,136,696,24,2431,3290
"Winelivery IT",IT,34,1340,1,17,2853,0,4,195,12,2,217
"Galaxus CH",CH,33,8916,176,193,8916,1022,26,1869,206,1245,3364
"Kesko FI",FI,31,4376,0,0,61378,8564,941,1153,0,1443,3580
"Americanas BR",BR,29,5065,2,2,38768,0,325,1473,43,1,1890
"Avansas TR",TR,28,628,2,5,664,0,5,26,7,1,42
"Carrefour FR",FR,24,11197,64,193,16947,1530,7,1023,820,437,2311
"MyDeal AU",AU,20,26,11,26,9481,920,4,68,9,189,271
"Shoplink IE",IE,20,148,0,127,444,1774,27,38,78,107,250
"Deeski NG",NG,19,166,0,15,255,178,18,83,50,56,208
"Officeworks AU",AU,19,330,0,42,335,350,192,10,325,19,546
"Boulanger FR",FR,17,957,2,50,2215,381,29,133,134,153,451
"Euronics DE",DE,15,9583,11,206,37782,0,35,1071,37382,1,38526
"The Good Guys AU",AU,15,791,2,13,1510,390,5,45,19,124,194
"Qvc US",US,14,15542,37,61,17055,0,32,159,348,1,572
"BCC NL",NL,11,1809,4,27,2379,654,23,153,29,55,265
"El Corte Ingles ES",ES,11,3927,12,148,5113,691,73,309,819,80,1290
"Leclerc FR",FR,10,271,42,83,271,781,22,351,3127,1137,4642
"Wildberries RU",RU,10,56086,1608,2072,58298,1593,10,162,1237,40,1694
"Myer AU",AU,9,8191,64,178,10226,0,10,1751,398,1,2164
"Coles AU",AU,8,319,0,97,641,403,5,47,238,160,450
"Intermarche FR",FR,8,444,0,113,856,846,4,49,338,358,752
"AO UK",UK,7,840,7,23,1152,289,71,9,25,30,142
"Woolworths AU",AU,7,1482,0,113,2320,365,4,75,46,37,163
"Unieuro IT",IT,6,1670,29,43,2089,1161,3,16,23,46,96
"Harvey Norman AU",AU,5,17,0,17,290,257,16,42,91,377,526
"Barrys Beacon IE",IE,4,158,6,129,158,397,6,19,63,58,146
"Konga NG",NG,3,268,27,268,2999,185,101,28,129,15,276
"Musgrave IE",IE,3,0,0,0,0,4081,3,13,2,1260,1278
" SberMarket - Lenta RU",RU,0,0,0,0,0,0,2501,6,1,2182,4693
"Alcampo ES",ES,0,0,0,0,0,91,25,19,17,64,125
Allegro,PL,0,2222,0,1701,0,0,0,0,51747,0,51747
"Carrefour AR",AR,0,0,0,0,0,507,261,1,1,56,319
"Chedraui MX",MX,0,0,0,0,0,0,20,65,0,67,152
"Cruz Verde CO",CO,0,0,0,0,0,0,8,72,3,47,130
"Dia AR",AR,0,0,0,0,0,0,17,69,1,118,205
"Disco AR",AR,0,0,0,0,0,1255,62,27,1,72,165
"Drogas La Rebaja CO",CO,0,0,0,0,0,0,36,3620,1,140,3797
"Dunnes IE",IE,0,0,0,0,0,13295,2,12,1,568,585
"Easy CL",CL,0,0,0,0,0,0,2,112,5,8,128
"Elefant RO",RO,0,0,0,0,0,1984,220,2,0,96,318
"Heb MX",MX,0,0,0,0,0,0,3,67,1,39,127
"Kaffekapslen DK",DK,0,0,0,0,0,0,5,14,1,91,113
"Mediaworld IT",IT,0,0,0,0,0,0,33,0,0,248,281
"Metro Delivery RU",RU,0,0,0,0,0,0,227,1,1,291,520
"Okey RU",RU,0,0,0,0,0,0,11,6,1,306,324
"Rappi - Exito CO",CO,0,0,0,0,0,5009,36,76,17,296,429
"Rappi - Pricesmart CO",CO,0,0,0,0,0,3050,48,56,17,277,400
"Rappi Turbo CO",CO,0,0,0,0,0,2753,35,76,24,404,543
"Samokat RU",RU,0,0,0,0,0,0,4,18,0,17,39
"SberMarket - Metro RU",RU,0,0,0,0,0,0,2186,11,1,1987,4188
"Sodimac CL",CL,0,0,0,0,0,0,34,119,1,2,156
"Tottus CL",CL,0,0,0,0,0,2009,13,121,1,52,188
"Vea Digital AR ",AR,0,0,0,0,0,1121,55,31,1,81,169
