﻿Site,Country,Categories,Prices,"Products changed","Products downloads",Relations,Search,"Categories time","Prices time","Products time","Search time","Total time"
"Ocado UK",UK,6515,48108,77,2659,461977,42156,1326,11378,2339,2002,17413
frisco,PL,4711,15904,66,2197,302322,88361,63,10685,7141,1766,19893
"Mytime DE",DE,4626,11394,6,134,100143,3025,2008,2656,67,156,4937
"Albert Heijn NL",NL,3435,21516,34,261,104824,4278,436,1568,29,79,2170
"Makro CZ",CZ,3423,7634,4,9,788770,328,1286,25736,45,33,27380
"Asda UK",UK,3384,28512,40,2326,948541,41045,13,10834,1284,1188,13855
"Morrisons UK",UK,3311,20937,153,2141,98259,32202,616,5680,1823,2109,10301
"Samokat RU",RU,3133,5524,144,144,73639,17,26,48,162,14,302
"Waitrose UK",UK,3091,16482,331,1338,1557212,34305,45,24728,517,851,27364
"Metro SK",SK,3054,6139,3,3,281750,0,1169,10383,9,1,11669
"Rohlik CZ",CZ,2938,24171,106,854,225829,22770,2471,3944,577,904,8022
"Coto Digital AR",AR,2907,16919,332,332,108051,1206,2574,5195,347,54,8220
"Albert Heijn BE",BE,2868,10089,12,97,50593,6273,420,1347,12,121,1927
"Notino SK",SK,2636,776,146,776,116435,177,1204,6341,1583,17,9304
"Galen BG",BG,2619,13676,32,239,95602,2741,1335,2239,118,57,3809
"Kosik CZ",CZ,2616,16849,57,661,96875,32936,463,1661,321,1091,3609
"Drogeo CZ",CZ,2516,763,84,763,136059,41642,17,2449,409,786,3729
Auchan,PL,2488,15708,622,1320,463089,26447,38,15835,982,3395,20558
"Amazon Fresh UK",UK,2429,9578,561,561,55775,16406,1020,3179,389,434,5070
"Pilulka SK",SK,2317,37654,121,301,232962,10877,10,3083,190,247,3692
"Pilulka CZ",CZ,2239,41167,774,1227,193828,35371,16,2941,761,889,4761
"Sainsburys UK",UK,2233,30816,40,2426,1735755,84534,231,27325,1912,1839,32794
"Amazon UK",UK,2205,2014,4099,4107,336945,36120,1381,19458,0,10656,31495
"Notino CZ",CZ,2161,594,36,594,53042,15018,989,6590,573,740,9036
"Amazon Fresh IT",IT,2071,7648,594,595,36651,2596,2465,2185,1589,187,6444
"Drogerie Natura",PL,2003,18600,37,753,103679,37628,55,3620,1087,3333,8211
"Brakes UK",UK,1895,9283,14,220,27890,30817,891,1829,103,312,3157
"Jumbo NL",NL,1869,18596,35,298,72839,4127,1134,1995,269,120,3560
"Auchan HU",HU,1867,35262,255,2445,376747,11025,9,14485,1316,522,16511
"Yuga RO",RO,1670,9719,35,145,47335,481,1722,4009,2949,54,8765
"Cefarm 24",PL,1653,13730,33,902,101344,14204,2192,3844,1192,4745,12043
"Delhaize BE",BE,1586,13795,117,446,57958,15380,13,2785,264,387,3482
"Alcampo ES",ES,1541,14598,44,147,31488,560,23994,27575,276,516,52378
"Otto DE",DE,1483,142,80,147,67928,775,702,1200,433,31,2395
"Barbora EE",EE,1380,12091,64,155,49019,1303,41,1872,75,79,2092
eZebra,PL,1354,42421,187,940,143940,31393,30,5504,1187,2779,9642
"Tesco UK",UK,1345,27774,40,2654,312589,24008,12,9366,1113,6921,17675
"Apteka Nowa Farmacja",PL,1315,15334,38,892,80167,20419,9389,3101,994,1667,15193
"Remedium BG",BG,1303,27402,27,261,98075,708,333,7862,590,95,8950
"Coop CH",CH,1287,18140,45,173,69296,1998,291,1939,292,151,2717
"Kifli HU",HU,1269,14814,90,1557,60597,10155,595,610,716,375,2336
"Picnic NL",NL,1237,6838,6,87,14971,2210,537,981,51,80,1661
"Rewe DE",DE,1236,10366,6,239,45443,3343,16,1384,253,372,2054
"E-Fresh GR",GR,1220,12879,17,422,62749,6297,2328,4309,878,633,8183
"iGlobus Zlicin CZ",CZ,1177,22155,6,417,85113,7713,11,3805,527,321,4732
"Amazon DE",DE,1161,263,262,264,643552,14068,0,0,0,2171,2171
"Moja Lekaren SK",SK,1158,24655,33,278,133909,6427,617,3559,161,184,4604
"Lekarna CZ",CZ,1154,29121,79,545,128292,5355,611,3451,301,185,4652
"Barbora LT",LT,1145,12731,10,83,42251,1204,31,1258,41,67,1421
"S-kaupat FI",FI,1136,42496,10,232,328930,5159,3,2707,228,97,3186
Hebe,PL,1112,624,177,624,151153,27739,571,3044,772,635,5146
"Carrefour BE",BE,1075,19232,59,600,568887,21402,1020,14978,499,5005,21805
"Amazon IT",IT,1046,545,545,545,316989,6703,0,0,0,356,356
"Albert App CZ",CZ,1045,8227,0,0,59861,0,554,1871,3,1,2475
"Eroski ES",ES,1043,25507,56,208,53666,598,17,3299,140,42,3527
"Mathem SE",SE,1035,12049,11,513,33198,7351,15,1102,739,524,2402
"Coop NL",NL,1034,17123,2,100,72616,989,1926,3324,223,60,5573
"Picnic DE",DE,1027,7040,0,148,14134,1846,482,890,70,165,1618
Bee,PL,1021,42224,686,762,150472,0,475,2792,360,2,3809
"Salcobrand CL",CL,998,6655,0,0,29216,1047,310,602,3956,15,4905
"Alza CZ",CZ,986,24417,104,224,93335,28884,205,2268,0,1321,3838
"Auchan RO",RO,977,24233,111,615,102215,7759,14,925,306,137,1460
"Knuspr DE",DE,971,9284,12,128,35260,1421,447,457,58,153,1139
"Dr Max SK",SK,946,20934,396,396,92248,6406,390,2725,397,221,3797
Selgros,PL,941,22620,532,1130,79059,27854,420,919,508,1456,3406
"Coop SE",SE,925,10003,59,534,34229,7951,15,940,251,215,1450
"Coop Shop IT",IT,924,10204,2,322,30657,5630,6,694,220,370,1312
"Cruz Verde CL",CL,911,8058,17,19,136540,0,56,18195,13,1,18325
"Unipatika HU",HU,868,4366,10,307,31286,4656,479,1082,148,224,1950
"Magnit App RU",RU,850,3959,13,118,10598,0,6,1361,126,1,1505
"SuperValu IE",IE,843,16347,28,998,222303,10451,869,16745,1123,522,19488
"Pilulka RO",RO,839,42205,68,239,169927,3573,6,2024,407,125,2669
"Tigros IT",IT,839,10077,3,560,30270,6968,6,482,332,238,1083
"Alza SK",SK,831,11374,41,164,48666,3694,119,417,53,137,748
"Apteka Manada",PL,821,14781,68,962,39835,31142,24,2864,1908,2508,7362
"Wong PE",PE,811,21376,419,515,52557,0,9,2077,395,1,2512
"Polski Koszyk",PL,806,24870,28,896,79649,7073,24,974,483,274,1868
"Superpharm Drogeria",PL,802,725,24,725,98956,32476,24,1862,799,374,3145
"Tesco IE",IE,782,17067,42,897,416658,4061,5,8262,358,687,9539
"Superdrug UK",UK,777,14995,18,289,42962,6767,9,808,711,394,1960
"Auchan RU",RU,748,22899,82,921,73418,350,6,1394,664,10,2134
"eZiko Apteka",PL,739,7162,45,595,42592,19134,331,1687,280,936,3279
"Masxmenos CR",CR,730,8712,18,74,23943,0,20,1927,137,4,2099
"Walmart CR",CR,730,13393,25,393,172772,4499,14,6028,548,143,6813
"Bringmeister DE",DE,728,15613,9,132,40866,5390,10,434,59,145,685
"Sklavenitis GR",GR,728,10095,23,284,30272,5913,96,1111,139,291,1664
"Apteka Gemini",PL,715,26119,105,1367,90071,54315,22,2932,621,659,4339
"Intervare DK",DK,711,9351,157,182,27080,0,8,322,80,110,539
"Dr Max CZ",CZ,707,21682,380,381,90898,8205,374,2858,408,281,4031
"Mall CZ",CZ,703,4043,717,4043,101057,19401,429,1725,4749,7552,14549
"Gurkerl AT",AT,697,9628,25,140,34795,2941,338,324,64,101,859
"Tesco CZ",CZ,695,17197,19,1147,559056,23366,10,10067,655,3518,14559
"Rimi EE",EE,692,12433,65,89,36376,3731,7,676,90,100,898
"Walmart AR",AR,692,0,0,0,0,0,492,1161,0,28,1681
"Tottus CL",CL,675,9710,59,1705,47180,1139,55,529,813,22,1451
"Drogas La Rebaja CO",CO,674,11790,131,3850,353310,6584,60,10507,4389,487,15577
"Bennet IT",IT,672,18950,32,449,38137,15196,4,1048,201,477,1762
"Rossman HU",HU,665,15268,118,1088,55844,7765,424,784,2357,252,3855
"DM SK",SK,658,12626,6,30,36158,2178,6,1257,16,100,1418
"Mat SE",SE,658,10377,124,354,31952,12028,2098,286,328,196,2930
"Poiesz NL",NL,656,8121,0,10,10357,128,12,550,2781,5,3360
"Rimi LT",LT,654,14615,20,63,43829,3397,5,674,66,72,846
"City Gross SE",SE,650,12696,0,519,27575,8849,10,345,249,364,1045
"Rossmann DE",DE,649,16472,36,102,57251,440,689,1034,96,19,1873
Barbora,PL,647,7708,12,563,64594,8576,28,2610,312,1071,4094
"Crai Spesa Online",IT,647,364,359,364,26887,6959,401,1124,548,805,2890
"Hoogvliet NL",NL,639,8921,29,103,14264,1889,11,434,92,67,620
"Tesco SK",SK,636,16276,8,70,234008,846,6,4097,69,108,4465
"E.Leclerc Bielany",PL,628,31198,63,2583,101631,34815,66,3810,1169,19880,25033
"Esselunga A Casa IT",IT,624,15230,20,673,45201,16269,11,4309,1139,1352,6840
"Tesco HU",HU,622,16169,7,2297,1099093,8939,9,18643,1205,1392,21779
"DOZ.pl",PL,615,17439,265,1341,68013,47445,393,2266,685,1622,5037
Apteline,PL,613,960,37,960,83396,14594,437,1396,651,463,3024
"Colruyt BE",BE,609,7969,2003,4021,93945,14466,11,13885,9590,1664,25242
"Vasalekaren SK",SK,609,10169,4,144,68034,3969,1153,8514,285,608,10586
Amazon,PL,608,474,470,473,813564,18781,0,0,0,454,454
"Ebag BG",BG,605,11739,46,100,41385,1508,10,1146,90,29,1310
"Thanopoulos GR",GR,597,15928,29,342,53235,9168,11,4675,408,680,5821
"Vkusvill RU",RU,597,6067,82,82,22153,1106,226,2714,233,138,3325
"Apteka Galen",PL,593,8932,11,324,38770,3401,21,1449,264,213,2003
"Pingvinpatika HU",HU,590,7537,51,486,41421,2849,10,5058,717,317,6120
"Willys SE",SE,588,10786,16,452,35672,6976,8,446,251,227,964
"Bestway Foodservice UK",UK,581,10916,128,327,34680,4741,308,457,209,116,1114
"Benu CZ",CZ,577,14820,18,398,68842,6259,6,6874,407,73,7420
"Bestway Best-one UK",UK,573,6701,21,70,21800,12700,305,371,50,332,1075
"Bestway UK",UK,572,9534,179,548,30705,29638,303,431,275,696,1731
"Dr Max",PL,569,12696,803,803,48303,21941,249,1591,751,672,3328
"E.Leclerc Wroclaw",PL,566,15673,44,1152,15875,12834,473,1843,1757,5075,9190
"Zakaz - Metro MD",MD,566,11068,78,117,18612,0,5,2967,680,1,3675
"DM HU",HU,563,12275,45,824,33844,9644,5,1192,358,323,1902
"AB GR",GR,562,11595,31,345,35548,6961,9,1077,172,182,1472
"Plus NL",NL,561,15936,0,228,31246,3820,33,4174,252,195,4694
"Spar HU",HU,559,14310,71,193,183782,11034,7,3757,11665,309,15823
"Kritikos GR",GR,557,16292,30,345,46076,0,8,33,161,7062,7307
"Apteka Melissa",PL,553,27851,1430,1430,81858,51568,23,6038,867,882,7875
"Metro RU",RU,553,19455,314,719,26393,44,7,2093,622,16,2784
Spar,PL,552,24921,1807,2118,701381,74194,25,12421,1038,2100,16022
"MyMarket GR",GR,550,18180,175,374,65970,5952,10,2028,473,353,2913
"DM CZ",CZ,549,12137,46,902,33161,31843,7,1119,396,1017,2565
"Pão de Açucar BR",BR,548,10735,131,174,32045,0,3,1097,169,0,1284
"Freshful RO",RO,547,20763,45,91,42365,367,5,964,45,15,1068
"Jumbo CL",CL,542,20613,12,2347,581140,1384,55,7832,1700,93,9974
"Carrefour ES",ES,536,15486,66,227,18679,281,30,611,925,36,1625
"Sok FI",FI,536,9571,60,321,36535,3253,67,1139,158,259,1643
"Chronodrive FR",FR,535,8725,13,87,17037,2123,11,365,71,45,503
"E.Leclerc Rzeszów",PL,534,13884,94,1601,41273,28814,30,728,595,843,2253
"Yandex Lavka RU",RU,527,3158,25,176,9288,0,91,546,136,208,989
"Plazavea PE",PE,516,26902,42,60,196288,0,8,5640,36,1,5799
"Drogeria Olmed",PL,514,496,142,496,137639,20984,5,8092,207,1493,9865
"Cold Storage SG",SG,513,9327,0,5,29295,0,588,2175,7,0,2776
"Apteka Zawiszy",PL,504,20012,46,853,79050,10081,239,847,436,226,1853
"Hemkop SE",SE,503,10692,4,463,33368,7259,8,273,232,251,794
Rossmann,PL,501,764,0,764,77942,25415,15,864,930,584,2482
"Interspar AT",AT,500,21022,7,215,65917,5664,9,656,272,133,1122
Intermarche,PL,499,18751,1,2369,167211,18689,19,3324,1103,1344,6049
"Spar SI",SI,488,17513,10,206,61542,2718,9,661,241,103,1069
"Dr Max Drogeria",PL,484,14037,77,77,43652,0,244,1903,329,2,2531
"Migros Online CH",CH,483,12321,66,66,37903,1355,21,1269,69,204,1594
"Mega Image RO",RO,482,12881,34,417,38694,9689,6,588,197,154,982
"Benulekaren SK",SK,472,9152,8,276,46913,6246,5,3538,194,129,3903
"E.Leclerc Radom",PL,472,13800,511,1274,43588,11044,50,3127,638,1730,5597
"Famila a casa IT",IT,472,12316,14,124,29199,6360,806,1491,243,311,2873
"e-Dostavka BY",BY,470,30005,525,631,85739,2682,5,5931,309,263,6556
"Basko IT",IT,466,8379,13,448,25616,1421,4,268,490,42,827
"GPSfarma AR",AR,465,7109,5,438,29446,1157,9,1945,344,72,2385
Ceneo,PL,463,199068,3193,5581,264581,30177,860,2164,2299,163,5844
"Apteka Olmed",PL,457,1084,79,1084,151378,19256,15,10540,742,1709,13078
"Carulla CO",CO,455,9991,13,387,29698,4110,12,1188,256,223,1706
Aptelia,PL,454,594,84,594,68068,10034,207,2028,318,335,2936
"Cornershop - Lider CL",CL,452,20671,3,2374,125339,1346,54,1079,526,62,1815
"MegaMarket RO",RO,447,5434,0,9,6540,568,6,1236,13,190,1454
"Feedo CZ",CZ,442,520,415,520,67167,905,189,968,292,32,1507
"eTabletka SK",SK,438,11690,15,131,78709,6659,331,22937,116,86,23497
"Unimarc CL",CL,433,10816,20,573,32192,1206,54,2608,1014,33,3729
"Lopido CO",CO,432,10629,3,71,21079,590,4,6488,287,50,6842
"E.Leclerc Lublin Turystyczna",PL,431,13736,14,1365,16759,13608,13,1193,2815,4382,8445
"Lider CL",CL,428,10803,223,2014,247455,1077,56,11091,3637,99,15021
"Patika24 HU",HU,426,5173,13,285,15773,3262,5,660,360,89,1127
"E.Leclerc Katowice",PL,423,11147,5,1213,11727,12094,302,1363,1938,5229,8862
"Ecofamily HU",HU,422,7201,8,875,23236,4290,4,1859,7936,581,10403
"Dr Max RO",RO,419,13782,307,307,43998,6103,190,1138,301,177,1838
"Kruidvat NL",NL,418,8976,45,57,25058,1740,201,678,68,74,1042
Stokrotka,PL,418,7634,12,142,181559,2470,19,2437,79,239,2966
"iFresh SK",SK,402,7961,57,57,177898,0,5,4747,100,1,4965
"OnlinePrima HU",HU,397,7541,34,1206,22304,6077,5,1082,638,259,1998
"Teta Drogerie CZ",CZ,395,8744,9,453,25527,7047,5,655,425,165,1270
"Apteki 36.6 BG",BG,394,10053,11,173,47520,679,8,1352,90,48,1531
"Dia AR",AR,394,5150,1,106,16060,672,15,541,175,16,757
"Unimarkt AT",AT,392,3373,21,122,15708,3139,132,403,102,269,917
"Cornershop - Jumbo CL",CL,390,26894,95,1126,140609,1341,52,852,458,59,1532
"Iceland UK",UK,385,5605,40,342,31846,16187,7,988,1069,3334,5429
"Bringo RO",RO,384,32499,492,27067,56604,9536,24,1549,1350,649,3613
"Cornershop - Wong PE",PE,382,19779,54,81,59861,0,14,608,55,0,725
"Carrefour IT",IT,381,13154,242,845,37114,12196,24,362,389,333,1141
"Majestic UK",UK,378,1273,0,54,17010,1154,163,1811,47,129,2164
"DrankDozijn BE",BE,376,3516,0,67,14309,2343,5,636,106,588,1345
"DrankDozijn NL",NL,376,3516,0,67,14309,250,5,622,106,59,804
"Billa AT",AT,371,9134,31,161,29662,6286,9,307,278,128,755
"Walmart GT",GT,369,8642,160,488,150787,4104,17,5302,871,164,6430
"Istegelsin TR",TR,368,5213,14,77,11679,0,15,174,38,2,244
"Świat Leku",PL,363,11554,22,334,33839,1866,152,1316,251,180,1948
"Ica New Version SE",SE,359,5941,5801,5811,112190,5678,5,1741,2616,280,4696
"Ulabox ES",ES,358,6033,3,8,12687,0,6,217,8,1,243
"E.Leclerc Lublin Tomasza Zana",PL,353,11043,996,1182,14368,9654,15,486,642,1114,2286
"Farmacia Tei RO",RO,352,24428,286,306,25983,2411,4,643,163,99,942
"Cornershop - Metro PE",PE,351,16826,12,28,55548,0,8,531,36,1,618
"Mercado Livre BR",BR,350,101387,2248,3953,1125006,0,751,14245,1088,1,16716
"Cruz Verde CO",CO,349,4263,216,2658,17234,1188,66,1428,1267,88,2860
"Ica SE",SE,349,11512,0,641,705150,12680,6,21643,314,209,22514
"Gall & Gall NL",NL,347,3117,20,71,23070,62,6,3987,120,13,4140
"Ulta US",US,347,14,14,14,93455,0,4,267,16,1,320
"Elefant RO",RO,344,582,587,587,122324,2044,95,1115,299,21,1599
"E.Leclerc Elblag",PL,339,10808,13,1073,29938,15076,40,1536,990,1945,4578
Allecco,PL,336,11424,28,827,39107,10555,21,595,390,180,1239
"Jumbo AR",AR,332,10166,140,651,59544,800,9,2367,344,30,2785
Carrefour,PL,331,16250,65,2637,126107,35251,400,3238,1998,2109,7875
"Bebe Tei RO",RO,325,26312,66,136,27168,511,4,812,83,46,998
"Mpreis AT",AT,325,7986,4,123,28018,4204,338,792,208,92,1454
"Globus RU",RU,322,13935,317,332,47824,37,7,1793,203,6,2052
"Mercado Libre AR",AR,322,35004,315,1486,76643,611,186,819,3348,80,4498
"Roastmarket DE",DE,320,72,6,72,35072,396,18,564,1122,15,1738
"Gorillas App IT",IT,310,1588,6,1588,4241,6291,6,10,16,188,224
"Sipo HU",HU,308,4904,187,187,11125,1374,5,640,102,127,884
"SOpharmacy BG",BG,306,9874,19,195,31590,3509,356,886,219,114,1605
"Bipa AT",AT,301,10808,40,40,23779,559,13,317,58,19,439
Empik,PL,301,176083,2289,3435,480416,25511,72,7223,1128,222,9070
DoDomku,PL,299,6581,178,553,19367,2003,46,273,323,286,942
"Easy Coop IT",IT,299,9275,16,626,27701,9674,4,1843,1260,877,4003
"Cora RO",RO,298,45184,677,1018,92368,6349,3,4211,839,743,5857
"Cornershop - Santa Isabel CL",CL,297,7049,8,527,8690,1011,53,573,796,48,1479
"Mall SK",SK,296,1365,62,1365,27554,1020,293,665,2530,1068,4596
"Apteka Nove BG",BG,295,11742,14,150,41072,3403,268,1796,205,134,2434
"E.Leclerc Gdansk",PL,295,10649,17,986,29428,9027,29,1493,861,1693,4114
"Tudrogueria Virtual CO",CO,291,8543,112,3956,16498,467,4,344,1827,24,2211
"Amazon NL",NL,287,0,0,0,103414,0,0,0,0,17,17
"Merqueo - Bogota CO",CO,286,2010,2,137,5187,5052,4,211,78,182,479
"Apteka Medea BG",BG,284,8754,3,155,26651,0,6,1229,122,1,1382
"Konzum HR",HR,283,10843,7,172,17767,2804,310,2539,538,357,3758
"Sephora US",US,283,147,141,147,125350,0,6,826,73,0,943
"i-apteka",PL,282,9758,519,618,20904,5862,5,433,655,422,1549
Makro,PL,280,3216,0,485,8788,30510,6,538,226,1537,2348
"E.Leclerc Tychy",PL,279,9702,5,1183,9880,11129,55,286,577,1543,2494
Makeup,PL,278,3232,1644,3232,454862,54211,11,10707,1404,871,13181
"Mercado Libre CL",CL,277,0,0,0,69179,0,0,0,0,0,0
"Argos UK",UK,273,5301,27,4468,7372,0,4,513,15497,1,16031
"Edeka DE",DE,270,3604,45,59,4878,94,7,194,57,117,385
"MaxiCoffee FR",FR,270,5635,95,125,13924,1591,552,850,535,216,2160
"PriceSmart CR",CR,270,3504,7,47,51998,3304,4,10530,74,508,11140
"Groby HU",HU,267,8340,19,533,22161,3536,8,1214,576,242,2054
"Farmacia la Pret Mic RO",RO,261,8609,42,288,26405,4206,21,1719,328,718,2805
"E.Leclerc Gliwice",PL,260,8348,12,768,22733,7114,30,1156,591,1366,3179
"Delitea SE",SE,255,9926,8,222,23772,5533,4,178,104,82,392
"Apteka Medkon",PL,254,6787,453,453,28397,8313,8,3835,970,1229,6073
"Dunnes IE",IE,254,14150,19,804,31199,10387,3,523,628,219,1394
"Supermarket AM",AM,253,7449,68,116,18291,0,5,1035,261,1,1320
Wapteka,PL,252,18592,1150,1196,64292,33969,7,5280,728,585,6661
"Afya Pharmacy BG",BG,246,9143,25,187,27568,713,8,2197,243,206,2672
"Helpnet RO",RO,245,7038,19,269,19901,2451,4,1913,224,183,2337
"Szybki Koszyk",PL,244,4303,26,103,14759,632,116,629,51,38,878
"Olimpica CO",CO,241,10966,9,316,45851,875,4,1691,882,42,2652
"Rappi - Exito CO",CO,239,20862,936,1595,62014,8850,3,5055,8010,249,13353
"Farmatodo CO",CO,238,13046,22,3700,57971,5504,6,793,4612,95,5547
"Metroiroda HU",HU,230,0,0,0,0,1317,2,364,0,86,453
"Merqueo - Medellin CO",CO,229,1758,6,150,4358,4495,3,174,81,172,434
"Disco AR",AR,228,8169,53,453,33611,989,91,2798,1112,37,4062
"Chedraui MX",MX,227,30176,72,123,90913,0,6,1421,76,1,1546
"Linio CL",CL,227,52596,1114,3631,84607,0,124,691,1446,0,2342
"Merqueo - Cali CO",CO,226,1380,2,88,3647,685,3,166,49,26,247
"Rappi - Exito Express CO",CO,225,17379,664,895,36306,6049,4,4583,6871,217,11699
"Rappi - Carulla CO",CO,224,14917,980,1095,46168,8930,4,4675,6247,251,11206
"Rappi - Carulla Express CO",CO,224,14140,301,785,40841,7568,3,4626,5732,229,10615
"Lisek App",PL,221,1807,10,143,2128,648,6,8,69,726,817
"Coop UK",UK,218,9474,0,820,212254,19228,5,5105,409,643,6290
"Igooods RU",RU,217,16832,20,375,35924,85,4,215,254,6,510
"Beauty Bay UK",UK,214,13461,40,143,55083,0,4,335,77,1,447
"Перекрёсток Впрок RU",RU,214,15968,75,706,34322,2435,7,2595,1171,151,3956
"Booker Foodservice UK",UK,213,11811,44,1327,22039,3526,132,451,623,118,1338
"Superpharm Apteka",PL,212,497,21,497,29311,14251,5,670,673,209,1591
Cocolita,PL,208,7740,0,140,31687,13707,7,1409,257,1141,2861
"Booker UK",UK,206,8963,29,1373,17062,9265,125,368,641,673,1820
"Yandex Market RU",RU,206,0,0,0,0,0,17,389,23,135,565
"Benu HU",HU,204,5027,17,359,16743,2710,3,2271,521,388,3193
"Утконос RU",RU,204,887,253,887,107785,1174,4,750,598,40,1454
"Minifarm RO",RO,203,54,1,6,61,140,6,589,9,92,697
"Pyaterochka App RU",RU,202,5755,12,319,14393,386,3,229,153,5,406
"Rappi Lider CL",CL,200,14142,2127,2186,64579,1299,7,5116,4332,32,9539
"Emag HU",HU,199,99122,1102,2217,99169,6895,5,1439,2088,130,3784
"Auchan FR",FR,195,1645,0,75,5728,551,230,328,79,118,758
"Getir IT",IT,189,1672,1,25,4521,8311,3,105,15,104,231
"Deliberry - Caprabo ES",ES,184,8607,0,10,9728,0,9,482,38,1,540
"Coursesu FR",FR,182,4331,26,86,11708,1249,12,5998,642,997,7655
"Panda Market HU",HU,182,2513,5,175,6207,1516,3,138,84,104,334
"Rappi Jumbo CL",CL,180,14441,766,1401,50587,1390,7,4624,1756,33,6463
"Deliberry - Solri ES",ES,178,9126,0,1,10234,0,9,473,28,1,521
"Vodovoz RU",RU,178,1052,9,53,2165,0,4,305,93,1,406
"Deliberry - Mercadona Barcelona ES",ES,175,5751,0,3,6891,0,11,437,1252,1,1710
"Deliberry - Mercadona Madrid ES",ES,173,5680,1,4,6794,0,10,407,1356,1,1780
"Linella MD",MD,173,2253,0,77,2253,0,3,113,40,0,159
"PennyDomu CZ",CZ,173,1773,0,0,5034,0,167,282,2,0,455
"Rappi Unimarc CL",CL,170,12012,338,798,23776,1285,8,2675,1456,32,4193
"Everli - Coop IT",IT,162,11962,15,230,13298,124,35,4015,123,1502,5692
"Deliberry - Supercor ES",ES,161,4086,0,0,5010,0,10,368,13,1,399
"Rappi - Pricesmart CO",CO,157,1830,18,29,3459,721,3,1515,648,37,2206
"Professional Farmaline RO",RO,155,8644,28,142,18408,2475,4,774,129,65,994
"Dirck3 NL",NL,151,502,3,28,2355,144,5,96,17,11,134
"Everli - Metro IT",IT,146,2495,4,48,3364,1506,33,244,27,631,939
"Look Fantastic UK",UK,146,16942,63,132,49764,0,3,701,98,2,840
"Deliberry - Dia ES",ES,143,4171,0,0,5034,0,8,304,2,1,322
"Deliberry - La Plaza ES",ES,143,4250,0,0,5110,0,8,310,112,1,435
"Medexpressz HU",HU,137,1366,84,85,2931,0,4,272,61,18,358
"Ozon RU",RU,136,0,0,0,0,0,1836,275,25,244,2383
"Nazuby CZ",CZ,135,1717,16,88,5885,187,7,166,42,20,239
"Exito CO",CO,132,7847,9,487,31083,2741,18,3435,1196,275,4948
"Rappi Turbo CL",CL,132,724,27,28,796,0,123,2525,136,46,2831
"Subra BG",BG,132,7017,32,211,17622,2594,10,191,104,324,655
"Alkohol CZ",CZ,131,4193,13,60,11698,273,19,1013,48,28,1116
"Automercado CR",CR,131,12438,11,74,19233,0,17,2705,368,1,3104
"Coop EE",EE,128,9305,26,26,20246,1915,3,435,13,57,522
"Rappi Turbo PE",PE,126,874,23,23,28235,0,131,3571,130,47,3890
"Rappi Turbo AR",AR,124,767,12,18,12608,0,124,3528,111,45,3813
"Condis ES",ES,121,6602,3,3,6977,0,4,199,15,0,230
"Cora Drive BE",BE,121,13674,183,192,90952,4304,8,4100,248,1383,5794
"Rappi Turbo CO",CO,119,1081,68,69,10374,0,139,6680,288,47,7158
"Amazon Fresh DE",DE,112,9230,225,226,14244,6057,374,1103,177,172,1839
"Vea Digital AR ",AR,104,2504,8,259,10468,889,90,1173,2795,33,4099
"Farmacia Pasteur CO",CO,103,8817,44,3932,57006,611,3,1503,2622,28,4194
"Farmacity AR",AR,97,311,19,311,7219,1177,5,302,143,39,492
"Savage & Whitten IE",IE,96,3777,12,153,7554,923,9,296,76,71,457
"Vitania BG",BG,96,7230,21,159,7230,2283,6,335,76,74,506
"Koffievoordeel NL",NL,95,500,0,58,3089,1253,4,623,86,29,746
"Kaufland DE",DE,90,30133,200,505,37767,700,65,702,381,42,1227
"PriceSmart GT",GT,88,1608,12,35,11400,2104,5,3305,30,458,3804
"Okey RU",RU,82,3963,999,1214,4058,175,4,397,3638,142,4199
"Rappi Cruz Verde CL",CL,82,3666,657,770,16017,1402,5,2012,835,32,2897
"Brack CH",CH,80,8276,15,110,20355,1845,67,277,85,140,584
"Comfandi Supermercados CO",CO,72,4614,0,0,9342,0,5,387,1,1,400
"Durst DE",DE,69,1103,93,1103,1170,0,4,16,22,1,47
"Droguerias Cafam CO",CO,68,4274,1144,2928,10985,1400,16,546,4497,52,5118
"Media Markt DE",DE,66,1668,2,58,3050,1093,278,2413,517,1242,4455
"Pretty Little Thing UK",UK,66,2479,5,41,11793,0,10,2633,415,1,3065
"Kaffekapslen DK",DK,61,787,1,65,1812,1516,52,41,51,162,307
"Kapselkongen DK",DK,57,279,0,62,571,689,21,57,58,33,170
"Saturn DE",DE,57,1864,1,52,3086,856,332,1617,280,3823,6057
"Comfandi Droguerias CO",CO,56,4641,0,0,9172,0,6,356,2,1,370
"Asos UK",UK,55,8457,114,162,21482,0,28,156,78,2,282
"Emag RO",RO,54,52588,424,918,52589,5016,5,1091,1194,147,2494
"iDrinks HU",HU,52,6487,162,181,13976,252,6,2120,160,76,2370
"Expert DE",DE,50,1029,0,1,1110,375,80,65,213,35,397
"Winelivery IT",IT,49,1501,6,64,3286,0,3,289,59,0,354
"Very UK",UK,47,3964,134,149,4290,0,15,50,75,0,145
"Bol NL",NL,46,212,169,215,32694,2324,38,2329,844,453,3682
"Carrefour AR",AR,41,3517,113,317,11682,514,85,700,593,30,1421
"Altex RO",RO,38,2265,3,106,4444,2004,3,209,121,141,479
"Selver EE",EE,37,3671,15,26,9796,2676,5,255,53,208,532
"Jumia EG",EG,36,2262,57,122,4443,0,31,151,88,1,274
"Ep DE",DE,35,211,4,14,679,274,73,129,30,96,331
"Galaxus CH",CH,32,9291,72,87,16718,833,16,3063,79,1299,4472
"Kesko FI",FI,31,4730,0,0,66295,7960,129,6618,0,4235,11015
"Avansas TR",TR,28,536,2,3,586,0,4,22,5,1,34
"John Lewis UK",UK,28,23,6,23,494,190,8,22,17,59,107
"Mercator SI",SI,27,12687,55,223,12687,2268,5,20,103,79,228
"Carrefour FR",FR,24,10739,9,163,15289,1611,5,2450,1487,2967,6930
"Datart CZ",CZ,20,929,3,16,1362,947,12,123,9,57,204
"MyDeal AU",AU,20,20,7,20,8898,573,4,71,11,48,136
"Shoplink IE",IE,20,143,0,122,429,1686,27,38,77,104,246
"Officeworks AU",AU,19,393,0,53,399,358,87,9,245,19,360
"Boulanger FR",FR,17,767,1,46,1790,362,21,95,131,149,399
"Euronics DE",DE,15,9686,33,231,38400,1207,32,888,38178,200,39334
"The Good Guys AU",AU,15,803,2,14,1514,392,7,48,32,149,237
"Qvc US",US,14,15330,34,56,16767,0,13,102,328,1,458
"BCC NL",NL,11,1804,13,22,2358,651,5,151,24,58,243
"El Corte Ingles ES",ES,11,3907,3,149,5071,668,53,261,780,70,1170
"Leclerc FR",FR,11,236,34,78,437,686,16,147,1896,345,2404
"Sodimac CL",CL,11,108,0,0,232,0,38,127,83,1,250
"Mediaworld IT",IT,9,264,16,42,528,1472,5,135,162,468,771
"Myer AU",AU,9,8133,95,224,10477,0,11,1626,464,1,2106
"Coles AU",AU,8,321,3,85,645,413,6,62,234,239,542
"Intermarche FR",FR,8,371,1,98,712,732,2,48,530,393,974
"AO UK",UK,7,736,1,14,1001,289,62,9,18,14,107
"Woolworths AU",AU,7,1389,3,112,2215,356,5,107,63,44,220
"Unieuro IT",IT,6,1747,6,22,2163,1108,2,16,13,58,94
"Harvey Norman AU",AU,5,20,0,20,274,281,24,30,54,291,399
"Barrys Beacon IE",IE,4,158,6,119,158,384,6,17,58,66,147
"Wildberries RU",RU,1,0,0,0,0,1569,4,12,26,239,281
" SberMarket - Lenta RU",RU,0,0,0,0,0,0,6,10,13,96,125
"0815 DE",DE,0,0,0,0,0,0,2,9,0,46,57
Allegro,PL,0,222,3,222,0,0,0,0,1805,0,1805
"Azbuka Vkusa RU",RU,0,0,0,0,0,199,165,1,5,23,197
"Boots UK",UK,0,0,0,0,0,7644,12,1,1,314,340
"Easy CL",CL,0,0,0,0,0,0,3,98,2,0,103
"Metro Delivery RU",RU,0,0,0,0,0,0,22,19,20,33,94
"SberMarket - Metro RU",RU,0,0,0,0,0,0,6,10,17,120,153
"Soriana MX",MX,0,0,0,0,0,0,2,23,1,1,27
"Tiendas Jumbo CO",CO,0,0,0,0,0,4975,3,15,1,233,252
