﻿Site,Country,Categories,Prices,"Products changed","Products downloads",Relations,Search,"Categories time","Prices time","Products time","Search time","Total time"
"Mytime DE",DE,6534,11451,31,300,118941,2895,3101,3920,143,157,7410
frisco,PL,4711,1932,17,1932,322395,101283,95,7720,2887,566,11521
"Albert Heijn NL",NL,3495,21717,66,400,108169,7751,456,1601,68,144,2360
"Makro CZ",CZ,3460,10210,0,4,1045866,493,2907,24959,30,43,28404
"Rohlik CZ",CZ,3453,25755,76,1660,280641,30803,2267,11248,2101,751,16508
"Pilulka SK",SK,3169,38320,274,531,291847,11207,19,4056,389,263,4874
"Metro SK",SK,3047,8232,0,0,362340,0,2501,21301,21,0,23970
"Albert Heijn BE",BE,2904,11178,28,164,55432,8426,427,1374,34,166,2057
"Galen BG",BG,2740,14371,8,233,102632,5214,1901,3724,295,309,6308
Auchan,PL,2734,18930,104,1462,319139,0,61,17057,1547,4890,23846
"Kosik CZ",CZ,2722,17730,27,1148,99603,35772,491,1751,561,968,3865
"Pilulka CZ",CZ,2588,32654,250,641,180984,34978,18,2950,548,921,4562
"Coto Digital AR",AR,2515,18053,0,816,91484,14427,1661,3372,561,553,6225
"Notino SK",SK,2396,2839,119,2839,122404,215,1130,6758,2950,14,10990
"Notino CZ",CZ,2307,5140,191,5140,122499,50899,1069,7400,4339,1360,14339
"Drogeo CZ",CZ,2192,730,37,730,126525,41469,20,2284,402,738,3538
"Amazon Fresh IT",IT,2044,7942,790,795,38639,3555,2347,1180,2003,123,5672
"Drogerie Natura",PL,1906,13707,6,795,53992,48079,68,6672,1350,2943,11109
"Auchan HU",HU,1874,28952,690,3636,235907,0,13,8265,2470,3885,14775
"Jumbo NL",NL,1789,18017,58,502,66635,7822,1615,1867,2113,249,5941
"Yuga RO",RO,1641,8459,0,51,40855,0,2273,5000,3249,0,10552
"Musgrave IE",IE,1621,146,1,149,53111,4752,27,2771,144,156,3123
"Delhaize BE",BE,1606,14419,351,515,60014,19860,31,3518,1900,818,6358
"Otto DE",DE,1596,429,185,447,80121,227,750,904,674,17,2394
"Minti Shop",PL,1506,0,0,0,0,0,38,1062,1,1154,2255
"Apteka Melissa",PL,1453,27233,62,1830,104014,66042,56,10553,1925,989,13684
"Kifli HU",HU,1449,14218,315,1826,68507,13163,668,2059,1695,428,4898
"Apteka Nowa Farmacja",PL,1403,15848,74,926,81787,30616,12151,3609,1132,2475,19426
"Coop CH",CH,1386,19724,69,155,72694,2211,334,2563,576,216,3755
eZebra,PL,1381,42743,45,1579,152713,37299,27,7500,423,10792,18894
"Remedium BG",BG,1301,27498,32,324,98495,1543,314,7494,449,212,8552
"E-Fresh GR",GR,1268,11657,26,740,59957,6942,2434,4251,1538,694,8969
"iGlobus Zlicin CZ",CZ,1265,23455,33,454,95468,10622,14,3110,642,569,4405
"Knuspr DE",DE,1259,13101,135,227,69431,1682,590,1819,610,155,3221
"Rewe DE",DE,1255,9612,10,224,35365,2537,27,1425,40793,359,42652
"Amazon BR",BR,1249,22,15,22,1239515,2498,0,0,0,849,849
"Carrefour BE",BE,1245,21315,11,538,555352,21699,1179,15016,357,1070,17973
Hebe,PL,1238,1425,819,1425,235707,32722,1021,8279,3635,2009,15166
"Moja Lekaren SK",SK,1221,25340,28,451,112912,6651,913,3519,325,532,5353
"Lekarna CZ",CZ,1216,29991,24,668,134919,6146,903,4148,558,468,6143
"Amazon DE",DE,1203,170,10696,10696,724775,13818,0,0,0,6991,6991
"Albert App CZ",CZ,1184,8404,18,59,45720,1775,550,2591,33,56,3265
"S-kaupat FI",FI,1175,41623,65,369,335450,6494,24,3172,331,114,3921
"Farmaline BE",BE,1173,30774,26,260,146005,2767,1983,4660,292,56,7116
"Picnic DE",DE,1156,7206,0,0,14918,1822,527,957,13196,168,14868
"Vkusvill RU",RU,1156,11840,30,154,50409,1605,256,4994,510,148,5938
"Alza CZ",CZ,1149,32399,194,1015,109430,35758,58,1125,406,710,2353
"Coop NL",NL,1139,14747,0,167,63765,1832,1534,2455,1409,162,5631
"Dr Max SK",SK,1107,28302,322,1120,139613,7363,753,10315,1600,500,13225
"Eroski ES",ES,1066,26518,24,282,56836,588,8,3942,197,45,4242
"Mathem SE",SE,1061,12788,3,589,35100,7719,23,1155,911,520,2642
"Alza SK",SK,1052,14740,127,200,54272,204,50,504,94,9,684
"Amazon IT",IT,1041,537,535,537,495626,6480,0,0,0,1432,2313
"Salcobrand CL",CL,1011,8101,16,7982,36307,2810,308,643,4923,41,5958
"Metro AT",AT,1006,28575,4,151,85722,3644,14,1079,76,121,1396
"Cefarm 24",PL,990,12946,28,878,82336,18215,1265,2710,1144,2352,7553
"Zakaz - Novus UA",UA,985,19299,50,62,39598,0,6,2297,34,2,2373
"Migros Online CH",CH,983,8330,36,85,30744,1334,24,2464,72,191,2780
Selgros,PL,971,21534,1046,1430,74545,30138,438,1003,653,1590,3867
"Tigros IT",IT,966,10072,77,570,30256,8024,13,545,336,235,1155
"Coop Shop IT",IT,946,11505,0,390,34530,6657,13,688,269,365,1361
"Magnit App RU",RU,946,4628,39,95,14337,0,7,856,54,0,930
"Ebag BG",BG,943,12357,166,282,49356,1582,16,1448,161,29,1695
"Newpharma BE",BE,921,29745,204,204,115867,0,1807,10882,157,0,12902
"Kolichka BG",BG,915,8760,38,82,32901,872,213,413,42,31,749
"Coop SE",SE,914,9892,8,536,33683,8241,21,927,255,227,1486
"Falabella Tottus CL",CL,910,9902,71,420,40143,2263,2836,3615,2090,148,8723
"Pilulka RO",RO,882,10601,70,236,40338,3440,7,430,116,93,677
"Unipatika HU",HU,866,4386,5,296,30362,4698,700,1495,145,348,2714
"Tesco IE",IE,860,18107,16,966,454495,4834,7,10355,451,1179,12452
"SuperValu IE",IE,845,16308,7,1064,225632,14131,872,16685,1188,878,19935
"Apteka Manada",PL,823,14058,36,1181,43932,43163,37,2836,2602,3958,9503
Bee,PL,813,26817,58,540,83522,10165,380,1715,283,246,2928
"Dr Max CZ",CZ,813,24415,47,606,122234,8136,322,3874,548,254,5076
"eZiko Apteka",PL,810,7545,33,664,47343,23915,382,1961,439,1385,4274
"Gurkerl AT",AT,801,10045,190,264,44123,3425,391,1164,318,115,2022
"Superpharm Drogeria",PL,801,813,67,813,94676,38185,27,2995,1937,437,5500
"Auchan RU",RU,794,26431,49,1244,81837,404,6,1121,632,21,1865
"Bennet IT",IT,792,21771,33,477,45854,15556,13,1255,219,870,2398
"Alcampo ES",ES,768,10016,0,1,32199,0,3692,6035,980,122,10862
"Coop DK",DK,768,11502,500,550,88994,1233,363,4658,517,41,5659
"Cruz Verde CL",CL,752,9116,0,1019,145528,3383,32,18204,475,40,18821
Barbora,PL,744,11084,42,958,140135,9745,37,3744,615,1332,5925
"Polski Koszyk",PL,744,18788,200,1102,56254,4470,20,767,559,293,1830
"Zakaz - Metro UA",UA,743,13510,3,3,26198,0,8,2062,10,1,2107
"Esselunga A Casa IT",IT,731,16331,2,600,51139,17084,17,2660,465,730,3911
"Walmart MX",MX,731,24163,17,185,100274,3487,115,21149,217,406,21952
"Masxmenos CR",CR,730,15297,0,0,38608,0,47,2395,7715,1,10189
"Walmart CR",CR,730,16414,0,287,206668,5151,41,6236,367,177,7001
"Sklavenitis GR",GR,728,10031,24,308,30075,4887,251,2465,383,595,3736
"Bringmeister DE",DE,722,15364,65,399,42095,4356,16,412,180,144,801
"Lunys SK",SK,722,5420,81,181,18998,0,493,1030,132,2,1671
"Apteka Gemini",PL,718,26593,938,1503,95083,69228,26,3642,915,850,5572
"Rimi LV",LV,718,16350,10,102,48091,5442,16,1516,226,206,1994
"Sezamo RO",RO,705,10223,195,195,41184,0,329,1015,258,1,1621
"Intervare DK",DK,698,8700,7912,7922,25296,0,22,322,4368,226,4994
"Tesco CZ",CZ,688,16976,32,1403,567106,24116,12,14374,1156,6492,22347
"Rossmann DE",DE,685,16555,35,392,57735,437,970,1659,380,21,3087
"Poiesz NL",NL,665,7487,1,54,9667,967,22,553,4920,44,5556
"DM SK",SK,664,12430,37,94,35578,6048,10,1232,68,258,1608
Amazon,PL,659,1010,4988,4991,1287304,29838,0,0,0,2042,2042
"Hoogvliet NL",NL,655,8697,42,186,14146,2378,25,833,193,140,1209
"Apteka Rosa",PL,648,9892,31,199,43119,4092,19,3070,183,273,3620
"DOZ.pl",PL,648,19322,15,1679,80016,62761,453,3381,1062,2265,7256
"Crai Spesa Online",IT,647,390,1,390,26630,7048,406,998,830,839,3085
"E.Leclerc Bielany",PL,644,33020,86,2545,104284,26969,108,3750,1190,19444,24630
"Rossman HU",HU,641,15028,32,1186,54244,7831,567,751,1931,171,3476
"Tesco HU",HU,637,14947,24,2276,1004986,9897,9,29130,2437,3611,35703
"Tesco SK",SK,635,16464,6,173,236285,210,9,5686,152,40,6012
"Yandex Lavka RU",RU,625,3717,17,196,11486,1484,271,2406,1126,242,4053
"Lopido CO",CO,617,20472,53,150,36551,811,41,1353,769,26,2239
Apteline,PL,613,1011,20,1011,24420,2004,642,1110,834,456,3086
"Colruyt BE",BE,612,2673,3,97,27492,13818,20,0,758,1956,2815
"Pingvinpatika HU",HU,610,7698,8,334,42003,2842,7,5334,528,333,6219
"Vasalekaren SK",SK,608,10502,7,153,69470,3960,1032,7219,274,518,9072
"Benu CZ",CZ,607,13858,33,541,62089,5933,10,6965,438,67,7511
"Perfumeria Douglas",PL,603,5582,549,5582,210749,59495,264,2416,3404,88,6295
"Apteka Galen",PL,599,8909,12,791,21948,4297,17,2601,3688,1583,7927
"Thanopoulos GR",GR,596,16071,50,344,53495,6555,14,3041,360,480,3948
"Plus NL",NL,585,0,0,0,32477,0,74,49722,0,0,49796
"Willys SE",SE,581,10960,10,484,36015,7581,13,355,230,233,867
"Glovo Express Milano IT",IT,577,3623,13,3623,10920,3905,6,270,105,91,479
"DM HU",HU,576,13030,9,902,35323,9924,8,1239,823,331,2434
"Sams MX",MX,575,5350,24,70,38166,690,27,4172,112,215,4552
"E.Leclerc Wroclaw",PL,573,15546,67,1288,15928,12456,504,1918,2026,5076,9585
"Zakaz - Metro MD",MD,569,9908,5,24,16745,0,11,1101,287,1,1425
"Carrefour EG",EG,568,0,526,9176,1551,0,16,2642,47139,0,49797
"Dr Max",PL,567,18144,11,1005,61476,33852,239,2644,2361,820,6140
Lek24,PL,566,6565,2,95,23532,4528,13,1266,65,222,1615
"Kritikos GR",GR,565,7767,9,225,22114,3082,14,302,102,7752,8203
Spar,PL,564,25136,1750,1953,670433,77535,17,11913,969,2259,15837
"Spar HU",HU,558,16239,521,2095,376096,14387,10,7794,3960,516,12472
"E.Leclerc Rzeszów",PL,554,12706,27,1576,38169,26981,38,873,784,992,2785
"City Gross SE",SE,551,12082,12,553,25617,9227,14,313,263,382,1005
"DM CZ",CZ,549,13316,32,835,36430,33930,8,1227,743,1081,3091
"Pão de Açucar BR",BR,548,28586,128,489,71967,1613,31,6434,1577,313,8412
"AB GR",GR,547,11458,23,597,34159,9383,11,1407,278,318,2062
"Jumbo CL",CL,545,22374,139,1224,561404,2992,35,8483,1888,224,11015
"Freshful RO",RO,544,18724,107,283,38293,1082,6,943,135,40,1155
"Carrefour ES",ES,536,15329,23,343,17882,736,13,765,812,41,1658
"MyMarket GR",GR,531,14307,131,319,51337,7574,10,2275,451,434,3221
"Drogeria Olmed",PL,526,640,418,640,152749,26963,21,13664,571,2236,16623
"Clube Extra BR",BR,523,9103,16,231,14233,1360,24,736,119,63,977
"Plazavea PE",PE,518,28485,239,510,196889,3812,28,4825,240,226,5489
eKobieca,PL,518,10770,98,345,44976,14349,17,1899,371,1042,3438
Rossmann,PL,512,1150,11,1150,81943,32504,19,929,1693,772,3554
"Apteka Zawiszy",PL,507,21223,333,1221,82851,26004,347,1343,959,537,3386
"Hemkop SE",SE,502,10404,5,480,32450,7481,10,307,219,263,831
"Interspar AT",AT,501,22326,2,222,270813,6530,14,2642,296,152,3387
"Benulekaren SK",SK,498,9386,33,508,45853,7080,9,3786,319,145,4284
"Dr Max Drogeria",PL,493,18616,11,1001,63970,36566,18,2838,1347,885,5207
"Metro RU",RU,493,20453,92,410,24117,1418,10,2531,859,102,3545
Intermarche,PL,491,19122,15,2396,141673,10811,17,3578,1147,1050,6062
"Mega Image RO",RO,481,12574,0,377,37622,10096,4,721,174,226,1155
"Famila a casa IT",IT,480,12729,20,248,28091,6607,919,1607,487,368,3403
"E.Leclerc Radom",PL,472,12948,9,1285,40445,10902,89,2597,660,3071,6479
"Apteka Olmed",PL,464,1211,577,1211,161655,23993,25,13948,897,2014,17015
Ceneo,PL,464,204041,2196,14166,269872,47199,852,3015,11801,244,16271
"Basko IT",IT,463,8577,61,409,26204,1573,6,267,680,47,1019
"Ecofamily HU",HU,463,7394,1,704,24634,4217,8,2546,4721,613,7905
"GPSfarma AR",AR,460,7112,36,986,27184,17635,29,2508,606,1122,4289
Aptelia,PL,459,869,6,869,72793,17167,241,2424,471,563,3768
"Dr Max RO",RO,457,11244,95,567,35721,9124,215,1739,563,286,2829
"Carulla CO",CO,453,11059,14,301,63132,878,42,1847,195,53,2234
"Patika24 HU",HU,452,4243,7,222,8261,3216,11,887,669,167,1741
"MegaMarket RO",RO,447,5185,0,9,6278,559,6,1251,15,184,1466
"eTabletka SK",SK,443,11873,0,137,81463,6864,255,3008,162,92,3562
"Elefant RO",RO,437,783,803,803,73239,2441,13,2579,649,119,3392
"E.Leclerc Lublin Turystyczna",PL,433,11188,20,1286,14040,11987,16,427,1327,1823,3663
"Unimarc CL",CL,433,9730,13,919,29171,2476,19,730,3449,228,4450
"Cornershop - Lider CL",CL,432,18183,1,1064,125115,2514,34,993,463,214,1919
"E.Leclerc Katowice",PL,417,9247,19,1348,9792,11321,95,427,906,1577,3068
"Kruidvat NL",NL,415,9212,93,268,27091,1791,241,1023,351,129,1775
"iFresh SK",SK,415,7397,174,174,171149,0,10,4634,259,1,5004
"Glovo Biedronka Warszawa",PL,413,3239,112,3239,6369,1625,8,189,154,77,454
"Farmacia Tei RO",RO,412,289,289,289,26284,3360,5,668,154,154,995
"Ica New Version SE",SE,410,7744,6912,6938,166530,6231,10,2605,3145,226,6107
"Teta Drogerie CZ",CZ,404,8965,6,558,26084,6876,17,779,650,174,1651
"OnlinePrima HU",HU,399,7984,1,1338,24358,7393,8,675,1039,402,2145
"Talabat Mart EG",EG,396,4144,0,0,22826,0,11,1807,557,13,2419
"Apteki 36.6 BG",BG,395,10392,33,181,49637,1355,12,1420,91,86,1653
"Unimarkt AT",AT,391,3497,33,370,16510,3362,154,389,227,225,1014
Stokrotka,PL,389,7791,7,332,168094,26367,29,2931,183,865,4332
"Carrefour IT",IT,387,14938,244,908,40857,4617,241,1176,466,342,2260
"Drogas La Rebaja CO",CO,385,6727,4,1461,35930,2784,43,4851,2996,124,8045
"Świat Leku",PL,385,11617,3,331,37644,2697,180,1421,317,272,2275
"Cruz Verde CO",CO,381,4623,26,2382,18706,1877,40,1913,1102,44,3115
"Ica SE",SE,380,11570,4,667,725408,12857,11,23155,334,220,24243
"DrankDozijn BE",BE,379,3708,6,92,15120,2297,13,696,150,479,1354
"DrankDozijn NL",NL,379,3707,6,95,15117,299,13,656,150,20,857
"Billa AT",AT,376,9804,117,328,32049,6974,13,902,948,330,2228
"Glovo Biedronka Express Warszawa",PL,375,1511,25,1510,3314,562,11,174,79,45,327
"Ulabox ES",ES,375,5923,3,69,13899,0,3,225,37,1,278
"Bebe Tei RO",RO,372,226,49,226,28533,1580,6,767,118,79,984
"Glovo Kaufland RO",RO,372,9101,1,9101,17147,0,3,183,80,1,282
"Soriana MX",MX,371,14468,97,2884,29347,1919,24,4474,16654,637,21814
"Walmart GT",GT,371,10643,0,305,181160,4480,37,5405,372,154,6118
"Justo MX",MX,369,4317,9,20,12961,0,25,794,13,0,847
"Gall & Gall NL",NL,365,2960,42,109,15247,64,13,0,912,27,982
"Feedo CZ",CZ,362,133,55,133,54013,447,160,1117,118,23,1481
"Globus RU",RU,357,18678,246,417,62201,304,6,1908,262,17,2244
"Apteka Prima 24",PL,355,4410,0,158,19119,1333,8,378,136,131,710
"Dia AR",AR,354,5829,290,709,17036,9752,23,1236,1261,310,2849
"E.Leclerc Lublin Tomasza Zana",PL,350,11331,18,1530,14341,10533,9,480,1292,1051,2887
"Sipo HU",HU,349,5499,71,511,13056,1469,6,889,369,104,1393
"Mas Online AR",AR,343,10529,10,726,34495,7494,25,3626,982,327,5009
"E.Leclerc Elblag",PL,339,9840,6,1007,27289,14837,50,1636,1321,3288,6377
"Jumbo AR",AR,339,13601,47,824,53960,8004,22,2557,437,410,3491
"Rossmann App CZ",CZ,337,10896,13,267,35199,0,9,2984,127,1,3149
Allecco,PL,336,13429,21,723,43706,14004,21,681,471,264,1551
"Cornershop - Metro PE",PE,336,15798,0,222,48559,3543,17,457,193,291,1026
"Bringo RO",RO,335,33058,204,27881,81563,7255,22,3056,1281,871,5315
Carrefour,PL,335,15466,65,2718,130570,32489,173,1951,1842,1790,5950
"Cornershop - Santa Isabel CL",CL,333,7119,4,572,8697,1749,25,926,1319,199,2494
"Roastmarket DE",DE,333,60,1,60,29055,367,25,432,240,16,733
"Cornershop - Wong PE",PE,329,17491,3,776,51209,3228,20,490,765,374,1729
"Lisek App",PL,323,2190,22,299,3162,2294,8,12,144,354,540
"Alfies App AT",AT,320,3726,3726,3726,11914,0,40,168,1568,1,1785
"Gastronom BG",BG,311,7702,26,198,23620,866,7,454,150,201,853
Empik,PL,304,223834,17243,44463,560500,32226,90,18037,5288,259,24149
Makeup,PL,302,4240,650,4240,463412,99672,8,14416,9967,1144,25814
"Bipa AT",AT,301,12255,12,81,26339,591,18,440,138,25,672
DoDomku,PL,299,5756,139,648,16850,2838,45,309,353,380,1102
"Amazon NL",NL,298,0,0,0,131604,0,0,0,0,21,119
"Cora RO",RO,298,53543,34,434,109323,5701,5,4389,425,1088,6007
"Mall SK",SK,298,2721,76,2721,30931,765,293,736,5313,862,7234
"SOpharmacy BG",BG,294,10525,11,160,33440,6298,418,1067,194,549,2262
"Tudrogueria Virtual CO",CO,292,8775,23,3694,16755,1023,38,355,1704,44,2173
"Mercado Libre AR",AR,291,36867,580,6351,74294,1134,192,845,13682,121,14942
"Apteka Nove BG",BG,289,10035,8,197,35399,5187,10,1979,551,329,2908
"Farmacia la Pret Mic RO",RO,286,8349,20,282,26130,5942,22,2082,475,779,3376
"Apteka Medea BG",BG,284,8961,33,192,26659,0,10,1055,136,2,1237
"Sephora US",US,283,289,274,289,128595,0,24,1128,214,1,1454
"E.Leclerc Tychy",PL,282,8957,10,1118,9301,11156,58,345,707,1606,2757
"Mercado Libre MX",MX,277,28320,298,2335,63082,2549,789,853,679,302,2710
"Mpreis AT",AT,276,8243,2,128,26699,4711,2235,772,144,105,3287
"Konzum HR",HR,275,10753,21,199,17017,3504,326,2434,612,438,3831
"i-apteka",PL,275,10385,24,494,22382,9991,10,510,525,940,2034
"Dunnes IE",IE,273,14281,61,930,29142,13030,3,754,1217,506,2522
"Groby HU",HU,271,8113,13,560,21555,4408,7,1086,532,352,2000
"Farmacia Pasteur CO",CO,265,8962,3,3349,57474,1176,3,1670,2979,47,4743
"PriceSmart CR",CR,264,3140,1,32,47100,3185,25,9783,33,716,10599
"E.Leclerc Gliwice",PL,260,8135,18,814,22196,7686,36,1394,854,2685,5043
"Apteka Medkon",PL,259,8733,483,483,35690,6827,14,4550,1030,2475,8111
Wapteka,PL,258,19302,1158,1450,66049,47708,9,4119,786,817,5817
"La Comer MX",MX,256,105,1,105,22308,3804,32,141,134,63,396
"Benu HU",HU,255,5007,0,350,16034,2773,1,2644,516,457,3627
"Chedraui MX",MX,251,17698,879,1022,36098,2437,18,1726,463,123,2374
"Supermarket AM",AM,249,6772,10,97,16725,389,5,1024,225,143,1411
"Edeka DE",DE,248,3714,67,109,4920,110,15,280,110,207,626
"Yandex Market RU",RU,247,52523,2857,5403,67012,154,18,4681,17091,138,22022
"Helpnet RO",RO,245,6766,23,262,19043,5162,5,1946,244,401,2610
"Szybki Koszyk",PL,243,4257,4,126,14644,638,118,627,63,43,884
"Auchan FR",FR,241,2712,34,178,8828,1665,455,742,245,346,1804
"Olimpica CO",CO,241,11073,40,482,52884,2814,39,2168,1329,160,3780
"Farmatodo CO",CO,238,14071,97,3659,62805,3292,8,869,6242,71,7253
"Mercado Livre BR",BR,238,72770,847,8274,705679,2720,513,9356,4954,265,15723
"Merqueo - Bogota CO",CO,238,2252,4,162,5491,2768,31,223,90,119,473
"Panda Market HU",HU,238,2572,1,232,6220,1373,5,249,112,145,516
"Afya Pharmacy BG",BG,235,10766,7,171,36133,2001,7,2541,232,308,3117
"Delitea SE",SE,235,9302,38,411,23902,5589,7,201,194,83,513
"Getir IT",IT,235,2088,1,99,6072,8044,5,119,50,113,292
"Перекрёсток Впрок RU",RU,235,0,0,0,0,1572,4,448,0,42,494
"Metroiroda HU",HU,231,3440,11,256,6867,1254,4,599,439,117,1164
"Carrefour BR",BR,230,9179,1,106,45299,1580,25,7174,202,161,7621
"Igooods RU",RU,227,18001,18,316,39023,544,4,312,265,31,657
Cocolita,PL,221,12536,68,878,53141,16590,12,2103,1843,1483,5526
"Rappi - Exito CO",CO,221,8389,226,519,24521,4662,157,3761,2098,385,6444
"Pyaterochka App RU",RU,218,5862,10,248,15518,1279,3,242,119,16,402
"Rappi - Carulla CO",CO,217,6992,175,407,20205,4169,94,3784,1892,395,6193
"Superpharm Apteka",PL,214,616,34,616,31211,26741,5,848,1468,389,2794
"MaxiCoffee FR",FR,211,4514,13,149,11481,1445,354,734,510,286,1893
"Subra BG",BG,211,8949,13,181,21038,4956,11,384,94,491,1020
"Exito CO",CO,209,9550,34,641,38481,1452,154,3067,1261,133,4707
"Minifarm RO",RO,203,5128,3,120,13412,0,5,502,66,1,586
"Merqueo - Medellin CO",CO,201,1959,1,121,4824,2541,17,199,64,120,407
"Emag HU",HU,199,132666,1359,3347,132707,7245,6,867,1236,61,2412
"Mano NG",NG,195,1778,23,29,3655,184,14,13,14,11,55
"Farmacia Dav RO",RO,193,5825,35,145,15551,1438,7,275,116,64,479
"Vodovoz RU",RU,189,1092,4,19,2239,0,3,332,34,1,373
"Rappi - Carulla Express CO",CO,188,5758,244,544,12897,1176,85,2113,2165,159,4546
"Rappi Lider CL",CL,187,7326,194,518,26231,3084,74,3236,1049,267,4661
"Deliberry - Caprabo ES",ES,184,8543,0,0,9657,0,15,630,46,1,703
"Rappi Jumbo CL",CL,184,9397,173,435,30372,3161,68,3264,917,268,4566
"Deliberry - Solri ES",ES,178,9124,0,0,10235,0,12,624,38,2,687
"Rappi Unimarc CL",CL,176,7222,313,698,9242,3666,70,1788,1974,268,4120
"Deliberry - Mercadona Barcelona ES",ES,175,5718,0,0,6855,0,16,602,1280,1,1908
"Tiendas Jumbo CO",CO,175,16696,17,704,66380,2856,37,1521,1097,105,2867
"Deliberry - Mercadona Madrid ES",ES,173,5651,0,0,6764,0,12,576,1330,1,1928
"Glovo Bargains Supermarket Lagos NG",NG,173,1068,129,1068,1943,130,1,76,41,11,132
"PennyDomu CZ",CZ,173,1525,0,2,4349,0,79,205,2,1,292
"Linella MD",MD,172,6960,17,128,12817,0,12,469,105,1,611
"Rappi - Exito Express CO",CO,167,6828,298,437,15034,1032,125,2799,2957,162,6062
"Rappi Turbo CL",CL,165,694,22,35,2034,867,129,1263,140,116,1655
"Everli - Coop IT",IT,163,12568,1,495,13764,7581,49,853,540,661,2118
"Deliberry - Supercor ES",ES,161,4086,0,0,5010,0,12,534,13,1,565
"Professional Farmaline RO",RO,155,8311,5,237,17668,5364,5,519,147,106,793
"Dirck3 NL",NL,151,549,1,27,2577,144,10,111,14,7,147
"Rappi Coto AR",AR,151,0,0,0,0,1974,79,808,0,174,1061
"Rappi Carrefour AR",AR,150,3662,265,422,4478,2273,78,500,1767,171,2527
"Rappi - Pricesmart CO",CO,149,1378,13,24,3581,3041,63,1146,197,350,1764
"Deliberry - Dia ES",ES,143,4171,0,0,5032,0,14,499,2,1,522
"Deliberry - La Plaza ES",ES,143,4250,0,0,5109,0,11,500,75,1,591
"Nazuby CZ",CZ,142,1732,0,71,6142,160,15,187,66,15,288
"Medexpressz HU",HU,139,1351,0,72,2861,0,7,285,49,33,380
"Rappi Turbo CO",CO,136,2073,273,357,7220,2258,83,2206,2824,364,5485
"Rappi Turbo PE",PE,135,1130,5,44,3208,3428,128,1057,293,478,1961
"Superxtra PA",PA,135,6477,0,0,13685,0,68,70,4,0,174
"Alkohol CZ",CZ,131,3694,1,31,10209,0,18,1101,26,0,1154
"Extra BR",BR,129,82283,1653,2334,82283,1014,70,1702,728,39,2674
"Rappi Turbo AR",AR,125,978,24,50,3270,1612,132,652,140,172,1106
"Condis ES",ES,121,6754,3,6,7138,0,2,1653,270,1,1937
"Cora Drive BE",BE,121,0,0,0,92782,0,10,0,0,0,10
"Rappi Farmacity AR",AR,114,4651,227,411,12494,2091,93,1471,1046,171,2799
"Amazon Fresh DE",DE,112,8755,443,446,13935,6510,67,703,358,136,1291
"Mercado Libre CL",CL,108,46584,1903,2557,74862,2176,124,735,1236,164,2385
"E-tinex MK",MK,107,4247,5,69,8494,405,3,72,34,26,143
"Savage & Whitten IE",IE,101,3703,0,150,7406,941,9,376,75,81,546
"Vitania BG",BG,98,7310,24,173,7310,4305,4,348,105,215,695
"Everli - Kaufland",PL,94,20143,892,1376,48258,26044,54,3598,3156,2480,9381
"Farmacity AR",AR,94,337,4,337,5414,7780,16,248,156,498,925
"Tiendas D1 CO",CO,91,1075,2,18,2223,0,18,96,11,5,141
"Everli - Lidl",PL,90,2420,400,421,17431,7915,63,1833,1638,951,4543
"Everli Netto",PL,90,1735,274,313,13602,0,58,1536,825,2,2475
"Kaufland DE",DE,90,30906,155,384,38830,696,67,753,295,37,1218
"PriceSmart GT",GT,90,1697,3,22,15007,1978,18,2474,20,442,2969
"PriceSmart PA",PA,90,1771,0,30,20544,806,10,3645,25,251,3950
"Koffievoordeel NL",NL,87,478,1,54,2829,1237,11,396,75,30,518
"Kaffedeal DK",DK,86,370,1,33,941,865,10,61,18,34,124
"Brack CH",CH,81,8482,9,113,20952,2107,79,330,154,185,793
"Okey RU",RU,81,13891,6123,6265,14031,1414,13,396,17149,88,17674
"Comfandi Supermercados CO",CO,72,4570,4,40,9215,775,35,835,74,127,1086
"Carrefour FR",FR,71,22852,637,1082,33386,2481,8,1331,1621,201,3221
"Durst DE",DE,69,1102,68,1102,1169,0,9,53,38,4,115
"Media Markt DE",DE,69,0,0,0,0,0,0,0,0,0,0
"Droguerias Cafam CO",CO,68,4233,1122,2815,10879,2239,32,725,5906,110,6786
"Emag RO",RO,64,60288,267,1448,60293,8077,5,1253,2020,222,3572
"Rozetka UA",UA,62,82385,1175,8199,102234,0,86,5144,2219,1,7685
"Kaffekapslen DK",DK,58,713,7,72,1686,1319,72,78,71,54,277
"PedidosYa DIA AR",AR,58,2020,4,262,2029,4116,14,75,118,204,417
"Rappi Cruz Verde CL",CL,58,1189,111,262,2313,3529,53,826,512,269,1669
"Saturn DE",DE,57,1077,5,40,2321,387,372,1918,218,2383,4898
"Comfandi Droguerias CO",CO,56,4545,113,1530,9127,717,15,930,4759,349,6064
"iDrinks HU",HU,54,5809,184,198,12711,252,6,1549,260,62,1888
"Kapselkongen DK",DK,52,241,2,52,482,637,29,55,26,33,143
"Leclerc FR",FR,52,1905,1,231,22024,2353,6,351,335,78,791
"Bigshop MK",MK,51,1021,4,76,3811,591,133,266,121,136,658
"Winelivery IT",IT,46,1245,2,16,2746,0,5,194,12,2,215
"PedidosYa Carrefour AR",AR,45,3787,0,292,3787,6715,12,87,131,205,446
"Altex RO",RO,40,2123,10,78,4063,1063,4,222,164,138,532
"El Corte Ingles ES",ES,39,6512,20,307,8255,1286,74,553,3889,154,4687
"Alerzo NG",NG,37,33,1,1,73,22,1,25,4,15,45
"BilkaToGo DK",DK,37,11294,27,208,61915,1816,22,144,182,39,532
"Bol NL",NL,37,313,197,326,24521,2782,30,1443,512,635,2644
"Datart CZ",CZ,37,1024,8,20,1406,1349,9,148,21,49,232
"Ep DE",DE,34,239,0,1,762,0,73,129,4,1,211
"Jumia EG",EG,34,2261,14,108,4145,11,29,119,57,22,234
"Galaxus CH",CH,33,9219,0,0,9219,1322,18,1949,8330,1403,11726
"Intermarche FR",FR,32,1879,4,350,12617,622,9,2402,2931,1813,7183
"Vea Digital AR ",AR,32,653,1,102,2414,7984,130,363,1242,404,2148
"Kesko FI",FI,31,4140,0,0,62810,8231,853,1132,0,945,2990
"Shoplink IE",IE,20,164,0,137,492,1923,26,40,86,110,263
"Boulanger FR",FR,17,1051,5,54,2417,491,17,124,177,131,452
"Euronics DE",DE,15,9349,61,321,36984,0,37,1470,40562,1,42110
"Qvc US",US,14,14263,20,70,15828,0,31,182,372,1,621
"BCC NL",NL,10,1748,17,38,2306,655,13,140,43,60,263
"Wildberries RU",RU,10,60204,2676,3825,62197,1612,10,172,2146,52,2614
"Mediaworld IT",IT,9,230,1,34,464,584,43,241,135,618,1038
"Unieuro IT",IT,6,1606,16,44,2030,1171,3,16,29,45,96
"Barrys Beacon IE",IE,4,160,6,130,160,403,7,20,66,71,165
" SberMarket - Lenta RU",RU,0,0,0,0,0,0,2476,1,0,2327,4804
Allegro,PL,0,2309,3,2309,0,0,0,0,8420,0,8420
"Auchan RO",RO,0,0,0,0,0,0,9,11,1,2521,2542
"Azbuka Vkusa RU",RU,0,0,0,0,0,0,124,12,10,628,775
"Carrefour AR",AR,0,0,0,0,0,2114,242,3,1,296,542
"Chronodrive FR",FR,0,0,0,0,0,0,4,6,2,239,251
"Cornershop - Jumbo CL",CL,0,0,0,0,0,2646,5,90,10,266,396
"Coursesu FR",FR,0,0,0,0,0,1195,48,2,2,637,690
"Disco AR",AR,0,0,0,0,0,9197,71,9,3,413,505
"Easy CL",CL,0,0,0,0,0,0,3,117,1,10,131
"Easy Coop IT",IT,0,0,0,0,0,10284,9,5,0,1945,1960
"Heb MX",MX,0,0,0,0,0,0,6,36,2,31,75
"Lider CL",CL,0,0,0,0,0,2114,13,124,1,269,407
"Linio CL",CL,0,0,0,0,0,0,4,122,1,2,130
Makro,PL,0,0,0,0,0,0,4,0,3,945,953
"Mall CZ",CZ,0,0,0,0,0,0,4,49,27,2211,2301
"Metro Delivery RU",RU,0,0,0,0,0,0,2139,8,0,2320,4467
"Ozon RU",RU,0,0,0,0,0,1522,36,81,36,181,334
"Picnic NL",NL,0,0,0,0,0,0,12,23,1,984,1026
"Samokat RU",RU,0,0,0,0,0,0,32,32,0,33,97
"SberMarket - Metro RU",RU,0,0,0,0,0,0,2472,4,0,1,2477
"Sodimac CL",CL,0,0,0,0,0,0,30,113,0,3,146
"Wong PE",PE,0,0,0,0,0,0,2,33,1,79,115
"e-Dostavka BY",BY,0,0,0,0,0,0,3,1,0,222,226
"Утконос RU",RU,0,0,0,0,0,0,17,2,1,90,110
