﻿Site,Country,Categories,Prices,"Products changed","Products downloads",Relations,Search,"Categories time","Prices time","Products time","Search time","Total time"
"Ocado UK",UK,6552,48437,43,2361,459280,39674,1350,11491,2069,1901,17295
frisco,PL,4707,2178,14,2178,316119,97634,117,5778,4589,1082,11899
"Mytime DE",DE,4605,11264,6,126,99416,2991,2104,2787,75,169,5182
"Asda UK",UK,3486,29314,17,2076,1015401,50438,38,10588,1226,1116,13860
"Albert Heijn NL",NL,3461,21614,119,339,105855,4369,463,1577,48,80,2271
"Makro CZ",CZ,3428,7335,35,7358,707170,421,3288,24234,5808,117,34110
"Morrisons UK",UK,3128,21051,259,2029,95472,31191,605,5388,1735,2064,9908
"Waitrose UK",UK,3084,16170,14,1052,1530363,31980,115,22907,422,816,25787
"Metro SK",SK,3034,6139,0,7,271697,0,2902,23719,34,1,26766
"Rohlik CZ",CZ,2975,23931,78,1000,222457,24486,2018,3723,632,848,7367
"Albert Heijn BE",BE,2874,10122,13,98,50561,6377,555,1358,21,123,2107
"Notino SK",SK,2705,6559,213,6559,118178,166,1226,6709,5906,15,14035
"Kosik CZ",CZ,2685,17088,44,880,98364,34342,475,1750,422,1478,4193
"Galen BG",BG,2675,14017,3,170,97966,4931,1414,2446,86,114,4132
"Coto Digital AR",AR,2621,17971,305,1234,111723,1196,2157,4859,976,48,8093
Auchan,PL,2563,16832,3,1332,513744,26613,83,17094,931,3908,22497
"Pilulka SK",SK,2503,39865,534,835,247435,11340,51,3576,437,272,4500
"Drogeo CZ",CZ,2485,599,18,599,130701,42694,48,2488,327,884,3832
"Amazon Fresh UK",UK,2438,9546,779,781,53950,18081,979,12911,421,406,14798
"Samokat RU",RU,2424,5103,788,3531,59070,140,15,48,112,18,266
"Notino CZ",CZ,2363,1491,50,1491,58102,70559,1063,7296,1235,1368,11173
"Pilulka CZ",CZ,2286,30676,8652,9424,162297,34252,46,2966,6695,869,10675
"Sainsburys UK",UK,2260,30153,8,2322,1799433,83336,232,28105,1869,1821,33943
"Amazon UK",UK,2212,1986,1983,1988,1465083,35504,0,0,0,14644,14644
"Amazon Fresh IT",IT,2017,7638,738,740,37080,3066,3844,2023,1772,206,7866
"Drogerie Natura",PL,1992,15634,11,815,86843,49209,83,4516,1258,4235,10298
"Boots UK",UK,1988,25502,1540,12060,145662,7789,36,3956,20929,287,25521
"Jumbo NL",NL,1974,18423,92,466,74114,4212,1312,1984,453,119,3929
"Auchan HU",HU,1906,29359,222,29358,240029,10280,52,4949,15047,548,20719
"Brakes UK",UK,1895,9546,0,205,28680,30792,858,1808,95,315,3118
"Cefarm 24",PL,1662,13738,10,850,100312,15101,2229,4026,1266,5461,13090
"Yuga RO",RO,1651,8272,1,51,41081,1265,1987,4187,2895,136,9236
"Otto DE",DE,1613,166,79,173,68004,181,745,997,566,17,2359
"Delhaize BE",BE,1605,14185,25,578,59925,16963,27,2124,382,579,3171
"Alza CZ",CZ,1530,28833,1374,27739,108281,29181,252,1860,5708,1367,9267
eZebra,PL,1375,42491,81,42838,150472,37068,52,6453,2850,13489,23220
"Alza SK",SK,1361,13557,554,13715,58133,3795,173,499,301,752,1790
"Apteka Nowa Farmacja",PL,1338,15558,60,890,80938,22621,9691,3269,1000,1907,15942
"Tesco UK",UK,1321,28147,5,2578,345996,23478,21,10099,1143,8131,19799
"Remedium BG",BG,1320,26402,111,421,88486,1529,389,8529,771,184,9931
"Coop CH",CH,1313,18451,4,111,68798,2130,290,1735,168,146,2384
"Picnic NL",NL,1310,7061,12,91,16222,2239,588,1057,52,78,1795
"Kifli HU",HU,1283,14118,47,1680,58009,10251,597,616,778,375,2435
"Barbora EE",EE,1267,14057,183,203,48585,1342,29,1373,95,77,1604
"Rewe DE",DE,1244,9700,13,329,35654,3305,20,1370,383,380,2189
"E-Fresh GR",GR,1215,12475,50,844,60929,6642,2312,4220,1749,660,8980
"Barbora LT",LT,1208,17103,123,123,57916,1359,37,1735,67,77,1951
"S-kaupat FI",FI,1169,42434,66,340,324738,6366,3,2841,308,112,3445
"Moja Lekaren SK",SK,1167,24192,38,418,131972,4680,697,3795,242,189,5005
"Lekarna CZ",CZ,1160,28661,25,643,126946,5076,684,3689,362,193,5029
"Barbora LV",LV,1152,13659,276,276,47353,1294,96,2864,137,97,3226
Hebe,PL,1114,1202,877,1202,160388,36952,1310,4574,1657,1044,8795
"Albert App CZ",CZ,1076,8163,0,27,59322,982,521,1908,18,33,2528
"Eroski ES",ES,1050,25496,0,107,53428,574,14,3781,101,44,3974
"Mathem SE",SE,1045,12288,4,613,33719,7468,13,1110,876,530,2555
"Amazon DE",DE,1043,170,170,170,565203,13443,0,0,0,2968,2968
"Picnic DE",DE,1036,7162,2,156,14410,1858,481,892,70,165,1620
"Knuspr DE",DE,1024,11607,53,256,47840,1523,517,479,119,152,1305
"Amazon IT",IT,1015,539,539,539,556800,6722,0,0,0,896,896
"Coop NL",NL,1011,16666,3,99,71669,1184,1900,2363,255,76,4662
"Auchan RO",RO,1006,25012,29,642,428451,7763,15,5042,512,493,6414
"Salcobrand CL",CL,1000,6458,0,0,28219,1014,270,625,4625,15,5558
"Zakaz - Novus UA",UA,1000,17778,83,2748,37902,0,6,1998,1416,0,3464
"Dr Max SK",SK,993,22913,17,588,96234,7115,716,5779,746,412,7728
Bee,PL,986,52909,89,421,188586,9521,460,4034,219,231,5339
Selgros,PL,973,21563,1089,1237,75042,28506,443,1422,579,1577,4219
"Carrefour BE",BE,962,19355,22,589,274779,20484,923,14369,401,6285,22127
"Coop SE",SE,927,10068,7,491,34570,8014,13,919,234,212,1404
"Coop Shop IT",IT,924,9940,2,330,29861,5741,11,641,224,371,1280
"Unipatika HU",HU,871,4379,6,302,31076,4679,559,1213,168,272,2238
"Pilulka RO",RO,865,10593,45,129,45185,3441,7,432,81,84,653
"Magnit App RU",RU,861,4081,34,218,11274,0,6,1530,166,1,1715
"Musgrave IE",IE,846,10046,9713,9713,33037,0,28,5706,29892,0,35626
"SuperValu IE",IE,840,16257,10,1128,221460,10323,871,16669,1270,530,19605
"Tigros IT",IT,840,10037,1,558,30140,7125,10,479,321,244,1085
"Apteka Manada",PL,820,14606,207,2198,40069,34770,35,3292,5396,3725,12532
"Wong PE",PE,811,23568,38,355,145756,1835,22,8757,8737,79,17669
"Polski Koszyk",PL,789,22681,19,1018,72955,2030,30,929,601,66,1818
"Tesco IE",IE,783,17119,13,915,420240,4113,10,8489,378,762,10023
"Superpharm Drogeria",PL,772,730,19,730,103055,38195,23,2513,1988,444,5099
"Zakaz - Metro UA",UA,765,10271,6,114,20747,0,5,2496,96,1,2626
"Auchan RU",RU,764,25303,216,1607,80740,1385,6,1476,1121,31,2697
"Ebag BG",BG,762,11334,139,244,41669,1701,7,1379,163,29,1606
"eZiko Apteka",PL,762,7224,34,631,43186,12342,350,1838,667,855,3779
"Coop DK",DK,753,11119,200,286,77120,1185,349,3382,249,40,4089
"Dr Max CZ",CZ,753,20880,44,804,88147,7895,352,4707,750,453,6323
"Masxmenos CR",CR,730,8960,15,156,24509,0,28,2228,270,0,2540
"Walmart CR",CR,730,13756,47,455,175135,4936,25,8396,827,171,9509
"Sklavenitis GR",GR,729,10044,10,286,30125,4396,101,1241,140,251,1762
"Mall CZ",CZ,726,39784,1465,39780,106824,16304,580,778,28864,6820,37306
"Bringmeister DE",DE,720,16257,31,267,44048,4428,10,439,123,142,752
"Apteka Gemini",PL,718,26959,74,1436,94870,63522,33,5568,1152,791,7744
"Cruz Verde CL",CL,716,10015,0,4,143634,0,24,18218,10,1,18324
"Lunys SK",SK,712,5247,17,44,18663,0,615,1282,46,1,1959
"Intervare DK",DK,711,9139,9038,9139,26445,0,13,333,4170,111,4652
"Rimi EE",EE,707,12412,14,167,36423,3720,6,696,166,100,989
"Rimi LV",LV,706,15010,3,78,44212,5352,12,748,80,104,976
"Gurkerl AT",AT,697,9672,47,228,35087,3359,355,327,105,117,931
"Walmart AR",AR,692,0,0,0,0,0,508,1161,1,0,1670
"Tesco CZ",CZ,686,17084,0,1246,569843,24235,12,11056,722,3345,15451
"Bennet IT",IT,678,19200,11,561,38738,15076,8,1062,1269,807,3181
"DM SK",SK,658,12678,33,422,36102,2175,11,1339,191,104,1684
Barbora,PL,657,9250,832,832,113698,7812,37,3598,479,887,5195
"Rossmann DE",DE,657,15609,35,240,54003,454,538,1047,219,18,1861
"Tesco SK",SK,657,16649,5,68,244335,847,44,4802,55,115,5215
"Poiesz NL",NL,656,7878,0,10,10088,126,21,527,3051,10,3626
"Rimi LT",LT,654,14602,2,44,43857,3395,11,711,50,73,878
"Hoogvliet NL",NL,652,8837,27,101,14408,1873,16,773,110,103,1030
"Maxi RS",RS,652,7858,0,138,25865,6607,9,454,64,111,659
"DOZ.pl",PL,649,18913,35,1379,77189,55141,493,4305,1000,2277,8190
"Apteka Rosa",PL,648,10098,2,2,61739,0,31,4274,17,2,4370
"City Gross SE",SE,647,12772,9,531,28070,8902,8,392,253,374,1052
Amazon,PL,645,490389,15475,15482,965096,24562,567,12880,0,1818,15265
"Esselunga A Casa IT",IT,644,15292,114,728,45843,16637,15,5494,1694,1784,9023
"Rossman HU",HU,640,15158,3,970,55463,7624,651,778,1527,169,3185
"Crai Spesa Online",IT,638,612,3,651,25307,6648,330,936,1374,707,3361
"Tesco HU",HU,632,15495,0,2344,1067146,8801,14,19209,1271,1597,22679
"Mercator SI",SI,628,12678,4,172,38034,2277,301,279,80,80,773
"E.Leclerc Bielany",PL,625,31835,55,2737,101443,36354,121,4704,1258,22109,28354
Apteline,PL,618,1509,8,1509,83213,15827,434,1430,1530,500,4016
"Colruyt BE",BE,606,8001,0,244,94640,14773,19,15054,679,1845,17703
"Glovo Kaufland RO",RO,599,9126,84,9126,16506,0,5,291,127,1,446
"Thanopoulos GR",GR,598,16348,12,360,54528,9159,7,4872,439,689,6048
"Apteka Galen",PL,593,8646,5,1709,24275,3440,28,1911,3546,844,6397
"Pingvinpatika HU",HU,590,7563,10,424,40992,2840,12,5193,586,327,6141
"Willys SE",SE,588,10673,6,469,35349,6899,16,446,293,276,1056
"Benu CZ",CZ,586,14218,26,459,66355,5887,9,7560,510,71,8196
"Plus NL",NL,581,15906,223,226,30557,3810,63,3090,255,325,3788
"Vkusvill RU",RU,581,6394,50,146,22713,1401,177,3115,355,248,3915
"Bestway Best-one UK",UK,573,6483,11,96,21032,11996,309,375,66,311,1112
"Bestway UK",UK,573,8984,61,585,28965,28907,348,417,299,661,1766
"E.Leclerc Wroclaw",PL,570,16241,57,1380,16632,13406,488,1944,2145,5387,10040
"Dr Max",PL,567,13545,10,738,51055,24907,245,3149,747,1016,5247
"Bestway Foodservice UK",UK,564,10387,18,295,32988,3860,338,435,198,98,1109
"Spar HU",HU,563,15195,522,1928,348986,11500,50,8538,3663,453,12892
"Kritikos GR",GR,562,16664,13708,14046,47102,0,5,24,6136,6689,12886
"DM HU",HU,561,12481,17,1199,34074,9716,7,1217,535,331,2126
"Superdrug UK",UK,561,13098,13098,13098,41777,6717,14,492,9012,1083,10636
"AB GR",GR,558,11310,155,704,34552,7992,4,588,320,200,1143
Lek24,PL,558,5858,54,54,20973,0,22,1161,57,1,1288
"Yandex Lavka RU",RU,557,3263,19,412,9297,0,103,782,739,219,1854
"Vasalekaren SK",SK,556,10205,7,152,63271,3919,1179,8872,396,667,11142
"Apteka Melissa",PL,552,27220,126,1683,79494,60056,21,5699,1060,798,7723
"Chronodrive FR",FR,550,7846,209,709,14474,2126,15,492,508,145,1169
"Pão de Açucar BR",BR,548,22596,260,959,54844,0,20,2207,494,1,2756
"DM CZ",CZ,547,12423,33,1209,33950,32770,7,1190,540,1080,2855
"Jumbo CL",CL,546,21103,20,2405,529687,1376,22,7265,1709,91,9378
Spar,PL,546,24796,8000,19180,686865,76957,37,12297,5465,2120,20534
"Freshful RO",RO,542,19791,52,136,40421,361,6,911,66,15,1049
"MyMarket GR",GR,538,14610,146,328,51662,6994,5,1824,399,392,2658
"Univerexport RS",RS,536,9994,0,111,19988,1262,16,576,126,233,969
"E.Leclerc Rzeszów",PL,535,12271,36,1447,36179,26537,40,810,845,937,2751
"Carrefour ES",ES,533,14817,174,590,17862,406,29,924,1090,46,2114
"Drogeria Olmed",PL,522,489,42,489,146813,25836,26,12599,339,2424,15499
"Plazavea PE",PE,516,26046,13,225,189140,1839,19,4735,111,200,5176
Rossmann,PL,511,1168,0,1168,80353,31408,22,926,1554,695,3362
"Cold Storage SG",SG,506,9519,11,26,29640,0,579,2266,31,1,2883
"Apteka Zawiszy",PL,505,20206,45,988,79808,20618,247,1997,532,439,3377
"Hemkop SE",SE,503,10412,6,555,32606,7246,7,284,254,219,792
"Interspar AT",AT,499,21151,47,419,66668,6363,8,656,527,143,1381
"Benulekaren SK",SK,497,9176,38,416,47753,6792,7,3964,324,157,4487
"Metro RU",RU,497,20027,33,469,23841,1372,6,1976,491,76,2586
Intermarche,PL,495,18647,2,2495,161838,18961,13,4994,1206,1398,8019
"Idea RS",RS,486,12098,0,96,21005,6823,86,530,47,100,785
"Migros Online CH",CH,485,12289,2,61,38104,1354,22,1359,55,189,1654
"Spar SI",SI,485,16754,17,274,60115,2730,11,642,349,102,1150
"Mega Image RO",RO,483,12585,0,413,37670,9934,6,575,186,208,1023
"Dr Max Drogeria",PL,476,16691,204,532,44045,5602,201,2939,812,225,4271
"Famila a casa IT",IT,476,12242,13,363,28999,6418,824,1508,622,314,3292
"E.Leclerc Radom",PL,472,13422,1,1210,42332,10859,108,2978,1142,2265,6578
"e-Dostavka BY",BY,472,34313,185,697,94335,2078,4,10224,352,162,10807
"Apteka Olmed",PL,463,1085,55,1085,159050,20515,22,12895,672,1998,15706
Ceneo,PL,463,192099,7079,89920,257658,44861,1171,4601,24481,1696,32567
"Basko IT",IT,462,8422,20,437,25758,1564,7,269,478,47,824
"Cornershop - Lider CL",CL,462,18893,0,2907,116225,1345,20,1230,1018,98,2461
"GPSfarma AR",AR,460,7310,320,1619,29504,1164,22,2677,981,98,3794
Aptelia,PL,459,546,15,546,70394,10068,220,3228,504,415,4442
"Carulla CO",CO,455,9916,5,406,29448,4908,29,1367,236,302,1971
"Mercado Libre MX",MX,451,54261,1628,36616,110153,0,890,1302,9143,1,11400
"MegaMarket RO",RO,447,5388,0,9,6498,571,8,1271,13,188,1491
"Cornershop - Jumbo CL",CL,444,28343,0,1521,148652,1356,19,924,784,110,1967
"eTabletka SK",SK,441,12043,50,300,81994,6786,303,8865,259,100,9565
"Patika24 HU",HU,440,4365,3,243,10614,3208,6,605,358,87,1064
"Lider CL",CL,438,12320,2,2083,236886,1129,22,13811,3854,88,17917
"Dr Max RO",RO,435,15059,48,649,39590,8716,196,1792,660,345,3031
"Lopido CO",CO,433,10222,2,534,18848,606,24,8937,3033,101,12114
"Unimarc CL",CL,433,10942,8,514,32821,1149,19,721,505,76,1342
"E.Leclerc Lublin Turystyczna",PL,432,13020,6,1489,16044,13749,22,1101,2885,2795,6876
"Ecofamily HU",HU,430,6703,2,795,21668,4138,8,2176,4238,632,7079
"Kruidvat NL",NL,427,8494,57,104,23742,1775,216,811,90,99,1255
"E.Leclerc Katowice",PL,417,8960,1,1039,9432,10211,98,540,1164,1663,3515
"iFresh SK",SK,405,7181,64,64,157882,0,6,4696,8940,1,13731
"Glovo Biedronka Warszawa",PL,401,3296,238,3296,6359,628,24,185,114,51,402
"Teta Drogerie CZ",CZ,398,8587,9,471,24946,6748,4,710,474,157,1371
"OnlinePrima HU",HU,397,7411,1,1174,22833,6035,5,584,738,305,1654
"Apteki 36.6 BG",BG,395,9896,3,153,46805,1204,5,1412,83,88,1617
"Dia AR",AR,393,4982,4,140,15572,652,19,510,171,15,725
"Elefant RO",RO,391,3763,3763,3763,114750,2058,191,1913,1666,47,3898
"Unimarkt AT",AT,391,3421,14,126,15773,3238,149,356,98,306,921
"Bringo RO",RO,389,31449,43,26064,51240,7025,25,1845,1075,721,3725
"Farmacia Tei RO",RO,388,339,329,339,25936,3247,5,700,179,155,1059
Stokrotka,PL,382,7762,3,147,165692,12595,29,4387,89,424,5205
"Iceland UK",UK,381,5580,14,414,29877,15493,16,1354,378,2054,3836
"DrankDozijn BE",BE,378,3622,6,91,14723,2255,7,648,143,573,1391
"DrankDozijn NL",NL,378,3621,6,88,14720,250,8,642,139,60,871
"Majestic UK",UK,374,1414,1,66,18968,1168,159,1860,54,135,2230
"Billa AT",AT,372,9346,157,300,30269,6632,28,586,846,202,1683
"Walmart GT",GT,369,9133,11,406,156862,4342,21,6611,1125,291,8132
"Świat Leku",PL,365,11691,5,395,35269,1894,165,1355,344,182,2146
"Carrefour IT",IT,364,13281,278,962,36297,4656,259,964,441,462,2160
"Ulabox ES",ES,363,5590,2,22,11679,0,6,210,13,1,242
"Apteka Prima 24",PL,355,4487,10,43,21034,1236,23,502,68,119,803
"Ica New Version SE",SE,354,5724,5033,5058,121450,5104,6,2123,2334,222,4754
"E.Leclerc Lublin Tomasza Zana",PL,353,9767,77,1343,12925,9067,24,435,1840,1144,3507
"Cornershop - Metro PE",PE,351,14928,0,196,49326,1768,16,550,227,201,1035
"Cornershop - Wong PE",PE,351,17031,8,287,51221,1825,17,580,266,187,1093
"Feedo CZ",CZ,351,90,33,90,59624,431,148,1001,72,28,1306
"Gall & Gall NL",NL,347,3181,17,70,22327,67,9,4638,182,20,4868
"Rossmann App CZ",CZ,345,10704,7,2023,35134,0,5,2932,936,1,3903
"Ica SE",SE,343,10789,3,627,640773,12641,6,19834,309,209,20680
"E.Leclerc Elblag",PL,339,10493,7,1043,29072,15183,79,2266,1836,2558,6806
Carrefour,PL,337,17069,30,2986,142738,38860,157,3111,2390,2282,8215
Allecco,PL,336,11774,8,687,40506,10757,24,860,726,180,1881
"Roastmarket DE",DE,334,52,3,52,33262,385,39,620,1448,15,2138
"Bebe Tei RO",RO,327,143,16,140,27403,1491,4,870,88,93,1072
"Mpreis AT",AT,325,8001,0,130,28044,4611,330,800,155,99,1406
"Jumbo AR",AR,324,9434,0,841,53643,754,19,2333,471,29,2885
"Mercado Livre BR",BR,324,102954,1008,4821,779391,0,601,10457,1257,1,12793
"Sipo HU",HU,323,5506,25,225,12255,1440,4,661,214,134,1029
"Cornershop - Santa Isabel CL",CL,319,7427,1,364,9212,1033,17,687,623,85,1423
"Mercado Libre AR",AR,309,32306,7630,8191,71375,397,182,770,18623,83,19731
"Gastronom BG",BG,307,7798,14,140,24310,929,6,444,91,220,784
"SOpharmacy BG",BG,304,9951,75,250,31378,6460,413,1026,282,211,1958
Empik,PL,302,179737,21116,63065,516002,32407,101,15325,34350,0,49776
"Bipa AT",AT,300,12168,0,40,26570,566,11,377,57,21,502
"Cora RO",RO,300,47553,26,5229,95561,6557,5,6388,405,1917,8915
DoDomku,PL,300,5961,147,547,17525,2372,46,312,301,316,989
"Easy Coop IT",IT,299,9227,6,634,27596,10074,5,1994,1378,967,4364
"Mall SK",SK,298,5864,49,5864,29940,1124,354,787,12423,1114,14724
"Amazon NL",NL,297,50338,716,716,125537,0,333,7329,4440,17,12119
"E.Leclerc Gdansk",PL,295,10183,17,842,27945,9043,47,2197,1465,2285,6062
"Tudrogueria Virtual CO",CO,291,8479,380,4096,16367,460,18,391,1879,24,2326
"Apteka Nove BG",BG,287,11415,1,146,39128,6241,5,2676,218,485,3411
"Apteka Medea BG",BG,284,8651,3,180,25736,0,4,1466,168,1,1659
"Sephora US",US,283,320,310,320,124039,0,15,835,140,0,1035
Makeup,PL,282,35156,6429,35156,433686,45576,10,18323,2546,2098,23581
"i-apteka",PL,280,9772,259,668,20978,5851,8,466,710,415,1664
"Argos UK",UK,278,5219,55,3835,7693,0,6,518,14051,1,14596
"E.Leclerc Tychy",PL,278,8989,1,1039,9167,10633,58,454,958,1650,3179
"Edeka DE",DE,271,3725,65,111,4981,132,8,261,107,164,550
Makro,PL,271,3145,6,510,8617,31746,7,525,242,1630,2452
"Groby HU",HU,268,8201,26,552,21854,3567,7,1259,631,253,2171
"Farmacia la Pret Mic RO",RO,264,8746,45,256,26800,6018,23,2580,341,1196,4163
"PriceSmart CR",CR,262,3575,2,47,53489,3499,15,12455,55,1128,13680
"E.Leclerc Gliwice",PL,260,7943,3,728,21773,7436,61,1782,949,2043,4890
"Globus RU",RU,256,12946,438,443,43539,322,5,1515,262,18,1839
"Apteka Medkon",PL,254,7203,573,573,29984,8410,17,4219,1269,1264,6812
"Azbuka Vkusa RU",RU,253,8665,88,256,18252,1263,18,1374,1011,106,2529
Wapteka,PL,252,18897,1287,1333,64861,41437,14,4461,765,717,6077
"Delitea SE",SE,251,9364,12,308,22873,5639,6,182,181,82,475
"Dunnes IE",IE,251,13808,18,1529,24355,9847,8,771,2404,439,3664
"Supermarket AM",AM,249,6869,15,236,17728,0,5,938,493,1,1451
"Szybki Koszyk",PL,246,4348,4,89,14881,652,120,642,53,40,918
"Helpnet RO",RO,245,6893,14,274,19478,5133,5,1891,224,381,2519
"Olimpica CO",CO,241,10242,7,393,41961,1280,18,2397,1020,136,3605
"Lisek App",PL,240,1919,0,215,2698,39,18,17,103,262,418
"Farmatodo CO",CO,238,13155,5,3601,60225,6785,20,585,4539,105,5296
"Carrefour BR",BR,237,10252,22,228,43563,0,16,10166,442,0,10663
"Afya Pharmacy BG",BG,234,9935,7,170,31167,1811,6,2559,226,400,3210
"Metroiroda HU",HU,230,3305,16,261,6690,1258,3,750,435,130,1323
"Disco AR",AR,227,8156,2,326,33191,1176,99,3644,2224,81,6069
"Linio CL",CL,226,44981,1383,1664,77054,0,113,704,858,1,1793
"Coop UK",UK,225,8858,0,621,210935,7816,6,4626,518,1359,6772
"Benu HU",HU,220,4983,2,351,15809,2745,7,3159,587,392,4165
"Getir IT",IT,218,1853,1,26,5050,7819,7,115,15,110,253
"Beauty Bay UK",UK,217,11823,22,110,49287,0,8,332,86,2,514
"MaxiCoffee FR",FR,217,5110,20,137,13274,1575,478,889,457,236,2066
"Booker Foodservice UK",UK,214,11880,109,2581,22184,2743,139,460,1222,95,1940
"Superpharm Apteka",PL,214,505,14,505,30688,23084,9,829,1522,330,2745
"Перекрёсток Впрок RU",RU,214,16001,28,774,36407,2682,9,908,357,63,1374
"Igooods RU",RU,213,15542,3,475,33935,538,3,212,296,16,566
"Rappi - Exito CO",CO,213,17189,1982,2172,49650,10178,91,7738,21392,381,29631
"Exito CO",CO,211,9661,10,794,38882,3149,170,3919,2270,812,7206
"Pyaterochka App RU",RU,209,5536,11,339,14771,1242,3,244,201,16,485
Cocolita,PL,208,10538,23,704,46093,15664,8,2672,1693,1556,6001
"Subra BG",BG,206,8160,36,171,20836,4946,8,270,89,644,1033
"Yandex Market RU",RU,206,0,0,0,62218,0,0,0,0,0,0
"Booker UK",UK,205,8891,135,2509,16915,8433,128,368,1191,657,2371
"Rappi - Carulla Express CO",CO,205,0,0,0,29432,0,130,6142,0,0,6272
"Утконос RU",RU,205,753,146,753,78823,1528,10,402,500,66,1044
"Minifarm RO",RO,203,2665,13,290,4276,517,5,567,242,263,1090
"Rappi - Carulla CO",CO,203,14123,970,1124,44445,9410,121,7520,20228,350,28249
"Rappi Lider CL",CL,202,17728,13795,14270,86394,1322,14,4984,18223,32,23300
"Panda Market HU",HU,201,2459,3,157,6169,971,7,166,79,106,365
"Emag HU",HU,199,108908,2183,25411,108947,6944,12,3388,50779,0,54179
"Vodovoz RU",RU,193,1147,8,34,2351,0,4,339,61,1,411
"Merqueo - Bogota CO",CO,187,1033,0,87,2261,2811,15,197,45,176,436
"Deliberry - Caprabo ES",ES,184,8543,0,0,9657,0,19,915,84,1,1029
"Merqueo - Cali CO",CO,179,1123,0,48,2545,1001,15,197,27,40,281
"Deliberry - Solri ES",ES,178,9124,0,0,10235,0,20,904,50,1,985
"Coursesu FR",FR,177,3832,1278,2519,5972,1313,39,7893,31286,0,39218
"Rappi Jumbo CL",CL,177,15925,13513,13845,62609,1406,13,4881,15226,31,20196
"Tiendas Jumbo CO",CO,177,15657,6,1212,34644,5379,16,1682,1524,270,3526
"Deliberry - Mercadona Barcelona ES",ES,175,5718,0,0,6855,0,20,881,1592,0,2499
"Merqueo - Medellin CO",CO,175,1187,0,85,2556,3026,14,197,44,175,433
"Deliberry - Mercadona Madrid ES",ES,173,5651,0,0,6764,0,19,839,1649,1,2513
"Jumia NG",NG,173,7941,52,219,18294,464,89,320,103,22,547
"PennyDomu CZ",CZ,173,1686,0,5,4834,0,178,323,6,0,512
"Rappi Unimarc CL",CL,173,12313,7569,7765,29382,1314,14,2895,8977,31,11940
"Rappi Turbo CO",CO,169,2221,117,193,8216,1223,193,5837,598,115,6748
"Everli - Coop IT",IT,164,12147,109,11468,13289,7380,50,845,12080,637,13628
"Linella MD",MD,164,5968,3577,3598,11836,0,5,273,2313,1,2599
"Rappi Turbo PE",PE,162,1278,34,34,3818,1716,165,2044,131,113,2456
"Deliberry - Supercor ES",ES,161,4086,0,0,5010,0,17,767,19,1,810
"Rappi Turbo CL",CL,160,852,0,1,1838,0,173,1117,24,21,1337
"Rappi - Exito Express CO",CO,156,11140,5818,9489,27669,4776,128,6114,44595,320,51177
"Rappi Coto AR",AR,156,8850,240,696,21941,1002,93,2588,1614,66,4377
"Professional Farmaline RO",RO,155,8487,2,122,18047,5359,3,558,78,101,764
"Auchan FR",FR,154,1664,4,91,5588,615,183,316,137,184,825
"Rappi Carrefour AR",AR,153,5777,19,240,7068,1242,127,1276,790,57,2257
"Dirck3 NL",NL,151,523,0,25,2484,144,6,112,12,24,161
"Rappi - Pricesmart CO",CO,150,2084,38,61,5614,1524,80,2755,2486,101,5426
"Look Fantastic UK",UK,147,16511,55,309,51924,0,4,699,189,1,945
"Everli - Metro IT",IT,144,2477,0,37,3299,1453,44,311,42,346,748
"Deliberry - Dia ES",ES,143,4171,0,0,5032,0,20,709,2,0,737
"Deliberry - La Plaza ES",ES,143,4250,0,0,5109,0,17,698,138,2,859
"Medexpressz HU",HU,137,1367,0,87,2946,0,6,334,54,1,397
"Nazuby CZ",CZ,135,1792,5,78,6203,164,5,203,39,17,272
"Superxtra PA",PA,132,4917,2,2,10331,0,63,70,4,2,151
"Alkohol CZ",CZ,131,4324,1,4,12093,0,29,1102,7,1,1149
"Rappi Turbo AR",AR,129,1025,0,18,3510,823,172,2122,61,59,2416
"Automercado CR",CR,126,11765,37,50,18375,0,17,2125,331,7,2496
"Extra BR",BR,125,85655,60,1156,85655,0,39,1569,320,19,2026
"Ozon RU",RU,124,62046,8920,13002,94028,1145,540,2752,18727,482,22837
"Condis ES",ES,121,6678,0,6,7060,0,5,197,27,1,239
"Cora Drive BE",BE,120,13904,9959,9987,90744,4371,11,3878,11549,1219,16720
"Coop EE",EE,115,4659,11,22,9799,1364,2,219,11,57,298
"Rappi Farmacity AR",AR,112,5668,285,319,15227,1246,103,2888,2322,62,5387
"Mercado Libre CL",CL,110,44398,3304,3569,61096,1156,116,616,1695,51,2541
"Amazon Fresh DE",DE,105,9397,578,578,14532,7174,1125,5118,458,178,6889
"Vea Digital AR ",AR,104,2426,1,214,9744,1003,104,1446,3585,68,5211
"Farmacia Pasteur CO",CO,103,6809,266,3405,41691,607,15,1314,2732,27,4121
"Alcampo ES",ES,98,5146,71,332,5347,9,1766,724,13537,231,16270
"Farmacity AR",AR,97,255,0,255,6523,1169,9,326,123,39,500
"Savage & Whitten IE",IE,97,3655,1,167,7310,927,11,371,82,78,560
"Vitania BG",BG,96,7264,3,146,7264,4252,5,359,73,162,608
"Everli - Kaufland",PL,94,0,0,0,19709,0,0,0,0,0,0
"Koffievoordeel NL",NL,92,472,1,54,2882,1253,4,537,57,29,631
"Everli - Lidl",PL,91,0,0,0,23548,0,0,0,0,0,0
"Kaufland DE",DE,90,29195,169,1138,36819,730,66,713,672,40,1536
"PriceSmart PA",PA,89,1641,1,34,18952,964,8,4209,25,315,4568
"PriceSmart GT",GT,87,1574,2,23,13932,2153,8,3109,23,481,3629
"Kaffedeal DK",DK,83,380,2,27,945,770,6,50,14,33,105
"Okey RU",RU,81,4282,1866,2691,4318,801,4,394,7844,127,8392
"Brack CH",CH,80,7803,23,127,19310,1728,61,259,115,182,635
"Comfandi Supermercados CO",CO,72,4275,3,3,7734,0,14,2623,8,1,2651
"Durst DE",DE,69,1124,71,1124,1195,0,6,18,23,2,53
"Droguerias Cafam CO",CO,68,4518,883,3035,11543,1439,25,766,5474,53,6325
"Media Markt DE",DE,68,1270,3,33,3268,463,584,2684,175,511,3959
"Pretty Little Thing UK",UK,68,2034,12,12,10039,0,12,2312,121,0,2459
"Rappi Cruz Verde CL",CL,64,4415,2634,2915,29170,1357,7,1880,4294,32,6235
"Rozetka UA",UA,62,76131,2132,12214,95201,0,111,5599,3169,1,9068
"Kaffekapslen DK",DK,61,794,0,69,1822,1521,74,67,73,143,358
"PedidosYa DIA AR",AR,61,2481,9,148,2481,412,9,79,70,14,179
"Emag RO",RO,60,56460,284,3650,56466,5127,6,1276,4167,268,5803
"Kapselkongen DK",DK,57,257,0,58,516,684,26,58,56,50,191
"Comfandi Droguerias CO",CO,56,3769,202,1904,3951,903,12,1556,7052,228,8852
"iDrinks HU",HU,53,6513,162,181,14082,252,5,1284,188,48,1540
"Expert DE",DE,51,965,0,16,1032,0,109,83,331,10,535
"PedidosYa Carrefour AR",AR,48,3982,1,83,3982,670,6,81,41,15,164
"Very UK",UK,47,3829,26,3827,4139,0,17,47,1704,1,1779
"Bol NL",NL,45,168,109,174,28529,2245,35,2167,481,520,3233
"Carrefour AR",AR,41,3108,69,300,10604,511,88,845,855,41,1839
"BilkaToGo DK",DK,37,3732,3,156,21935,1556,8,101,75,38,258
"Datart CZ",CZ,37,988,1,13,1350,964,46,148,77,44,328
"Selver EE",EE,37,4037,4,38,10903,2900,4,262,71,342,688
"Altex RO",RO,36,1411,12,116,2758,1842,4,121,133,153,415
"Ep DE",DE,35,219,0,0,704,0,73,126,1,0,203
"Saturn DE",DE,34,653,1,3,1395,412,300,858,13,2407,3582
"Winelivery IT",IT,34,1314,0,13,2834,0,5,177,10,0,196
"Galaxus CH",CH,33,8498,108,1108,8498,1035,19,1865,1049,1240,4186
"John Lewis UK",UK,33,11,4,11,544,182,6,30,15,83,140
"Kesko FI",FI,31,4470,0,0,62979,9144,44,1331,0,1041,2459
"Americanas BR",BR,27,0,16,75,0,0,519,20,2,3,546
"Carrefour FR",FR,24,2804,5,152,4736,1526,5,272,535,205,1022
"MyDeal AU",AU,20,22,3,22,9606,929,3,68,11,55,138
"Deeski NG",NG,19,203,0,17,324,249,10,41,31,29,112
"Shoplink IE",IE,19,148,0,124,444,1757,30,53,81,115,280
"Boulanger FR",FR,17,881,0,45,2062,378,23,132,112,150,419
"Euronics DE",DE,15,9677,11,210,38042,0,32,1013,41152,0,42197
"Qvc US",US,14,15621,73,152,17115,0,25,191,552,1,786
"BCC NL",NL,11,1901,6,40,2491,660,8,131,47,56,249
"El Corte Ingles ES",ES,11,3904,6,803,5064,667,59,303,4505,81,4954
"Leclerc FR",FR,10,258,23,79,516,816,22,247,2441,656,3368
"Wildberries RU",RU,10,55462,1186,2882,57372,1609,10,169,1716,35,2152
"Myer AU",AU,9,7414,133,353,8958,0,11,1248,749,1,2013
"Coles AU",AU,8,0,0,0,0,0,8,198,1,232,439
"Intermarche FR",FR,8,449,0,115,868,875,8,37,268,259,574
"AO UK",UK,7,815,6,15,1106,289,66,8,18,41,145
"Woolworths AU",AU,7,1455,1,107,2302,358,3,67,44,32,147
"Unieuro IT",IT,6,1705,14,21,2139,1168,3,16,12,46,87
"Barrys Beacon IE",IE,4,156,6,123,156,391,7,39,63,83,193
"Konga NG",NG,3,206,39,206,2999,201,132,21,101,15,271
" SberMarket - Lenta RU",RU,0,0,0,0,0,0,6,17,1,126,150
Allegro,PL,0,1679,0,1679,0,0,0,0,37583,0,37583
"Chedraui MX",MX,0,0,0,0,0,0,5,6,0,1,12
"Cruz Verde CO",CO,0,0,0,0,0,0,4,44,4,40,92
"Drogas La Rebaja CO",CO,0,0,0,0,0,0,28,3637,1,273,3940
"Easy CL",CL,0,0,0,0,0,0,3,145,2,2,152
"Gorillas App IT",IT,0,0,0,0,0,1320,5,8,2,198,216
"Mediaworld IT",IT,0,0,0,0,0,0,31,1,2,225,259
"Metro Delivery RU",RU,0,0,0,0,0,0,22,25,20,50,118
"SberMarket - Metro RU",RU,0,0,0,0,0,0,5,17,1,118,141
"Sodimac CL",CL,0,0,0,0,0,0,21,123,2,3,149
"Soriana MX",MX,0,0,0,0,0,0,2,7,2,1,12
"Tottus CL",CL,0,0,0,0,0,1238,8,122,19,20,169
"iGlobus Zlicin CZ",CZ,0,0,0,0,0,8632,4,120,21,984,1152
