﻿Site,Country,Categories,Prices,"Products changed","Products downloads",Relations,Search,"Categories difference","Categories difference (%)","Prices difference","Prices difference (%)","Relations difference","Relations difference (%)","Search results difference","Search results difference (%)"
"Pilulka CZ",CZ,7728,47432,162,418,767163,21854,"-1",0,"-195","-0.4094316363334656","-551","-0.0717715173959732",71,0
"Ocado UK",UK,6407,46631,113,2643,437405,34279,14,0,"-129","-0.27587682008743286","-709","-0.16183002293109894",67,0
"Auchan FR",FR,5492,23594,159,317,160775,770,"-12",0,"-423","-1.7612524032592773","-4443","-2.6891744136810303","-14","-1"
frisco,PL,4682,15081,1,2660,266841,110579,0,0,50,"0.33264586329460144",659,"0.24757497012615204",28,0
"Pilulka SK",SK,4187,40283,144,331,482431,9999,2,0,68,"0.169091135263443",6981,"1.4682931900024414","-8",0
"Mytime DE",DE,3749,11392,8,84,79517,1285,0,0,24,"0.2111189365386963",40,"0.05032902583479881","-23","-1"
"Albert Heijn NL",NL,3527,20943,2,214,104750,1529,1,0,"-4","-0.01909581385552883","-22","-0.020997976884245872","-1",0
"Morrisons UK",UK,3228,21066,165,2100,97907,26822,"-2",0,38,"0.18071143329143524",214,"0.21905356645584106",52,0
"Waitrose UK",UK,3058,8093,55,932,279522,24763,0,0,"-8137","-50.13555145263672","-1171002","-80.72958374023438",257,1
"Coto Digital AR",AR,2977,16715,53,353,102724,1217,7,0,"-24","-0.14337773621082306","-205","-0.1991664171218872",0,0
"Asda UK",UK,2882,26183,56,2177,757645,32038,"-2",0,26,"0.09939977526664734",2431,"0.3218955099582672",18,0
"Albert Heijn BE",BE,2847,8591,0,62,44253,5925,0,0,0,0,0,0,0,0
"Rohlik CZ",CZ,2787,23116,24,640,210991,10453,"-1",0,"-44","-0.18998272716999054",688,"0.3271470069885254",9,0
Auchan,PL,2434,11706,462,1321,221046,25942,0,0,0,0,682,"0.3094879388809204","-6",0
"Kosik CZ",CZ,2326,13566,8,394,75738,18899,30,1,405,"3.0772738456726074",2022,"2.742959499359131",89,0
"Sainsburys UK",UK,2207,28619,119,2441,1502252,62531,"-1",0,"-79","-0.27528050541877747","-14202","-0.936526894569397",305,0
"Notino SK",SK,2100,365,243,365,107159,223,"-1",0,"-120","-24.742267608642578",399,"0.3737354874610901",23,11
"Amazon Fresh IT",IT,2080,6724,867,867,31808,22301,22,1,578,"9.40449047088623",2364,"8.028800010681152",641,2
"Boots UK",UK,1926,23853,1,135,117429,6754,"-1",0,35,"0.1469476819038391","-554","-0.4695591628551483",2,0
"Brakes UK",UK,1895,9223,19,210,27708,30785,0,0,17,"0.18466217815876007",51,"0.18440178036689758",6,0
"Ageo CZ",CZ,1881,434,35,434,91637,18360,2,0,"-118","-21.376811981201172",191,"0.2088664323091507",481,2
"Auchan HU",HU,1859,34009,101,2401,335632,10537,0,0,9,"0.026470588520169258",3563,"1.0729697942733765","-3",0
"Jumbo NL",NL,1816,19058,55,305,73097,1534,"-4",0,"-90","-0.470022976398468","-385","-0.5239378213882446",3,0
"Notino CZ",CZ,1734,540,445,540,99010,20060,0,0,"-142","-20.82111358642578",1431,"1.4665040969848633",7469,59
"Alcampo ES",ES,1701,17052,27,157,53200,560,0,0,"-15","-0.08788891136646271","-73","-0.13703002035617828",1,0
"Cefarm 24",PL,1688,13089,0,851,97706,14888,0,0,"-19","-0.14494964480400085","-19","-0.01944231241941452","-1035","-6"
"Drogas La Rebaja CO",CO,1687,12004,67,3835,351180,7700,0,0,"-4","-0.03331112489104271","-7","-0.001993240090087056",0,0
"Yuga RO",RO,1687,11214,1,57,55930,623,4,0,"-78","-0.6907545328140259","-453","-0.8034336566925049","-2",0
"Rewe DE",DE,1534,8588,0,165,31448,1540,151,10,"-3","-0.03492026403546333","-10","-0.0317884162068367",0,0
"Delhaize BE",BE,1528,13297,79,347,54779,22530,"-1",0,128,"0.9719796776771545",558,"1.0291215181350708",0,0
"Otto DE",DE,1500,0,0,0,0,162,"-6",0,0,0,0,0,1,0
eZebra,PL,1254,40924,8,2160,143027,37441,2,0,"-2136","-4.960520267486572","-2078","-1.4320664405822754","-80",0
"Picnic NL",NL,1231,6971,2,81,15186,704,1,0,"-2","-0.028682058677077293","-6","-0.03949446976184845",0,0
"Tesco UK",UK,1226,26936,41,2517,161195,20941,0,0,"-2092","-7.20683479309082","-160485","-49.88964080810547",143,0
"Kifli HU",HU,1207,13302,34,1420,53200,9466,"-1",0,38,"0.2864897549152374",137,"0.25818365812301636",13,0
"Apteka Nowa Farmacja",PL,1204,14175,34,840,68074,23801,"-9",0,87,"0.6175468564033508",187,"0.2754577398300171",20,0
"E-Fresh GR",GR,1169,10839,6,337,53518,5932,"-1",0,"-212","-1.918378472328186","-1252","-2.2859230041503906",20,0
"Barbora LV",LV,1151,11213,25,63,40428,1328,"-10",0,"-46","-0.408562034368515","-525","-1.2819573879241943",115,9
"Amazon DE",DE,1140,206,206,206,731594,5362,0,0,0,0,0,0,"-7",0
"Barbora EE",EE,1133,11888,14,72,41425,1106,4,0,"-15","-0.12601864337921143","-82","-0.19755703210830688","-42","-3"
"Lekarna CZ",CZ,1116,26681,85,381,119541,5147,0,0,"-34","-0.12726932764053345","-319","-0.2661438286304474","-1",0
"Moja Lekaren SK",SK,1114,22996,127,229,102149,3299,0,0,45,"0.1960698813199997",156,"0.1529516726732254","-2629","-44"
"Amazon IT",IT,1086,508,508,508,414933,21731,0,0,0,0,0,0,"-62",0
"Mathem SE",SE,1058,13265,43,484,36053,5556,"-2",0,"-65","-0.48762190341949463","-111","-0.30693507194519043","-4",0
"Carrefour BE",BE,1036,20483,33,490,675033,21463,0,0,"-41","-0.1997661292552948",39239,"6.1716532707214355",2,0
"S-kaupat FI",FI,1033,36052,217,1647,315998,4266,0,0,81,"0.22518140077590942",1057,"0.33561840653419495",159,3
"Salcobrand CL",CL,1029,6784,0,0,31351,1138,7,0,11,"0.16240957379341125",86,"0.2750679552555084",0,0
"Coop NL",NL,1027,9470,3,80,40610,77,9,0,1,"0.0105607770383358",27,"0.06653031706809998",1,1
"Apteka Manada",PL,1019,14656,57,1104,39502,42102,0,0,"-48","-0.32644179463386536","-3877","-8.937504768371582","-38",0
"Walmart AR",AR,1009,12579,13,355,51768,1215,"-1",0,"-69","-0.5455408096313477","-99","-0.19087280333042145","-4",0
"Eroski ES",ES,1004,25143,7,205,52616,443,0,0,1251,"5.236062049865723",3403,"6.914839744567871","-4",0
"Zakaz - Novus UA",UA,997,42093,168,214,86458,2016,0,0,99,"0.23574796319007874",176,"0.20398229360580444",0,0
" SberMarket - Lenta RU",RU,976,16971,61,611,74299,516,7,0,244,"1.4587194919586182",916,"1.2482454776763916",0,0
"Picnic DE",DE,967,6944,0,93,13940,978,0,0,0,0,0,0,"-1",0
"Auchan RO",RO,949,21652,35,578,86253,8650,0,0,98,"0.4546719789505005",390,"0.454211950302124",12,0
Selgros,PL,924,13898,61,493,21564,25032,"-2",0,"-8","-0.05752912536263466","-16","-0.07414272427558899","-43",0
"Coop Shop IT",IT,920,8932,21,86,26812,2396,0,0,"-167","-1.8353664875030518","-502","-1.8378853797912598",2396,0
"Remedium BG",BG,920,26861,8,188,79937,702,1,0,26,"0.09688839316368103",3416,"4.464134216308594",0,0
"SberMarket - Metro RU",RU,916,16204,316,561,61415,3318,2,0,27,"0.16690362989902496",854,"1.4101485013961792",29,0
"Coop SE",SE,913,9722,27,502,32693,5420,0,0,43,"0.44426077604293823",129,"0.39614298939704895",31,0
"Knuspr DE",DE,909,10853,37,131,39107,625,0,0,1,"0.009214891120791435",23,"0.05884760990738869","-2",0
Hebe,PL,889,11745,220,2223,81427,29847,1,0,62,"0.5306856036186218",3962,"5.114567756652832","-5",0
"SuperValu IE",IE,849,16477,18,824,224531,10604,"-2",0,"-26","-0.15754711627960205","-637","-0.2828998863697052",16,0
"Unipatika HU",HU,848,4174,7,287,29201,2319,2,0,5,"0.11993283778429031",32,"0.10970550775527954",0,0
"Polski Koszyk",PL,840,16500,969,1428,23935,6581,2,0,629,"3.9632034301757812",512,"2.1858856678009033",256,4
"Coursesu FR",FR,830,19051,51,103,46369,1173,"-3",0,"-23","-0.12058299034833908","-62","-0.13353148102760315","-1",0
"Mall CZ",CZ,826,4590,554,4590,105397,10802,0,0,200,"4.5558085441589355","-1645","-1.5367799997329712",163,1
"Tigros IT",IT,798,9904,8,439,29744,5610,0,0,103,"1.0509132146835327",311,"1.0566370487213135",0,0
"Auchan RU",RU,789,26438,33,492,84032,13263,2,0,49,"0.18568342924118042",148,"0.17643412947654724",1,0
"Zakaz - Metro UA",UA,780,31690,101,168,60877,0,0,0,"-6","-0.01892983354628086","-43","-0.07058437168598175",0,0
"Superdrug UK",UK,763,15322,3,248,43121,6137,0,0,"-39","-0.25388970971107483","-184","-0.42489320039749146",252,4
"Coop DK",DK,743,10835,108,121,87223,983,0,0,"-81","-0.7420300245285034","-1363","-1.5386178493499756",1,0
"Bringmeister DE",DE,731,17134,21,134,43888,1911,1,0,782,"4.782289505004883",1687,"3.9975357055664062",6,0
"Walmart CR",CR,730,13724,170,1509,173740,35799,0,0,11,"0.08021585643291473",70,"0.04030632972717285",46,0
"Intervare DK",DK,729,8764,201,301,25593,0,"-1",0,6,"0.06850878894329071",16,"0.0625561997294426",0,0
"Apteka Gemini",PL,712,27913,4,2457,94759,75577,0,0,"-112","-0.3996431827545166","-2532","-2.60250186920166",14,0
"Rimi LV",LV,706,15242,32,117,44904,4578,"-3",0,27,"0.17745645344257355",83,"0.18518105149269104",0,0
"eZiko Apteka",PL,687,5942,3,507,33810,36735,0,0,"-59","-0.9831694960594177","-318","-0.9317862391471863",3,0
"Bennet IT",IT,669,18392,14,101,37058,2685,0,0,1,"0.005437442101538181",5,"0.013494184240698814",0,0
"Alza SK",SK,668,13154,36,96,53895,2607,0,0,"-31","-0.2351156622171402","-230","-0.4249422550201416",13,0
"Dr Max SK",SK,660,16209,316,316,61047,5157,3,0,100,"0.6207709908485413",858,"1.4255096912384033","-5",0
"Tesco IE",IE,660,17089,10,764,258667,5037,0,0,"-61","-0.35568514466285706",357,"0.13820603489875793",2,0
"Tesco CZ",CZ,659,17022,3,778,554822,11800,"-8","-1","-50","-0.2928772270679474","-9083","-1.6107323169708252","-44",0
"Alza CZ",CZ,658,20426,39,474,65340,14241,0,0,"-62","-0.3026161789894104","-200","-0.3051571547985077","-26",0
"Dr Max CZ",CZ,650,20599,302,302,81926,3963,0,0,"-69","-0.3338494300842285","-291","-0.353941410779953",1,0
"Vasalekaren SK",SK,650,9322,1,109,64455,3161,0,0,"-21","-0.22476720809936523",121,"0.18808095157146454",0,0
"Cold Storage SG",SG,649,10071,76,10071,33135,0,"-1",0,"-15","-0.14872099459171295",89,"0.2693215608596802",0,0
"Poiesz NL",NL,649,8502,0,11,10711,132,0,0,"-5","-0.058775126934051514","-4","-0.03733084350824356","-2","-1"
"Rossmann DE",DE,646,14946,0,62,52704,463,0,0,"-477","-3.0927834510803223","-1776","-3.2599117755889893","-1",0
"Crai Spesa Online",IT,645,143,141,143,27280,1302,"-1",0,16,"12.598424911499023","-126","-0.4597533345222473","-6",0
"City Gross SE",SE,641,12493,2,492,26172,5834,0,0,1,"0.00800512358546257",1,"0.0038210232742130756",2,0
"Metro Delivery RU",RU,641,15728,43,507,47458,450,5,0,"-381","-2.3651375770568848","-848","-1.7554755210876465","-6","-1"
"Rossman HU",HU,641,14361,13,1042,51340,7384,0,0,"-1","-0.006962818559259176","-216","-0.41896191239356995",33,0
"Mat SE",SE,640,10161,107,336,32126,8318,0,0,"-16","-0.15721724927425385","-34","-0.10572139173746109",0,0
"Tottus CL",CL,628,8636,150,1396,36686,2234,0,0,191,"2.261693239212036",1276,"3.603501796722412",34,1
Barbora,PL,623,6639,0,357,58508,3691,1,0,0,0,193,"0.3309611678123474","-50","-1"
"DOZ.pl",PL,621,15478,5,1121,62052,51730,0,0,23,"0.14881914854049683","-44","-0.07085802406072617",18,0
"Esselunga A Casa IT",IT,621,14502,6,472,43559,14630,0,0,"-2","-0.013789299875497818",6,"0.013776318170130253","-5",0
"Hoogvliet NL",NL,619,8801,28,96,13821,170,0,0,"-1","-0.01136105414479971","-1","-0.007234842982143164",1,0
"DM SK",SK,610,6932,3,22,300965,2169,0,0,2,"0.028860028833150864","-92490","-23.50713539123535","-1",0
Apteline,PL,609,999,16,999,81703,18034,"-1",0,12,"1.2158055305480957","-29","-0.03548181802034378",20,0
"Tesco SK",SK,596,15383,17,21,217798,211,0,0,"-70","-0.452986478805542","-2841","-1.287623643875122",0,0
"E.Leclerc Bielany",PL,594,31044,32,2423,98461,33804,2,0,"-18","-0.05794861912727356",42,"0.04267468675971031","-101",0
"Tesco HU",HU,593,15228,15,2270,823223,8791,2,0,"-277","-1.7865204811096191","-26551","-3.1244778633117676","-23",0
"Apteka Galen",PL,592,8774,3,295,40729,3325,"-1",0,"-9","-0.10247068107128143","-71","-0.17401960492134094",4,0
"Yandex Lavka RU",RU,592,2914,16,135,45661,12660,6,1,107,"3.811898708343506",2253,"5.1902875900268555",22,0
"Thanopoulos GR",GR,591,16100,50,372,58421,7679,0,0,31,"0.19291804730892181",22,"0.037671878933906555","-17",0
Amazon,PL,589,380,379,379,739588,16748,0,0,0,0,0,0,40,0
"Willys SE",SE,589,10439,12,433,34556,4932,0,0,"-3","-0.028730127960443497","-19","-0.05495300143957138","-3",0
"Metro RU",RU,586,21314,29,462,26771,4925,1,0,"-70","-0.3273475468158722","-112","-0.4166201651096344",14,0
"Nuko LV",LV,583,8459,31,31,37418,0,0,0,"-123","-1.433232307434082","-653","-1.7152162790298462",0,0
"Bestway Foodservice UK",UK,579,10711,0,0,33890,4611,0,0,"-96","-0.8883131146430969","-291","-0.8513501882553101","-2",0
"Bestway Best-one UK",UK,570,6719,21,98,21647,933,"-2",0,59,"0.8858858942985535",176,"0.8197103142738342",346,58
"Bestway UK",UK,570,10027,0,0,31994,18297,"-2",0,73,"0.7333735227584839",227,"0.7145780324935913",302,1
"Dr Max",PL,569,13722,860,860,47348,27311,0,0,48,"0.3510311543941498",1273,"2.7628865242004395","-2",0
"Spar HU",HU,566,13975,323,1308,178608,9952,0,0,"-151","-1.068950891494751","-1272","-0.7071381211280823","-21",0
"Plus NL",NL,565,15446,8,215,29134,1451,0,0,"-11","-0.07116516679525375","-18","-0.061745334416627884","-1",0
"Pingvinpatika HU",HU,561,7379,86,505,38853,2643,7,1,8,"0.10853344202041626",73,"0.1882413625717163",3,0
"Carulla CO",CO,556,11402,7,608,65466,6040,0,0,9,"0.07899587601423264",34,"0.051962342113256454","-56",0
"Kritikos GR",GR,556,0,0,0,0,0,1,0,0,0,0,0,0,0
"DM HU",HU,544,5754,8,396,289200,11700,0,0,"-4","-0.06946856528520584",1191,"0.4135287404060364",8,0
"DM CZ",CZ,540,5975,7,110,291112,13676,0,0,13,"0.218047633767128",2391,"0.8281351327896118",5,0
"E.Leclerc Rzeszów",PL,540,13236,19,1322,39034,32807,0,0,"-94","-0.7051762938499451","-217","-0.5528521537780762",7,0
"E.Leclerc Wroclaw",PL,539,15439,69,1170,15635,10848,1,0,"-32","-0.20683860778808594","-33","-0.21062037348747253",7,0
"Sok FI",FI,535,9274,36,343,35823,3062,0,0,1,"0.010783996433019638",8,"0.022337010130286217","-3",0
"Benu CZ",CZ,534,12577,20,259,55887,5257,0,0,"-183","-1.4341692924499512","-841","-1.4825130701065063",2,0
Spar,PL,534,23301,1455,1587,724985,73686,0,0,"-61","-0.26110777258872986","-6465","-0.8838608264923096","-48",0
"Chronodrive FR",FR,531,8530,52,137,17410,2119,0,0,"-33","-0.38537895679473877","-5","-0.028710881248116493","-6",0
"MyMarket GR",GR,529,14288,161,347,50009,5603,0,0,14,"0.09808042645454407",42,"0.08405547589063644",6,0
"Univerexport RS",RS,521,8878,3,126,17756,771,0,0,"-22","-0.24719101190567017","-44","-0.24719101190567017",0,0
"Easy Coop IT",IT,520,10273,14,580,36163,17462,0,0,"-25","-0.24276559054851532","-80","-0.22073228657245636","-18",0
"Ebag BG",BG,516,10712,46,99,37136,1217,0,0,18,"0.16831868886947632",137,"0.37028026580810547","-1",0
"Drogeria Olmed",PL,510,1585,290,1585,116565,27542,0,0,"-31","-1.9183168411254883",152,"0.13056960701942444",5,0
"Jumbo CL",CL,509,19644,10,1531,633292,1566,0,0,"-15","-0.07630093395709991",319,"0.05039709433913231","-3",0
"Apteka Zawiszy",PL,504,18202,16,853,73458,18260,0,0,"-14","-0.07685551047325134","-43","-0.05850260704755783","-10",0
Rossmann,PL,504,2554,10,2551,77974,37942,0,0,6,"0.23547880351543427",9,"0.011543641798198223","-8",0
"Colruyt BE",BE,495,6164,5,238,68762,14338,0,0,"-6","-0.0972447320818901","-365","-0.5280136466026306",16,0
Intermarche,PL,493,19635,57,3284,176037,25483,0,0,"-80","-0.40578240156173706","-540","-0.30581560730934143",22,0
"Hemkop SE",SE,492,9895,6,416,30888,5100,0,0,"-8","-0.08078359812498093","-47","-0.15193146467208862",0,0
"Interspar AT",AT,489,21238,10,231,66073,6142,0,0,"-39","-0.18329651653766632","-120","-0.18128804862499237","-4",0
"Spar SI",SI,489,18047,25,191,63199,2494,0,0,"-33","-0.18252211809158325","-95","-0.150093212723732",2,0
"Mega Image RO",RO,481,13564,7,352,40572,11067,0,0,"-69","-0.5061248540878296","-236","-0.5783179998397827",0,0
"Migros Online CH",CH,480,12583,2,67,37732,1353,"-1",0,2,"0.015896987169981003","-174","-0.45903024077415466","-3",0
"Silpo UA",UA,469,11321,0,11,28281,0,0,0,"-7","-0.06179378554224968","-26","-0.09185007214546204",0,0
"Cornershop - Lider CL",CL,465,20951,10,1635,135464,3785,0,0,"-2","-0.009545172564685345","-23","-0.016975797712802887","-4",0
"Benulekaren SK",SK,464,8437,5,232,43782,6349,0,0,"-94","-1.1018637418746948","-398","-0.9008601307868958",5,0
"Basko IT",IT,463,8411,3,399,25730,4261,0,0,"-15","-0.1780204176902771","-45","-0.17458778619766235","-3",0
Ceneo,PL,462,175497,5375,6335,239158,22606,0,0,"-3163","-1.7704018354415894","-4530","-1.8589344024658203","-71",0
"GPSfarma AR",AR,457,5172,42,458,25085,1065,0,0,42,"0.8187134265899658",240,"0.9659891128540039",2,0
"Apteka Olmed",PL,454,1038,16,1038,132950,20297,0,0,"-33","-3.0812325477600098",111,"0.0835597962141037","-7",0
"MegaMarket RO",RO,447,5618,0,9,6725,570,0,0,0,0,0,0,0,0
"Carrefour ES",ES,441,14133,17,142,16384,591,0,0,29,"0.20561543107032776",27,"0.1650669425725937",0,0
"Lider CL",CL,426,11761,16,1286,235405,2638,0,0,"-201","-1.6803209781646729",2436,"1.0456327199935913",2,0
"Patika24 HU",HU,426,4948,0,168,15511,3406,0,0,"-2","-0.04040404036641121","-3","-0.019337372854351997",0,0
"E.Leclerc Lublin Turystyczna",PL,424,12975,7,1168,15934,13528,0,0,0,0,"-62","-0.38759690523147583",35,0
"E.Leclerc Katowice",PL,419,9718,6,923,10036,9940,0,0,"-106","-1.0789902210235596","-118","-1.1621036529541016","-82",0
"Feedo CZ",CZ,417,18294,32,238,51477,373,0,0,"-60","-0.32690420746803284","-81","-0.15710462629795074",0,0
"Istegelsin TR",TR,417,5581,14,45,12524,0,0,0,"-8","-0.14313830435276031","-14","-0.11166055500507355",0,0
"Dr Max RO",RO,414,10997,88,88,35677,2459,0,0,"-151","-1.3545030355453491","-420","-1.1635315418243408",2,0
"Eva UA",UA,411,310,262,310,134268,1532,0,0,"-439","-58.611480712890625",285,"0.2127135545015335",13,0
"Apteka 9-1-1 UA",UA,410,21064,49,121,43986,1740,0,0,19,"0.09028273075819016",32,"0.07280338555574417",1,0
"Kruidvat NL",NL,408,7806,1,15,20022,120,0,0,27,"0.3470883071422577",89,"0.44649577140808105",0,0
"Dia AR",AR,395,4068,3,99,12641,545,0,0,"-77","-1.8576598167419434","-203","-1.5805045366287231",11,2
"Apteki 36.6 BG",BG,393,9732,4,143,45137,669,0,0,1,"0.010276435874402523",6,"0.013294631615281105",0,0
"Unimarkt AT",AT,393,3254,9,124,15441,3125,0,0,6,"0.18472906947135925",50,"0.3248651921749115","-8",0
"OnlinePrima HU",HU,383,7454,1,1126,22628,5787,0,0,4,"0.05369127541780472","-224","-0.9802205562591553",0,0
"Cornershop - Jumbo CL",CL,381,25153,6,454,128342,1343,0,0,"-53","-0.21026739478111267","-1721","-1.3232048749923706",0,0
"Majestic UK",UK,371,1172,0,47,15894,1022,0,0,"-7","-0.593723475933075",811,"5.3769145011901855","-5",0
"Carrefour IT",IT,366,9810,148,564,28663,10641,1,0,"-3938","-28.644166946411133","-7062","-19.767669677734375","-810","-7"
"Ecofamily HU",HU,364,5393,1,802,17362,5083,0,0,"-44","-0.8092698454856873","-131","-0.7488709688186646","-1",0
"Bringo RO",RO,363,31092,1078,28103,51789,11082,1,0,1249,"4.185235977172852",5449,"11.758739471435547",25,0
"Iceland UK",UK,362,5327,17,310,24638,8529,0,0,10,"0.188075989484787",2100,"9.317597389221191","-86",0
"Ica New Version SE",SE,358,5674,5020,5039,107053,3968,0,0,"-3","-0.0528448112308979","-35","-0.03268340229988098",0,0
"Ulabox ES",ES,355,6285,6,50,13177,0,0,0,"-15","-0.2380952388048172","-31","-0.23470623791217804",0,0
"Mercado Libre AR",AR,353,28321,401,1192,63248,623,3,0,"-85","-0.299232542514801","-132","-0.20826759934425354",22,3
"Jumbo AR",AR,352,11562,61,654,52430,699,0,0,2106,"22.271574020385742","-4525","-7.944868564605713",6,0
"Ica SE",SE,348,11359,13,627,694524,9362,"-1",0,1,"0.008804366923868656","-108","-0.015547800809144974","-2",0
"Vkusvill RU",RU,348,12230,114,114,30672,901,"-26","-6",2,"0.016355903819203377","-1682","-5.198739051818848",1,0
"Globus RU",RU,347,15377,6,150,40167,732,1,0,"-870","-5.35483455657959","-14918","-27.081783294677734",229,45
"E.Leclerc Lublin Tomasza Zana",PL,346,11564,13,1250,14624,10878,0,0,106,"0.9251178503036499",144,"0.9944751262664795",79,0
"Świat Leku",PL,344,10910,9,301,28696,1771,0,0,"-315","-2.8062360286712646","-1313","-4.375354290008545","-4",0
"Ulta US",US,340,32,27,32,89568,0,0,0,18,"128.57142639160156","-24","-0.026788106188178062",0,0
"E.Leclerc Gliwice",PL,338,6782,11,943,6897,7872,0,0,23,"0.3402870297431946",23,"0.33459413051605225",11,0
Allecco,PL,336,11842,46,673,40181,20772,0,0,"-29","-0.24429281055927277","-118","-0.29281124472618103",27,0
"Cruz Verde CO",CO,335,4447,34,2683,23851,1072,60,21,"-37","-0.8251560926437378",10583,"79.76334381103516","-1",0
Carrefour,PL,331,16118,24,3801,123460,34537,"-1",0,76,"0.4737564027309418",663,"0.5399154424667358",414,1
"Azbuka Vkusa RU",RU,324,14594,22,199,26556,1862,0,0,"-700","-4.576958179473877","-1836","-6.466610431671143","-1",0
"Bebe Tei RO",RO,323,23319,22,179,23319,3462,0,0,102,"0.4393332600593567",102,"0.4393332600593567",2,0
"Farmacia Tei RO",RO,321,20764,47,261,20764,3586,0,0,28,"0.1350308656692505",28,"0.1350308656692505","-2",0
"Elefant RO",RO,317,479,486,486,69084,1882,0,0,"-1501","-75.8080825805664","-1981","-2.7875888347625732","-8",0
"SOpharmacy BG",BG,309,9328,29,155,29721,3532,0,0,"-37","-0.3950881063938141","-101","-0.3386761546134949",2,0
Empik,PL,302,155438,1593,3272,468310,28373,0,0,51521,"49.5789909362793",179344,"62.064048767089844",13,0
"Merqueo - Bogota CO",CO,301,3804,16,293,9503,8645,"-1",0,201,"5.578684329986572",611,"6.871345043182373","-22",0
"Bipa AT",AT,299,10146,76,76,22255,549,0,0,16,"0.15794669091701508",26,"0.11696432530879974",1,0
DoDomku,PL,298,5311,33,242,15627,1729,0,0,"-56","-1.0434134006500244","-155","-0.9821315407752991","-13",0
"Tudrogueria Virtual CO",CO,291,8641,45,4120,16634,492,0,0,1,"0.011574073694646358",2,"0.012025011703372002",0,0
"Watsons UA",UA,289,75,1,75,26540,319,1,0,"-22","-22.68041229248047",58,"0.2190166860818863",0,0
Makro,PL,288,3249,1,386,8912,29091,0,0,"-41","-1.2462005615234375","-109","-1.20829176902771","-161",0
"Rappi Lider CL",CL,287,16473,1599,1708,89171,4037,0,0,185,"1.1358054876327515",1058,"1.2007309198379517","-9",0
"Apteka Medea BG",BG,284,8487,5,152,25426,1968,0,0,"-38","-0.4457477927207947","-86","-0.33709627389907837",0,0
"Cornershop - Santa Isabel CL",CL,282,6258,5,245,7815,967,0,0,"-12","-0.19138756394386292","-9","-0.1150306761264801","-5",0
"Sephora US",US,281,212,201,212,86435,0,0,0,"-15","-6.607929706573486","-97","-0.11209725588560104",0,0
"i-apteka",PL,281,9513,602,693,20399,10948,1,0,55,"0.581518292427063",133,"0.6562715768814087",15,0
"E.Leclerc Tychy",PL,280,9214,51,1251,9361,9385,0,0,176,"1.9473334550857544",179,"1.949466347694397",153,1
"Mall SK",SK,280,1236,65,1236,22962,1045,0,0,"-322","-20.667522430419922",176,"0.772404134273529",19,1
"Rappi - Exito CO",CO,280,21008,1166,1364,76364,13363,0,0,"-121","-0.5726726055145264",1001,"1.3282380104064941",61,0
"MaxiCoffee FR",FR,279,6086,107,163,14898,1024,0,0,"-5","-0.08208832889795303","-26","-0.17421603202819824",5,0
"PriceSmart CR",CR,273,3501,16,285,49863,31012,"-2",0,"-15","-0.4266211688518524","-2611","-4.975797653198242","-42",0
"Argos UK",UK,272,6098,10,4696,8266,0,0,0,6,"0.09848982095718384",7,"0.0847560241818428",0,0
"Konzum HR",HR,268,10235,1,113,16022,3795,0,0,"-54","-0.5248323678970337","-124","-0.7679920792579651","-24",0
"Delitea SE",SE,267,9930,0,247,23852,1958,0,0,"-24","-0.24110910296440125","-53","-0.2217109352350235",0,0
"Afya Pharmacy BG",BG,265,7981,8,154,24270,696,0,0,"-108","-1.3351465463638306","-2453","-9.17935848236084",0,0
"Groby HU",HU,265,8476,1,519,22435,3063,0,0,"-1","-0.011796626262366772","-3","-0.01337017584592104",0,0
Makeup,PL,264,4155,361,4155,401098,83328,0,0,"-866","-17.247560501098633",2557,"0.6415901780128479","-2431","-2"
"Supermarket AM",AM,262,8864,8,57,22290,0,2,0,24,"0.27149322628974915",34,"0.15276779234409332",0,0
"Rappi - Exito Express CO",CO,261,17126,916,1137,44434,10125,"-1",0,"-170","-0.9828861951828003","-1835","-3.9659383296966553",29,0
"Rappi Jumbo CL",CL,259,16419,1528,1614,61579,1387,0,0,144,"0.8847926259040833",580,"0.9508352875709534",2,0
"Dunnes IE",IE,256,14349,13,683,31681,10744,"-2",0,19,"0.1325889676809311",67,"0.21193142235279083","-8",0
"Merqueo - Medellin CO",CO,256,3579,10,291,8520,8162,1,0,116,"3.3496968746185303",292,"3.5488574504852295","-21",0
"Apteka Medkon",PL,254,5334,359,359,22265,13710,0,0,"-16","-0.29906541109085083","-65","-0.2910882234573364","-12",0
"Amazon NL",NL,253,0,0,0,47758,0,0,0,"-25642","-100",0,0,0,0
Wapteka,PL,252,17309,790,1202,60660,36709,0,0,97,"0.5635603070259094",342,"0.5669949054718018",0,0
"Farmacia la Pret Mic RO",RO,251,7219,54,269,18736,3953,0,0,"-177","-2.393185615539551","-4622","-19.78765296936035","-118","-2"
"Rappi Unimarc CL",CL,250,12208,274,364,29384,1256,0,0,"-7","-0.05730659142136574","-78","-0.2647477984428406",0,0
"Helpnet RO",RO,245,6824,14,263,19262,2387,0,0,0,0,"-6","-0.031139712780714035","-2",0
"Rappi - Carulla CO",CO,245,15227,1132,1303,62156,12951,0,0,5,"0.032847195863723755","-198","-0.31754177808761597",123,0
"Rappi - Carulla Express CO",CO,244,14061,562,1151,50949,11929,0,0,11,"0.07829181849956512","-64","-0.12545821070671082","-214","-1"
"Sipo HU",HU,244,3497,136,136,6775,1088,"-1",0,"-13","-0.37037035822868347","-32","-0.47010430693626404","-1",0
"Szybki Koszyk",PL,242,4314,2,67,14996,953,2,0,57,"1.3389711380004883",228,"1.5438786745071411",13,1
"Merqueo - Cali CO",CO,239,2277,6,137,5415,871,"-1",0,44,"1.9704433679580688",155,"2.946768045425415","-9","-1"
"Farmatodo CO",CO,238,11788,283,2983,41310,5321,0,0,"-22","-0.18628281354904175",14,"0.03390158712863922",0,0
"Rappi Santa Isabel CL",CL,238,6199,0,153,7547,1201,0,0,"-10","-0.1610565334558487","-10","-0.13232764601707458",0,0
Cocolita,PL,234,10466,69,135,49705,12816,0,0,"-39","-0.37125179171562195","-184","-0.3688187897205353",30,0
"Metroiroda HU",HU,233,3796,2,266,7668,1413,0,0,0,0,3,"0.03913894295692444",0,0
"Linio CL",CL,230,48319,51,167,79412,938,0,0,9,"0.018629683181643486",15,"0.018892401829361916",4,0
"Apteka Melissa",PL,223,10650,580,580,27642,56074,0,0,12,"0.11280316114425659",20,"0.07240605354309082","-27",0
"Kesko FI",FI,220,13156,57,443,221787,9027,0,0,84,"0.6425948739051819",1337,"0.6064867377281189","-25",0
"Edeka DE",DE,219,3368,41,50,4477,0,0,0,"-2","-0.059347182512283325",0,0,0,0
"Igooods RU",RU,219,20218,3,189,44786,858,1,0,"-51","-0.2516157627105713",145,"0.32481351494789124",0,0
"Superpharm Drogeria",PL,219,10958,50,2179,50470,46055,0,0,17,"0.15537884831428528",121,"0.240322545170784","-128",0
"Утконос RU",RU,219,1098,439,1098,44607,7622,0,0,"-5474","-83.29275512695312",987,"2.262723445892334",12,0
"Makeup UA",UA,211,2946,1967,2946,770766,3785,0,0,"-2231","-43.09445571899414",13759,"1.8175525665283203",50,1
"Superpharm Apteka",PL,211,9487,38,446,24938,17576,0,0,18,"0.190093994140625",35,"0.1405453085899353",3,0
"Перекрёсток Впрок RU",RU,210,17342,53,471,38296,15039,"-17","-7","-130","-0.7440476417541504","-2625","-6.414799213409424","-27",0
"Booker UK",UK,208,9412,77,2134,18064,0,0,0,41,"0.43751999735832214",75,"0.416921466588974","-7709","-100"
"Coop UK",UK,206,9416,2,823,207339,14548,0,0,"-1","-0.010619092732667923","-317","-0.15265631675720215",58,0
"Minifarm RO",RO,203,4503,1,107,13894,194,0,0,"-1","-0.02220248617231846",50,"0.3611672818660736",0,0
"Beauty Bay UK",UK,200,12610,2,30,49230,0,0,0,"-111","-0.8725728988647461","-393","-0.7919714450836182",0,0
"Emag HU",HU,200,86683,297,1523,86732,6996,0,0,199,"0.2301003634929657",197,"0.22765354812145233","-40",0
"Benu HU",HU,198,4883,12,343,15833,2508,0,0,5,"0.1025010272860527",43,"0.27232426404953003",0,0
"Rappi - Pricesmart CO",CO,194,1983,22,33,5446,870,0,0,1,"0.05045408755540848","-175","-3.1133251190185547","-8",0
"Parfums UA",UA,187,705,115,705,154301,1822,0,0,"-225","-24.19354820251465","-162","-0.1048794835805893","-33","-1"
"Look Fantastic UK",UK,184,18509,90,90,59449,0,0,0,91,"0.49408188462257385",813,"1.386520266532898",0,0
"Deliberry - Caprabo ES",ES,182,8640,0,0,9759,0,0,0,0,0,0,0,0,0
"Deliberry - Mercadona Barcelona ES",ES,177,5752,0,0,6875,0,0,0,"-1","-0.017382236197590828","-1","-0.014543339610099792",0,0
"Vodovoz RU",RU,177,1040,8,56,2138,0,0,0,0,0,"-1","-0.04675081744790077",0,0
"Deliberry - Solri ES",ES,176,7921,0,0,9020,0,0,0,0,0,1,"0.01108770351856947",0,0
"Deliberry - Mercadona Madrid ES",ES,173,5579,0,0,6692,0,0,0,0,0,0,0,0,0
AptekaLeki,PL,162,5371,0,278,16448,1774,0,0,"-4","-0.07441860437393188","-9","-0.054687973111867905",0,0
"Deliberry - Supercor ES",ES,161,4081,0,0,5005,0,0,0,0,0,0,0,0,0
"Amazon UK",UK,160,0,0,0,136298,10682,0,0,0,0,0,0,"-22847","-68"
"Everli - Coop IT",IT,160,10327,8,136,11459,3276,0,0,34,"0.3303215801715851",36,"0.3151536285877228",175,5
"Professional Farmaline RO",RO,155,8600,13,121,18314,2491,0,0,1,"0.011629259213805199",2,"0.010921799577772617",1,0
"Pyaterochka App RU",RU,147,5482,5,124,7016,1908,1,0,1,"0.018244845792651176","-7","-0.09967250376939774",0,0
"Tiendas Jumbo CO",CO,145,16784,5,1023,78947,5931,0,0,141,"0.8472030162811279",603,"0.7696824073791504",30,0
"Deliberry - Dia ES",ES,143,3377,0,0,4208,0,0,0,0,0,0,0,0,0
"Deliberry - La Plaza ES",ES,143,3550,0,0,4338,0,0,0,0,0,0,0,0,0
"Everli - Metro IT",IT,142,2671,1,46,3519,1510,0,0,5,"0.18754689395427704",9,"0.25641027092933655","-1",0
"Exito CO",CO,137,13116,48,1147,78292,3748,0,0,80,"0.6136851906776428",108,"0.13813568651676178","-33",0
"Nazuby CZ",CZ,137,1558,1,62,7008,134,0,0,"-2","-0.12820513546466827","-11","-0.1567174792289734",0,0
"Automercado CR",CR,130,12885,39,987,21356,25184,"-2","-1",67,"0.5227024555206299",105,"0.4940944015979767",8,0
"Medexpressz HU",HU,127,1218,91,92,1882,108,0,0,"-1","-0.08203445374965668","-1","-0.05310674384236336",0,0
"Coop EE",EE,125,9912,62,62,21424,2067,0,0,"-7","-0.07057163119316101","-14","-0.06530459970235825",4,0
"Ozon RU",RU,122,45974,1567,1938,72686,9798,0,0,"-941","-2.0057551860809326",128,"0.17641060054302216",73,0
"Condis ES",ES,121,6453,1,1,6828,0,0,0,"-18","-0.2781641185283661","-16","-0.23378141224384308",0,0
"Amazon Fresh DE",DE,119,9556,226,226,15244,2839,0,0,997,"11.64855670928955",1815,"13.515525817871094",104,3
"Subra BG",BG,118,5650,3,137,14000,2555,0,0,11,"0.1950700432062149",42,"0.30090269446372986",1,0
"Cora Drive BE",BE,116,13583,150,167,88850,4637,0,0,57,"0.42141062021255493",90,"0.10139702260494232",20,0
"Farmacia Pasteur CO",CO,114,8524,33,3257,53622,556,0,0,23,"0.27055639028549194",729,"1.3782541751861572",0,0
"Brack CH",CH,107,8043,97,97,22858,1622,0,0,3,"0.03731343150138855","-53","-0.23132993280887604","-6",0
"Produktoff UA",UA,106,12551,251,341,12699,0,0,0,397,"3.2664144039154053",397,"3.2271175384521484",0,0
"Auchan UA",UA,104,6589,6,50,19396,0,0,0,65,"0.9963212609291077",98,"0.5078246593475342",0,0
"Carrefour AR",AR,98,3956,384,390,22978,624,0,0,"-11","-0.27728763222694397",214,"0.9400808215141296",0,0
"Koffievoordeel NL",NL,98,537,1,68,3345,1318,0,0,"-4","-0.7393715381622314",19,"0.5712567567825317",0,0
"Boohoo UK",UK,97,48,61,65,3211,0,0,0,"-1225","-96.22937774658203","-2560","-44.3597297668457",0,0
"Vitania BG",BG,97,7379,11,147,7379,2292,0,0,13,"0.1764865666627884",13,"0.1764865666627884",2,0
"Cora RO",RO,91,25333,15,304,25333,7527,0,0,"-18","-0.07100311666727066","-18","-0.07100311666727066","-13",0
"Kaffedeal DK",DK,91,428,1,47,1140,622,0,0,"-2","-0.4651162922382355","-5","-0.43668121099472046","-10","-1"
"Kaufland DE",DE,90,25180,120,309,30306,681,0,0,"-300","-1.1773940324783325",342,"1.1413697004318237",6,0
"Okey RU",RU,80,10299,1562,1707,10335,1565,0,0,"-1","-0.009708737954497337",1,"0.009676795452833176",162,11
"Rappi Cruz Verde CL",CL,77,5050,365,431,32397,1136,0,0,5,"0.099108025431633","-54","-0.16640473902225494","-9",0
"Media Markt DE",DE,68,1889,8,69,5307,1205,"-16","-19","-7605","-80.10322570800781","-7205","-57.584716796875",6,0
"Farmacity AR",AR,64,348,5,348,9205,1168,0,0,44,"14.473684310913086",194,"2.1529242992401123","-2",0
"Rozetka UA",UA,62,90728,1033,1795,112323,3227,0,0,636,"0.7059450149536133","-801","-0.7080725431442261","-22",0
"Sanctuary UK",UK,62,115,0,0,522,0,0,0,0,0,"-2","-0.38167938590049744",0,0
"Kaffekapslen DK",DK,60,722,2,64,1714,1265,0,0,"-2","-0.27624309062957764","-4","-0.23282887041568756",0,0
"Apteka Nove BG",BG,59,11793,3,135,26475,3388,0,0,"-7","-0.05932203307747841",11,"0.041565902531147",0,0
"Kapselnkogen DK",DK,56,283,0,60,587,547,0,0,1,"0.3546099364757538",1,"0.1706484705209732",0,0
"Saturn DE",DE,55,301,3,9,313,834,"-1","-1","-4","-1.311475396156311","-29","-8.479532241821289",0,0
"Asos UK",UK,54,8298,159,163,20504,0,0,0,130,"1.5915769338607788",366,"1.8174595832824707",0,0
"iDrinks HU",HU,52,6684,152,171,14402,252,0,0,0,0,1,"0.006943962071090937",0,0
"Emag RO",RO,49,54193,140,565,54195,5351,0,0,1051,"1.977720022201538",1051,"1.9776456356048584",51,0
"Expert DE",DE,49,1039,0,14,1117,369,0,0,"-7","-0.6692160367965698","-10","-0.8873114585876465",0,0
"Pretty Little Thing UK",UK,49,1588,8,51,4389,0,0,0,18,"1.1464967727661133",5,"0.11405109614133835",0,0
"Very UK",UK,47,3443,15,83,3737,0,0,0,"-6","-0.17396347224712372","-17","-0.4528502821922302",0,0
"Fudge UK",UK,43,95,0,0,501,0,0,0,0,0,3,"0.6024096608161926",0,0
"Winelivery IT",IT,41,1446,2,19,3220,0,0,0,"-33","-2.2312374114990234","-74","-2.246508836746216",0,0
"Altex RO",RO,38,1715,0,53,3399,2699,0,0,"-162","-8.630793571472168","-279","-7.585644245147705",26,0
"BilkaToGo DK",DK,33,3621,2,143,21153,1350,0,0,"-1","-0.02760905586183071",422,"2.0355987548828125",0,0
"Ep DE",DE,33,191,0,4,612,325,0,0,1,"0.5263158082962036",5,"0.8237232565879822",6,1
"John Lewis UK",UK,28,19,4,19,421,143,0,0,"-5","-20.83333396911621","-8","-1.8648018836975098",0,0
"Mercator SI",SI,27,13304,2,149,13304,1980,0,0,"-74","-0.5531469583511353","-74","-0.5531469583511353","-3",0
"StTropez UK",UK,25,33,0,0,87,0,0,0,0,0,0,0,0,0
"Avansas TR",TR,24,443,0,1,449,0,0,0,0,0,0,0,0,0
"Qvc US",US,24,17161,41,79,21096,0,0,0,48,"0.280488520860672",78,"0.3711104691028595",0,0
"St. Tropez US",US,24,33,0,0,81,0,0,0,0,0,0,0,0,0
"Durst DE",DE,16,1005,87,1005,1092,0,0,0,0,0,0,0,0,0
"Euronics DE",DE,15,10719,61,258,40433,1173,0,0,"-11","-0.102516308426857",5,"0.012367665767669678",0,0
"BCC NL",NL,13,1808,8,24,2350,636,"-1","-7","-3","-0.16565433144569397","-7","-0.2969876825809479",0,0
"Mercado Libre CL",CL,12,6514,279,445,12686,1265,0,0,19,"0.29253271222114563",30,"0.23704172670841217","-80","-5"
"El Corte Ingles ES",ES,11,4049,3,148,5201,731,0,0,5,"0.12363996356725693",5,"0.09622786939144135",0,0
"Leclerc FR",FR,11,174,3,67,174,551,0,0,"-72","-29.268293380737305","-251","-59.05882263183594","-119","-17"
"Wildberries RU",RU,10,135562,2763,3306,147127,1502,0,0,11064,"8.886889457702637",11812,"8.72926139831543",5,0
"Mediaworld IT",IT,9,234,2,45,468,1379,0,0,0,0,0,0,"-66","-4"
"Myer AU",AU,9,1245,89,1245,2078,157,0,0,1,"0.08038584887981415","-41","-1.9348748922348022",3,1
"Coles AU",AU,8,284,5,284,570,385,0,0,"-12","-4.054054260253906","-24","-4.040403842926025","-25","-6"
"Intermarche FR",FR,8,455,85,116,855,1213,0,0,"-3","-0.6550218462944031","-4","-0.4656577408313751","-10",0
"Sushi33 UA",UA,8,47,0,24,92,0,0,0,0,0,0,0,0,0
"AO UK",UK,7,872,0,0,1143,185,0,0,2,"0.2298850566148758","-2","-0.17467248439788818","-3","-1"
"Sushiya UA",UA,7,39,0,13,69,0,0,0,0,0,0,0,0,0
"Woolworths AU",AU,7,1401,39,1400,2242,363,0,0,"-5","-0.35561877489089966","-5","-0.2225189208984375",0,0
"Unieuro IT",IT,6,1626,5,15,2012,1030,0,0,"-5","-0.3065603971481323","-6","-0.2973240911960602",3,0
"Easy CL",CL,3,616,0,2,700,423,0,0,0,0,0,0,21,5
"Drogerie Natura",PL,1,0,0,0,0,73932,0,0,0,0,0,0,0,0
"Sodimac CL",CL,1,0,0,0,0,301,0,0,0,0,0,0,1,0
"0815 DE",DE,0,0,0,0,0,0,0,0,0,0,0,0,0,0
"Amazon Fresh UK",UK,0,0,0,0,0,22,"-2201","-100","-8770","-100","-37643","-100","-9896","-99"
"Billa AT",AT,0,0,0,0,0,606,0,0,0,0,0,0,1,0
"Bol NL",NL,0,0,0,0,0,350,0,0,0,0,0,0,176,101
"Booker Foodservice UK",UK,0,0,0,0,0,3483,"-213","-100","-11698","-100","-21947","-100","-4",0
"Boulanger FR",FR,0,0,0,0,0,0,0,0,0,0,0,0,0,0
"Carrefour FR",FR,0,0,0,0,0,0,0,0,0,0,0,0,"-49","-100"
"Coop CH",CH,0,0,0,0,0,0,0,0,0,0,0,0,0,0
"Disco AR",AR,0,0,0,0,0,0,0,0,0,0,0,0,0,0
"Droguerias Cafam CO",CO,0,0,0,0,0,1278,0,0,0,0,0,0,"-2",0
"E.Leclerc Elblag",PL,0,0,0,0,0,0,0,0,0,0,0,0,0,0
"E.Leclerc Gdansk",PL,0,0,0,0,0,0,0,0,0,0,0,0,0,0
"E.Leclerc Radom",PL,0,0,0,0,0,0,0,0,0,0,0,0,0,0
"Gall & Gall NL",NL,0,0,0,0,0,69,0,0,0,0,0,0,2,2
"Lopido CO",CO,0,0,0,0,0,0,0,0,0,0,0,0,0,0
"Mpreis AT",AT,0,0,0,0,0,0,0,0,0,0,0,0,0,0
"Optifarm RO",RO,0,0,0,0,0,0,0,0,0,0,0,0,0,0
"Potravinydomu CZ",CZ,0,0,0,0,0,0,0,0,0,0,0,0,0,0
"Roastmarket DE",DE,0,0,0,0,0,0,0,0,0,0,0,0,0,0
"Selver EE",EE,0,0,0,0,0,0,0,0,0,0,0,0,0,0
"Vea Digital AR ",AR,0,0,0,0,0,649,0,0,0,0,0,0,"-44","-6"
"Yandex Market RU",RU,0,0,0,0,0,0,0,0,0,0,0,0,0,0
"eTabletka SK",SK,0,0,0,0,0,5481,0,0,0,0,0,0,"-136","-2"
