﻿Site,Country,Categories,Prices,"Products changed","Products downloads",Relations,Search,"Categories time","Prices time","Products time","Search time","Total time"
"Pilulka CZ",CZ,8158,50913,7823,27577,790179,21755,5968,13120,1329,2613,23562
"Ocado UK",UK,6482,45798,27,2619,433268,40480,1342,11458,2288,1889,17179
"Mytime DE",DE,5524,10860,27,222,109318,2912,2673,3814,407,163,7125
frisco,PL,4697,15277,213,15352,277709,114442,74,11620,9568,4963,26603
"Pilulka SK",SK,4658,39024,313,453,476798,10172,3214,9494,426,500,13799
"Samokat RU",RU,4005,6211,52,286,98866,196,65,216,327,77,838
"Albert Heijn NL",NL,3502,21129,125,348,105661,4305,450,1524,43,81,2151
"Morrisons UK",UK,3216,20957,192,2154,97050,31584,597,5602,1859,2014,10144
"Waitrose UK",UK,3101,16354,102,1220,1529124,34093,17,21406,452,856,23339
"Asda UK",UK,3010,27842,31,2201,828501,38354,9,9390,1285,1092,12142
"Albert Heijn BE",BE,2864,9535,1,67,49081,6172,419,1307,10,131,1903
"Coto Digital AR",AR,2832,18486,40,333,116738,1214,2118,4257,289,51,6760
"Rohlik CZ",CZ,2711,23334,121,989,207074,10587,2498,3731,699,600,7648
"Galen BG",BG,2532,11609,29,29,80362,0,1343,2145,19,1,3540
"Amazon Fresh UK",UK,2463,9235,583,583,53208,16439,1387,7340,487,632,9875
"Kosik CZ",CZ,2415,15066,53,751,84700,20476,456,1511,357,646,3014
"Sainsburys UK",UK,2244,30553,69,2494,1688400,80064,229,27127,1979,1733,31985
"Notino SK",SK,2139,5800,3717,5800,111110,176,939,5630,5493,15,12238
"Amazon Fresh IT",IT,2098,7147,730,752,34041,10250,2405,1105,600,361,4486
"Amazon UK",UK,2091,1965,1940,1967,2309548,33048,0,0,0,4865,9525
Auchan,PL,2008,12233,457,1489,225756,29147,46,8211,1122,3088,12821
"Drogerie Natura",PL,1983,20410,2,1634,87551,67935,45,3380,1903,3001,8847
"iGlobus Zlicin CZ",CZ,1923,21798,76,222,103989,0,886,1527,114,1,2583
"Boots UK",UK,1921,19521,1092,8473,76071,6741,11,3144,12582,307,16101
"Brakes UK",UK,1895,9269,0,197,27851,30935,890,1817,92,320,3134
"Auchan HU",HU,1838,33350,446,2209,345937,10576,16,12977,1160,464,14824
"Jumbo NL",NL,1815,18906,132,489,71345,4306,1182,1962,461,121,3758
"Notino CZ",CZ,1747,6576,4296,6576,105377,12821,773,5428,6166,814,13318
"Cefarm 24",PL,1698,12761,221,1094,94721,15395,2106,3543,1113,4101,11051
"Yuga RO",RO,1697,9081,13,100,45812,535,1557,3745,3908,51,9318
"Drogas La Rebaja CO",CO,1687,11882,307,3869,350536,6590,69,12342,4866,460,17862
"Otto DE",DE,1619,260,136,263,63165,832,778,984,337,32,2179
"Delhaize BE",BE,1565,13658,70,841,57565,15156,7,3237,512,359,4156
Hebe,PL,1312,2465,237,2465,112791,41211,1221,3282,3002,872,8630
eZebra,PL,1285,40391,75,2934,139723,41659,30,5968,3505,3960,13748
"Tesco UK",UK,1267,28821,42,2707,341010,24703,8,10758,1686,7678,20366
"Rewe DE",DE,1254,8698,4,247,31859,3178,19,1623,406,452,2525
"Kifli HU",HU,1251,14238,22,1580,58345,9798,633,582,727,376,2359
"Picnic NL",NL,1236,6931,5,87,15076,2258,586,1070,44,76,1784
"Apteka Manada",PL,1216,14075,777,14052,42670,0,38,3431,20724,2338,26588
"Apteka Nowa Farmacja",PL,1214,14515,49,957,65836,21807,9493,2344,795,1476,14261
"Barbora EE",EE,1195,11914,77,213,42905,1134,30,1280,101,71,1500
"Coop CH",CH,1193,17482,145,834,64852,1778,286,1540,1043,126,3035
"E-Fresh GR",GR,1176,12058,310,743,58544,6331,2247,4105,1543,634,8559
"Drogeo CZ",CZ,1141,333,9,333,61010,17570,15,1148,189,329,1716
"Barbora LV",LV,1136,10510,8,199,38759,1082,34,1316,93,85,1547
"Barbora LT",LT,1131,11481,9,349,38049,1287,23,1007,163,56,1268
"Amazon DE",DE,1127,294,291,294,731099,15343,0,0,0,1929,1929
"Lekarna CZ",CZ,1126,27312,71,933,121595,4328,674,3468,548,183,4939
"Moja Lekaren SK",SK,1123,23292,57,650,102266,5881,669,2934,356,203,4231
"S-kaupat FI",FI,1117,40869,62,1205,353291,5016,4,3122,580,95,3964
"Carrefour BE",BE,1044,19525,407,887,603452,21484,942,12726,224,1182,15290
"Mathem SE",SE,1042,12944,65,693,35269,5456,15,1112,923,385,2491
"Coop NL",NL,1038,17052,12,109,71959,969,1464,3072,231,63,4869
"Mall CZ",CZ,1016,31476,2083,31474,117381,8355,700,2460,27142,7066,37521
"Walmart AR",AR,1007,13837,15,387,57190,1234,509,4153,2604,57,7355
"Salcobrand CL",CL,1006,6887,1,6880,30927,1148,249,618,3750,15,4675
"Eroski ES",ES,1003,25021,0,721,52666,492,15,3128,410,38,3627
"Remedium BG",BG,989,27151,43,288,83876,708,235,7727,619,121,8762
"Amazon IT",IT,978,539,539,539,513132,22105,0,0,0,881,881
"Picnic DE",DE,976,7008,0,171,14064,1831,458,848,85,162,1572
"Knuspr DE",DE,961,10965,88,288,40207,1234,467,448,130,152,1222
Selgros,PL,940,21655,1084,1301,72834,24739,424,1398,618,1419,4230
"Auchan RO",RO,934,21855,13,489,91148,8702,25,1146,295,149,1830
"Coop Shop IT",IT,932,10377,3,121,31167,2318,4,596,75,111,837
"Coop SE",SE,914,0,0,0,0,5416,14,449,1,163,627
"Magnit App RU",RU,896,4225,89,280,9866,1340,20,1867,247,188,2347
"SuperValu IE",IE,847,16629,68,1079,225736,11495,495,9185,645,489,11023
"Unipatika HU",HU,847,4232,4,301,29569,2543,494,938,150,135,1736
"Tigros IT",IT,839,9689,47,543,29114,6469,4,494,310,231,1060
"Superpharm Drogeria",PL,809,2146,27,2146,84689,57180,25,2120,4587,658,7536
"Polski Koszyk",PL,806,16308,17,683,54699,7703,22,760,439,470,2002
"Dr Max SK",SK,787,17919,498,499,77949,5038,512,3395,636,328,4911
"Pilulka RO",RO,787,39382,39,565,145161,3583,501,2790,721,149,4351
"Superdrug UK",UK,784,16383,211,470,49520,5832,14,1016,1076,333,2476
"Tesco IE",IE,777,17237,76,947,408498,4372,7,10057,398,852,11482
"Auchan RU",RU,753,0,0,0,92549,0,0,0,0,0,0
"Coop DK",DK,747,11077,219,289,90181,1029,377,3477,265,40,4205
"Intervare DK",DK,733,9051,8962,9049,26425,0,4,330,3941,105,4395
"Bringmeister DE",DE,732,16086,36,271,41838,5526,12,452,123,142,777
"Walmart CR",CR,730,13614,51,250,175290,0,8,5444,340,0,5871
"Sklavenitis GR",GR,723,9851,3,318,29544,5798,74,813,150,246,1311
"eZiko Apteka",PL,719,6336,35,761,36478,29012,317,1630,803,1408,4218
"Apteka Gemini",PL,713,25894,87,2475,89831,74695,24,5080,2082,942,8285
"Zakaz - Metro UA",UA,711,14934,10,12,30539,2186,18,780,20,70,1046
"Rimi LV",LV,703,15736,174,361,46326,5333,7,1251,733,162,2170
"Tottus CL",CL,694,8794,15,1388,43934,1051,5,570,657,22,1314
"Dr Max CZ",CZ,688,18742,392,393,47452,6399,641,3145,692,482,4999
"Gurkerl AT",AT,688,9286,85,302,33125,2872,403,318,135,102,986
"Rimi EE",EE,685,12834,27,122,37435,3717,6,1170,263,157,1613
"Liki24 UA",UA,679,24589,681,971,62705,4007,22,4877,3461,203,8650
"Tesco CZ",CZ,677,17070,23,970,556071,11627,12,10124,533,2040,13029
"Bennet IT",IT,676,18401,5,162,37049,4644,4,1037,76,149,1290
"Maxi RS",RS,664,8064,1,133,28005,5910,4,423,63,98,602
"Poiesz NL",NL,659,8442,0,10,10685,135,27,514,2221,7,2778
"Vasalekaren SK",SK,658,9715,69,227,67219,3349,1303,8915,469,634,11350
"Crai Spesa Online",IT,650,157,152,157,26723,2391,453,1374,312,319,2468
"Alza CZ",CZ,649,22054,1256,22324,67843,13978,178,1397,383,1229,3273
"Rossmann DE",DE,647,14331,72,606,49878,451,633,1621,543,24,2854
"City Gross SE",SE,640,12499,31,548,26388,6052,12,432,262,275,1004
"Mat SE",SE,639,10333,294,516,32642,8384,2430,284,473,144,3344
"Alza SK",SK,634,12856,87,393,52416,2501,124,708,184,104,1144
"DOZ.pl",PL,634,14476,98,1556,57360,51677,413,3728,1319,2060,7725
"Rimi LT",LT,634,14764,11,61,44176,3421,6,1169,141,123,1457
Barbora,PL,625,7650,9,447,62512,4921,31,2173,234,708,3354
"Tesco SK",SK,625,15303,13,91,190818,211,14,3798,60,29,4067
"Esselunga A Casa IT",IT,624,14939,64,627,44180,15588,11,4580,1243,1456,7319
"DM SK",SK,622,12518,36,269,35850,2187,3,1171,118,45,1355
"Hoogvliet NL",NL,619,8781,28,101,13744,1852,6,684,104,67,871
Apteline,PL,608,1767,11,1767,82308,18106,482,1544,1671,662,4463
"Tesco HU",HU,603,15381,10,2287,870724,8991,13,16601,1280,1801,20081
"E.Leclerc Bielany",PL,601,29394,66,2771,92881,33505,87,4311,1411,19546,25586
Amazon,PL,596,368827,13399,13402,760924,17305,844,11776,0,413,13033
"Pingvinpatika HU",HU,593,7377,1,311,39730,2851,13,4821,441,313,5606
"Thanopoulos GR",GR,593,15769,23,436,53055,9139,16,4378,539,667,5648
"Apteka Galen",PL,589,8671,0,310,40398,3368,20,1448,307,226,2144
"Willys SE",SE,586,10405,36,480,34395,4954,9,361,224,166,822
"Nuko LV",LV,582,8017,2844,2855,34609,0,800,1030,4526,1,6373
"Metro Delivery RU",RU,581,12684,144,823,44799,13,19,2542,26321,13,28997
"Bestway Foodservice UK",UK,579,10676,18,302,33891,4654,294,451,193,113,1068
"Bestway Best-one UK",UK,572,6609,6,91,21474,12931,300,374,58,315,1057
"Bestway UK",UK,572,9817,26,758,31498,30015,286,433,367,684,1795
"Dr Max",PL,569,13041,693,693,49439,18657,367,2975,968,2173,6597
"Spar HU",HU,568,13899,79,423,178130,9824,13,8985,28166,0,37164
"AB GR",GR,563,11434,173,589,34247,6951,10,1222,276,172,1719
"Zakaz - Metro MD",MD,562,11302,46,69,19133,0,8,543,280,2,853
"Plus NL",NL,560,15201,0,217,29273,3739,24,1981,117,103,2256
"DM HU",HU,555,11802,3,968,32396,9595,7,1137,422,169,1762
"Kritikos GR",GR,555,15969,13155,13493,44988,0,11,31,6037,6869,12987
"Benu CZ",CZ,553,13708,76,521,61922,5306,5,6417,488,68,7010
"Apteka Melissa",PL,552,26795,1302,1302,83643,56357,24,6546,866,823,8450
"E.Leclerc Wroclaw",PL,549,15268,31,1283,15492,13168,483,1857,1981,6459,10899
Spar,PL,543,23459,1554,1920,711030,81990,22,12871,942,2203,16735
"ADD UA",UA,541,12253,28,88,48432,2550,22,1539,2270,149,4037
"DM CZ",CZ,541,11292,17,433,31165,13665,3,1103,191,235,1556
"E.Leclerc Rzeszów",PL,540,12759,31,1355,37749,36201,27,749,787,1170,2999
"Sok FI",FI,539,9299,18,325,35787,3224,75,1152,164,331,1742
"MyMarket GR",GR,535,14410,141,334,51128,5632,17,1773,455,349,2641
"Chronodrive FR",FR,527,8508,5,104,16952,2169,11,369,122,44,564
"Jumbo CL",CL,527,20487,5,1543,615454,1382,5,8284,1386,97,10014
"Univerexport RS",RS,521,9501,2,136,19002,1180,12,548,145,218,936
"Ebag BG",BG,520,11019,74,177,37823,1473,8,1072,106,29,1253
"Easy Coop IT",IT,518,10029,0,607,35610,18358,4,236,1135,296,1691
"Cold Storage SG",SG,511,9513,2,5,29507,0,550,2892,10,1,3458
"Drogeria Olmed",PL,509,1243,932,1243,125592,27906,15,9460,734,3090,13424
"Apteka Zawiszy",PL,507,18750,26,892,74616,14136,248,2435,846,361,4030
"Hemkop SE",SE,500,10518,83,635,32886,5145,9,297,289,169,807
Intermarche,PL,496,19635,1,3532,174206,25579,15,4625,1701,2014,9007
Rossmann,PL,496,2506,5,2503,75575,34083,16,1055,2912,874,4976
"Colruyt BE",BE,495,6202,91,5751,71356,14312,9,16047,10356,4906,31451
"Famila a casa IT",IT,493,12300,58,548,36864,5882,769,1455,637,236,3116
"Interspar AT",AT,490,21148,5,214,65879,6137,7,791,300,143,1291
"Migros Online CH",CH,486,12598,2,69,38229,1353,17,678,71,64,856
"Spar SI",SI,486,17549,24,267,62924,2221,14,3036,309,65,3458
"Silpo UA",UA,481,11565,0,0,28904,0,17,283,11,0,369
"Mega Image RO",RO,479,13105,15,530,39713,10977,17,685,257,167,1254
"Apteka 9-1-1 UA",UA,476,21401,44,120,49161,1778,49,620,222,68,1145
"E.Leclerc Radom",PL,472,14557,453,1188,46179,12226,78,3529,882,1363,6000
"Benulekaren SK",SK,470,8925,31,365,46026,6219,5,3680,256,145,4117
"e-Dostavka BY",BY,470,23382,175,305,66581,0,4,4962,164,1,5288
"Carulla CO",CO,464,10946,44,368,62458,4095,15,1608,213,191,2076
"Basko IT",IT,462,8514,4,439,26031,5096,3,271,485,222,996
Ceneo,PL,462,186733,2399,26013,250908,27372,834,4648,7639,677,14432
"GPSfarma AR",AR,460,5726,7,439,27331,1158,7,2084,351,69,2524
"Cornershop - Lider CL",CL,459,21233,1,1632,130998,1360,7,1154,605,48,1938
"Apteka Olmed",PL,455,1176,108,1176,141788,20867,10,11834,774,2241,14973
"Vkusvill RU",RU,449,11802,181,181,30047,1070,51,1269,199,57,1672
"MegaMarket RO",RO,447,5590,0,8,6707,568,17,1438,11,194,1706
"Carrefour ES",ES,436,12394,794,1080,14710,614,19,477,983,75,1569
"Lopido CO",CO,433,9379,512,609,18996,584,5,5113,1766,674,7571
"E.Leclerc Lublin Turystyczna",PL,427,13504,11,1294,16479,14616,7,481,1896,2418,4955
"Patika24 HU",HU,426,5071,2,276,15524,4396,5,639,314,101,1071
"Ecofamily HU",HU,424,6054,2,846,20825,4194,6,1084,7073,281,8466
"Dr Max RO",RO,418,10837,496,496,32921,5765,249,1669,537,206,2698
"E.Leclerc Katowice",PL,417,10255,73,1464,10689,12566,287,1353,2317,6401,10427
"Eva UA",UA,415,190,180,190,71303,906,482,9205,189,76,9990
"Lider CL",CL,415,11354,193,2565,208802,1088,16,11233,4279,84,15730
"Istegelsin TR",TR,408,5294,12,135,11680,0,16,187,64,1,278
"Teta Drogerie CZ",CZ,402,9278,0,7,27085,0,5,634,12,1,670
"eTabletka SK",SK,395,11109,182,299,66899,6111,388,5699,303,86,6503
"Apteki 36.6 BG",BG,394,9775,9,150,45651,722,11,1394,76,48,1565
"Dia AR",AR,394,4673,27,128,14585,600,12,558,182,21,780
"Unimarkt AT",AT,394,3268,6,123,15014,3075,123,316,124,211,783
"Kruidvat NL",NL,389,7246,99,153,17011,1812,262,737,140,88,1239
"Cornershop - Jumbo CL",CL,385,25810,5,707,134034,1343,6,835,373,46,1398
"OnlinePrima HU",HU,382,7472,0,1130,23264,5787,5,1415,657,177,2268
"Billa AT",AT,372,9009,168,316,29067,6263,5,464,857,193,1541
"Carrefour IT",IT,371,12466,258,900,37469,11230,39,505,419,321,1302
"Majestic UK",UK,371,1289,2,61,18285,1129,193,1977,58,131,2367
"Ica New Version SE",SE,369,5772,5594,5607,110254,4128,8,1797,2708,187,4779
"Iceland UK",UK,366,5540,52,368,24609,14584,6,829,338,1486,2678
"Cruz Verde CO",CO,365,4064,9,2521,16185,1186,74,1059,1171,99,2411
"Idea RS",RS,364,12014,0,125,17078,6518,90,400,60,95,661
"Ica SE",SE,361,11664,9,645,714991,9475,9,22223,317,156,23032
Stokrotka,PL,360,7237,5,116,151070,982,18,2864,89,57,3317
"Mercado Libre AR",AR,357,30662,5246,7974,68575,529,199,750,14081,39,15112
"Ulabox ES",ES,357,6128,15,23,12888,0,8,225,15,1,264
"Bringo RO",RO,356,30675,295,27639,50117,11242,26,1810,865,643,3484
"Świat Leku",PL,354,11523,9,676,34057,1832,150,1296,505,182,2204
"Farmacia Tei RO",RO,349,1361,85,85,1445,5282,15,682,72,225,1000
"E.Leclerc Lublin Tomasza Zana",PL,346,11061,2,1216,13911,10694,14,458,1623,1298,3511
"Globus RU",RU,346,14126,50,1001,47924,37,14,4143,1034,7,5263
"E.Leclerc Elblag",PL,339,9562,40,1056,26440,15217,38,2049,1698,1785,5610
"E.Leclerc Gliwice",PL,339,6572,2,857,6680,9073,202,945,1222,5712,8328
Allecco,PL,336,11314,18,844,38696,15490,20,738,872,282,2172
"Jumbo AR",AR,336,11286,1861,2325,50170,712,3,2363,1258,31,3685
"Ulta US",US,333,5,4,5,93201,0,3,292,76,1,403
"Elefant RO",RO,332,3916,3962,3962,102001,2035,105,1290,2010,21,3513
Carrefour,PL,330,15719,191,3894,118169,32713,162,2921,2268,2687,8432
"Bebe Tei RO",RO,325,24414,324,379,24414,3486,18,1163,200,209,1640
"Mpreis AT",AT,325,7743,97,219,27301,4064,446,751,503,92,1812
"Azbuka Vkusa RU",RU,321,14067,58,604,27420,218,16,2232,1992,24,4314
"MaxiCoffee FR",FR,319,6078,98,157,16180,1015,647,948,744,143,2492
"Rappi - Exito CO",CO,318,19099,11883,12484,83414,9272,3,7026,16259,246,23573
"Amazon NL",NL,314,0,0,0,85861,0,0,0,0,16,16
Empik,PL,301,166675,18711,60507,501842,24725,87,13061,1451,454,15971
"SOpharmacy BG",BG,301,9465,30,244,29611,3527,282,618,192,93,1208
DoDomku,PL,300,5738,220,572,16955,1905,41,279,298,259,887
Makro,PL,300,3410,2,529,9300,29352,8,570,252,1637,2519
"Watsons UA",UA,300,68,0,68,24349,299,15,516,337,35,1019
"Tudrogueria Virtual CO",CO,299,8637,147,4092,16649,490,3,414,1801,26,2256
"Bipa AT",AT,296,9525,43,43,20808,501,10,295,60,21,418
"Mall SK",SK,296,5328,82,5328,27420,883,380,777,12485,695,14355
"E.Leclerc Gdansk",PL,295,8453,73,904,23268,9763,39,1840,1342,1547,4881
"Rappi Lider CL",CL,294,14996,9973,10855,90547,1181,4,7938,15439,31,23454
"Cornershop - Santa Isabel CL",CL,293,6713,7,340,8330,947,7,375,382,30,801
"Rappi - Exito Express CO",CO,288,17567,7984,8577,42942,7362,4,6135,12052,252,18465
"Apteka Medea BG",BG,284,8433,6,149,25481,1980,10,1397,309,228,1968
"Konzum HR",HR,284,10360,20,266,17040,3538,313,2559,813,451,4152
"E.Leclerc Tychy",PL,283,9472,8,1191,9619,11571,56,328,1169,1878,3639
"Merqueo - Bogota CO",CO,283,3418,2,275,8213,5538,4,226,128,187,549
"Sephora US",US,283,345,325,345,129151,0,7,854,151,0,1051
"Cora RO",RO,280,34735,1544,2112,68258,6605,12,6802,2339,692,9911
"i-apteka",PL,280,9385,636,733,20130,7639,5,555,788,818,2316
Makeup,PL,277,2860,586,2860,415107,86519,9,14201,1271,1288,17026
"Sipo HU",HU,276,4117,170,170,8126,1278,5,532,103,115,765
"Argos UK",UK,273,5764,2,3776,7911,0,3,586,14677,1,15305
"PriceSmart CR",CR,273,3516,0,7,52398,0,3,8681,13,0,8724
"Delitea SE",SE,266,9907,30,297,23751,1835,8,187,134,28,381
"Groby HU",HU,266,8366,11,515,22173,3041,9,1573,839,279,2714
"Afya Pharmacy BG",BG,265,8630,15,168,28307,701,7,2562,308,180,3073
"Farmacia la Pret Mic RO",RO,264,7698,21,245,23971,4103,28,1822,295,695,2879
"Rappi - Carulla CO",CO,261,13796,7851,8376,47943,8967,3,5590,12031,294,17941
"Apteka Nove BG",BG,259,11615,0,128,37637,3389,384,1965,173,151,2700
"Apteka Medkon",PL,254,5040,564,564,21141,8281,11,3614,1184,1261,6131
"Rappi - Carulla Express CO",CO,254,12103,5904,6344,37214,8487,5,5393,9932,248,15600
"Rappi Jumbo CL",CL,253,14384,11627,11851,58993,1378,3,6693,13709,31,20468
"Dunnes IE",IE,252,14177,8,870,31380,11552,2,583,415,219,1233
Wapteka,PL,252,17131,963,1257,59737,37501,13,3345,1093,794,5360
"Rappi Unimarc CL",CL,250,13573,8006,8396,30817,1269,4,4036,10438,31,14528
"Farmatodo CO",CO,249,13416,3,3678,57171,5367,8,681,4738,95,5570
"Edeka DE",DE,248,3394,92,157,4635,98,11,308,220,140,685
"Olimpica CO",CO,247,9280,33,33,43702,0,5,1536,207,1,1773
"Helpnet RO",RO,246,6574,18,280,18509,2430,12,1930,241,189,2395
"Szybki Koszyk",PL,241,4201,0,97,14460,997,104,1121,100,88,1462
"Rappi Santa Isabel CL",CL,233,5451,0,156,6653,1199,4,1237,384,34,1663
"Metroiroda HU",HU,231,3663,2,258,7374,1364,3,959,498,158,1623
"Linio CL",CL,229,47244,174,2512,74249,0,162,1135,1608,0,2971
"Disco AR",AR,228,7836,1,400,32878,867,89,2405,761,38,3312
"Утконос RU",RU,225,1360,257,1360,42200,1971,12,479,1287,96,1920
"Merqueo - Cali CO",CO,223,2100,4,173,4687,882,3,148,80,43,277
"Makeup UA",UA,220,4633,2615,4633,477406,2400,13,21479,1489,75,23264
"Merqueo - Medellin CO",CO,220,2999,1,210,6644,5425,4,181,97,184,470
"Kesko FI",FI,219,12963,24,412,222810,9164,11,7233,492,732,8601
"Igooods RU",RU,218,19606,199,860,41271,94,14,323,482,6,1060
"Coop UK",UK,213,9816,0,824,220421,19360,2,2068,395,671,3249
"Перекрёсток Впрок RU",RU,213,15298,1202,1768,34045,3883,12,1932,1843,141,3992
"Booker Foodservice UK",UK,212,11943,21,2699,22350,3566,141,638,1313,120,2225
"Superpharm Apteka",PL,211,512,17,512,28194,20849,5,694,1522,303,2570
Cocolita,PL,208,9567,84,214,40901,13297,5,2397,490,1196,4156
"Rappi - Pricesmart CO",CO,208,1815,680,694,5181,398,4,2190,1838,40,4077
"Benu HU",HU,206,4839,0,343,15875,2744,3,2236,496,437,3182
"Booker UK",UK,206,9194,44,2784,17551,9992,135,431,1343,692,2612
"Yandex Market RU",RU,206,52526,3983,8462,87990,3560,15,2619,3913,161,6865
"Beauty Bay UK",UK,205,13368,35,86,51883,0,2,324,80,1,430
"Minifarm RO",RO,203,2764,5,156,4672,140,16,695,144,111,1060
"Emag HU",HU,198,98410,290,1587,98463,7127,8,1361,1668,134,3269
"Auchan FR",FR,194,1527,13,106,5305,749,187,318,84,116,716
"Parfums UA",UA,187,1746,47,1746,151983,0,11,4064,1620,154,5978
"Deliberry - Caprabo ES",ES,182,8687,21,24,9802,0,8,238,44,2,302
"Coursesu FR",FR,177,4284,99,148,13259,1188,29,4988,792,536,6355
"Deliberry - Mercadona Barcelona ES",ES,177,5847,0,0,6970,0,8,223,6,1,251
"Deliberry - Solri ES",ES,176,7970,0,0,9068,0,7,229,2,0,260
"Vodovoz RU",RU,175,994,14,69,2044,0,11,246,89,2,355
"Linella MD",MD,174,7084,16,1016,7086,0,7,190,25655,0,25861
"Deliberry - Mercadona Madrid ES",ES,173,5615,0,0,6729,0,8,187,6,1,227
"Pyaterochka App RU",RU,169,6579,47,516,15145,2250,10,315,244,35,670
"Everli - Coop IT",IT,163,9911,21,609,11147,50,20,4324,329,1815,6497
AptekaLeki,PL,162,576,0,17,1669,6607,7,1248,20,245,1535
"Deliberry - Supercor ES",ES,161,4084,0,0,5008,0,7,172,7,1,217
"Panda Market HU",HU,158,2202,6,119,4961,2142,8,161,58,43,274
"Professional Farmaline RO",RO,155,8583,1,117,18257,2503,8,797,105,60,1104
"Look Fantastic UK",UK,147,16238,120,1001,39833,0,1,600,465,0,1092
"Everli - Metro IT",IT,146,2590,0,58,3444,1563,18,169,38,756,984
"Tiendas Jumbo CO",CO,145,15544,2,718,76453,4982,3,8435,902,206,9592
"Deliberry - Dia ES",ES,143,3892,0,0,4748,0,8,173,2,1,206
"Deliberry - La Plaza ES",ES,143,4005,0,0,4849,0,8,156,31,2,230
"Vea Digital AR ",AR,142,3656,2,274,14095,832,90,1454,6227,49,7828
"Exito CO",CO,138,12588,85,816,72224,2780,54,3394,1407,210,5134
"Nazuby CZ",CZ,137,1611,10,66,7150,134,4,153,31,13,205
"Ozon RU",RU,136,31013,6048,9804,44675,3313,458,2433,9227,297,12544
"Subra BG",BG,131,6159,88,229,16091,2605,13,182,113,268,590
"Automercado CR",CR,130,13151,0,14,20148,0,12,2037,168,1,2232
"Coop EE",EE,129,9559,41,41,20790,1941,2,412,21,57,503
"Zakaz - Auchan UA",UA,127,5479,0,0,11958,0,11,294,5,1,338
"Medexpressz HU",HU,126,1189,83,84,2551,0,4,264,55,1,327
"Condis ES",ES,121,6551,0,37,6925,0,4,202,26,1,258
"Cora Drive BE",BE,118,13522,9800,9816,89584,4450,8,3922,11280,1210,16478
"Amazon Fresh DE",DE,115,8045,1197,1203,12483,5908,290,1016,1544,326,3187
"Farmacia Pasteur CO",CO,114,8656,20,3288,53874,562,4,1623,2641,31,4334
"Rappi Cruz Verde CL",CL,110,5043,2791,3076,35689,1206,3,3128,4814,32,7995
"Auchan UA",UA,108,4154,1,21,12420,0,15,1392,51,2,1483
"Produktoff UA",UA,102,14096,25,6701,14226,0,10,425,19432,1,19897
"Savage & Whitten IE",IE,101,3757,20,143,7514,1150,8,332,67,99,511
"Koffievoordeel NL",NL,98,516,0,64,3182,1272,2,627,109,29,769
"Vitania BG",BG,97,7229,1,127,7229,2273,9,343,64,76,501
"Kaffedeal DK",DK,92,394,0,36,1054,634,2,47,17,31,97
"Kaufland DE",DE,90,28393,163,391,35277,608,74,895,391,61,1457
"Brack CH",CH,81,8220,64,247,20858,1694,74,328,275,210,907
"Okey RU",RU,80,10325,4386,5614,10357,320,9,602,16341,22,17000
"Farmacity AR",AR,72,14,0,14,3683,1142,2,164,9,41,217
"Durst DE",DE,69,1043,65,1043,1108,0,3,20,28,2,60
"Droguerias Cafam CO",CO,67,4287,681,2968,10987,1439,21,845,5694,54,6620
"Sanctuary UK",UK,63,114,0,0,412,0,3,40,2,25,70
"Rozetka UA",UA,62,65135,497,1750,85385,3075,86,3931,608,149,5041
"Kaffekapslen DK",DK,60,762,0,64,1742,1326,68,69,54,176,367
"Kapselnkogen DK",DK,56,274,0,59,570,553,22,56,57,31,166
"Saturn DE",DE,56,2156,5,62,4599,862,291,2087,262,4007,6650
"Bol NL",NL,55,1557,1534,1576,42008,2486,60,2563,2769,476,5886
"iDrinks HU",HU,52,6490,145,164,14018,252,4,1606,166,73,1859
"Bigshop MK",MK,51,997,0,0,3690,0,117,232,9,1,361
"Emag RO",RO,49,61406,119,829,61409,5290,7,1619,1030,167,2972
"Expert DE",DE,49,1038,19,1009,1118,387,116,79,2512,64,2772
"Pretty Little Thing UK",UK,49,2052,38,149,5977,0,3,257,76,0,339
"Winelivery IT",IT,49,1493,0,19,3262,0,4,255,15,0,277
"Very UK",UK,47,3708,134,3721,4011,0,11,60,1710,1,1791
"Fudge UK",UK,45,93,0,0,528,0,2,28,2,36,68
"Media Markt DE",DE,45,1687,6,49,4374,1009,290,3345,344,1362,5343
"Carrefour AR",AR,41,3532,424,488,11687,512,82,544,952,26,1616
"Altex RO",RO,38,2178,0,160,4246,2509,6,202,192,158,572
"BilkaToGo DK",DK,37,3786,0,144,21378,1339,7,80,63,34,201
"Ep DE",DE,35,199,0,4,636,213,73,123,9,83,289
"John Lewis UK",UK,27,16,3,16,443,105,4,30,28,18,81
"Mercator SI",SI,27,12533,24,178,12533,1761,7,29,85,51,187
"Carrefour FR",FR,25,11201,118,614,15912,1895,7,1851,1427,299,3595
"StTropez UK",UK,25,25,0,0,69,0,2,16,2,49,69
"Avansas TR",TR,24,509,0,4,514,0,2,18,3,0,24
"Qvc US",US,24,17239,19,113,21521,0,24,218,1571,1,1840
"St. Tropez US",US,23,18,0,0,59,0,3,16,2,0,21
"MyDeal AU",AU,19,3604,0,0,0,0,5,130,3413,96,3645
"Shoplink IE",IE,18,146,0,116,438,1941,26,38,82,139,285
"Boulanger FR",FR,17,719,4,51,1483,352,19,89,133,149,391
"Euronics DE",DE,15,10113,17,166,38845,1212,32,928,42171,0,43131
"Mercado Libre CL",CL,12,6577,93,237,12688,0,12,338,242,0,601
"BCC NL",NL,11,1913,3,20,2519,625,4,118,21,55,201
"El Corte Ingles ES",ES,11,3950,6,148,5098,696,63,326,821,78,1293
"Sodimac CL",CL,11,111,0,0,238,0,17,77,101,0,195
"Leclerc FR",FR,10,225,2,66,343,613,13,257,1282,1056,2610
"Wildberries RU",RU,10,601,1,1,601,1491,37,163,201,104,713
"Mediaworld IT",IT,9,270,4,44,540,1452,15,121,119,323,579
"Myer AU",AU,9,1352,8,26,2389,0,11,115,57,1,184
"Coles AU",AU,8,282,2,97,566,388,12,50,229,232,523
"Intermarche FR",FR,8,379,77,110,709,1023,6,45,484,295,830
"Sushi33 UA",UA,8,47,0,24,92,0,6,46,13,1,67
"AO UK",UK,7,864,3,19,1165,190,74,8,23,6,113
"Woolworths AU",AU,7,1437,20,159,2305,372,3,84,93,34,215
"Unieuro IT",IT,6,1572,5,27,1972,1059,3,23,15,60,104
"Costcutter IE",IE,4,158,5,115,158,411,6,12,56,86,161
"Easy CL",CL,3,603,0,0,687,0,3,20,1,2,28
"Zakaz - Novus UA",UA,2,1,0,0,1,1630,4,44,1,74,126
" SberMarket - Lenta RU",RU,0,0,0,0,0,0,128,27,1,1421,1582
"0815 DE",DE,0,0,0,0,0,0,3,12,0,87,102
"Alcampo ES",ES,0,0,0,0,0,551,120,1,4,170,309
"Asos UK",UK,0,0,0,0,0,0,2,1,1,63,69
"Feedo CZ",CZ,0,0,0,0,0,0,3,68,5,374,450
"Gall & Gall NL",NL,0,0,0,0,0,0,24,1,0,33,59
"Metro RU",RU,0,0,0,0,0,0,9,64,8,135,225
"Roastmarket DE",DE,0,0,0,0,0,383,19,1,1,17,42
"Rossman HU",HU,0,0,0,0,0,7532,3,42,5,192,242
"SberMarket - Metro RU",RU,0,0,0,0,0,0,110,48,1,2070,2240
"Selver EE",EE,0,0,0,0,0,0,2,4,1,221,231
"Supermarket AM",AM,0,0,0,0,0,0,178,1,1,0,181
"Yandex Lavka RU",RU,0,0,0,0,0,2262,7,87,1,73,169
