﻿Site,Country,Categories,Prices,"Products changed","Products downloads",Relations,Search,"Categories time","Prices time","Products time","Search time","Total time"
"Ocado UK",UK,6552,48604,235,2554,460399,39856,1351,11483,4206,1911,19361
frisco,PL,4707,2177,11,2177,316393,97592,87,6099,5504,251,12196
"Mytime DE",DE,4667,11620,75,484,102361,3041,2199,3065,254,179,5741
"Asda UK",UK,3508,29085,62,2110,984478,50408,51,10725,1271,1136,13897
"Albert Heijn NL",NL,3451,21553,27,248,105552,4365,457,1576,39,80,2241
"Makro CZ",CZ,3428,0,0,0,707170,0,3250,0,0,0,3250
"Morrisons UK",UK,3128,21041,223,2000,95401,31195,614,5382,3366,2071,11536
"Waitrose UK",UK,3083,16135,242,1274,1525565,32095,107,22699,902,798,26006
"Metro SK",SK,3034,6136,4,13,272634,0,2654,22844,30,0,25634
"Rohlik CZ",CZ,2991,24118,105,1016,225713,24540,2084,3825,630,866,7539
"Albert Heijn BE",BE,2884,10130,12,100,50602,6382,473,1517,29,174,2237
"Notino SK",SK,2690,2550,246,2550,116178,167,1280,6757,3320,15,11546
"Kosik CZ",CZ,2686,17080,48,846,98427,34142,457,1711,405,1001,3646
"Galen BG",BG,2674,13966,7,173,97353,4930,1520,2606,166,124,4502
Auchan,PL,2562,16820,17,1314,515466,26592,74,16647,1212,3845,22247
"Pilulka SK",SK,2504,39902,203,469,247511,11415,29,4389,383,276,5252
"Drogeo CZ",CZ,2491,756,45,756,130189,42711,17,2503,403,862,3868
"Amazon Fresh UK",UK,2431,9302,517,518,53042,17396,735,3428,370,396,4991
"Samokat RU",RU,2407,5072,20,135,58546,140,29,50,132,19,289
"Notino CZ",CZ,2353,720,51,720,57771,70774,1085,7320,738,1388,10750
"Pilulka CZ",CZ,2287,24773,214,558,99546,34625,17,8216,783,1516,10600
"Coto Digital AR",AR,2270,17970,4,355,87982,1196,1400,2866,246,45,4603
"Sainsburys UK",UK,2260,30098,35,2418,1800362,83332,230,28033,2033,1800,34039
"Amazon UK",UK,2212,1987,1982,1987,1465083,35849,0,0,0,13828,13828
"Amazon Fresh IT",IT,2061,7701,719,719,37372,3073,3044,4228,1992,795,10080
"Jumbo NL",NL,2033,18322,16,315,76401,4216,1323,2039,307,116,3845
"Drogerie Natura",PL,1992,15368,7,745,83339,49174,61,4851,1368,4421,10824
"Boots UK",UK,1988,25495,1091,8399,145500,8003,48,3777,12420,245,16659
"Auchan HU",HU,1911,29278,63,2053,239364,10290,16,4942,1632,534,7285
"Brakes UK",UK,1895,9579,1106,1282,28775,30763,896,1807,584,317,3638
"Cefarm 24",PL,1661,13697,19,833,100049,15129,2328,4050,1093,5438,12983
"Yuga RO",RO,1651,8272,1,50,41081,1265,2006,4246,2853,135,9277
"Otto DE",DE,1613,278,127,276,68278,186,746,1006,652,18,2453
"Delhaize BE",BE,1603,14299,266,514,60369,17033,16,1927,308,553,2851
"Alza CZ",CZ,1554,28796,210,616,108255,29204,267,1847,432,1358,3961
eZebra,PL,1374,42710,134,1694,151469,36776,57,7859,9125,8431,25646
"Alza SK",SK,1366,13522,55,261,57842,3785,200,517,1024,140,1911
"Apteka Nowa Farmacja",PL,1338,15657,69,1024,81611,22758,9647,3251,1152,1885,16006
"Tesco UK",UK,1321,28066,90,2574,345701,23494,32,10277,1421,8004,20121
"Remedium BG",BG,1314,26651,33,278,93549,1530,359,8210,591,203,9430
"Coop CH",CH,1313,18557,73,246,68038,2135,297,2189,626,160,3321
"Picnic NL",NL,1310,7063,6,84,16224,2241,606,1044,49,77,1791
"Barbora EE",EE,1298,14037,184,206,49308,1310,37,1691,101,88,1942
"Kifli HU",HU,1283,14182,62,1678,58310,10231,597,617,776,379,2419
"Rewe DE",DE,1244,9598,8,205,35273,3275,15,1381,247,381,2057
"Barbora LT",LT,1233,17226,156,187,58024,1396,42,1792,97,80,2049
"E-Fresh GR",GR,1218,12534,40,708,61325,6640,2319,4236,1474,657,8726
"iGlobus Zlicin CZ",CZ,1212,18916,56,726,35380,8631,16,5425,2202,1014,8692
"Barbora LV",LV,1208,13819,233,261,49074,1391,91,3206,139,119,3590
"Amazon DE",DE,1201,379499,10393,10393,532677,13728,4009,11438,62891,5190,83528
"Alcampo ES",ES,1193,8255,505,2925,11953,564,3339,5874,23190,0,32403
"S-kaupat FI",FI,1168,42455,138,425,328459,6367,4,2865,449,112,3596
"Moja Lekaren SK",SK,1167,24255,41,365,132404,4599,694,3770,223,188,4957
"Lekarna CZ",CZ,1160,28732,29,611,127360,5069,680,3652,430,193,5064
Hebe,PL,1113,1467,418,1467,159239,36753,820,2928,2551,790,7232
"Albert App CZ",CZ,1076,8170,11,38,59367,983,526,1878,23,31,2507
"Eroski ES",ES,1049,25829,19,248,54813,575,16,3736,197,45,4029
"Mathem SE",SE,1046,12314,21,574,33721,7477,13,1114,834,547,2539
"Picnic DE",DE,1036,7151,3,155,14388,1858,462,855,71,164,1567
"Coop NL",NL,1011,16656,7,110,71625,1184,1794,2338,262,74,4526
"Knuspr DE",DE,1009,11634,35,211,47875,1523,508,470,104,154,1270
"Auchan RO",RO,1006,24992,13,551,432958,7765,19,5031,471,449,6308
"Amazon IT",IT,1005,193920,2245,2246,281516,6639,614,6198,0,871,7683
"Salcobrand CL",CL,1000,6463,0,0,28230,1014,287,620,4443,15,5389
"Zakaz - Novus UA",UA,1000,13878,24,103,21465,0,5,1413,51,1,1503
"Dr Max SK",SK,994,22938,4,462,96633,7142,658,5421,558,389,7098
Bee,PL,989,52749,231,642,178101,9582,460,3400,318,230,4633
Selgros,PL,974,21513,1065,1227,74835,28516,444,1011,566,1581,3723
"Carrefour BE",BE,962,19308,8,453,255507,11679,908,11028,346,4012,16444
"Coop SE",SE,927,10060,6,485,34542,8021,13,914,234,213,1397
"Coop Shop IT",IT,924,9939,0,317,29858,5739,18,639,217,365,1271
"Unipatika HU",HU,871,4378,2,299,31065,4679,585,1237,151,276,2270
"Pilulka RO",RO,865,10528,45,143,44906,3338,7,436,120,212,824
"Magnit App RU",RU,854,4048,11,101,11137,0,14,1532,79,1,1641
"SuperValu IE",IE,840,16230,9,1073,221574,10376,874,16751,1189,526,19595
"Tigros IT",IT,839,10136,30,597,30449,7130,17,469,348,240,1106
"Apteka Manada",PL,820,14704,1218,1243,41849,35578,61,5966,3332,4189,13605
"Wong PE",PE,811,23507,95,504,145152,1830,18,8697,8257,67,17106
"Polski Koszyk",PL,791,21020,4,975,67947,2024,14,878,546,68,1638
"Tesco IE",IE,783,17111,38,884,419019,4114,15,9988,497,724,11553
"Superpharm Drogeria",PL,772,730,37,730,102228,38061,21,1925,1425,441,3924
"Ebag BG",BG,766,11423,114,198,42180,1720,8,1252,132,30,1449
"Zakaz - Metro UA",UA,765,10289,26,198,20945,0,5,2334,168,0,2533
"eZiko Apteka",PL,763,7188,18,561,42963,12294,343,1809,360,848,3399
"Auchan RU",RU,762,25331,716,880,80823,1376,14,1437,594,30,2152
"Dr Max CZ",CZ,755,20794,59,612,88399,7914,326,4492,571,427,5900
"Coop DK",DK,748,11238,3103,3244,90810,1194,346,3317,1628,40,5393
"Masxmenos CR",CR,730,8777,30,49,24053,0,25,2202,97,5,2342
"Walmart CR",CR,730,13699,58,468,174633,4919,22,7644,1111,204,9061
"Sklavenitis GR",GR,729,10025,16,286,30063,4397,98,1334,179,261,1899
"Mall CZ",CZ,722,8068,471,8067,106099,15516,614,761,11978,2704,16195
"Bringmeister DE",DE,719,16317,40,295,44197,4427,10,378,132,142,702
"Apteka Gemini",PL,718,27078,276,1570,94167,63524,40,3727,881,784,5567
"Cruz Verde CL",CL,717,10013,1,3,143788,0,23,18169,9,0,18263
"Lunys SK",SK,712,5284,56,70,18712,0,609,1305,67,1,1998
"Tesco CZ",CZ,712,16863,296,1621,557648,23952,9,11424,822,3557,16128
"Intervare DK",DK,711,9124,8063,8168,26388,0,12,335,3730,110,4207
"Rimi EE",EE,707,12330,41,130,36204,3707,7,679,128,98,932
"Rimi LV",LV,706,14975,17,88,44107,5352,18,733,90,101,979
"Walmart AR",AR,692,0,0,0,0,0,503,1162,0,1,1666
"Gurkerl AT",AT,691,9701,40,181,35048,3356,354,322,83,113,906
Barbora,PL,688,9322,155,922,114063,8207,33,2796,562,993,4527
"Bennet IT",IT,679,19218,30,459,38768,14965,14,1062,1248,743,3104
"DM SK",SK,658,12635,21,43,36014,2170,9,1306,35,105,1489
"Rossmann DE",DE,657,15584,39,225,53678,460,506,1075,219,19,1855
"Poiesz NL",NL,656,7875,1,11,10085,126,36,528,3024,10,3616
"Rimi LT",LT,654,14551,20,85,43563,3392,16,688,89,71,896
"Maxi RS",RS,653,7864,7,139,25864,6657,14,444,73,114,671
"Hoogvliet NL",NL,652,8836,38,122,14413,1873,35,768,138,95,1061
"Tesco SK",SK,652,16037,26,88,232650,833,9,4834,63,114,5201
"DOZ.pl",PL,649,18981,61,1468,77661,55169,436,3143,838,1927,6436
"Apteka Rosa",PL,648,9986,23,23,60737,0,9,3260,17,2,3343
"City Gross SE",SE,647,12780,3,529,28095,8904,10,349,248,369,1004
Amazon,PL,645,646,637,642,965096,24046,0,0,0,1475,2674
"Tesco HU",HU,644,15233,134,2513,1023962,8526,9,18940,1308,1772,22552
"Esselunga A Casa IT",IT,642,15279,8,611,45690,16639,18,5566,1379,1771,8768
"Rossman HU",HU,640,15014,28,999,54615,7618,650,830,1748,167,3458
"Crai Spesa Online",IT,639,414,9,432,25764,6712,341,963,894,808,3022
"Mercator SI",SI,630,12726,49,215,38178,2277,303,281,99,79,798
"E.Leclerc Bielany",PL,625,31821,37,2662,101485,36318,101,3667,1209,22147,27262
Apteline,PL,618,964,18,964,83111,15832,431,1331,646,502,2980
"Colruyt BE",BE,606,8005,1,249,94703,14773,12,14455,681,1810,17072
"Glovo Kaufland RO",RO,599,9165,330,9165,16581,0,5,297,129,1,451
"Thanopoulos GR",GR,598,16339,22,349,54531,9156,8,5033,388,689,6160
"Apteka Galen",PL,593,8516,2,404,22683,2990,12,2234,1444,1057,4792
"Pingvinpatika HU",HU,590,7571,40,330,40994,2837,10,4945,652,318,5958
"Willys SE",SE,588,10647,5,445,35260,6897,10,450,252,215,955
"Benu CZ",CZ,586,14184,43,428,66261,5889,9,7430,499,75,8049
"Vkusvill RU",RU,583,6430,22,154,22573,1390,276,3299,393,198,4183
"Plus NL",NL,581,15889,37,264,30621,3811,41,3281,141,1389,4904
"Bestway Best-one UK",UK,570,6485,31,100,21006,11993,298,390,65,309,1101
"Bestway UK",UK,570,9012,47,628,28964,28852,298,431,322,668,1761
"E.Leclerc Wroclaw",PL,569,16226,90,1420,16614,13439,487,1877,2189,5450,10056
"Dr Max",PL,567,13532,13,778,51037,24907,242,2476,772,957,4508
"Zakaz - Metro MD",MD,567,10715,31,105,18128,0,7,1311,504,0,1841
"Bestway Foodservice UK",UK,564,10463,65,354,33113,3859,294,458,222,98,1108
"Spar HU",HU,563,15186,480,1876,349686,11468,13,8038,3251,408,11889
"Kritikos GR",GR,562,16667,213,341,47110,0,8,26,159,6867,7107
"DM HU",HU,561,12502,33,848,34126,9724,8,1201,755,327,2324
"Superdrug UK",UK,561,13357,443,605,43648,6733,17,459,1004,1066,2599
"AB GR",GR,558,11407,45,582,34776,8063,7,664,264,247,1226
Lek24,PL,558,5811,1,1,20804,0,7,1129,5,1,1168
"Yandex Lavka RU",RU,558,3248,13,223,9192,0,122,813,411,216,1572
"Vasalekaren SK",SK,557,10213,18,148,63340,3931,1137,9161,347,661,11333
"Apteka Melissa",PL,552,27288,241,1769,79737,60027,44,5391,1101,805,7431
"Chronodrive FR",FR,550,7983,155,328,14867,2135,12,483,218,124,847
"Pão de Açucar BR",BR,548,23613,1250,1478,56804,0,18,1892,764,2,2710
"DM CZ",CZ,547,12408,31,870,33888,32756,9,1179,776,1075,3102
Spar,PL,547,24814,1788,2155,685284,76974,42,12277,1052,2581,16545
"Jumbo CL",CL,546,21090,21,2363,526553,1366,19,7162,1634,106,9189
"Freshful RO",RO,542,19779,63,170,40396,361,5,833,83,14,999
"MyMarket GR",GR,538,14558,1,304,51447,6978,8,2262,349,331,2989
"Univerexport RS",RS,536,9922,8,139,19844,1328,21,581,156,233,1009
"E.Leclerc Rzeszów",PL,535,12264,25,1530,36066,26975,52,779,674,974,2539
"Carrefour ES",ES,532,14819,98,359,17908,413,26,571,770,33,1427
"Drogeria Olmed",PL,522,486,46,486,146948,25861,9,11897,361,2449,14837
"Plazavea PE",PE,516,26120,12,522,189797,1833,14,4521,247,187,5072
Rossmann,PL,511,1164,9,1164,80195,31389,43,876,2056,696,3774
"Apteka Zawiszy",PL,505,20251,99,1075,80013,20626,244,1177,549,441,2513
"Cold Storage SG",SG,504,9409,6,9,29294,0,548,2251,11,1,2818
"Hemkop SE",SE,503,10419,4,467,32625,7223,8,271,217,219,742
"Benulekaren SK",SK,501,9201,22,424,48112,6779,9,3881,318,134,4373
"Interspar AT",AT,499,21164,9,224,66887,6364,8,659,297,143,1160
"Metro RU",RU,497,19904,89,533,23720,1374,12,2654,904,90,3711
Intermarche,PL,496,18650,1,2496,161792,16601,24,3446,1170,1402,6318
"Idea RS",RS,487,12056,0,143,20980,6879,87,522,69,101,803
"Migros Online CH",CH,485,12327,90,178,38225,1342,19,1307,159,248,1766
"Spar SI",SI,484,16792,26,290,60302,2730,7,641,364,103,1167
"Mega Image RO",RO,483,12539,13,390,37532,9922,5,581,176,200,1004
"Famila a casa IT",IT,477,12180,18,175,29453,6417,822,1497,340,313,3001
"Dr Max Drogeria",PL,476,16708,7,453,53010,5715,212,2532,689,225,3730
"E.Leclerc Radom",PL,472,13491,116,1394,42550,10899,86,2710,685,2277,5845
"e-Dostavka BY",BY,467,34481,224,771,99121,2060,5,11301,379,158,11907
"Apteka Olmed",PL,463,1064,37,1064,159094,20515,11,11456,631,1835,14051
"Basko IT",IT,463,8432,17,430,25788,1564,8,274,701,47,1052
Ceneo,PL,463,201113,2024,14213,268725,45127,1031,2977,13964,428,18790
"Cornershop - Lider CL",CL,462,18937,20,2457,122009,1345,18,1096,1136,107,2453
"GPSfarma AR",AR,460,7287,22,487,29446,1165,17,2673,334,99,3139
Aptelia,PL,459,622,31,622,70570,10062,210,2063,384,347,3054
"Mercado Libre MX",MX,459,54892,371,2655,113213,0,846,1185,695,0,2792
"Carulla CO",CO,455,9976,13,423,29400,4926,21,1310,293,304,1965
"MegaMarket RO",RO,447,5388,0,9,6498,571,7,1278,17,190,1502
"Cornershop - Jumbo CL",CL,444,28296,0,1027,148510,1356,19,805,528,111,1589
"eTabletka SK",SK,441,12060,16,210,81914,6789,306,9080,199,94,9714
"Patika24 HU",HU,440,4420,15,295,10759,3220,9,583,377,89,1067
"Lider CL",CL,438,11516,239,2125,220368,1126,19,13184,3831,98,17252
"Dr Max RO",RO,435,15179,38,315,46987,8684,196,1967,309,334,2841
"Unimarc CL",CL,434,10887,5,515,32655,1144,17,539,500,41,1115
"Lopido CO",CO,433,10306,91,330,18300,606,15,8368,2036,102,10533
"E.Leclerc Lublin Turystyczna",PL,432,12930,1,1413,15945,13701,42,1126,2916,4515,8637
"Ecofamily HU",HU,430,6704,2,795,21705,4147,8,2185,4324,628,7171
"Kruidvat NL",NL,427,8538,4,53,23897,1776,223,811,63,90,1216
"E.Leclerc Katowice",PL,417,8945,1,1040,9421,10198,101,400,840,1621,2994
"iFresh SK",SK,405,7200,73,73,157815,0,9,4611,8841,1,13562
"Glovo Biedronka Warszawa",PL,401,3270,336,3270,6291,620,7,185,102,51,361
"Teta Drogerie CZ",CZ,398,8658,7,542,25155,6747,9,718,501,150,1400
"OnlinePrima HU",HU,397,7411,0,1174,22830,6033,7,623,865,290,1804
"Apteki 36.6 BG",BG,395,9901,13,163,46857,1208,7,1445,91,87,1660
"Dia AR",AR,393,4996,1,147,15625,652,17,547,173,15,764
"Unimarkt AT",AT,391,3421,41,377,16242,3243,130,361,264,223,995
"Bringo RO",RO,389,31725,158,26333,51623,7028,24,1776,1093,674,3620
"Farmacia Tei RO",RO,388,316,296,316,25873,3248,5,700,164,155,1044
Stokrotka,PL,382,7761,4,155,165357,12508,24,2799,90,415,3530
"DrankDozijn BE",BE,378,3614,3,75,14688,2255,7,635,118,573,1346
"DrankDozijn NL",NL,378,3613,3,72,14685,250,6,612,113,59,803
"Iceland UK",UK,376,5585,20,363,29500,15465,12,1169,380,1384,2981
"Majestic UK",UK,374,1399,3,69,18771,1166,182,1947,124,132,2411
"Billa AT",AT,372,9348,129,285,30271,6631,8,470,809,195,1509
"Walmart GT",GT,369,9020,14,373,155075,4329,19,6242,904,236,7473
"Świat Leku",PL,365,11593,9,343,34689,1900,160,1354,283,184,2044
"Ulabox ES",ES,363,5611,1,20,11729,0,7,216,13,2,248
"Carrefour IT",IT,362,13335,206,919,35925,4661,193,1201,431,362,2218
"Apteka Prima 24",PL,355,4485,39,75,20660,1273,31,376,63,118,619
"Cornershop - Metro PE",PE,354,14954,106,302,49439,1759,12,505,108,191,856
"Ica New Version SE",SE,354,6330,4651,5420,131223,5339,7,2227,2525,220,5053
"E.Leclerc Lublin Tomasza Zana",PL,353,9750,54,1282,12891,8935,13,423,1142,1125,2734
"Cornershop - Wong PE",PE,351,16931,22,237,50960,1813,11,526,236,180,995
"Feedo CZ",CZ,351,64,23,64,59073,431,150,943,72,26,1246
"Gall & Gall NL",NL,347,3195,27,81,22437,67,8,4251,198,18,4498
"Ica SE",SE,345,10800,3,641,641547,12640,7,20003,316,218,20914
"Rossmann App CZ",CZ,345,10673,35,219,35038,0,7,2949,104,1,3090
"E.Leclerc Elblag",PL,339,10487,12,1071,29048,15190,64,1752,1348,2504,5712
Allecco,PL,336,11785,37,696,40579,10763,21,623,558,180,1467
"Roastmarket DE",DE,334,59,9,59,33097,384,23,412,1463,15,1929
Carrefour,PL,332,17104,37,3044,143600,39105,212,3095,2338,2233,8047
"Bebe Tei RO",RO,330,1456,1332,1447,27327,1490,3,876,737,92,1725
"Mercado Livre BR",BR,325,100420,699,2164,779179,0,601,10154,590,2,11823
"Mpreis AT",AT,325,7998,11,140,28035,4611,372,801,166,100,1463
"Jumbo AR",AR,324,12020,14,734,53737,753,11,2383,370,30,2826
"Sipo HU",HU,323,5559,190,276,12355,1442,8,610,151,116,901
"Cornershop - Santa Isabel CL",CL,320,7391,6,408,9178,1036,16,625,620,85,1354
"Gastronom BG",BG,307,7780,23,139,24263,944,8,435,105,230,798
"Mercado Libre AR",AR,307,31393,4594,5030,69861,422,180,752,12883,76,13950
"SOpharmacy BG",BG,304,9935,36,241,31364,6471,399,1004,281,216,1925
Empik,PL,302,176738,18491,52019,496780,32406,96,13629,1789,516,16979
"Bipa AT",AT,300,12155,3,47,26540,565,11,368,85,20,525
"Cora RO",RO,300,47551,11,415,93931,6553,3,6056,478,951,7563
DoDomku,PL,299,6086,0,0,17876,2354,55,351,0,562,983
"Easy Coop IT",IT,299,9204,8,636,27481,10053,7,1854,1316,862,4061
"Mall SK",SK,298,2935,62,2935,29928,1146,338,757,7067,1144,9338
"Amazon NL",NL,297,0,0,0,125537,0,0,0,0,19,90
"E.Leclerc Gdansk",PL,295,10068,3,779,27627,8948,61,1654,985,2221,4985
"Tudrogueria Virtual CO",CO,291,8481,35,3907,16364,459,10,341,1787,24,2175
"Apteka Nove BG",BG,287,11415,5,156,40167,6239,6,2679,476,392,3582
"Apteka Medea BG",BG,284,8652,1,159,25744,0,4,1444,153,2,1623
"Sephora US",US,283,274,250,274,124015,0,14,1005,210,1,1275
Makeup,PL,282,76325,28398,76325,531584,83350,5,15750,39586,0,55341
"i-apteka",PL,280,9783,108,531,21006,5851,8,408,562,422,1437
"Argos UK",UK,278,5250,82,4066,7886,0,7,517,15004,1,15551
"E.Leclerc Tychy",PL,278,8973,0,1027,9151,10601,55,324,714,1644,2765
"Konzum HR",HR,278,10977,10,182,17326,3451,310,2461,556,433,3775
"Edeka DE",DE,271,3729,62,103,4978,132,7,398,117,131,660
Makro,PL,271,3132,0,501,8579,31661,6,521,232,1633,2414
"Groby HU",HU,268,8212,19,538,21892,3570,7,1252,540,240,2059
"Farmacia la Pret Mic RO",RO,264,8743,37,269,26798,6024,20,1182,147,1202,2577
"PriceSmart CR",CR,262,3576,4,42,53654,3526,11,11592,96,760,12486
"E.Leclerc Gliwice",PL,260,7961,16,814,21770,7388,54,1369,799,1938,4205
"Globus RU",RU,255,12895,373,374,41909,322,9,1644,222,18,1933
"Apteka Medkon",PL,254,7261,500,500,30187,8445,17,4116,1081,1267,6516
"Azbuka Vkusa RU",RU,254,9908,50,135,20135,1286,25,1608,526,120,2300
Wapteka,PL,252,18932,1269,1328,64984,41437,4,4456,836,715,6092
"Delitea SE",SE,251,9316,11,315,22778,5636,5,184,147,83,442
"Dunnes IE",IE,249,13077,12,838,23541,9888,9,741,1341,426,2562
"Supermarket AM",AM,249,6894,18,115,17538,0,5,933,243,1,1194
"Szybki Koszyk",PL,247,4342,2,96,14853,609,118,639,55,40,875
"Helpnet RO",RO,245,6919,53,295,19566,5134,5,1921,245,387,2575
"Olimpica CO",CO,241,10185,12,304,41726,1284,9,2374,898,103,3414
"Lisek App",PL,240,1935,0,197,2708,1100,8,19,94,264,393
"Farmatodo CO",CO,238,13131,3,3586,60161,6784,12,668,6096,104,6919
"Carrefour BR",BR,237,10319,5,47,43718,0,20,9132,147,1,9339
"Afya Pharmacy BG",BG,234,9946,11,174,31213,1813,7,2445,231,323,3029
"Metroiroda HU",HU,230,3305,7,255,6686,1258,3,745,428,134,1315
"Disco AR",AR,227,8141,5,330,33722,1176,98,3682,2008,79,5885
"Linio CL",CL,226,44644,110,369,76721,0,107,669,387,0,1248
"Coop UK",UK,225,8827,1,618,209551,7842,6,4562,487,1320,6569
"Getir IT",IT,222,1930,13,99,5308,8246,15,119,52,104,299
"Benu HU",HU,220,4933,3,351,15610,2750,6,2423,464,377,3287
"Rappi - Exito CO",CO,220,17150,1078,1180,52641,10231,89,7751,18616,373,26856
"Beauty Bay UK",UK,217,11832,21,154,49393,0,5,328,110,1,521
"MaxiCoffee FR",FR,216,5095,30,131,13131,1567,460,815,554,243,2078
"Booker Foodservice UK",UK,214,11886,388,2818,22197,2731,136,477,1319,101,2065
"Superpharm Apteka",PL,214,518,59,518,30474,22990,5,729,1078,323,2169
"Перекрёсток Впрок RU",RU,214,16024,39,711,33924,2825,8,892,592,69,1596
"Igooods RU",RU,213,15636,9,514,34166,533,7,237,316,18,621
"Exito CO",CO,211,9645,16,795,38815,3134,148,3649,2343,599,6771
"Rappi - Carulla Express CO",CO,211,12250,997,1235,29905,6854,88,6127,16706,582,23551
Cocolita,PL,208,10541,18,684,46281,15659,4,2743,1518,1737,6064
"Subra BG",BG,206,8203,4,208,20966,4949,10,252,105,631,1020
"Yandex Market RU",RU,206,0,0,0,62218,0,0,0,0,0,0
"Booker UK",UK,205,8875,384,2702,16884,8406,127,382,1257,664,2456
"Утконос RU",RU,205,661,83,661,78646,1513,26,415,555,68,1121
"Rappi Lider CL",CL,204,16364,12113,12365,82514,1322,10,5519,15777,32,21389
"Minifarm RO",RO,203,2635,8,130,4452,516,5,656,104,226,1004
"Rappi - Carulla CO",CO,201,13941,828,927,43442,9521,137,7294,18588,361,26401
"Emag HU",HU,199,104280,2985,27780,104319,7072,9,3416,30492,396,34444
"Panda Market HU",HU,199,2439,1,146,6138,982,7,161,73,104,350
"Pyaterochka App RU",RU,195,5538,14,318,14551,1249,6,242,152,16,441
"Vodovoz RU",RU,192,1140,3,29,2336,0,6,348,54,1,415
"Deliberry - Caprabo ES",ES,184,8543,0,0,9657,0,20,1225,86,0,1341
"Merqueo - Bogota CO",CO,184,976,0,61,2117,2611,9,137,33,158,339
"Coursesu FR",FR,183,3725,314,536,6050,982,30,9415,8779,4190,22437
"Deliberry - Solri ES",ES,178,9124,0,0,10235,0,19,1222,64,1,1316
"Merqueo - Cali CO",CO,178,1110,0,49,2515,977,10,135,27,40,214
"Rappi Jumbo CL",CL,177,15955,12659,12902,62174,1400,10,4827,14265,31,19175
"Tiendas Jumbo CO",CO,177,14542,2,801,30350,5402,13,1525,1090,205,2862
"Deliberry - Mercadona Barcelona ES",ES,175,5718,0,0,6855,0,20,1204,2033,1,3264
"Merqueo - Medellin CO",CO,174,1176,0,86,2532,3008,9,136,43,161,352
"Deliberry - Mercadona Madrid ES",ES,173,5651,0,0,6764,0,16,1132,2135,1,3289
"PennyDomu CZ",CZ,173,1680,5,7,4817,0,86,205,6,0,301
"Rappi Unimarc CL",CL,173,12284,3778,3991,29099,1319,9,2837,4920,31,7821
"Jumia NG",NG,170,7976,61,453,17795,462,86,307,207,21,633
"Linella MD",MD,169,6146,263,263,12193,0,6,284,229,1,534
"Rappi Turbo CO",CO,169,2248,167,224,8745,1236,153,5661,620,122,6560
"Everli - Coop IT",IT,164,12039,0,195,13181,7240,41,874,209,651,1791
"Rappi Turbo PE",PE,163,0,0,0,0,1736,154,889,23,121,1187
"Deliberry - Supercor ES",ES,161,4086,0,0,5010,0,18,1073,20,0,1115
"Rappi - Exito Express CO",CO,161,11243,817,1100,30248,4915,129,6250,17564,309,24270
"Rappi Carrefour AR",AR,158,5674,47,320,7731,1236,92,1223,1065,62,2448
"Rappi Turbo CL",CL,158,773,23,33,1689,0,159,1101,122,24,1407
"Rappi - Pricesmart CO",CO,156,2136,74,82,6841,1563,121,2688,2507,97,5418
"Rappi Coto AR",AR,156,7965,54,275,20668,1042,90,2639,577,61,3381
"Professional Farmaline RO",RO,155,8480,8,130,18020,5361,3,543,85,103,756
"Auchan FR",FR,154,1658,1,75,5552,601,244,389,131,163,932
"Dirck3 NL",NL,151,525,1,28,2492,144,5,83,14,26,135
"Look Fantastic UK",UK,147,16442,61,126,50906,0,5,681,117,1,860
"Everli - Metro IT",IT,145,2484,1,57,3309,1452,34,324,63,391,820
"Deliberry - Dia ES",ES,143,4171,0,0,5032,0,20,940,2,1,968
"Deliberry - La Plaza ES",ES,143,4250,0,0,5109,0,18,937,196,1,1156
"Medexpressz HU",HU,137,1360,0,85,2934,0,6,266,54,2,332
"Superxtra PA",PA,136,4935,16,18,10363,0,62,69,10,2,154
"Nazuby CZ",CZ,135,1776,4,75,6134,163,6,157,68,16,253
"Rappi Turbo AR",AR,133,1035,0,30,3682,821,154,2110,95,71,2433
"Alkohol CZ",CZ,131,4277,0,0,11962,0,19,1202,3,1,1238
"Automercado CR",CR,126,11898,87,155,18575,0,24,2013,563,1,2614
"Extra BR",BR,125,77926,103,2825,77926,0,42,1368,661,18,2156
"Ozon RU",RU,124,63854,3552,3936,98937,1943,543,2746,3485,108,7230
"Condis ES",ES,121,6675,1,1,7057,0,4,186,24,2,225
"Cora Drive BE",BE,120,13903,9240,9252,90768,4372,10,3856,10647,1292,15868
"Coop EE",EE,117,4680,3,27,9847,1368,2,222,14,56,300
"Mercado Libre CL",CL,110,43334,808,1056,59965,1146,135,565,510,56,1323
"E-tinex MK",MK,109,4405,0,33,8810,392,5,79,17,33,148
"Amazon Fresh DE",DE,105,9487,457,458,14762,7302,429,792,309,162,1708
"Vea Digital AR ",AR,104,2426,0,207,9431,1001,95,1484,3822,79,5487
"Farmacia Pasteur CO",CO,103,6805,1703,3416,41592,608,9,1289,2674,26,4029
"Farmacity AR",AR,97,292,4,292,6464,1163,7,312,146,38,506
"Savage & Whitten IE",IE,97,3636,6,151,7272,927,10,373,74,79,549
"Vitania BG",BG,96,7271,20,169,7271,4268,5,356,83,159,616
"Everli - Kaufland",PL,94,0,0,0,19709,0,0,0,0,0,0
"Koffievoordeel NL",NL,92,471,0,50,2874,1253,4,514,194,29,744
"Everli - Lidl",PL,91,0,0,0,23548,0,0,0,0,0,0
"Kaufland DE",DE,90,29244,180,402,36942,728,64,670,326,38,1143
"PriceSmart PA",PA,89,1645,5,38,18986,789,49,4838,43,456,5395
"PriceSmart GT",GT,87,1572,2,23,13834,2162,8,3467,25,589,4096
"Kaffedeal DK",DK,83,377,0,26,940,774,3,48,13,35,100
"Okey RU",RU,81,4265,1488,1976,4301,766,9,438,5504,170,6137
"Brack CH",CH,80,7792,17,114,19283,1760,71,253,133,163,637
"Comfandi Supermercados CO",CO,72,4481,234,234,9054,0,9,816,481,1,1313
"Durst DE",DE,69,1125,71,1125,1196,0,4,20,21,3,52
"Droguerias Cafam CO",CO,68,4516,931,3031,11536,1436,20,727,5357,57,6167
"Media Markt DE",DE,68,1276,5,50,3290,467,792,4116,371,769,6054
"Pretty Little Thing UK",UK,68,2040,34,35,10069,0,11,2282,337,1,2642
"Rappi Cruz Verde CL",CL,64,4409,1788,2367,29264,1350,6,1841,3966,32,5865
"Rozetka UA",UA,62,70020,723,2050,88398,0,112,5445,662,1,6381
"Kaffekapslen DK",DK,61,793,2,70,1816,1513,53,69,110,194,428
"PedidosYa DIA AR",AR,61,2469,0,35,2469,408,11,65,19,14,114
"Emag RO",RO,60,56349,237,1526,56356,4826,5,1315,2377,248,4027
"Kapselkongen DK",DK,57,257,1,58,516,684,23,55,33,32,144
"Comfandi Droguerias CO",CO,56,4436,2456,2456,8752,980,9,770,4753,126,5663
"iDrinks HU",HU,53,6513,195,214,14282,252,10,1187,228,62,1501
"Bigshop MK",MK,51,1036,0,53,3849,570,192,495,101,189,980
"Expert DE",DE,51,41,0,1,43,0,105,70,24,10,211
"PedidosYa Carrefour AR",AR,48,4080,22,267,4080,674,8,74,127,15,229
"Very UK",UK,47,3817,14,37,4126,0,16,48,971,1,1048
"Bol NL",NL,45,325,262,329,31381,2291,56,2240,649,573,3541
"BilkaToGo DK",DK,37,3841,1,155,22817,1556,9,87,74,37,241
"Datart CZ",CZ,37,978,9,19,1342,971,5,87,30,64,198
"Selver EE",EE,37,4031,36,106,10889,2901,5,295,178,206,693
"Altex RO",RO,36,1409,2,92,2788,1848,3,120,167,127,423
"Ep DE",DE,36,220,2,10,707,0,75,131,22,2,232
"Saturn DE",DE,34,663,4,12,1382,421,328,713,46,2407,3497
"Winelivery IT",IT,34,1301,0,12,2798,0,5,177,9,1,198
"Galaxus CH",CH,33,8268,80,269,8268,1038,17,1851,928,1250,4058
"John Lewis UK",UK,33,20,12,20,546,182,6,27,51,86,171
"Kesko FI",FI,31,4469,0,0,62920,9154,18,1383,0,891,2334
"Americanas BR",BR,27,0,0,0,0,0,318,23,2,2,347
"Carrefour FR",FR,24,8050,174,538,11062,1563,4,841,779,213,1845
"MyDeal AU",AU,20,26,10,26,9561,937,3,70,17,57,148
"Deeski NG",NG,19,203,0,17,324,249,10,39,35,29,114
"Shoplink IE",IE,19,148,0,124,444,1757,32,50,86,113,282
"Boulanger FR",FR,17,891,3,56,2085,378,23,122,193,134,473
"Euronics DE",DE,15,9685,1,190,38033,0,29,760,40613,1,41438
"Qvc US",US,14,15635,62,91,17134,0,20,189,361,1,588
"BCC NL",NL,11,1896,1,23,2490,661,6,150,30,56,248
"El Corte Ingles ES",ES,11,3901,0,137,5059,669,57,286,1494,80,1925
"Leclerc FR",FR,10,253,24,74,506,734,19,188,2487,911,3606
"Wildberries RU",RU,10,55546,840,2060,57475,1606,9,180,1383,40,1861
"Myer AU",AU,9,7452,65,215,9031,0,12,1279,443,0,1738
"Coles AU",AU,8,315,5,308,633,405,5,44,2015,517,2581
"Intermarche FR",FR,8,456,0,117,882,861,4,38,282,286,612
"AO UK",UK,7,814,6,23,1111,289,65,8,36,41,166
"Woolworths AU",AU,7,1480,7,121,2336,360,3,68,52,34,158
"Unieuro IT",IT,6,1700,2,16,2132,1167,3,20,20,62,115
"Barrys Beacon IE",IE,4,156,6,123,156,391,8,38,63,108,218
"Konga NG",NG,3,71,21,71,2998,200,130,24,41,16,213
"Musgrave IE",IE,3,0,334,334,0,3929,3,30,2,1272,1335
"Carrefour AR",AR,1,1318,1,1,3169,511,90,199,167,37,497
" SberMarket - Lenta RU",RU,0,0,0,0,0,0,7,26,1,127,162
Allegro,PL,0,1964,9,1646,0,0,0,0,36970,0,36970
"Chedraui MX",MX,0,0,0,0,0,0,4,4,0,1,9
"Cruz Verde CO",CO,0,0,0,0,0,0,5,27,2,40,74
"Drogas La Rebaja CO",CO,0,0,0,0,0,0,23,3563,1,271,3858
"Easy CL",CL,0,0,0,0,0,0,2,66,2,2,72
"Elefant RO",RO,0,0,0,0,0,2060,5,16,4,79,117
"Mediaworld IT",IT,0,0,0,0,0,0,49,1,2,243,295
"Metro Delivery RU",RU,0,0,0,0,0,0,29,27,18,68,142
"Rappi Farmacity AR",AR,0,0,0,0,0,1252,42,8,26,132,210
"SberMarket - Metro RU",RU,0,0,0,0,0,0,5,28,1,118,152
"Sodimac CL",CL,0,0,0,0,0,0,19,71,1,0,91
"Soriana MX",MX,0,0,0,0,0,0,2,6,2,1,11
"Tottus CL",CL,0,0,0,0,0,1238,5,74,1,23,103
