﻿Site,Country,Categories,Prices,"Products changed","Products downloads",Relations,Search,"Categories time","Prices time","Products time","Search time","Total time"
"Ocado UK",UK,7136,47922,170,2480,2060974,43688,757,20744,964,1120,25008
"Mytime DE",DE,4893,11546,9,131,103264,2947,2131,2813,66,155,5215
frisco,PL,4711,2084,27,2084,318983,98457,109,4804,2831,1384,9433
"Asda UK",UK,3574,29976,81,2282,1186120,59044,18,15114,1139,1325,18375
"Albert Heijn NL",NL,3462,21690,54,393,106321,6454,450,1584,52,125,2297
"Makro CZ",CZ,3397,8116,2,8,862890,489,3526,25410,43,47,29443
"Rohlik CZ",CZ,3336,24312,95,1671,264667,31658,2469,4292,1063,1011,9032
"Coto Digital AR",AR,3297,17364,9,395,103951,1591,4318,8927,437,102,13835
"Morrisons UK",UK,3192,21647,162,2120,1097415,33269,150,5954,271,489,7869
"Waitrose UK",UK,3178,15738,100,1136,1491580,38001,54,21254,464,958,24188
"Metro SK",SK,3034,6625,5,7,304955,0,3047,23161,37,0,26384
"Albert Heijn BE",BE,2911,11091,39,156,55413,7601,459,1360,32,147,2039
"Pilulka SK",SK,2760,39202,151,371,271031,11400,50,5013,198,253,5706
"Notino SK",SK,2752,1400,410,1400,107187,304,1290,6776,2364,21,10701
"Galen BG",BG,2718,14309,32,204,101329,4960,1509,2583,121,125,4406
"Kosik CZ",CZ,2710,17133,28,1152,98704,36293,528,1743,544,985,3899
Auchan,PL,2620,16845,106,1356,280248,27851,81,15477,1201,1687,18810
"Drogeo CZ",CZ,2472,730,99,730,124470,42615,48,2643,454,850,4099
"Pilulka CZ",CZ,2378,32182,286,991,164332,34763,36,5056,562,926,6761
"Amazon Fresh UK",UK,2337,7352,495,495,44558,35862,611,1471,264,688,3089
"Notino CZ",CZ,2327,1645,460,1645,110483,60833,1072,6563,2970,1272,12176
"Amazon UK",UK,2206,2464,2451,2472,762390,71235,0,0,0,16572,16572
"Sainsburys UK",UK,2171,29470,75,2349,1909042,97630,393,30271,1880,2076,36781
"Boots UK",UK,2037,26593,679,5607,168365,8998,20,3917,8175,261,12489
"Drogerie Natura",PL,1981,15405,11,725,88027,50307,96,4634,1107,3474,9444
"Amazon Fresh IT",IT,1954,7666,551,551,37129,3589,2864,1180,1316,296,5677
"Brakes UK",UK,1895,9623,59,276,28794,47615,863,1793,123,464,3279
"Jumbo NL",NL,1747,17024,36,456,64821,6275,1195,1768,443,189,3642
"Otto DE",DE,1696,228,160,232,72332,189,801,1117,557,18,2532
"Auchan HU",HU,1684,21214,112,2097,158772,20314,36,4258,1119,816,6379
"Musgrave IE",IE,1683,133,17,157,53523,3981,7,2508,149,160,2844
"Yuga RO",RO,1676,8775,22,81,43781,0,2112,4568,3226,0,9949
"Cefarm 24",PL,1664,13480,58,853,98745,15828,2158,3785,1112,5576,12715
"Alza CZ",CZ,1593,30708,173,232,119157,28987,370,3275,288,1452,5472
"Delhaize BE",BE,1582,14458,97,524,59641,18702,26,3533,417,758,4775
"Apteka Nowa Farmacja",PL,1381,15520,44,885,77307,23443,11430,3417,1105,2044,18091
eZebra,PL,1374,42983,163,1611,153093,42212,65,9702,1372,8721,20005
"Alza SK",SK,1367,13553,113,262,57908,782,190,611,92,45,971
"Tesco UK",UK,1364,30548,70,2721,426464,25162,14,17079,1156,9837,28533
"Amazon BR",BR,1348,0,0,0,903972,0,0,0,0,22,22
"Kifli HU",HU,1345,13851,32,1641,63368,12989,729,632,777,425,2629
"Picnic NL",NL,1318,7167,21,147,16785,3349,571,1019,87,126,1818
"Barbora EE",EE,1310,13124,185,247,45948,1371,46,1963,119,93,2244
"Remedium BG",BG,1305,26591,35,293,89257,1534,287,6780,436,151,7740
"Rewe DE",DE,1255,9389,17,212,32925,3002,25,1631,241,358,2292
"Coop CH",CH,1253,18681,62,131,68635,1950,299,2038,251,148,2795
"Barbora LT",LT,1247,16581,19,69,55177,1379,37,1634,38,66,1802
"Moja Lekaren SK",SK,1224,24396,76,348,131993,6637,675,3734,180,216,4898
"Amazon DE",DE,1214,171,171,171,135613,12997,0,0,0,2981,2981
"E-Fresh GR",GR,1212,12259,20,637,59670,6900,2335,4162,1329,706,8574
"Lekarna CZ",CZ,1209,29856,116,627,131632,6187,658,3706,323,202,5006
"iGlobus Zlicin CZ",CZ,1205,19202,14,426,35310,10452,28,3011,936,406,4435
"S-kaupat FI",FI,1184,43666,273,561,338202,6466,26,3197,531,114,4072
"Farmaline BE",BE,1173,30604,43,130,145956,0,1592,3883,301,1,5873
Hebe,PL,1170,1065,47,1065,169976,29569,1080,4118,1745,1307,8390
"Picnic DE",DE,1127,7357,6,155,15177,1880,498,938,77,167,1690
"Albert App CZ",CZ,1078,7940,17,44,44010,1710,498,2215,25,57,2856
"Dr Max SK",SK,1078,23362,42,461,101903,7166,848,7166,624,422,9168
"Knuspr DE",DE,1066,10542,34,165,42851,1631,578,477,79,150,1315
"Eroski ES",ES,1048,26277,75,271,55620,578,28,3636,206,44,3959
"Mathem SE",SE,1043,12765,15,557,34928,7714,20,1127,835,532,2542
"Amazon IT",IT,1016,539,539,539,244060,6948,0,0,0,761,761
"Salcobrand CL",CL,1008,7692,28,7691,34760,2600,291,616,4214,37,5180
"Auchan RO",RO,1006,24520,94,783,422312,7601,20,5117,682,451,6683
"Vkusvill RU",RU,1003,11516,24,158,42776,1589,292,4949,393,166,5834
Bee,PL,1002,52680,124,496,181502,9344,467,3401,241,237,4521
"Zakaz - Novus UA",UA,998,18049,98,197,37413,0,9,2048,108,1,2203
Selgros,PL,989,20370,351,1394,70983,28506,457,1065,626,1585,3852
"Coop NL",NL,973,13125,2,173,56273,1795,1756,1932,335,131,4199
"Tigros IT",IT,966,9793,6,540,29420,6194,6,788,315,242,1372
"Carrefour BE",BE,931,18425,54,589,195012,22027,883,10312,256,1101,12684
"Coop Shop IT",IT,927,11473,24,388,34444,6468,7,657,271,378,1338
"Coop SE",SE,914,9885,20,514,33711,8256,23,919,243,228,1444
"Pilulka RO",RO,868,10082,208,212,43467,3451,10,435,100,62,657
"Unipatika HU",HU,864,4361,2,300,30315,4690,581,1294,179,380,2463
"Magnit App RU",RU,845,4249,13,89,11626,0,6,1211,66,1,1298
"SuperValu IE",IE,845,16086,9,1034,219075,13957,876,16714,1158,724,19717
"Ebag BG",BG,836,11509,99,169,43613,1792,26,1357,235,32,1689
"Tesco IE",IE,832,16942,39,928,419359,4680,6,14876,507,991,16665
"Apteka Manada",PL,813,14532,328,1342,49865,39250,50,2309,2173,2665,7272
"Wong PE",PE,811,23613,51,275,145383,1874,21,8150,7229,77,15561
"Superpharm Drogeria",PL,807,693,20,693,92054,37565,41,2444,1483,438,4501
"Walmart MX",MX,787,24301,83,198,104439,3369,68,20778,171,292,21372
"Polski Koszyk",PL,783,18282,12,1100,59419,1749,41,877,745,67,1840
"Auchan RU",RU,780,26641,49,676,80631,275,8,2057,584,33,2755
"Apteka Melissa",PL,779,27362,293,1927,102623,61567,53,8430,1433,850,10872
"eZiko Apteka",PL,775,7473,26,618,45030,20101,356,1838,294,1132,3669
"Gurkerl AT",AT,773,9713,42,167,42517,3395,434,349,80,109,1021
"Alcampo ES",ES,770,10027,209,992,37471,0,2157,4556,2240,156,9128
"Dr Max CZ",CZ,766,22843,9,332,97247,8054,390,5771,324,544,7100
"Coop DK",DK,757,11195,426,456,90917,1222,351,3326,369,38,4156
"Zakaz - Metro UA",UA,757,12054,19,129,23225,0,8,2590,101,1,2721
"Mall CZ",CZ,735,4566,904,4565,110561,16328,568,641,7144,2853,11432
Barbora,PL,733,11321,82,878,141665,9431,56,3672,488,949,5325
"Masxmenos CR",CR,730,9287,12,12,25459,0,42,2164,35,1,2255
"Walmart CR",CR,730,14530,32,337,185566,5084,21,6752,529,181,7596
"Cruz Verde CL",CL,729,9554,11,999,138809,3093,3,18133,462,37,18702
"Sklavenitis GR",GR,728,9835,31,310,29499,4528,159,1555,193,337,2273
"Esselunga A Casa IT",IT,726,15475,14,625,49012,16775,10,4436,1015,1235,6733
"Lunys SK",SK,719,5370,11,15,18777,0,646,1255,35,1,1957
"Apteka Gemini",PL,718,26745,135,1455,94501,65852,42,3860,781,812,5627
"Rimi LV",LV,715,14965,14,89,44006,5410,9,752,90,116,995
"Bringmeister DE",DE,709,14072,59,261,38850,4335,19,371,118,145,688
"Rimi EE",EE,709,12520,23,56,36804,3726,9,720,58,110,919
"Intervare DK",DK,702,9065,169,270,26304,0,11,331,131,110,604
"Tesco CZ",CZ,682,15847,36,1529,521008,24478,21,12353,999,4215,17930
"Rossmann DE",DE,681,16352,23,125,56636,464,816,1574,118,20,2565
"Bennet IT",IT,680,19443,67,496,39198,15027,6,1079,872,702,2694
"Lopido CO",CO,671,10088,8,63,18479,890,3,8086,379,53,8538
"Poiesz NL",NL,667,7652,0,37,9866,993,14,539,3236,45,3848
"Maxi RS",RS,663,7869,9,138,25787,6870,7,558,64,120,766
"DM SK",SK,662,12468,39,96,35691,6059,20,1398,50,271,1794
"Rimi LT",LT,661,14892,16,64,44808,3429,8,739,67,84,928
"Hoogvliet NL",NL,658,8677,24,147,14235,2398,13,776,151,125,1085
Amazon,PL,657,690,678,682,1067209,27621,0,0,0,739,739
"Apteka Rosa",PL,648,9581,33,122,57437,2177,42,3831,162,146,4268
"Crai Spesa Online",IT,647,402,22,402,27076,7066,361,961,905,817,3059
"Rossman HU",HU,640,14690,26,1040,53837,7778,661,979,2095,171,3967
"City Gross SE",SE,636,12916,6,549,27253,9211,19,342,258,375,1033
"DOZ.pl",PL,629,18988,27,1430,76466,57455,515,3171,801,2012,6592
"Mercator SI",SI,622,12746,64,235,38238,2255,280,289,113,81,819
"Tesco HU",HU,622,14820,65,2359,985621,9701,22,20747,1702,2073,25207
"E.Leclerc Bielany",PL,621,32487,85,2574,103702,35925,117,4078,1168,23033,28552
Apteline,PL,614,1120,29,1120,20051,1707,795,1263,1185,519,3793
"Tesco SK",SK,613,15149,16,76,218812,825,20,5483,65,133,5869
"Colruyt BE",BE,607,7948,52,384,94136,16494,12,14534,1112,1796,17559
"Pingvinpatika HU",HU,607,7653,83,377,42138,2847,23,5321,554,321,6257
"Apteka Galen",PL,596,8644,8,291,25291,3299,35,2309,916,848,4155
"Thanopoulos GR",GR,595,15542,28,311,52350,6035,23,4818,380,680,5943
"Benu CZ",CZ,593,13543,38,362,61914,5905,19,8129,465,67,8747
"Yandex Lavka RU",RU,585,2826,71,174,8637,2585,328,2678,1317,612,4945
"Plus NL",NL,584,15284,5,344,31882,5871,47,2445,165,251,2953
"Willys SE",SE,582,10535,31,493,34622,7098,13,386,238,250,919
"Vasalekaren SK",SK,579,10152,21,190,64317,4139,1395,8564,440,621,11061
"Sams MX",MX,576,5258,34,44,37382,670,3,3737,73,197,4023
"Bestway Best-one UK",UK,574,6558,38,76,21255,12041,307,374,53,306,1070
"Bestway Foodservice UK",UK,574,10132,133,433,32152,3928,310,435,256,98,1130
"Bestway UK",UK,574,8994,88,519,28969,40490,306,419,263,877,1895
"Idea RS",RS,574,12016,3,181,22396,7332,105,607,85,110,929
"Superdrug UK",UK,574,13883,10,194,43414,6705,14,468,570,1039,2149
"E.Leclerc Wroclaw",PL,572,16178,78,1258,16385,12775,516,1905,1939,5079,9495
"Carrefour EG",EG,570,18359,88,136,109519,463,19,1554,219,21,1885
"Dr Max",PL,567,17953,47,813,60519,26668,269,3443,2139,1563,7498
"Zakaz - Metro MD",MD,567,9885,12,76,16882,0,22,1313,394,1,1751
"DM HU",HU,565,12563,11,854,34278,9876,22,1248,395,335,2058
"Kritikos GR",GR,563,16887,6,344,47759,0,20,49,162,7542,7857
Lek24,PL,563,6117,15,90,21765,4394,32,1229,63,217,1581
Spar,PL,563,25561,1810,2157,679652,77243,45,12377,1049,2213,16366
"Metro RU",RU,561,19918,22,414,26544,1436,8,1893,375,53,2375
"Glovo Kaufland RO",RO,557,8747,1396,8747,15537,0,8,289,129,1,444
"Spar HU",HU,555,15343,485,1962,350170,13929,23,8365,3307,493,12479
"AB GR",GR,549,11316,10,531,33638,8707,21,830,250,239,1375
"Chronodrive FR",FR,549,8555,69,168,15078,2090,11,461,109,139,733
"DM CZ",CZ,548,12217,54,864,33352,32829,17,1240,408,1090,2806
"Pão de Açucar BR",BR,548,22646,309,456,55111,0,20,1896,308,1,2261
"Plazavea PE",PE,545,26964,83,256,184481,1924,17,4917,137,178,5365
"Freshful RO",RO,544,18990,58,195,38821,1011,7,782,90,30,959
"Jumbo CL",CL,544,21406,46,1079,637110,2654,4,8657,1064,207,10245
"MyMarket GR",GR,537,14350,136,322,51686,7194,23,2114,438,393,3015
"Univerexport RS",RS,536,9757,17,269,19514,1460,14,572,290,254,1152
"Carrefour ES",ES,531,14969,32,227,18080,421,45,527,569,30,1197
"E.Leclerc Rzeszów",PL,531,11335,9,1258,32970,24530,44,697,628,881,2311
"Drogeria Olmed",PL,524,643,45,643,150374,26618,37,13159,455,2670,16506
"Clube Extra BR",BR,523,12711,630,713,34026,0,15,1091,394,1,1526
Rossmann,PL,507,1555,377,1555,79969,33524,34,882,1731,782,3517
"Hemkop SE",SE,506,10370,14,474,32534,7460,13,285,217,222,767
"Apteka Zawiszy",PL,505,20488,258,1098,80455,21895,274,1418,768,470,3041
"Benulekaren SK",SK,501,9054,24,422,48323,6847,19,4761,357,131,5302
"Cold Storage SG",SG,501,9582,2,35,29924,0,532,1935,39,0,2513
Intermarche,PL,500,19552,3,2557,165274,14844,31,3755,1205,1407,6719
"Interspar AT",AT,500,21973,47,254,265265,6223,23,2565,306,142,3288
"Migros Online CH",CH,486,12157,14,74,37684,1326,39,1343,69,213,1706
"Spar SI",SI,482,16643,31,250,57867,2711,22,622,294,105,1108
"Dr Max Drogeria",PL,480,17949,11,687,57991,6804,36,2852,925,341,4233
"Mega Image RO",RO,479,12432,4,365,37200,9877,7,813,169,285,1311
"Famila a casa IT",IT,477,12219,28,132,29530,6471,817,1501,238,312,2891
"E.Leclerc Radom",PL,472,13752,103,1441,43126,10688,111,2757,706,2579,6229
"e-Dostavka BY",BY,468,36200,98,531,102305,2349,8,7598,240,164,8100
"Apteka Olmed",PL,464,1080,581,1080,162221,21200,28,12803,713,2223,15894
"Carulla CO",CO,464,11299,26,295,64457,903,9,2271,210,62,2596
"Basko IT",IT,462,8443,7,415,25809,1579,4,265,461,47,795
Ceneo,PL,462,195070,963,6120,259891,46344,1092,3049,3757,303,8693
"Cornershop - Jumbo CL",CL,460,23671,447,1467,138994,2566,4,779,939,223,2056
Aptelia,PL,459,638,14,638,71291,11585,224,2214,326,371,3195
"GPSfarma AR",AR,458,5313,7,335,14044,1553,20,1700,342,125,2198
"Glovo Biedronka Warszawa",PL,449,3321,383,3320,6544,757,18,210,101,90,443
"Ecofamily HU",HU,448,6767,1,704,22140,4223,15,2214,3977,654,6892
"MegaMarket RO",RO,447,5144,0,9,6239,557,9,1294,13,186,1511
"eTabletka SK",SK,443,11467,6,162,77784,6852,217,3474,121,85,3962
"Patika24 HU",HU,441,4345,7,236,10419,3220,20,1126,432,179,1772
"Dr Max RO",RO,440,15331,8,208,45470,8660,206,2308,223,467,3236
"Justo MX",MX,437,4132,94,94,12392,0,2,1881,56,0,1944
"Cornershop - Lider CL",CL,433,19923,7,1180,128723,2233,4,935,507,201,1750
"Unimarc CL",CL,433,10800,13,434,32379,2329,5,957,1042,166,2186
"E.Leclerc Lublin Turystyczna",PL,432,12502,7,1381,15496,12919,26,1091,2832,4409,8404
"E.Leclerc Katowice",PL,415,9569,7,1286,10092,10855,108,459,977,1507,3101
"iFresh SK",SK,412,7082,8,8,160900,0,17,4521,16,1,4677
"Kruidvat NL",NL,410,8514,34,70,23899,1769,178,744,81,104,1135
"Farmacia Tei RO",RO,408,407,407,407,26160,3274,8,800,265,175,1262
"Ica New Version SE",SE,407,7581,6642,6669,163749,6066,14,2606,3096,233,6042
"Teta Drogerie CZ",CZ,401,8622,34,520,25058,6759,23,776,533,202,1567
"Elefant RO",RO,399,957,1073,1073,118777,2212,199,5038,521,93,5939
"Apteki 36.6 BG",BG,395,9943,16,165,47043,1339,21,1575,88,87,1814
"OnlinePrima HU",HU,395,8102,34,1335,24943,7395,21,2242,1335,383,4017
Stokrotka,PL,392,7675,12,172,163699,12469,30,3015,96,420,3801
"Majestic UK",UK,391,1386,3,74,20372,1217,193,2193,63,139,2606
"Unimarkt AT",AT,389,3424,12,155,15755,3259,155,460,153,267,1051
"Mercado Libre MX",MX,388,39958,293,1805,85039,2738,729,918,504,329,2532
"Świat Leku",PL,385,11233,14,338,37595,2087,195,1399,289,204,2148
"DrankDozijn BE",BE,380,3699,7,89,15044,2247,6,657,141,475,1295
"DrankDozijn NL",NL,380,3699,7,88,15044,299,6,647,139,20,826
"Talabat Mart EG",EG,380,6553,212,222,48640,565,14,2394,655,14,3122
"Ica SE",SE,378,11317,14,705,668528,12887,13,21446,345,235,22430
"Bebe Tei RO",RO,371,173,29,173,27386,1570,6,863,101,89,1077
"Billa AT",AT,371,9430,27,199,30794,6697,17,357,352,148,921
"Cruz Verde CO",CO,369,4675,10,274,18691,1848,3,1951,128,45,2134
"Walmart GT",GT,369,9583,50,380,164359,4348,27,5483,586,183,6369
"Bringo RO",RO,367,29839,199,28578,46267,4631,30,1504,1272,1366,4213
"Ulabox ES",ES,367,5743,2,15,12096,0,11,219,12,2,254
"Carrefour IT",IT,360,13749,210,794,38474,4641,303,1354,396,488,2571
"Feedo CZ",CZ,356,137,69,137,57287,449,167,1312,152,30,1738
"Apteka Prima 24",PL,355,4515,5,173,20194,1263,17,435,173,128,792
"Globus RU",RU,355,18271,197,448,61131,320,8,1968,268,18,2315
"E.Leclerc Lublin Tomasza Zana",PL,352,11043,27,1292,14153,9598,23,477,1221,1051,2813
"Jumbo AR",AR,351,10186,117,563,67902,1119,19,2599,296,45,2998
"Gall & Gall NL",NL,347,3214,14,63,23116,66,8,4991,125,18,5158
"Iceland UK",UK,343,5638,52,330,29989,17526,8,1088,360,3690,5172
"Cornershop - Santa Isabel CL",CL,342,8441,3,528,10288,1762,5,582,806,171,1574
"E.Leclerc Elblag",PL,339,10429,7,1034,28857,14727,76,1903,1151,2900,6068
"Rossmann App CZ",CZ,339,10314,46,187,33415,0,12,2837,94,1,2975
Carrefour,PL,337,15235,118,2813,129345,39309,730,2555,2279,2668,8406
"Istegelsin TR",TR,336,4145,3,72,9272,0,24,165,35,1,237
"Roastmarket DE",DE,335,55,14,55,32142,369,29,676,271,16,1008
Allecco,PL,334,11685,71,661,40428,9993,24,732,535,198,1552
"Sipo HU",HU,333,5258,30,174,11195,1440,17,762,149,124,1078
"Cornershop - Wong PE",PE,327,16646,9,225,49667,1839,12,529,255,167,1001
"Cornershop - Metro PE",PE,325,14738,20,219,47662,1785,10,554,195,168,966
"Mpreis AT",AT,325,8053,3,122,28226,4662,378,830,133,101,1469
"Mercado Libre AR",AR,319,39322,602,1780,80609,1106,187,871,2982,107,4220
"Gastronom BG",BG,309,7327,59,107,22678,940,18,492,86,228,860
"Bipa AT",AT,302,12353,19,62,26585,583,17,438,92,25,640
Empik,PL,302,195315,5737,7760,470616,33296,83,14258,3194,199,18339
"Amazon NL",NL,301,0,0,0,126963,0,0,0,0,16,16
"Cora RO",RO,300,52309,358,756,105851,5833,5,4378,573,1039,6114
DoDomku,PL,299,6041,117,457,17623,2393,39,254,228,307,843
"Easy Coop IT",IT,299,8701,42,576,25927,8793,5,1896,1173,842,3936
"Lisek App",PL,298,2151,13,211,3021,1300,29,26,102,325,495
"Mall SK",SK,298,1137,60,1137,29707,1172,367,878,3265,1257,5809
"SOpharmacy BG",BG,296,9853,16,205,30770,6289,415,1052,230,582,2315
"E.Leclerc Gdansk",PL,295,9861,2,835,27051,8452,67,1775,922,2532,5339
Makeup,PL,292,3034,905,3034,498946,102017,14,18017,9299,1175,28815
"Tudrogueria Virtual CO",CO,291,8065,18,3411,15568,939,2,287,1582,44,1928
"Apteka Nove BG",BG,289,11370,1,149,39702,5219,18,1902,188,294,2446
"Apteka Medea BG",BG,284,8695,8,159,26151,0,18,1641,178,2,1874
"Sephora US",US,283,169,162,169,132276,0,11,1070,99,0,1232
"Argos UK",UK,280,5397,125,3773,8017,0,5,545,14514,2,15081
"i-apteka",PL,276,10171,91,513,21907,6835,13,505,546,479,1593
"E.Leclerc Tychy",PL,275,8942,5,1136,9037,10071,69,368,772,1568,2814
Makro,PL,272,3079,0,502,8444,31943,12,531,237,1632,2433
"Edeka DE",DE,268,3697,62,93,4943,104,19,321,95,116,559
"Groby HU",HU,268,8055,4,538,21409,4388,14,1163,649,388,2243
"Chedraui MX",MX,267,15998,210,253,33606,2451,4,1551,128,116,1815
"Farmacia Pasteur CO",CO,265,8138,207,3151,57546,1055,3,1594,2674,46,4359
"Farmacia la Pret Mic RO",RO,262,8279,37,296,27228,5941,21,1463,197,828,2529
"E.Leclerc Gliwice",PL,260,7820,13,774,21326,6861,69,1497,702,2259,4564
"Carrefour BR",BR,256,9160,34,140,44096,0,19,8509,254,0,8831
"Apteka Medkon",PL,254,8095,472,472,33259,4651,17,4474,1000,1690,7227
"Azbuka Vkusa RU",RU,254,9764,98,153,20258,1172,19,1691,635,104,2476
"La Comer MX",MX,254,203,57,203,22880,3985,4,371,542,177,1104
"PriceSmart CR",CR,253,2925,7,43,43074,3318,7,11640,37,685,12396
Wapteka,PL,253,19059,4831,4833,64217,42707,19,4089,2914,747,7851
"Mercado Livre BR",BR,249,79214,477,1564,933285,0,526,10323,700,1,12285
"Merqueo - Bogota CO",CO,249,2156,42,168,4968,2337,3,167,91,116,381
"Szybki Koszyk",PL,248,4273,0,136,14642,653,125,634,68,42,897
"Delitea SE",SE,247,9821,141,423,24862,5667,10,199,199,86,518
"Supermarket AM",AM,246,6605,6,37,16685,0,5,722,49,1,793
"Helpnet RO",RO,245,6606,55,255,18619,5135,5,1894,216,393,2524
"Benu HU",HU,241,4895,5,358,13287,2760,15,3656,550,392,4629
"Olimpica CO",CO,241,10112,48,420,40901,2526,3,2425,1343,171,3986
"Farmatodo CO",CO,238,13994,114,3687,62358,3272,5,636,4629,69,5410
"Yandex Market RU",RU,235,0,13381,19192,0,0,15,4396,0,0,4411
"Afya Pharmacy BG",BG,234,10338,9,171,32419,1872,13,2583,217,313,3153
"Coop UK",UK,233,8610,0,621,182339,6107,16,4231,284,778,5455
"Metroiroda HU",HU,229,3445,6,250,6955,1271,5,648,433,177,1269
"Panda Market HU",HU,229,2560,6,201,6298,1475,13,226,103,168,522
"Linio CL",CL,227,47732,163,363,80560,0,106,665,767,0,1646
"Rappi - Exito CO",CO,227,19106,1506,1625,56083,4889,137,9445,19125,199,28949
"Перекрёсток Впрок RU",RU,227,16188,19,1242,35237,2690,3,841,3635,70,4596
"Dunnes IE",IE,226,13743,8,792,24082,13546,5,649,1104,528,2308
"Getir IT",IT,224,1973,13,56,5667,8284,4,124,35,120,288
"Disco AR",AR,222,7774,13,315,31749,1322,102,2887,4648,55,7718
"Beauty Bay UK",UK,220,10965,9,9,47086,0,7,332,14,1,393
"Rappi - Carulla Express CO",CO,218,12457,660,825,28174,1490,88,6901,14497,75,21582
"Igooods RU",RU,215,17028,19,362,37067,458,4,235,234,17,533
"Booker Foodservice UK",UK,214,11783,73,998,22067,2731,152,494,510,97,1272
"Superpharm Apteka",PL,214,505,12,505,30591,25442,14,830,1016,352,2245
"MaxiCoffee FR",FR,211,4645,24,103,11687,1537,267,404,441,198,1318
"Exito CO",CO,210,9538,24,617,38437,1503,134,3385,1251,123,4940
"Rappi - Carulla CO",CO,209,14734,1043,1157,41916,4708,86,8570,19616,187,28490
Cocolita,PL,208,11464,5,609,49202,16170,13,2266,1214,1526,5111
"Merqueo - Medellin CO",CO,207,1426,2,95,3166,1988,2,127,48,89,269
"Booker UK",UK,206,8925,163,1215,17013,8896,150,405,620,818,2009
"Subra BG",BG,206,8346,2,140,19760,4785,19,420,78,739,1298
"Pyaterochka App RU",RU,204,5443,23,296,14232,1255,2,230,141,20,414
"Minifarm RO",RO,203,4994,15,125,13168,517,5,810,127,249,1208
"Emag HU",HU,199,121806,921,1977,121846,7149,13,2719,2713,208,5826
"Rappi Lider CL",CL,197,16542,1463,1543,76858,3337,3,5311,4540,84,9997
"Утконос RU",RU,194,532,79,532,44293,1250,17,215,435,62,754
"Vodovoz RU",RU,186,1110,12,32,2276,0,6,320,56,1,387
"Look Fantastic UK",UK,185,17854,20,20,59224,0,5,758,34,1,853
"Deliberry - Caprabo ES",ES,184,8543,0,0,9657,0,12,805,68,1,898
"Deliberry - Solri ES",ES,178,9124,0,0,10235,0,14,797,40,1,862
"Coursesu FR",FR,176,2240,33,52,2557,301,13,2879,654,958,4508
"Tiendas Jumbo CO",CO,176,16071,9,689,65037,2787,7,1686,916,121,2796
"Deliberry - Mercadona Barcelona ES",ES,175,5718,0,0,6855,0,12,780,1501,1,2301
"Deliberry - Mercadona Madrid ES",ES,173,5651,0,0,6764,0,15,748,1550,1,2320
"Linella MD",MD,173,6527,49,49,12978,0,18,304,55,1,416
"PennyDomu CZ",CZ,173,1558,0,3,4407,0,85,296,6,0,402
"Rappi - Exito Express CO",CO,172,13066,272,342,31947,1027,126,7607,17885,79,25720
"Rappi Jumbo CL",CL,172,15886,1588,1756,59147,3684,3,4651,2267,84,7056
"Rappi Turbo CL",CL,169,962,11,40,1925,459,141,1485,151,54,1833
"Rappi Unimarc CL",CL,167,12812,188,642,24231,3398,3,2679,1340,84,4129
"Deliberry - Supercor ES",ES,161,4086,0,0,5010,0,15,685,22,2,731
"Everli - Coop IT",IT,160,12130,2,254,13302,7518,40,851,270,685,1860
"Auchan FR",FR,158,1551,1,71,5231,590,249,382,63,150,850
"Professional Farmaline RO",RO,155,8276,2,114,17560,5358,5,508,71,102,708
"Dirck3 NL",NL,151,541,0,25,2536,144,6,98,21,28,160
"Rappi - Pricesmart CO",CO,150,1727,30,32,4762,3038,118,2910,1093,183,4308
"Rappi Coto AR",AR,150,9914,136,363,22352,2097,91,2622,1252,84,4068
"Rappi Carrefour AR",AR,149,5238,21,251,6414,2094,134,1206,789,82,2216
"Deliberry - Dia ES",ES,143,4171,0,0,5032,0,13,635,2,1,658
"Deliberry - La Plaza ES",ES,143,4250,0,0,5109,0,13,634,108,1,761
"Everli - Metro IT",IT,143,2470,0,53,3302,1498,32,321,59,318,734
"Medexpressz HU",HU,139,1363,12,91,2903,0,11,312,61,1,391
"Rappi Turbo PE",PE,138,1156,25,26,3454,1679,209,2101,103,122,2538
"Nazuby CZ",CZ,135,1729,0,71,5948,161,12,187,51,18,283
"Superxtra PA",PA,135,6477,0,0,13685,0,64,70,3,1,145
"Rappi Turbo AR",AR,132,1137,2,30,4113,1509,155,2287,81,79,2605
"Alkohol CZ",CZ,131,4490,32,69,12453,0,37,1239,59,1,1352
"Extra BR",BR,129,78064,416,622,78064,0,53,1338,231,17,1706
"Ozon RU",RU,127,51004,3657,4435,69994,1533,554,2488,3524,155,6936
"Automercado CR",CR,126,12016,13,44,18720,0,87,1918,145,5,2169
"Cora Drive BE",BE,121,14043,318,339,92220,5761,13,3896,430,1691,6104
"Condis ES",ES,120,6577,0,0,6952,0,7,204,21,2,243
"Rappi Farmacity AR",AR,113,6347,230,263,18026,1885,116,3461,2228,76,5895
"Amazon Fresh DE",DE,111,5142,172,172,8937,6386,68,306,191,244,820
"Mercado Libre CL",CL,110,49224,810,1016,66047,2253,127,612,492,149,1445
"Coop EE",EE,105,1374,6,13,3251,1216,4,90,8,57,162
"Savage & Whitten IE",IE,101,3785,17,159,7570,934,18,338,77,74,515
"Vitania BG",BG,98,7182,22,154,7182,4296,15,374,108,230,751
"Everli - Kaufland",PL,94,19942,208,680,48172,25972,41,4424,1991,2549,9090
"Farmacity AR",AR,94,270,10,270,5433,1232,10,319,132,56,520
"Everli - Lidl",PL,90,2432,99,99,17528,7706,45,2203,844,914,4040
"Kaufland DE",DE,90,29588,123,311,36564,748,64,637,238,39,1022
"Koffievoordeel NL",NL,89,479,4,53,2839,1269,4,309,31,30,379
"PriceSmart PA",PA,89,1682,2,36,19211,1043,4,4305,141,407,4867
"PriceSmart GT",GT,86,1556,1,15,11790,2229,7,2591,131,617,3354
"Kaffedeal DK",DK,83,377,2,37,954,866,4,48,18,33,104
"Brack CH",CH,80,8457,20,120,20778,1814,78,340,121,175,753
"Comfandi Supermercados CO",CO,72,4540,3,41,9148,763,7,1650,129,251,2044
"Durst DE",DE,69,1113,69,1113,1182,0,5,34,18,4,64
"Droguerias Cafam CO",CO,68,4386,1239,2947,11208,2241,17,665,5373,101,6164
"Media Markt DE",DE,68,1284,12,57,3312,442,459,2318,235,479,3495
"Rappi Cruz Verde CL",CL,67,4535,437,1029,30034,3213,2,1870,2647,85,4626
"Pretty Little Thing UK",UK,65,2149,20,48,9461,0,12,2733,457,2,3213
"Rozetka UA",UA,62,75508,772,1100,95345,0,117,5189,565,1,6109
"Emag RO",RO,60,59756,277,678,59764,5128,6,944,930,171,2129
"PedidosYa DIA AR",AR,59,1611,5,134,1611,422,12,109,60,22,206
"Comfandi Droguerias CO",CO,56,4662,174,2377,9197,1576,7,1451,5047,328,6840
"Kapselkongen DK",DK,54,243,0,52,489,644,22,53,49,52,177
"iDrinks HU",HU,54,6730,185,203,14549,253,11,1424,225,55,1734
"Expert DE",DE,51,910,2,7,970,0,121,81,319,12,536
"PedidosYa Carrefour AR",AR,48,4306,17,324,4306,876,8,118,142,22,293
"Very UK",UK,47,4034,23,61,4475,0,14,50,29,1,99
"Jumia EG",EG,41,2346,37,130,4364,35,39,138,79,25,286
"Ep DE",DE,40,555,3,5,1567,0,83,218,12,1,316
"BilkaToGo DK",DK,37,10640,492,1306,57843,1751,7,135,649,38,909
"Datart CZ",CZ,37,1002,1,15,1389,1024,8,161,49,72,306
"Selver EE",EE,37,4347,1,30,11275,2907,5,169,35,162,380
"Altex RO",RO,36,1626,0,78,3200,1912,3,152,207,171,538
"Bol NL",NL,36,501,343,502,29166,2402,30,1994,818,542,3409
"Saturn DE",DE,34,655,6,9,1405,376,192,689,34,2432,3350
"Winelivery IT",IT,34,1297,43,59,2739,0,3,192,39,1,238
"Galaxus CH",CH,33,8899,77,107,8899,1018,27,1857,98,1234,3235
"John Lewis UK",UK,33,18,5,18,598,207,5,27,18,107,158
"Kesko FI",FI,31,4346,0,0,60909,8623,836,1106,0,1263,3255
"Americanas BR",BR,29,5243,23,36,41316,0,300,1068,306,1,1703
"Avansas TR",TR,28,581,0,1,618,0,4,23,4,1,34
"Carrefour FR",FR,25,11074,276,434,16475,1529,6,956,973,202,2151
"MyDeal AU",AU,20,16,13,16,9345,927,4,70,9,195,280
"Shoplink IE",IE,19,149,0,127,447,1793,27,39,83,100,250
"Officeworks AU",AU,18,319,0,42,323,316,298,8,831,20,1157
"Boulanger FR",FR,17,939,14,59,2158,376,22,122,139,159,444
"Euronics DE",DE,15,9533,42,217,37503,0,41,1066,38156,1,39304
"The Good Guys AU",AU,15,787,0,12,1503,398,5,38,22,109,175
"Qvc US",US,14,15650,57,100,17226,0,21,196,560,1,795
"El Corte Ingles ES",ES,11,3903,4,142,5087,682,58,442,989,82,1579
"BCC NL",NL,10,1670,3,27,2236,656,6,132,28,57,229
"Leclerc FR",FR,10,248,57,86,486,789,46,299,3827,1044,5219
"Wildberries RU",RU,10,59044,2074,2579,61215,1589,10,172,1472,45,1958
"Myer AU",AU,9,8538,77,224,10673,0,8,1605,499,0,2115
"Coles AU",AU,8,321,0,91,647,403,6,82,350,251,689
"Intermarche FR",FR,8,444,1,111,854,877,3,40,283,300,630
"AO UK",UK,7,828,4,12,1144,291,71,7,15,62,161
"Carrefour AR",AR,7,3058,34,288,7342,496,78,424,903,51,1463
"Woolworths AU",AU,7,1469,0,112,2341,362,3,78,44,31,157
"Unieuro IT",IT,6,1672,19,26,2101,1174,3,13,13,57,90
"Harvey Norman AU",AU,5,16,0,16,289,259,13,52,73,454,592
"Barrys Beacon IE",IE,4,158,6,129,158,397,7,27,70,70,175
" SberMarket - Lenta RU",RU,0,0,0,0,0,0,2476,4,0,2313,4793
Allegro,PL,0,2291,26,1611,0,0,0,0,57363,0,57363
"Dia AR",AR,0,0,0,0,0,0,4,69,2,98,174
"Drogas La Rebaja CO",CO,0,0,0,0,0,0,4,3546,0,141,3692
"Easy CL",CL,0,0,0,0,0,0,4,22,2,5,33
"Heb MX",MX,0,0,0,0,0,0,0,4,0,23,27
"Kaffekapslen DK",DK,0,0,0,0,0,0,3,11,1,77,93
"Lider CL",CL,0,0,0,0,0,572,4,29,2,151,193
"Mediaworld IT",IT,0,0,0,0,0,0,26,0,2,241,269
"Metro Delivery RU",RU,0,0,0,0,0,0,260,4,1,278,543
"Okey RU",RU,0,0,0,0,0,0,10,9,1,365,385
"Rappi Turbo CO",CO,0,0,0,0,0,2660,30,1,25,228,286
"Samokat RU",RU,0,0,0,0,0,0,5,22,1,17,45
"SberMarket - Metro RU",RU,0,0,0,0,0,0,2313,19,1,2513,4846
"Sodimac CL",CL,0,0,0,0,0,0,12,23,2,0,37
"Soriana MX",MX,0,0,0,0,0,1937,9,0,0,805,817
"Tottus CL",CL,0,0,0,0,0,2004,2,21,1,65,89
"Vea Digital AR ",AR,0,0,0,0,0,1197,51,39,1,61,154
