﻿Site,Country,Categories,Prices,"Products changed","Products downloads",Relations,Search,"Categories time","Prices time","Products time","Search time","Total time"
"Ocado UK",UK,6550,48444,110,2493,462328,40543,1340,11450,2178,1921,17575
frisco,PL,4707,15965,23,2425,304952,87208,96,20419,7764,1787,30256
"Mytime DE",DE,4619,11547,68,244,101378,2965,1956,2612,113,157,4887
"Asda UK",UK,3469,29403,55,2111,933999,50826,23,10878,1190,1141,14012
"Makro CZ",CZ,3424,7333,27,106,742314,408,3410,24346,151,76,28598
"Albert Heijn NL",NL,3413,21667,92,271,98399,633,614,2254,296,324,3563
"Morrisons UK",UK,3193,21148,223,2009,96921,31561,612,5497,1719,2080,10011
"Waitrose UK",UK,3079,16075,54,1131,1524112,32360,64,22892,444,806,25838
"Metro SK",SK,3029,6254,27,30,282621,0,2986,23273,55,1,26425
"Rohlik CZ",CZ,2969,24137,81,888,225583,23522,2463,3898,621,896,8002
"Coto Digital AR",AR,2842,17394,44,407,93864,1195,2467,4044,335,45,6930
"Albert Heijn BE",BE,2772,10127,6,89,49315,6290,932,3019,76,280,4341
"Notino SK",SK,2708,1186,146,1186,112110,160,1277,6563,2193,15,10176
"Galen BG",BG,2680,13822,6,173,98854,5026,1378,2379,87,110,4028
"Kosik CZ",CZ,2669,17202,75,756,98919,33421,467,1693,381,984,3595
Auchan,PL,2545,16309,29,1315,484049,26498,73,15836,861,3743,20862
"Drogeo CZ",CZ,2509,1264,158,1264,130699,42371,20,2546,712,799,4146
"Samokat RU",RU,2477,4961,16,127,60498,17,15,51,63,7,170
"Pilulka SK",SK,2459,40021,171,453,247872,11647,23,4019,233,268,4667
"Amazon Fresh UK",UK,2433,8914,468,469,52638,16587,660,1638,408,402,3182
"Notino CZ",CZ,2314,254,26,254,51526,65452,1060,6941,417,1406,9990
"Pilulka CZ",CZ,2268,26026,146,547,141497,31625,19,6493,268,3023,9869
"Sainsburys UK",UK,2264,30167,74,2449,1747265,83468,236,27702,3734,3660,39546
"Amazon UK",UK,2210,2075,27702,27708,1543673,37289,0,0,0,13579,13579
"Drogerie Natura",PL,1991,17703,170,3376,94399,39128,76,4879,5008,3729,13782
"Amazon Fresh IT",IT,1981,7577,604,605,35370,2855,3133,2561,1355,290,7360
"Boots UK",UK,1896,25504,645,5965,132479,7893,25,3207,8656,245,12286
"Brakes UK",UK,1895,9086,8,201,27303,30670,855,1828,96,309,3138
"Jumbo NL",NL,1872,18624,47,289,72997,4218,1364,1926,286,128,3759
"Auchan HU",HU,1833,27983,48,1973,211882,10251,21,4594,1106,527,6391
"Cefarm 24",PL,1663,13940,7,846,102654,14250,2326,3895,1123,5040,12457
"Yuga RO",RO,1662,8724,1,49,43287,1123,2045,4453,2996,130,9654
"Otto DE",DE,1608,127,76,134,67280,211,743,993,526,16,2304
"Delhaize BE",BE,1588,14418,89,460,61282,15609,16,2042,304,432,2851
"Barbora EE",EE,1439,13480,46,80,50251,1414,35,1696,40,116,1915
"Barbora LT",LT,1403,15462,44,103,55331,1297,41,2016,155,73,2318
"Alcampo ES",ES,1382,14167,51,108,28642,307,5605,2066,2511,268,10468
eZebra,PL,1370,42842,153,863,152157,34133,64,6177,1086,3036,10522
"Tesco UK",UK,1321,28404,74,2611,350611,23777,15,10564,1228,8103,20322
"Remedium BG",BG,1302,26451,110,298,83089,1520,355,8128,601,195,9342
"Coop CH",CH,1285,18438,84,157,67689,2073,288,1672,231,164,2398
"Kifli HU",HU,1284,14497,20,1598,59485,10344,609,664,737,366,2429
"E-Fresh GR",GR,1244,13178,103,719,64587,6842,2371,4414,1496,657,8979
"Picnic NL",NL,1239,7031,27,104,15376,2230,536,958,58,80,1651
"Rewe DE",DE,1235,9781,27,377,35807,3306,21,1365,403,379,2192
"iGlobus Zlicin CZ",CZ,1229,19417,66,357,36422,7711,18,3317,592,430,4399
"Amazon DE",DE,1204,170,169,170,512229,13613,0,0,0,2249,2249
Hebe,PL,1179,1320,427,1320,160974,27599,654,3301,1918,654,6671
"Barbora LV",LV,1174,13297,27,66,45971,1400,63,2184,35,157,2462
"Moja Lekaren SK",SK,1167,24431,41,354,132986,4315,593,3592,182,164,4605
"Lekarna CZ",CZ,1161,28877,66,623,127586,5113,589,3456,315,177,4643
"S-kaupat FI",FI,1156,42683,34,306,325176,6371,3,3349,266,110,3895
"Alza CZ",CZ,1075,23985,166,252,89689,28408,239,2617,0,1340,4239
"Albert App CZ",CZ,1073,8129,1,1,59040,0,525,1833,5,1,2409
"Eroski ES",ES,1048,25887,133,297,54973,566,21,3731,227,44,4055
"Mathem SE",SE,1048,12790,12,516,34951,7476,19,1116,773,501,2432
"Picnic DE",DE,1033,7174,6,159,14432,1862,487,895,72,163,1627
"Knuspr DE",DE,1025,9655,109,231,38301,1445,474,484,108,155,1251
"Salcobrand CL",CL,1022,6477,0,0,29006,1089,310,670,4223,15,5239
"Amazon IT",IT,1018,535,535,535,399662,6853,0,0,0,679,679
"Dr Max SK",SK,1012,23090,89,554,97576,6974,825,6321,788,487,8472
"Coop NL",NL,1008,16701,15,118,71904,1204,1355,2331,253,62,4063
"Auchan RO",RO,1003,24801,37,538,436923,7747,18,5103,516,470,6410
"Zakaz - Novus UA",UA,1000,17444,55,94,37041,0,4,1940,49,1,2025
Bee,PL,975,53071,6540,10839,188418,9693,453,3377,5084,233,9320
Selgros,PL,975,22037,1035,1264,76952,28462,452,926,564,1526,3550
"Alza SK",SK,968,10679,49,196,46813,3219,123,414,46,127,732
"Carrefour BE",BE,962,18800,130,653,268423,19829,1283,11855,415,18101,31802
"Coop SE",SE,926,10052,11,493,34413,8066,13,915,234,215,1400
"Coop Shop IT",IT,924,9842,4,318,29572,5519,15,870,265,436,1608
"Magnit App RU",RU,870,4049,13,90,11571,0,5,1303,75,1,1392
"Unipatika HU",HU,870,4375,3,298,31130,4675,603,1189,148,269,2242
"Pilulka RO",RO,865,0,0,0,0,0,8,946,1,107,1062
"SuperValu IE",IE,847,16274,27,1103,221214,10469,872,16923,1240,529,19807
"Tigros IT",IT,840,10142,7,551,30465,7049,25,568,534,417,1576
"Superpharm Drogeria",PL,832,825,79,825,101099,35059,27,1876,1172,401,3579
"Apteka Manada",PL,817,15019,20,1036,54960,33632,26,3192,2285,2758,8327
"Wong PE",PE,811,23739,185,615,148451,1832,13,7682,7949,76,15798
"Polski Koszyk",PL,793,23219,18,915,74642,7355,25,952,509,300,1879
"Tesco IE",IE,781,17051,25,932,416878,4102,11,8613,358,692,10000
"Zakaz - Metro UA",UA,768,10516,16,59,21205,0,6,2471,55,1,2555
"Auchan RU",RU,766,23918,64,765,76292,350,6,1371,532,9,1974
"eZiko Apteka",PL,760,7150,19,551,42861,18774,347,1749,257,934,3324
"Coop DK",DK,755,11291,135,151,88185,1205,347,3262,201,38,3919
"Dr Max CZ",CZ,733,21330,46,409,89410,7865,393,2994,429,281,4154
"Ebag BG",BG,730,11611,53,102,42481,1611,6,1227,87,28,1374
"Masxmenos CR",CR,730,8882,14,161,24377,0,22,2048,253,5,2349
"Walmart CR",CR,730,13345,8,355,170803,4876,18,6942,755,233,8020
"Sklavenitis GR",GR,729,10086,17,274,30256,4419,111,1212,143,256,1747
"Rimi LV",LV,726,15007,15,82,44147,5327,15,768,84,100,997
"Apteka Gemini",PL,718,27170,124,1483,94774,56934,25,3086,703,686,4627
"Cruz Verde CL",CL,717,10189,16,18,174411,0,15,21211,17,1,21310
"Bringmeister DE",DE,714,16375,35,179,44361,4407,12,387,81,143,656
"Intervare DK",DK,713,9409,99,198,27224,0,12,334,93,111,570
"Lunys SK",SK,711,5355,31,32,19167,0,573,1230,56,2,1875
"Mall CZ",CZ,701,5127,1334,5127,105881,16639,559,1038,6160,3868,11745
"Rimi EE",EE,700,12350,6,55,36256,3750,7,720,60,106,916
Barbora,PL,696,8979,1,752,117538,6758,32,2779,367,824,4127
"Gurkerl AT",AT,692,9703,23,116,35114,3329,330,324,53,106,842
"Walmart AR",AR,692,0,0,0,0,0,497,1253,1,8,1759
"Tesco CZ",CZ,683,16558,7,1166,547743,23332,15,10441,667,3665,15084
"Bennet IT",IT,681,19016,36,455,38355,15082,10,1050,218,478,1798
"Rossman HU",HU,665,15281,57,1026,56150,7745,763,848,1834,168,3667
"DM SK",SK,659,12742,28,50,36304,2177,7,1264,26,90,1416
"Poiesz NL",NL,658,7918,0,10,10133,128,16,502,2987,6,3526
"Rossmann DE",DE,658,16285,21,77,56382,454,518,1030,72,19,1670
"Maxi RS",RS,654,7864,3,104,25673,5927,9,421,50,98,597
"Rimi LT",LT,654,14379,26,70,43160,3404,12,705,77,73,895
"Hoogvliet NL",NL,652,8796,37,113,14358,1864,13,683,113,92,921
"DOZ.pl",PL,648,17798,121,1252,73532,49701,357,2260,618,1742,5075
"City Gross SE",SE,646,12797,29,547,28065,8905,10,354,255,367,1010
"Esselunga A Casa IT",IT,643,15171,65,671,45105,16672,16,5115,1280,1457,7899
Amazon,PL,640,569,564,568,1027860,19615,0,0,0,1269,1269
"Crai Spesa Online",IT,635,351,1,368,25138,6874,533,2148,1114,1103,4913
"Tesco SK",SK,632,15772,41,103,228618,834,15,4271,65,116,4624
"E.Leclerc Bielany",PL,625,31942,89,2678,101815,36439,100,3855,1217,20836,26134
"Mercator SI",SI,625,12674,17,182,38022,2281,299,277,86,80,770
Apteline,PL,618,941,18,941,82902,14489,444,1468,638,487,3109
"Tesco HU",HU,616,15286,12,2364,1027439,8767,11,18363,1550,1606,22035
"Vasalekaren SK",SK,610,10206,7,134,68307,3940,1247,9137,315,642,11367
"Colruyt BE",BE,605,8005,9,257,94167,14465,12,15136,677,1798,17735
"Glovo Kaufland RO",RO,599,9134,40,9134,16535,0,5,289,130,1,441
"Thanopoulos GR",GR,598,15825,16,49,53040,9117,6,4643,56,666,5411
"Apteka Galen",PL,593,8810,11,312,34428,3157,20,1723,468,492,2741
"Willys SE",SE,588,10749,17,456,35566,6995,10,329,210,224,799
"Pingvinpatika HU",HU,587,7537,47,343,40755,2844,14,4882,486,317,5718
"Plus NL",NL,587,15953,37,267,30780,3807,45,6039,137,263,6524
"Benu CZ",CZ,584,14326,58,440,66730,5901,12,7109,492,74,7724
"Vkusvill RU",RU,577,6265,23,80,22486,1096,195,2931,218,161,3528
"Bestway Best-one UK",UK,572,6531,46,142,21212,12725,304,387,87,340,1143
"Bestway UK",UK,572,9130,119,614,29445,29782,302,430,315,711,1793
"Bestway Foodservice UK",UK,568,10423,70,356,33098,4747,300,454,223,115,1136
"Dr Max",PL,567,12785,185,867,48510,22076,594,3870,1488,1570,7572
"Zakaz - Metro MD",MD,566,10718,84,129,18027,0,5,1306,456,1,1782
"Carrefour EG",EG,564,14870,94,192,71760,437,3,1239,171,18,1465
"Spar HU",HU,564,14889,495,1876,343447,11493,14,7766,3491,436,11886
"DM HU",HU,562,12509,4,825,34187,9710,6,1207,366,328,1942
"Kritikos GR",GR,560,16604,24,339,46956,0,5,21,155,6905,7132
"AB GR",GR,557,11368,24,515,34754,7388,5,765,242,221,1268
"E.Leclerc Wroclaw",PL,557,15848,115,1435,16254,13801,483,1861,2213,5412,10022
"Apteka Melissa",PL,552,27512,148,1159,80327,53860,20,5182,687,686,6664
"Chronodrive FR",FR,551,7849,12,101,14533,2109,13,487,72,130,711
"DM CZ",CZ,548,12424,28,866,33927,32497,7,1113,384,1075,2610
"Pão de Açucar BR",BR,548,22173,203,294,54015,0,11,2035,175,0,2252
"Jumbo CL",CL,546,20940,80,2437,578477,1376,12,7876,1591,80,9796
"MyMarket GR",GR,546,14378,22,328,51587,5574,4,1582,384,313,2322
"Yandex Lavka RU",RU,545,3028,40,169,8573,0,93,642,247,211,1203
"Freshful RO",RO,543,19969,30,73,40694,363,6,873,36,16,976
Spar,PL,542,24734,65,2053,686212,76513,21,12220,1018,2361,16072
"Univerexport RS",RS,538,10022,15,207,20044,1182,19,574,225,219,1058
"E.Leclerc Rzeszów",PL,534,12623,35,1470,37211,27445,33,689,567,986,2322
"Carrefour ES",ES,532,14941,40,172,17991,408,21,547,602,28,1218
"Drogeria Olmed",PL,522,504,77,504,145599,23532,16,8282,237,1616,10226
"Plazavea PE",PE,516,26084,127,358,190879,1864,11,5142,168,171,5580
"Cold Storage SG",SG,507,9594,12,37,29840,0,571,2324,45,0,2946
"Apteka Zawiszy",PL,505,20187,215,1138,79845,15577,246,811,569,320,2032
"Hemkop SE",SE,503,10473,9,460,32811,7132,9,274,218,221,749
Rossmann,PL,502,1276,110,1276,79700,26885,26,902,1589,591,3189
"Interspar AT",AT,499,21121,32,241,66469,6326,7,652,301,144,1154
"Metro RU",RU,499,19374,122,741,22700,44,7,2082,706,15,2837
Intermarche,PL,498,18921,2,2515,163883,18991,10,3336,1172,1397,6172
"Benulekaren SK",SK,495,9241,19,326,47939,6722,6,3740,241,135,4158
"Idea RS",RS,494,12099,13,168,21030,6514,90,538,80,95,828
"Migros Online CH",CH,484,12316,22,78,38189,1446,18,1221,101,220,1589
"Spar SI",SI,484,16958,14,207,59169,2701,8,634,241,102,1032
"Mega Image RO",RO,483,12671,17,382,37932,9663,7,520,177,156,896
"Dr Max Drogeria",PL,476,15823,101,407,50306,0,349,2667,886,2,3968
"Famila a casa IT",IT,476,12274,48,155,29008,6393,811,1498,301,312,2945
"E.Leclerc Radom",PL,472,13089,188,1370,41031,10863,97,2607,679,2096,5538
"e-Dostavka BY",BY,468,33034,328,634,94760,2174,4,7361,310,183,7914
"Basko IT",IT,464,8397,18,444,25687,1497,8,265,494,46,834
"Apteka Olmed",PL,463,1097,102,1097,157995,19491,15,9430,554,1500,11580
"GPSfarma AR",AR,463,6670,43,517,26132,1167,12,2374,367,101,2870
Ceneo,PL,462,198692,2388,6627,265014,37767,909,2220,3373,229,7138
"Cornershop - Lider CL",CL,462,19101,18,2476,124624,1336,12,1192,890,104,2297
"Carulla CO",CO,455,9803,1,355,29395,4806,19,1383,226,236,1893
"Mercado Libre MX",MX,455,51887,491,1866,108454,0,869,1359,482,1,2773
Aptelia,PL,454,473,24,473,66318,9995,213,1890,221,327,2707
"MegaMarket RO",RO,447,5423,0,9,6533,572,8,1288,12,191,1508
"Cornershop - Jumbo CL",CL,444,28227,47,1145,149312,1353,13,807,648,117,1695
"eTabletka SK",SK,441,12045,47,216,81581,6743,296,7406,181,97,8021
"Patika24 HU",HU,440,4381,1,242,10640,3216,7,555,379,91,1041
"Feedo CZ",CZ,434,140,88,140,64263,457,197,946,71,26,1268
"Lopido CO",CO,433,10623,25,106,20329,593,11,8169,518,56,8766
"Unimarc CL",CL,433,11049,50,562,33133,1190,12,2403,850,81,3363
"E.Leclerc Lublin Turystyczna",PL,431,13335,56,1689,16310,13961,9,525,1530,2142,4241
"Lider CL",CL,429,12244,22,2068,234259,1105,14,12883,3801,90,16892
"Ecofamily HU",HU,427,6943,3,798,22530,4245,6,1353,3494,375,5254
"Kruidvat NL",NL,425,9024,64,94,25216,1829,200,837,102,98,1260
"Dr Max RO",RO,419,14289,157,428,38581,8322,261,2037,492,403,3218
Stokrotka,PL,419,7792,3,159,180337,12464,31,2924,86,420,3674
"E.Leclerc Katowice",PL,418,9299,24,1175,9795,10751,98,393,548,1595,2664
"Apteka Nowa Farmacja",PL,405,12569,39,815,29265,18446,4419,1251,1145,2354,9222
"iFresh SK",SK,405,8171,59,59,175076,0,13,4712,293,0,5115
"Teta Drogerie CZ",CZ,400,8743,28,490,25418,6786,7,766,494,162,1455
"OnlinePrima HU",HU,397,7560,0,1208,23493,6110,5,610,781,289,1703
"Apteki 36.6 BG",BG,395,9918,1,152,46891,1204,5,1403,84,88,1610
"Dia AR",AR,394,5256,2,133,16431,679,14,478,186,15,705
"Bringo RO",RO,392,32026,225,26656,52630,7065,25,1842,1307,671,3895
"Unimarkt AT",AT,392,3413,60,454,16292,3259,185,388,351,268,1205
"Glovo Biedronka Warszawa",PL,380,3069,175,3069,5972,567,16,176,67,79,351
"DrankDozijn BE",BE,377,3634,22,115,14798,2255,7,632,181,572,1405
"DrankDozijn NL",NL,377,3633,16,112,14795,250,8,617,177,60,876
"Iceland UK",UK,377,5627,23,356,30003,15524,15,1295,404,1684,3427
"Billa AT",AT,371,9289,30,193,30181,6675,5,427,427,169,1053
"Walmart GT",GT,369,8974,13,388,155568,4325,13,5794,820,229,6925
"Cornershop - Metro PE",PE,368,17024,173,344,56532,1868,10,502,245,292,1128
"Świat Leku",PL,365,10975,19,330,34789,1892,169,1326,261,181,1983
"Majestic UK",UK,363,1364,4,68,18133,1167,180,1897,65,132,2291
"Ulabox ES",ES,361,5821,10,25,12244,0,7,216,16,1,252
"Carrefour IT",IT,357,13094,213,842,35921,4643,171,951,395,320,1867
"Istegelsin TR",TR,356,4922,1,26,11039,0,25,174,14,0,221
"Cornershop - Wong PE",PE,354,19895,268,523,59767,1918,8,495,517,209,1345
"Farmacia Tei RO",RO,354,24500,278,288,25960,3033,5,672,150,141,1006
"Ica New Version SE",SE,354,6881,5442,5470,139527,5584,6,2189,2505,220,4994
"Jumbo AR",AR,353,12584,307,1446,63446,769,12,2818,740,28,3633
"E.Leclerc Lublin Tomasza Zana",PL,352,11366,46,1444,14641,10255,15,476,717,1130,2363
"Gall & Gall NL",NL,347,3148,13,72,23462,69,8,6045,172,18,6260
"Talabat Mart EG",EG,347,6116,140,143,41345,421,4,2461,394,18,2903
"Rossmann App CZ",CZ,345,10867,93,135,35473,0,9,2943,66,1,3046
"Ica SE",SE,342,10850,0,627,638494,12659,7,19773,304,209,20616
"E.Leclerc Elblag",PL,339,10651,24,1056,29503,15285,65,1428,914,2394,4834
Allecco,PL,336,11617,30,651,40140,10702,22,628,312,178,1187
Carrefour,PL,335,16194,37,2894,127631,36823,155,3028,2619,2169,8111
"Roastmarket DE",DE,334,85,31,85,35183,387,23,634,1701,15,2387
"Bebe Tei RO",RO,325,26231,15,95,27100,1267,4,845,60,80,1023
"Mpreis AT",AT,325,7976,122,122,27992,4616,436,785,148,100,1490
"Mercado Livre BR",BR,322,101139,1180,2255,760362,0,602,10535,607,1,12192
"Sipo HU",HU,321,5757,52,212,12932,1447,4,697,163,133,1009
"Mercado Libre AR",AR,315,31780,628,1817,69986,698,182,817,3547,78,4660
"Cornershop - Santa Isabel CL",CL,311,7017,12,387,8724,1028,10,534,794,77,1425
"SOpharmacy BG",BG,304,10052,24,182,32169,6468,400,994,218,212,1846
Empik,PL,302,124070,1327,2190,328278,27829,88,5016,897,195,6652
"Bipa AT",AT,300,11075,24,68,24353,565,10,462,93,26,617
"Cora RO",RO,299,45511,14,391,91328,6551,4,3646,208,935,4866
DoDomku,PL,299,6500,128,461,18984,2499,46,296,243,336,934
"Easy Coop IT",IT,299,9265,38,596,27608,9995,7,1789,1184,871,3877
"Amazon NL",NL,298,0,0,0,125688,0,0,0,0,21,21
"E.Leclerc Gdansk",PL,295,10576,79,852,29026,9246,56,1388,694,2070,4243
"Tudrogueria Virtual CO",CO,291,8395,179,3924,16200,459,8,306,1900,24,2249
"Apteka Nove BG",BG,288,11578,1,148,41722,6241,6,2713,192,388,3326
"Apteka Medea BG",BG,284,8683,15,178,26068,0,4,1090,146,2,1262
"Sephora US",US,283,99,95,99,113646,0,8,1636,123,1,1806
Makeup,PL,282,24634,16812,24633,526450,62497,13,12309,10965,929,24497
"i-apteka",PL,281,9787,120,546,20972,5850,9,413,577,439,1467
"Argos UK",UK,278,5451,4,3201,7995,0,5,571,12802,1,13406
"E.Leclerc Tychy",PL,278,8985,71,1182,9190,10711,56,280,555,1651,2570
"Konzum HR",HR,276,10955,0,157,17289,3469,313,2466,526,432,3750
"Azbuka Vkusa RU",RU,275,11287,15,192,22795,141,20,1790,777,40,2645
"Edeka DE",DE,272,3742,25,44,5009,139,9,235,50,124,428
Makro,PL,271,3060,0,496,8340,31993,5,519,230,1643,2414
"Groby HU",HU,268,8239,16,522,21917,3577,6,1120,571,264,1981
"PriceSmart CR",CR,265,3523,5,43,50596,3447,9,14888,48,759,15726
"Farmacia la Pret Mic RO",RO,264,8839,33,284,27029,5530,21,1887,328,973,3228
"E.Leclerc Gliwice",PL,260,8115,106,795,22128,7497,53,1085,574,1753,3491
"MaxiCoffee FR",FR,258,5574,5,103,13924,1576,502,676,403,203,1790
"Apteka Medkon",PL,254,7083,467,467,29475,8338,8,4098,983,1274,6399
"Globus RU",RU,254,13295,262,331,44465,24,5,1437,202,6,1683
"Merqueo - Bogota CO",CO,252,2149,4,123,5288,4710,7,177,64,200,451
Wapteka,PL,252,18804,1093,1143,64688,36312,11,4427,710,608,5827
"Delitea SE",SE,251,10190,34,285,24898,5636,5,185,131,82,427
"Afya Pharmacy BG",BG,250,9834,16,179,32678,1801,6,2283,240,302,2851
"Supermarket AM",AM,249,7009,26,95,17833,0,5,992,178,1,1188
"Szybki Koszyk",PL,246,4297,26,127,14723,565,119,627,62,39,864
"Helpnet RO",RO,245,6977,92,336,19714,4777,5,1929,282,358,2589
"Olimpica CO",CO,241,10439,11,323,41895,1082,8,2128,812,76,3074
"Farmatodo CO",CO,238,12715,7,3601,58905,5941,13,641,4736,99,5522
"Carrefour BR",BR,237,10809,113,133,47455,0,11,9239,224,0,9515
"Lisek App",PL,236,1955,38,164,2440,1042,16,20,79,272,397
"Dunnes IE",IE,231,13517,5,716,23511,9930,5,688,1158,410,2288
"Merqueo - Medellin CO",CO,230,1907,1,130,4546,4351,5,161,64,191,424
"Metroiroda HU",HU,230,3409,6,265,6899,1299,4,648,458,137,1252
"Disco AR",AR,228,8096,9,350,32291,1178,94,3317,1695,74,5198
"Linio CL",CL,225,46213,133,430,77252,0,105,676,478,0,1338
"Coop UK",UK,223,9078,0,670,213242,8722,5,4582,515,1320,6625
"Benu HU",HU,219,4957,0,346,15482,2742,5,5972,871,555,7415
"Beauty Bay UK",UK,217,12163,30,77,50411,0,6,374,74,0,508
"Rappi - Exito CO",CO,217,17550,1256,1350,51465,9894,86,7566,14405,375,22455
"Перекрёсток Впрок RU",RU,215,16048,42,637,36828,2292,3,818,308,57,1218
"Booker Foodservice UK",UK,214,11867,111,1448,22139,3538,132,450,673,120,1401
"Superpharm Apteka",PL,214,537,41,537,30381,14339,5,566,770,209,1580
"Igooods RU",RU,213,16133,18,368,35010,86,3,211,253,6,507
"Exito CO",CO,210,9280,5,718,37436,3051,154,3123,1769,425,5499
Cocolita,PL,208,10438,111,701,45510,13287,13,1484,1259,1247,4051
"Merqueo - Cali CO",CO,208,0,0,0,0,921,5,0,0,53,60
"Rappi - Carulla Express CO",CO,208,12886,621,731,30134,7181,85,6011,13003,311,19429
"Yandex Market RU",RU,206,0,0,0,62218,0,15,3829,0,0,3844
"Booker UK",UK,205,8925,126,1626,16961,9160,124,372,756,671,1945
"Утконос RU",RU,205,670,93,670,82829,1156,11,434,441,35,972
"Pyaterochka App RU",RU,204,5531,30,321,14845,387,3,238,153,9,421
"Minifarm RO",RO,203,2671,4,162,4460,469,6,666,130,219,1032
"Emag HU",HU,199,105042,716,1786,105080,7339,9,1926,2445,262,4774
"Getir IT",IT,197,1900,4,41,4801,8405,6,97,21,113,242
"Rappi Lider CL",CL,196,16448,1659,2265,76629,1298,7,5367,4737,34,10202
"Rappi - Carulla CO",CO,195,13959,768,855,41298,9550,80,6928,14532,381,21939
"Vodovoz RU",RU,189,1135,9,35,2325,0,3,339,63,2,410
"Panda Market HU",HU,187,2482,2,148,6137,1258,5,151,71,104,340
"Deliberry - Caprabo ES",ES,184,8543,0,0,9657,0,20,658,53,1,740
"Deliberry - Solri ES",ES,178,9124,0,0,10235,0,20,658,37,1,724
"Mercado Libre CL",CL,177,43062,1108,1535,66495,1150,210,669,801,53,1780
"Tiendas Jumbo CO",CO,177,12773,6,751,28646,5155,9,1300,978,177,2494
"Deliberry - Mercadona Barcelona ES",ES,175,5718,0,0,6855,0,17,640,1326,1,1990
"Deliberry - Mercadona Madrid ES",ES,173,5651,0,0,6764,0,14,606,1384,0,2009
"PennyDomu CZ",CZ,173,1714,7,7,4838,0,78,224,6,2,318
"Rappi Jumbo CL",CL,172,15994,1149,1291,58599,1410,7,4725,1678,32,6481
"Linella MD",MD,170,4429,56,62,5869,0,3,174,49,1,233
"Rappi Turbo CL",CL,168,981,1,2,2307,0,151,1350,33,15,1551
"Rappi Unimarc CL",CL,168,12435,439,578,24547,1296,7,2760,1303,32,4117
"Rappi Turbo CO",CO,165,2151,51,54,8339,0,200,5531,152,24,5910
"Rappi - Exito Express CO",CO,163,11525,683,755,28214,5385,118,6241,14020,340,20736
"Everli - Coop IT",IT,162,12024,9,218,13173,7455,36,825,233,568,1679
"Deliberry - Supercor ES",ES,161,4086,0,0,5010,0,15,554,17,2,592
"Professional Farmaline RO",RO,155,8567,1,113,18238,5029,4,553,78,100,753
"Auchan FR",FR,154,1631,0,75,5449,551,178,229,87,142,640
"Rappi - Pricesmart CO",CO,152,1834,100,102,4987,1103,112,2715,2022,67,4918
"Rappi Carrefour AR",AR,152,5731,70,149,6877,0,127,1345,500,25,2001
"Dirck3 NL",NL,151,515,0,23,2445,144,7,92,13,23,140
"Rappi Coto AR",AR,150,7904,12,24,18707,0,87,2716,110,20,2945
"Rappi Turbo PE",PE,150,1327,21,21,3998,1762,143,2296,103,139,2683
"Look Fantastic UK",UK,147,16853,145,145,53489,0,5,743,99,1,933
"Everli - Metro IT",IT,145,2474,0,52,3300,1450,35,304,57,300,701
"Deliberry - Dia ES",ES,143,4171,0,0,5032,0,18,506,2,0,530
"Deliberry - La Plaza ES",ES,143,4250,0,0,5109,0,14,507,93,1,620
"Subra BG",BG,139,8017,17,163,20200,4701,10,226,84,634,973
"Medexpressz HU",HU,137,1359,0,85,2914,0,6,287,60,2,358
"Rappi Turbo AR",AR,136,974,17,18,3305,0,142,2215,69,29,2457
"Nazuby CZ",CZ,135,1778,1,71,6111,163,6,211,35,35,293
"Alkohol CZ",CZ,131,4178,44,44,11665,0,17,1064,27,2,1118
"Automercado CR",CR,131,12265,9,52,19031,0,16,2050,295,1,2375
"Superxtra PA",PA,131,4539,113,113,9511,0,62,64,56,1,189
"Gorillas App IT",IT,128,298,0,298,691,2326,5,11,6,176,202
"Extra BR",BR,127,93716,1160,1420,93716,0,38,1586,386,70,2161
"Coop EE",EE,125,7442,7,26,16084,1763,2,342,14,57,428
"Ozon RU",RU,124,58246,2851,2991,88529,1324,581,2696,1925,539,5938
"Condis ES",ES,121,6653,1,1,7027,0,4,191,16,1,221
"Cora Drive BE",BE,119,13818,5901,5912,90306,4385,11,3865,6749,1203,11892
"Rappi Farmacity AR",AR,114,6203,57,64,19035,0,123,3661,1652,24,5471
"Amazon Fresh DE",DE,109,9240,286,286,14390,6788,263,786,561,224,1846
"Farmacia Pasteur CO",CO,103,6710,22,3300,42225,596,6,1333,2383,26,3775
"Farmacity AR",AR,97,362,44,362,6085,1174,4,283,181,39,509
"Vitania BG",BG,96,7321,16,179,7321,4270,6,349,90,168,622
"Koffievoordeel NL",NL,95,480,11,61,2867,1256,4,499,56,29,591
"Savage & Whitten IE",IE,95,3635,11,162,7270,916,10,355,77,77,529
"Everli - Kaufland",PL,94,6134,90,170,19542,0,27,20425,508,1267,22255
"Everli - Lidl",PL,91,2986,65,74,17823,0,27,5694,351,1272,7374
"Kaufland DE",DE,90,28465,177,375,36012,732,63,722,299,45,1164
"PriceSmart PA",PA,90,1622,4,33,17216,981,5,6478,36,286,6813
"Kaffedeal DK",DK,88,382,0,31,968,785,4,49,16,33,103
"PriceSmart GT",GT,88,1599,2,24,13528,2163,5,5352,22,520,5905
"Brack CH",CH,81,7809,8,104,19366,1891,63,254,86,161,581
"Okey RU",RU,81,4194,603,878,4228,264,5,276,2405,29,2731
"Comfandi Supermercados CO",CO,72,4471,2,2,9042,0,16,1531,7,1,1560
"Durst DE",DE,69,1121,69,1121,1190,0,4,20,20,3,52
"Droguerias Cafam CO",CO,68,4377,1828,3003,11233,1426,21,710,7720,52,8508
"Pretty Little Thing UK",UK,68,2149,14,26,11392,0,12,2574,253,2,2855
"Media Markt DE",DE,67,2306,158,1699,6877,455,299,1649,4401,200,6553
"Rappi Cruz Verde CL",CL,64,4453,887,1026,29415,1342,4,1854,2470,31,4375
"Rozetka UA",UA,62,68318,790,1629,87732,0,102,5212,601,1,6052
"Kaffekapslen DK",DK,61,811,1,72,1858,1524,71,50,73,190,386
"PedidosYa DIA AR",AR,61,2483,11,23,2483,0,4,51,12,1,71
"Emag RO",RO,60,56363,391,754,56368,5191,16,984,1097,240,2405
"Kapselkongen DK",DK,57,269,0,60,544,689,24,56,56,34,171
"Comfandi Droguerias CO",CO,56,4604,0,0,7029,580,17,1842,2,586,2452
"iDrinks HU",HU,53,6513,159,178,14080,252,6,1411,168,51,1654
"Expert DE",DE,51,983,0,2,1055,0,92,67,274,11,447
"Winelivery IT",IT,49,1385,4,18,3057,0,3,224,12,0,243
"PedidosYa Carrefour AR",AR,48,4162,42,117,4162,0,3,57,56,1,121
"Very UK",UK,47,3741,16,30,4054,0,13,70,15,2,145
"Bol NL",NL,45,174,157,181,33591,2474,36,2208,480,580,3332
"Carrefour AR",AR,41,3253,145,325,10871,506,90,858,788,26,1771
"BilkaToGo DK",DK,37,3835,20,154,22022,1539,8,88,69,36,225
"Selver EE",EE,37,3812,59,146,10462,2898,5,253,203,199,666
"Altex RO",RO,36,1395,8,93,2762,1849,3,106,119,122,354
"Ep DE",DE,36,231,1,6,741,0,75,132,13,1,223
"Saturn DE",DE,34,1125,4,31,2179,404,199,837,112,2407,3558
"Galaxus CH",CH,33,9601,154,169,9601,980,16,1880,154,1302,3365
"Jumia EG",EG,33,2244,9,35,4131,64,29,121,28,24,205
"Kesko FI",FI,31,4462,0,0,62603,9104,21,1224,0,1169,2452
"Americanas BR",BR,28,4928,17,19,32145,0,687,2966,152,1,3824
"Avansas TR",TR,28,601,0,0,650,0,2,23,2,1,30
"John Lewis UK",UK,28,17,7,17,497,182,4,68,16,41,130
"Mall SK",SK,26,37,6,37,1729,107,58,166,304,558,1101
"Carrefour FR",FR,24,10709,7,157,16000,1554,4,681,560,228,1482
"Datart CZ",CZ,23,0,0,0,1332,0,0,0,0,0,0
"MyDeal AU",AU,20,13,3,13,9680,928,2,69,8,58,138
"Shoplink IE",IE,19,147,2,128,441,1788,30,40,81,105,257
"Boulanger FR",FR,17,886,0,48,2076,379,26,126,123,158,434
"Euronics DE",DE,15,9645,22,210,38055,0,35,1019,37899,1,38999
"Qvc US",US,14,15487,74,113,16944,0,20,188,472,1,695
"BCC NL",NL,11,1906,7,26,2516,660,3,142,27,56,234
"El Corte Ingles ES",ES,11,3923,3,140,5089,670,55,215,690,59,1023
"Leclerc FR",FR,10,263,30,78,526,821,25,309,2878,989,4202
"Wildberries RU",RU,10,53804,980,1755,55841,1577,9,166,1074,43,1468
"Mediaworld IT",IT,9,279,5,44,558,1512,33,115,113,267,529
"Myer AU",AU,9,7743,85,178,9610,0,11,1493,396,1,1904
"Coles AU",AU,8,330,2,87,629,367,4,90,386,277,757
"Intermarche FR",FR,8,452,6,117,873,889,3,55,284,248,591
"AO UK",UK,7,816,2,11,1098,284,66,9,16,37,141
"Woolworths AU",AU,7,1388,23,135,2229,370,3,72,56,32,164
"Unieuro IT",IT,6,1737,16,16,2176,1193,2,15,9,56,87
"Barrys Beacon IE",IE,4,157,6,124,157,395,7,28,63,95,193
" SberMarket - Lenta RU",RU,0,0,0,0,0,0,8,17,1,90,116
Allegro,PL,0,1313,0,1313,0,0,0,0,21785,0,21785
"Chedraui MX",MX,0,0,0,0,0,0,3,0,0,1,16
"Coursesu FR",FR,0,0,0,0,0,1187,106,2,1,1984,2094
"Cruz Verde CO",CO,0,0,0,0,0,0,3,16,0,39,59
"Drogas La Rebaja CO",CO,0,0,0,0,0,0,18,0,5,267,308
"Easy CL",CL,0,0,0,0,0,0,3,33,2,2,40
"Elefant RO",RO,0,0,0,0,0,1895,2,13,1,26,42
"Gastronom BG",BG,0,0,0,0,0,0,0,0,0,0,0
"Metro Delivery RU",RU,0,0,0,0,0,0,24,22,20,28,95
"SberMarket - Metro RU",RU,0,0,0,0,0,0,5,18,1,113,137
"Sodimac CL",CL,0,0,0,0,0,0,22,0,9,1,32
"Soriana MX",MX,0,0,0,0,0,0,1,0,0,0,1
"Superdrug UK",UK,0,0,0,0,0,0,49,14,0,112,176
"Tottus CL",CL,0,0,0,0,0,1246,3,34,2,20,60
"Vea Digital AR ",AR,0,0,0,0,0,1008,37,2,1,68,110
