﻿Site,Country,Categories,Prices,"Products changed","Products downloads",Relations,Search,"Categories time","Prices time","Products time","Search time","Total time"
"Amazon IT",IT,13714,529,529,529,339218,31743,0,0,0,530,530
"Pilulka CZ",CZ,7842,45685,966,2551,794764,21505,18310,20592,0,1436,40586
"Ocado UK",UK,6485,45709,177,2818,432832,41155,1352,11412,4687,1922,19687
"Auchan FR",FR,5819,22584,251,532,132594,773,5442,8158,619,108,14410
frisco,PL,4682,15238,71,2780,272386,111158,31,11192,9329,2264,22973
"Pilulka SK",SK,4266,40919,82,300,528951,10095,3416,15468,397,728,20177
"Mytime DE",DE,4170,10973,14,247,92711,1261,2084,2601,122,50,4902
"Samokat RU",RU,3547,4959,8,168,39747,173,26,102,85,33,276
"Albert Heijn NL",NL,3525,21278,22,248,106200,4307,443,1538,28,79,2162
"Morrisons UK",UK,3228,21339,217,2181,98833,31715,608,5599,3750,2019,12134
"Waitrose UK",UK,3048,16044,29,1156,1457688,34224,52,20471,838,862,23637
"Asda UK",UK,2935,27013,24,2182,787255,38241,14,8485,1350,1089,11640
"Albert Heijn BE",BE,2843,8627,61,122,44334,5971,422,1310,14,151,1944
"Rohlik CZ",CZ,2777,23276,91,793,208724,10622,2375,3728,591,531,7333
"Coto Digital AR",AR,2541,19671,235,534,100555,1218,1878,3840,437,45,6244
Auchan,PL,2468,11977,465,1445,221921,26668,17,9258,1388,2692,13485
"Amazon Fresh UK",UK,2439,8690,496,497,50507,16006,1040,2473,325,1014,4904
"Kosik CZ",CZ,2336,14092,71,619,78598,18959,448,1442,291,566,2782
"Auchan HU",HU,2290,33697,74,2291,353075,10662,17,18111,1728,466,20528
"Sainsburys UK",UK,2216,29793,113,2575,1568753,81001,226,26394,2467,1799,32818
"Amazon Fresh IT",IT,2144,7511,1079,1087,36366,9342,3123,1780,807,327,6050
"Notino SK",SK,2103,0,0,0,0,187,958,5606,4,12,6585
"Amazon UK",UK,1997,1989,1977,2002,1441393,34681,0,0,0,11395,11395
"Drogerie Natura",PL,1980,27526,76,2229,94900,73634,95,3277,3971,3828,11257
"Boots UK",UK,1926,22636,878,7878,87459,6807,1218,4262,11386,184,17143
"Brakes UK",UK,1895,9253,19,211,27795,30913,882,1823,98,322,3163
"Ageo CZ",CZ,1881,531,32,531,99613,19080,13,2272,1466,475,4292
"Jumbo NL",NL,1816,19032,16,313,72370,4297,1265,1980,290,125,3708
"Notino CZ",CZ,1740,0,0,0,0,12325,764,5478,2,890,7138
"Alcampo ES",ES,1696,16716,16715,16715,68531,561,3827,7124,25665,80,36728
"Cefarm 24",PL,1691,12489,20,921,93015,15706,2024,3557,882,4067,10574
"Yuga RO",RO,1691,9005,103,103,17063,510,1601,1593,177,46,3451
"Drogas La Rebaja CO",CO,1687,11940,428,3846,350465,6683,61,11158,4526,477,16341
"Delhaize BE",BE,1548,12827,129,497,53361,22538,21,2735,285,493,3588
"Otto DE",DE,1471,0,0,0,0,156,735,663,0,31,1430
"Rewe DE",DE,1296,8733,14,264,31999,1552,7,1377,376,134,1910
eZebra,PL,1266,40862,27,2558,141471,37721,17,5353,17247,3567,26282
"Tesco UK",UK,1258,29058,87,2705,335687,24762,11,12235,1642,8406,22639
"Kifli HU",HU,1230,13389,112,1593,54524,9467,613,581,723,378,2329
"Picnic NL",NL,1230,6923,4,86,15070,2207,579,1047,40,82,1760
"Apteka Nowa Farmacja",PL,1213,14231,72,907,65956,23757,9179,2236,732,1536,13715
"Barbora EE",EE,1206,12280,121,160,44654,1235,44,1535,75,79,1749
"Barbora LT",LT,1182,12759,88,137,42872,1337,39,1367,66,64,1552
"E-Fresh GR",GR,1174,11000,61,803,54492,5777,2245,3925,1667,635,8504
"Barbora LV",LV,1166,11676,265,316,42252,1083,50,1637,153,82,1937
"Amazon DE",DE,1142,292,9456,9459,807653,5378,2636,21258,0,4596,28490
"Lekarna CZ",CZ,1116,27591,69,465,123496,4385,627,3348,375,187,4603
"Moja Lekaren SK",SK,1114,23762,45,258,105326,3392,624,2897,166,152,3897
"Coop CH",CH,1086,17302,45,207,71157,1497,274,1497,570,76,2459
"S-kaupat FI",FI,1086,36666,278,619,338469,4272,6,2982,305,91,3542
"Mathem SE",SE,1047,12602,0,0,27015,0,3,940,1157,590,2706
"Coop NL",NL,1038,16711,2,103,70882,952,1628,3218,222,59,5175
"Carrefour BE",BE,1033,19951,51,551,602792,21420,940,12810,150,1497,15760
"Salcobrand CL",CL,1022,6824,27,6824,30767,1139,244,595,3507,16,4402
"Apteka Manada",PL,1019,14368,252,1288,41203,41768,18,2557,2150,2375,7151
"Zakaz - Novus UA",UA,1004,31916,114,185,66864,1847,24,1658,101,66,1922
"Eroski ES",ES,1001,24704,13,368,51890,443,5,3045,225,36,3344
"Walmart AR",AR,1001,12652,23,415,52285,1198,603,3927,2913,53,7529
" SberMarket - Lenta RU",RU,982,19578,0,0,81239,512,16,6205,3465,87,9829
"Picnic DE",DE,964,6920,2,166,13896,969,448,817,81,62,1416
"Knuspr DE",DE,952,11143,28,209,41296,625,437,444,98,46,1048
"Auchan RO",RO,943,21887,105,594,91074,8665,24,882,342,148,1646
"SberMarket - Metro RU",RU,940,17332,98,634,67974,707,20,5333,1444,143,7010
"Remedium BG",BG,938,26907,14,373,76196,700,236,7437,764,110,8591
Hebe,PL,934,13362,362,2241,108633,30045,440,2034,2651,1017,6207
"Mall CZ",CZ,923,2135,339,2135,99316,8032,788,1701,7914,3428,13888
"Coop Shop IT",IT,920,10406,6,103,31250,2256,3,526,64,108,721
"Coop SE",SE,914,9697,158,641,31490,5507,4,628,295,165,1107
Selgros,PL,913,21596,909,1197,72564,25204,412,849,556,1409,3304
"Unipatika HU",HU,846,4202,14,302,29314,2528,444,869,155,124,1610
"SuperValu IE",IE,845,16509,72,865,226710,10599,500,9131,528,442,10887
"Polski Koszyk",PL,815,17468,23,703,58510,7147,15,777,434,361,1666
"Tigros IT",IT,807,10004,8,494,30041,5603,3,467,286,199,974
"Pilulka RO",RO,786,39293,102,325,142770,3593,472,2746,511,199,4040
"Zakaz - Metro UA",UA,772,18139,157,244,35838,2186,18,1277,116,70,1573
"Superdrug UK",UK,763,15754,108,382,44664,5745,13,968,1077,326,2477
"Auchan RU",RU,744,28824,132,833,92460,1059,14,1679,643,72,2505
"Coop DK",DK,743,10853,532,572,88028,1003,366,3441,445,38,4356
"Bringmeister DE",DE,734,16654,51,407,42944,2025,5,443,179,44,703
"Intervare DK",DK,730,8767,7973,8074,25592,0,9,356,3681,105,4171
"Superpharm Drogeria",PL,730,12543,56,2264,66569,47574,8,1330,2224,694,4357
"Walmart CR",CR,730,13454,43,60,174862,0,8,5739,106,0,5930
"Sklavenitis GR",GR,718,9696,25,327,29088,5667,72,760,148,220,1230
"Apteka Gemini",PL,712,27039,102,2506,93285,75325,11,2773,1203,908,4976
"Rimi LV",LV,701,15868,349,349,46705,4892,8,1476,720,172,2396
"eZiko Apteka",PL,698,6116,582,585,34623,37191,308,1491,283,1799,3908
"Dr Max SK",SK,695,17111,368,369,67731,4989,420,2967,419,382,4231
"Rimi EE",EE,686,13182,86,111,38299,3742,8,1360,239,188,1805
"Liki24 UA",UA,679,33729,71,115,122750,4229,26,5860,1610,221,7816
"Dr Max CZ",CZ,676,20708,412,412,84869,3945,643,5182,644,284,6797
"Tottus CL",CL,676,9279,36,1282,46850,1049,3,550,604,24,1201
"Gurkerl AT",AT,671,9185,80,254,32664,2796,372,313,116,102,923
"Tesco CZ",CZ,665,16746,3,737,549103,11787,9,11744,487,2255,14761
"Tesco IE",IE,664,17184,25,761,266539,5017,8,17048,595,309,18208
"Bennet IT",IT,661,18239,39,185,36745,2681,3,1011,86,90,1212
"Vasalekaren SK",SK,661,9562,10,176,66216,3191,1479,9463,345,587,11896
"Alza SK",SK,654,12891,71,167,52256,2503,136,610,64,95,928
"Poiesz NL",NL,652,8549,0,12,10780,137,20,509,1921,7,2470
"Alza CZ",CZ,650,20414,75,590,65040,14194,182,1540,239,773,2766
"Rossmann DE",DE,649,15234,88,314,53107,397,833,1368,313,24,2577
"Crai Spesa Online",IT,648,107,106,107,27516,1340,481,1544,220,221,2478
"Metro Delivery RU",RU,647,17163,1540,14622,55184,0,12,2605,19874,1,22541
"City Gross SE",SE,641,12723,2,503,26745,5914,3,392,255,273,944
"Mat SE",SE,641,10259,127,369,32345,8450,1646,275,502,144,2581
"Rossman HU",HU,640,14484,14,1088,50788,7509,5,3194,1377,176,4793
"E.Leclerc Bielany",PL,638,31554,67,2639,102938,33954,15,4095,1228,17236,22652
"Rimi LT",LT,631,14983,64,93,44580,3280,8,1342,199,142,1703
"DOZ.pl",PL,619,15251,80,1321,61756,51802,314,1684,694,1771,4508
"Hoogvliet NL",NL,619,8867,36,117,13889,1850,11,432,102,77,637
"Esselunga A Casa IT",IT,617,14717,9,532,43382,14340,9,4867,1026,1314,7243
"Yandex Lavka RU",RU,613,1879,16,151,2253,2072,99,881,248,70,1305
"DM SK",SK,609,12871,18,45,35892,2178,2,1156,33,46,1260
Apteline,PL,607,980,15,980,81878,18197,463,1376,672,652,3218
Barbora,PL,606,6897,20,402,57594,3848,19,1221,194,556,2106
"Tesco SK",SK,603,15171,37,42,215560,211,14,4638,35,30,4850
"Thanopoulos GR",GR,593,15801,24,397,53939,9600,14,4676,3830,766,9317
Amazon,PL,591,415,412,414,754160,17207,0,0,0,254,587
"Tesco HU",HU,591,15271,230,2513,837647,8795,8,16312,1523,1878,20073
"Apteka Galen",PL,589,8733,11,336,40543,3325,16,1442,283,216,2044
"Willys SE",SE,587,10358,7,437,34333,5027,3,326,421,171,939
"Nuko LV",LV,583,8298,313,317,35691,0,766,1309,917,1,3008
"Bestway Foodservice UK",UK,577,10657,49,348,33682,4590,296,458,219,114,1122
"Bestway Best-one UK",UK,575,6691,55,182,21663,12681,309,376,103,322,1131
"Bestway UK",UK,575,10048,127,869,32148,30507,292,431,429,679,1866
"Metro RU",RU,570,20677,35,698,25359,890,13,1099,365,50,1597
"Dr Max",PL,569,13758,865,865,51862,27395,357,2661,1095,1350,5505
"Spar HU",HU,564,13818,482,2067,178161,9911,8,8937,18832,387,28238
"Plus NL",NL,562,15282,25,245,28772,3720,41,2591,119,120,2915
"AB GR",GR,561,11424,68,492,34367,6936,15,1077,247,161,1533
"Pingvinpatika HU",HU,559,7306,57,420,38515,2835,10,4902,737,305,5970
"Kritikos GR",GR,558,15803,6,339,44582,0,14,27,162,6460,6710
"Apteka Melissa",PL,552,27786,1443,1443,93481,56332,17,7480,1032,854,9437
Spar,PL,547,23273,1511,1771,740490,74075,19,13280,837,1836,16477
"DM HU",HU,543,12017,8,750,32816,9519,6,1122,680,168,2004
"DM CZ",CZ,539,11422,10,347,31304,13614,1,1034,310,249,1615
"E.Leclerc Rzeszów",PL,539,13131,67,1365,37829,32682,35,849,823,1076,2866
"Benu CZ",CZ,535,13400,25,632,60063,5276,5,6026,580,83,6724
"MyMarket GR",GR,535,14384,172,360,50968,5634,14,1588,456,338,2431
"E.Leclerc Wroclaw",PL,534,14636,17,1016,14857,12284,471,1779,1717,5782,9785
"Sok FI",FI,533,9330,31,336,35921,3073,75,1091,734,330,2252
"Chronodrive FR",FR,527,8324,143,256,16645,2162,12,347,152,43,567
"Univerexport RS",RS,523,9341,5,241,18682,774,11,551,254,178,1003
"Ebag BG",BG,518,10885,107,211,37399,1211,12,1033,121,46,1237
"Easy Coop IT",IT,516,10199,620,627,36329,16408,2,230,301,281,842
"Drogeria Olmed",PL,510,1694,462,1694,118768,27773,3,18624,694,1238,20595
"Jumbo CL",CL,510,19880,42,1501,677565,1372,3,9096,1490,91,10941
"Apteka Zawiszy",PL,505,18246,47,917,73363,18425,238,733,473,421,1942
Rossmann,PL,505,2569,30,2566,77170,37851,7,583,4423,902,5959
"Colruyt BE",BE,496,6164,7,252,69546,14380,10,16315,9848,2189,28450
"Hemkop SE",SE,495,10041,8,491,31335,5117,3,272,450,257,998
Intermarche,PL,495,19522,2,3469,174690,25306,14,3091,1637,1919,6890
"Spar SI",SI,494,17645,28,213,66007,2471,14,3179,259,71,3559
"Interspar AT",AT,490,21112,20,241,65776,6126,6,751,298,134,1220
"Famila a casa IT",IT,488,12772,10,147,38265,5929,646,1261,155,210,2290
"Mega Image RO",RO,481,13418,2,353,40104,11023,21,909,164,186,1328
"Migros Online CH",CH,481,12567,101,144,37876,1368,19,673,114,53,884
"Benulekaren SK",SK,469,8787,26,324,46036,6237,6,3553,232,150,3996
"Silpo UA",UA,466,11080,25,128,27703,0,17,288,64,1,405
"e-Dostavka BY",BY,466,26800,777,1072,78207,0,3,4853,603,1,5534
"Carulla CO",CO,464,11397,6,397,64896,4168,19,1896,279,236,2471
"Basko IT",IT,463,8526,15,436,26080,4287,2,262,714,191,1181
Ceneo,PL,462,175804,2378,7905,238769,23097,873,2607,3221,116,7044
"GPSfarma AR",AR,460,5676,35,508,27247,1093,4,2235,432,67,2749
"Cornershop - Lider CL",CL,455,21278,1,1519,136475,1371,3,1031,357,38,1507
"Apteka Olmed",PL,454,1087,51,1087,134771,20472,8,20281,564,1890,22790
"MegaMarket RO",RO,447,5612,0,9,6721,571,20,1384,18,200,1702
"Carrefour ES",ES,441,2342,1,40,2433,579,10,370,66,86,549
"Patika24 HU",HU,426,4954,6,256,15368,4338,6,623,338,102,1081
"Eva UA",UA,425,449,372,449,131396,1534,493,7745,366,72,8727
"E.Leclerc Lublin Turystyczna",PL,424,12343,35,1124,15312,13074,12,435,938,2093,3500
"E.Leclerc Katowice",PL,415,9511,27,1309,9908,11135,89,398,601,1746,2932
"Feedo CZ",CZ,415,17163,83,1020,50324,372,403,4016,984,83,5536
"Lider CL",CL,415,11014,3,1261,210522,1126,6,11609,2473,89,14297
"Dr Max RO",RO,414,10245,249,249,33318,2331,288,1709,296,87,2405
"Apteka 9-1-1 UA",UA,413,21214,45,131,44303,1741,50,577,176,71,923
Stokrotka,PL,396,7275,2,105,169914,1003,18,2285,64,60,2587
"eTabletka SK",SK,395,11057,114,220,65433,5894,369,3874,220,91,4584
"Dia AR",AR,394,4820,1,129,15024,601,11,570,199,18,806
"Unimarkt AT",AT,394,3265,26,249,15391,3104,193,490,360,434,1486
"Apteki 36.6 BG",BG,393,9708,8,146,45204,715,10,1282,75,47,1446
"Kruidvat NL",NL,392,7503,33,127,17756,1697,205,758,147,100,1228
"Ecofamily HU",HU,391,5810,27,964,18750,4162,5,1109,8458,314,9899
"Cornershop - Jumbo CL",CL,383,25649,9,410,131436,1341,3,739,190,37,1043
"OnlinePrima HU",HU,383,7546,1,1150,23207,5787,6,2806,791,170,3789
"Iceland UK",UK,382,5504,40,348,21583,12246,7,2202,796,4467,7499
"Majestic UK",UK,379,1316,11,82,17327,1096,178,1792,126,123,2246
"Billa AT",AT,372,8805,77,231,28181,6255,3,504,637,201,1364
"Carrefour IT",IT,371,10807,199,842,32224,9968,49,834,674,395,1966
"Bringo RO",RO,359,28917,196,23535,46972,11133,23,1608,902,574,3158
"Globus RU",RU,359,15160,5,379,34751,0,13,5088,230,1,5368
"Ica New Version SE",SE,358,5735,4952,5469,107801,4038,3,1689,2461,175,4417
"Ulabox ES",ES,355,6208,10,107,13034,0,3,222,51,1,284
"Mercado Libre AR",AR,353,28608,771,5361,63896,582,189,697,5099,38,6061
"Jumbo AR",AR,352,12701,95,1959,55855,734,4,2896,1248,35,4216
"Świat Leku",PL,349,11225,12,387,29388,1783,138,1197,251,183,1800
"Ica SE",SE,347,11313,2,627,690741,9430,3,21700,312,160,22495
"E.Leclerc Lublin Tomasza Zana",PL,346,11023,55,1403,14071,10340,12,492,690,1238,2459
"Ulta US",US,343,11,6,11,91166,0,2,284,12,1,326
"Vkusvill RU",RU,341,11929,215,215,29981,891,46,1029,269,53,1443
"E.Leclerc Gliwice",PL,340,7122,47,1016,7239,9121,201,966,1479,5142,7806
Allecco,PL,336,11590,34,761,39312,20900,19,597,369,364,1566
Carrefour,PL,334,16002,158,3894,123551,34236,118,1933,2192,2361,6729
"Farmacia Tei RO",RO,327,20950,32,334,20950,2633,118,779,338,273,1568
"Azbuka Vkusa RU",RU,323,15380,112,379,30196,0,12,2322,1152,1,3524
"Bebe Tei RO",RO,322,23105,64,227,23105,3434,140,910,375,196,1692
"Elefant RO",RO,320,663,1559,1559,80331,1912,103,757,817,20,1762
"Roastmarket DE",DE,313,170,164,170,32424,375,3,160,1981,16,2173
"Gall & Gall NL",NL,304,3025,3011,3024,19695,130,6,2812,2855,39,5718
"SOpharmacy BG",BG,304,9381,58,201,29385,3533,260,611,174,85,1164
Empik,PL,302,170983,974,2122,537086,28703,60,13132,1088,262,14940
DoDomku,PL,300,5994,187,576,17680,1858,43,284,304,244,885
"Rappi - Exito CO",CO,300,23177,9611,9930,77164,8335,4,6620,16749,249,23653
"Bipa AT",AT,297,9931,82,82,21765,538,10,262,60,17,369
"Rappi Lider CL",CL,297,16027,9797,9992,89973,1153,3,7986,14673,31,22732
"Watsons UA",UA,292,121,8,121,25873,308,16,588,414,42,1082
"Tudrogueria Virtual CO",CO,291,8671,241,4118,16682,492,3,408,1894,29,2344
"MaxiCoffee FR",FR,290,5981,214,278,15249,1022,721,1070,1275,207,3288
"Rappi - Exito Express CO",CO,287,19020,3061,3606,47167,7087,3,6118,8337,254,14737
"Cornershop - Santa Isabel CL",CL,285,6562,0,200,8140,1001,4,340,212,26,587
"Merqueo - Bogota CO",CO,285,3485,10,194,8258,5730,2,240,90,191,528
"Apteka Medea BG",BG,284,8489,10,161,25306,1993,8,482,150,167,829
"Sephora US",US,284,397,379,397,88530,0,5,518,151,0,697
"E.Leclerc Tychy",PL,283,9397,33,1324,9535,11050,56,289,619,1754,2862
"Mall SK",SK,280,2040,293,2040,12658,732,370,537,4116,718,5753
"i-apteka",PL,280,9370,501,605,20085,10839,3,478,639,1148,2353
"Cruz Verde CO",CO,278,3902,7,2470,12049,1077,64,813,1146,79,2108
Makeup,PL,277,4651,545,4651,376551,76612,3,9697,1923,1294,13045
"Argos UK",UK,273,5812,4,3672,7898,0,4,498,15159,1,15696
"PriceSmart CR",CR,273,3481,12,13,51962,0,3,9405,40,1,9473
"Sipo HU",HU,268,865,0,0,1057,1268,6,627,72,127,835
"Konzum HR",HR,266,10370,13,248,16192,3483,315,2426,769,435,3959
"Afya Pharmacy BG",BG,265,8338,17,162,26805,696,8,2700,318,178,3218
"Groby HU",HU,265,8457,18,539,22368,3056,5,1496,893,284,2696
"Amazon NL",NL,264,0,0,0,70587,0,0,0,0,16,16
"Delitea SE",SE,263,9903,40,286,23598,1964,3,177,131,36,364
"Rappi Unimarc CL",CL,260,11474,3565,3658,28816,1267,3,4143,4594,32,8789
"Rappi Jumbo CL",CL,259,16448,10726,10865,62160,1387,3,6855,12580,32,19507
"Dunnes IE",IE,258,14244,21,803,31479,10710,3,539,377,193,1134
"Rappi - Carulla CO",CO,256,15759,5997,6357,57826,8431,3,5611,12237,246,18122
"Apteka Medkon",PL,254,5318,369,369,22212,13817,12,3499,772,2047,6361
"Farmacia la Pret Mic RO",RO,254,7553,88,329,23874,4078,32,1776,414,676,2916
"Rappi - Carulla Express CO",CO,252,14191,4987,5584,47101,8231,4,5436,10447,247,16156
Wapteka,PL,252,17182,737,1147,60054,36583,7,2810,412,693,3972
"Merqueo - Medellin CO",CO,250,3064,11,210,6999,5312,2,208,96,202,512
"Farmatodo CO",CO,249,13529,73,3663,57328,5360,7,896,6274,95,7307
"Supermarket AM",AM,247,8710,10,179,21895,0,3,755,335,1,1107
"Helpnet RO",RO,245,6824,25,283,19262,2430,13,1862,234,182,2307
"Edeka DE",DE,244,3296,74,112,4571,0,3,265,199,0,472
"Szybki Koszyk",PL,239,4389,3,136,15240,908,100,1153,126,84,1476
"Rappi Santa Isabel CL",CL,237,5954,0,151,7239,1190,2,1250,408,32,1696
Cocolita,PL,234,10475,107,374,48911,13406,285,1389,613,984,3317
"Metroiroda HU",HU,231,3647,4,264,7364,1367,4,916,584,241,1750
"Merqueo - Cali CO",CO,230,2078,3,80,4726,772,3,156,38,26,226
"Linio CL",CL,228,45007,2200,4172,74926,0,150,916,2371,1,3493
"Disco AR",AR,227,7626,96,434,30820,831,87,2519,878,34,3536
"Утконос RU",RU,225,839,116,839,45938,2163,10,405,594,98,1151
"Makeup UA",UA,220,3807,1526,3807,761843,3659,12,21492,912,44,22686
"Kesko FI",FI,219,13034,25,416,222085,8454,6,9307,840,763,11089
"Igooods RU",RU,218,20541,43,417,44397,0,10,296,291,1,658
"Coop UK",UK,214,9422,26,858,211220,18851,4,2231,415,652,3523
"Booker Foodservice UK",UK,212,11921,33,2051,22304,3548,132,487,955,119,1714
"Перекрёсток Впрок RU",RU,212,17056,57,830,38830,3483,14,2646,3138,131,5976
"Superpharm Apteka",PL,211,9479,32,513,24782,17447,3,500,465,295,1294
"Rappi - Pricesmart CO",CO,209,1916,34,41,5609,811,2,2201,833,35,3074
"Booker UK",UK,207,9153,21,2051,17471,9975,113,359,935,651,2075
"Benu HU",HU,206,4910,4,333,15763,2707,4,4650,852,612,6127
"Yandex Market RU",RU,206,68212,5581,9495,120214,3615,17,2053,4971,85,7257
"Beauty Bay UK",UK,203,13465,12,194,52491,0,4,323,96,1,468
"Minifarm RO",RO,203,4976,10,125,15348,193,13,1088,197,144,1487
"Emag HU",HU,199,88400,332,1504,88449,6811,5,1211,1961,139,3417
"Parfums UA",UA,187,1056,68,1056,155191,1642,11,3860,1135,127,5252
"Look Fantastic UK",UK,184,18489,107,186,58834,0,4,723,118,1,919
"Deliberry - Caprabo ES",ES,182,8587,0,0,9705,0,5,235,1,1,249
"Vodovoz RU",RU,178,1032,11,60,2123,0,8,241,74,1,329
"Deliberry - Mercadona Barcelona ES",ES,177,5747,0,0,6870,0,6,229,5,1,246
"Deliberry - Solri ES",ES,176,7912,0,1,9011,0,6,194,10,1,217
"Deliberry - Mercadona Madrid ES",ES,173,5563,0,0,6676,0,6,213,9,1,236
AptekaLeki,PL,162,2035,0,69,6122,1583,9,1167,69,142,1394
"Deliberry - Supercor ES",ES,161,4082,1,1,5006,0,6,157,11,1,178
"Jumia NG",NG,161,6858,481,481,15046,0,107,324,261,1,699
"Everli - Coop IT",IT,160,10176,1,154,11440,50,17,4286,78,1621,6014
"Pyaterochka App RU",RU,159,6665,48,413,15587,1859,8,257,201,30,529
"Professional Farmaline RO",RO,155,8532,11,131,18160,2493,11,863,110,61,1066
"Panda Market HU",HU,152,1996,17,121,4455,2105,5,123,57,64,253
"Vea Digital AR ",AR,150,3943,16,286,14841,855,87,1749,4551,160,6555
"Tiendas Jumbo CO",CO,145,16756,8,852,78057,5105,3,9264,1423,205,10937
"Deliberry - Dia ES",ES,143,3377,0,0,4208,0,9,125,6,1,144
"Deliberry - La Plaza ES",ES,143,3550,0,0,4338,0,8,177,31,2,221
"Everli - Metro IT",IT,141,2618,1,46,3473,1500,16,158,25,693,894
"Nazuby CZ",CZ,137,1555,1,62,7005,134,3,105,55,23,190
"Exito CO",CO,136,13077,14,833,76912,2797,14,4540,2202,270,7065
"Automercado CR",CR,131,13253,6,54,22048,0,14,1750,173,1,1949
"Subra BG",BG,129,5798,4,175,14789,2555,11,165,88,234,518
"Coop EE",EE,127,9753,114,114,21109,1829,2,452,53,57,575
"Medexpressz HU",HU,127,1223,90,91,1881,0,4,191,160,1,359
"Zakaz - Auchan UA",UA,127,5664,39,43,12563,0,11,431,22,1,484
"Ozon RU",RU,122,48179,3672,5225,74040,3268,415,5189,10960,268,16956
"Condis ES",ES,121,6347,8,9,6721,0,3,210,11,1,231
"Cora Drive BE",BE,116,13412,6241,6278,89146,4481,9,11881,34029,1286,47284
"Farmacia Pasteur CO",CO,114,8506,8,3220,51297,557,3,1577,2992,31,4633
"Amazon Fresh DE",DE,112,9085,607,608,14624,1803,432,2219,412,50,3122
"Auchan UA",UA,108,6449,2,3,19153,0,16,2581,12,1,2629
"Produktoff UA",UA,102,12151,4341,4344,12279,0,9,436,2433,1,2891
"Koffievoordeel NL",NL,99,523,2,68,3206,1286,2,587,140,29,761
"Vitania BG",BG,98,7289,136,136,7289,2275,6,341,65,75,498
"Rappi Cruz Verde CL",CL,97,4976,2276,2485,34826,1106,3,2770,4473,31,7295
"Boohoo UK",UK,95,1536,15,18,6203,0,7,1059,949,1,2026
"Farmacity AR",AR,90,14,0,14,4374,1162,3,230,8,47,289
"Kaffedeal DK",DK,90,420,3,47,1108,610,3,49,24,32,109
"Kaufland DE",DE,90,12268,61,344,13317,701,65,1125,249,66,1520
"Brack CH",CH,81,8036,20,101,20282,1651,57,207,55,161,507
"Okey RU",RU,80,10135,3311,3651,10170,0,7,325,10487,1,10838
"Durst DE",DE,69,1024,71,1024,1089,0,3,12,19,2,39
"Apteka Nove BG",BG,67,11567,40,180,25562,3390,41,2693,266,171,3191
"Media Markt DE",DE,67,2024,134,331,4633,1214,1570,18563,7039,15136,42317
"Droguerias Cafam CO",CO,66,4191,38,2948,10634,1353,19,712,5576,53,6365
"Rozetka UA",UA,62,93959,2482,23080,116484,3278,84,3637,5548,150,9590
"Sanctuary UK",UK,61,105,0,8,380,0,4,38,4,29,76
"Kaffekapslen DK",DK,60,741,3,64,1730,1299,84,56,93,208,442
"Kapselnkogen DK",DK,56,276,4,59,579,551,21,55,28,31,136
"Saturn DE",DE,56,1954,105,109,4150,841,294,2285,924,3961,7467
"Asos UK",UK,55,8568,45,120,21413,0,68,403,146,1,640
"iDrinks HU",HU,52,6464,318,337,14187,252,10,2391,406,84,2902
"Emag RO",RO,49,56830,232,583,56832,5113,10,899,1030,167,2192
"Expert DE",DE,49,1033,13,272,1116,399,75,94,1117,114,1401
"Pretty Little Thing UK",UK,49,1611,17,21,4456,0,3,239,12,1,263
"Very UK",UK,47,3478,8,30,3800,0,13,46,14,1,84
"Winelivery IT",IT,45,1416,2,20,3128,0,3,269,23,1,297
"Fudge UK",UK,44,92,1,1,520,0,4,28,2,41,76
"Bol NL",NL,43,253,151,254,32000,2445,66,2078,1276,453,3892
"Altex RO",RO,38,2143,51,104,4218,2554,4,160,120,136,426
"Ep DE",DE,34,213,12,17,678,288,71,121,35,91,318
"BilkaToGo DK",DK,33,3547,53,196,20352,1412,7,75,85,44,237
"John Lewis UK",UK,28,21,5,21,408,133,6,39,71,10,127
"Mercator SI",SI,27,13248,10,167,13248,1979,5,24,79,55,187
"StTropez UK",UK,25,26,0,0,78,0,3,16,2,57,78
"Qvc US",US,24,16653,48,69,20584,0,17,138,840,1,1010
"St. Tropez US",US,24,23,0,0,68,0,2,16,1,0,19
"Boulanger FR",FR,17,657,15,65,1350,346,20,90,238,135,484
"Shoplink IE",IE,17,125,2,92,375,1647,28,37,102,213,380
"Euronics DE",DE,15,10367,0,173,39828,1173,32,1202,41906,242,43415
"BCC NL",NL,14,576,7,36,921,573,7,49,42,47,147
"Mercado Libre CL",CL,12,6556,99,169,12721,0,12,272,189,0,481
"El Corte Ingles ES",ES,11,4035,2,142,5169,717,27,234,1460,70,1794
"Leclerc FR",FR,11,239,0,83,407,645,18,173,845,405,1442
"Wildberries RU",RU,10,154937,1500,5225,168143,1490,10,1489,2496,65,4365
"Mediaworld IT",IT,9,247,8,40,494,1431,16,110,183,306,615
"Intermarche FR",FR,8,362,70,97,665,1042,5,30,338,429,803
"Sushi33 UA",UA,8,47,0,24,92,0,5,58,12,1,76
"AO UK",UK,7,856,13,29,1147,189,72,8,41,6,134
"Unieuro IT",IT,6,1605,17,21,2010,1064,2,13,19,59,95
"Easy CL",CL,3,616,1,1,699,0,1,13,3,1,19
"Sodimac CL",CL,1,0,0,0,0,0,2,17,1,1,21
"0815 DE",DE,0,0,0,0,0,0,7,1,1,45,54
"Carrefour AR",AR,0,0,0,0,0,634,131,0,1,29,161
"Carrefour FR",FR,0,0,1513,1698,0,0,16,6459,0,0,6475
"Cora RO",RO,0,0,0,0,0,0,6,33,0,475,518
"Coursesu FR",FR,0,0,0,0,0,0,3,3,0,80,94
"E.Leclerc Elblag",PL,0,0,0,0,0,0,5,2,2,3661,3670
"E.Leclerc Gdansk",PL,0,0,0,0,0,0,3,1,2,3449,3455
"E.Leclerc Radom",PL,0,0,0,0,0,0,6,0,4,3503,3514
"Lopido CO",CO,0,0,0,0,0,0,3,14,1,71,89
Makro,PL,0,0,0,0,0,27950,8,2,1,2197,2209
"Mpreis AT",AT,0,0,0,0,0,0,4,3,0,42,49
"Selver EE",EE,0,0,0,0,0,0,2,5,0,1,8
"Sushiya UA",UA,0,0,0,0,0,0,10,32,22,8,72
