﻿Site,Country,Categories,Prices,"Products changed","Products downloads",Relations,Search,"Categories time","Prices time","Products time","Search time","Total time"
"Ocado UK",UK,6506,47892,2184,31808,459354,42138,6610,16637,46905,7447,78229
"Mytime DE",DE,4757,11626,326,11626,105315,3033,2136,3091,5406,156,10838
frisco,PL,4711,15919,0,0,301981,89998,58,10665,52744,0,63467
"Albert Heijn NL",NL,3445,21637,1477,21636,105874,4299,446,1605,1902,80,4098
"Makro CZ",CZ,3424,0,0,0,792182,0,1345,0,0,0,1345
"Asda UK",UK,3390,28606,870,28606,947873,41367,11,11051,18256,1149,31092
"Morrisons UK",UK,3332,20923,2099,20923,99123,32123,5907,11000,23005,7414,47413
"Samokat RU",RU,3114,5501,155,5480,79697,17,26,56,10549,5,10688
"Waitrose UK",UK,3078,0,0,0,0,34134,52,22130,4,827,23203
"Metro SK",SK,3053,0,0,0,275557,0,1245,0,0,0,1245
"Coto Digital AR",AR,2972,17927,17900,17900,116911,1201,1877,3462,8830,41,14278
"Rohlik CZ",CZ,2944,24008,2849,24008,224345,23127,2054,3715,14405,835,21158
"Albert Heijn BE",BE,2856,10086,695,10086,50477,6282,423,1352,746,133,2683
"Galen BG",BG,2637,13772,88,13772,96946,2745,1324,2247,6410,58,10112
"Kosik CZ",CZ,2636,16937,317,16937,96696,33457,463,1738,8011,1145,11434
"Notino SK",SK,2621,39649,3691,39649,114147,166,1207,6564,27787,16,35725
Auchan,PL,2494,15710,14721,15710,458853,27155,39,15426,8482,5116,29504
"Drogeo CZ",CZ,2429,31450,5,31450,126670,42007,19,2268,15602,860,18848
"Pilulka SK",SK,2334,36967,16873,36963,229262,10520,14,7051,16883,292,24364
"Pilulka CZ",CZ,2239,38727,15021,38719,182976,35027,14,7371,26148,824,34471
"Sainsburys UK",UK,2231,30923,960,30923,1706828,84614,230,27151,23206,3780,55636
"Notino CZ",CZ,2167,20015,541,20015,54394,60382,1002,6839,12335,1432,21843
"Drogerie Natura",PL,2003,17711,24,17710,99046,37527,44,4534,22437,2871,30004
"Amazon Fresh IT",IT,1980,4552,4538,4550,6347,2728,2569,4561,2673,344,10155
"Boots UK",UK,1927,0,0,0,0,7409,5291,6215,4,5522,17037
"Brakes UK",UK,1895,9278,51,9278,27875,30817,889,1830,4504,307,7558
"Jumbo NL",NL,1867,18844,1002,18842,73404,4258,1152,2047,17670,120,21040
"Auchan HU",HU,1858,35170,534,35169,374569,11011,12,13336,18186,534,32276
"Otto DE",DE,1734,15894,443,16563,70962,782,809,1071,7734,31,9682
"Yuga RO",RO,1673,9761,97,9761,48314,485,1669,3982,17210,58,22951
"Cefarm 24",PL,1656,13836,224,13816,102044,14188,2148,3827,17612,4796,28467
"Alcampo ES",ES,1621,11841,1690,10577,19424,557,3652,6879,14046,121,24716
"Delhaize BE",BE,1584,14349,922,14345,60637,15423,10,1208,7294,306,8857
eZebra,PL,1360,42491,0,0,151009,31466,17,5595,52117,0,57729
"Tesco UK",UK,1357,0,0,0,0,24925,9,4249,6,8515,12796
"Barbora EE",EE,1332,12530,203,12530,46909,1318,44,1692,5713,81,7565
"Remedium BG",BG,1303,27363,168,27360,94976,708,301,7398,29506,88,37365
"Coop CH",CH,1285,18220,1800,18220,69649,2056,298,1928,26630,153,29061
"Barbora LV",LV,1282,12415,991,12415,47766,1360,43,1773,5636,87,7576
"Kifli HU",HU,1282,14781,518,14781,60325,10163,585,632,6614,380,8286
"Picnic NL",NL,1236,6870,128,6825,15041,2219,543,995,3144,80,4776
"Rewe DE",DE,1236,10412,240,10412,45606,3355,29,1425,11431,387,13301
"Barbora LT",LT,1227,12859,111,12849,45517,1267,35,1327,5951,68,7413
"E-Fresh GR",GR,1221,12374,268,12370,60173,6243,2334,4232,25589,635,32837
"Amazon DE",DE,1207,265,261,264,390276,15072,0,0,0,2197,2197
"iGlobus Zlicin CZ",CZ,1188,22537,59,22537,86125,7717,12,5505,38589,375,44559
"Moja Lekaren SK",SK,1160,24271,190,24271,131938,6497,634,3728,13335,201,18013
"Lekarna CZ",CZ,1156,28782,319,28782,126773,5537,622,3633,16172,201,20738
Hebe,PL,1128,18347,7033,18346,173438,27605,571,3238,26698,586,31237
"S-kaupat FI",FI,1116,42314,525,42309,324944,5168,26,4233,26370,97,30876
"Carrefour BE",BE,1075,12022,53,12020,473537,21390,976,13462,6123,2701,23592
"Mathem SE",SE,1048,12680,1163,12637,34660,7568,26,1146,13395,516,15115
"Albert App CZ",CZ,1047,8238,34,8238,59958,0,503,1649,3725,1,5943
"Eroski ES",ES,1042,25638,99,25630,54200,602,28,3520,13762,43,17401
"Alza CZ",CZ,1032,24937,34,14,94909,29312,202,1613,282,1712,3853
"Picnic DE",DE,1028,7035,297,7035,14124,1794,472,887,3206,165,4743
"Salcobrand CL",CL,1018,6618,0,0,29279,1102,288,615,3985,15,4931
"Amazon IT",IT,1001,545,545,545,210440,6822,0,0,0,411,411
"Coop NL",NL,996,16769,2165,16769,71352,989,1363,2656,23056,66,27180
Bee,PL,980,41669,17991,41669,149580,0,451,2803,19364,1,22783
"Knuspr DE",DE,970,9256,180,9256,34977,1439,454,452,4370,151,5451
"Auchan RO",RO,964,21469,54,21449,91145,7556,21,1168,13653,144,15058
"Dr Max SK",SK,954,21627,21574,21627,93579,6530,408,2990,21303,223,24981
Selgros,PL,945,22727,14855,22719,79529,28899,422,926,9970,1535,12942
"Coop SE",SE,925,10068,519,10068,34409,8022,25,938,4825,218,6028
"Coop Shop IT",IT,924,10115,32,10115,30389,5633,13,646,6743,361,7788
"Cruz Verde CL",CL,880,10111,35,10111,182643,0,27,22634,4493,1,27238
"Unipatika HU",HU,870,4371,39,4370,31279,4660,479,1022,3178,215,4919
"Magnit App RU",RU,856,4054,391,4054,12083,0,13,1591,3619,2,5237
"Alza SK",SK,848,11430,0,0,49143,3635,113,418,2545,0,3076
"SuperValu IE",IE,846,16412,83,16412,223728,10513,868,16774,17720,534,36122
"Tigros IT",IT,841,10117,207,10116,30388,7004,12,472,5829,236,6580
"Pilulka RO",RO,839,39069,4539,38997,158838,3556,14,1923,25757,117,27910
"Apteka Manada",PL,820,14754,303,13983,43919,31835,27,3005,27161,2511,32760
"Wong PE",PE,811,23008,311,20041,144081,0,23,7917,18759,1,26780
"Superpharm Drogeria",PL,806,16134,1239,16134,100808,33135,14,1416,21094,371,22969
"Polski Koszyk",PL,799,23650,43,23616,75887,7892,8,940,11129,323,12526
"Tesco IE",IE,786,0,0,0,0,4070,6,3474,3,765,4288
"Superdrug UK",UK,777,15053,96,15046,42557,6806,11,907,33329,540,34838
"Coop DK",DK,758,11501,8513,11499,94707,1187,341,3228,14293,37,17958
"Auchan RU",RU,747,22519,772,22519,72127,350,14,1335,15964,9,17380
"eZiko Apteka",PL,740,7141,78,7113,42473,19144,332,1705,3286,938,6304
"Bringmeister DE",DE,730,16392,2402,16389,42420,5411,23,449,7221,142,7866
"Masxmenos CR",CR,730,8735,82,8731,24009,0,32,1476,9805,6,11333
"Walmart CR",CR,730,13510,110,13505,174430,4487,27,5263,15660,130,21168
"Sklavenitis GR",GR,729,10133,172,10133,30399,5894,101,1082,4793,284,6289
"Rimi LV",LV,725,14857,30,14857,43733,5285,16,723,14743,101,15606
"Apteka Gemini",PL,715,26248,698,26248,90027,54376,19,3169,16230,653,20170
"Intervare DK",DK,710,9356,8592,9356,27087,0,6,330,4236,111,4700
"Dr Max CZ",CZ,709,21743,21727,21743,90129,8248,340,3055,22078,266,25815
"Lunys SK",SK,709,5367,220,5367,19454,0,643,1381,5796,1,7839
"Mall CZ",CZ,706,39874,552,39874,101838,19120,462,2132,68724,0,71318
"Rimi EE",EE,697,12446,23,12446,36394,3737,14,681,12329,102,13146
"Gurkerl AT",AT,695,9711,1326,9710,35111,3129,326,328,4403,113,5199
"Tesco CZ",CZ,694,17037,317,17037,563109,23580,8,14232,10263,3742,28664
"Walmart AR",AR,692,0,0,0,0,0,511,1160,1,7,1679
"Bennet IT",IT,680,18812,190,18812,38038,15189,10,1047,8278,478,9845
"Drogas La Rebaja CO",CO,674,11719,1509,11719,358490,7093,92,9259,11453,438,21388
"Rossman HU",HU,665,15264,532,15264,56187,7605,405,727,22739,168,24093
"Tottus CL",CL,663,9124,55,9123,43632,1129,22,574,4101,22,4751
"DM SK",SK,658,12592,295,12376,36037,2173,8,1257,5838,102,7244
"Mat SE",SE,658,10321,3062,10321,31709,12035,2800,295,9470,196,12781
"Poiesz NL",NL,658,8088,0,8082,10327,131,10,541,6196,7,6767
"Rimi LT",LT,654,14711,209,14711,44079,3399,13,674,14589,71,15369
"Rossmann DE",DE,652,16228,116,16228,56390,452,547,960,14909,19,16468
"Maxi RS",RS,651,7773,116,7773,25513,5903,9,401,3509,96,4035
"City Gross SE",SE,649,12727,807,12727,27679,8844,23,397,6075,372,6886
"Crai Spesa Online",IT,649,7462,6899,7462,26886,6959,420,1094,9863,1006,12395
"DOZ.pl",PL,641,17587,380,17583,69070,47605,365,2413,11497,1640,15986
"Tesco SK",SK,640,16199,216,16199,233700,847,8,8229,10608,133,19187
Barbora,PL,639,8180,47,8175,104336,6779,27,2898,4078,847,7956
"Hoogvliet NL",NL,639,8905,46,8905,14246,1891,9,480,7670,65,8238
"Ebag BG",BG,633,11485,2587,11436,40468,1511,12,1239,6140,29,7450
"Esselunga A Casa IT",IT,625,15149,1384,15149,44911,16213,16,4084,24033,1239,29401
"Tesco HU",HU,624,16139,360,16139,1100209,8949,12,25124,9852,1473,37067
"E.Leclerc Bielany",PL,619,31389,191,31005,99779,35778,77,3690,14013,20952,38840
Apteline,PL,613,24870,8528,24869,81542,14486,483,1572,16398,472,18994
Amazon,PL,611,475,470,474,924387,18631,0,0,0,627,627
"Colruyt BE",BE,609,7944,79,7944,93687,14448,12,14506,20349,1722,36686
"Vasalekaren SK",SK,609,10145,143,10145,68025,3967,1254,8777,18867,609,29550
"Vkusvill RU",RU,608,6088,6088,6088,22653,1104,205,2697,13028,166,16111
"Thanopoulos GR",GR,598,16034,595,16034,53481,9129,13,4784,20229,642,25712
"Apteka Galen",PL,593,8858,5,8250,35251,3311,23,1261,8576,250,10157
"Willys SE",SE,588,10780,296,10779,35646,6950,18,410,5637,228,6315
"Pingvinpatika HU",HU,586,7604,487,7604,41584,2845,9,5243,9607,312,15197
"Benu CZ",CZ,578,14246,215,14245,66086,6263,8,5184,9683,75,15030
"Glovo Kaufland RO",RO,573,9006,86,9006,15854,0,15,287,127,24,468
"Dr Max",PL,569,12311,12301,12311,46615,21942,255,1545,11329,670,13848
"Zakaz - Metro MD",MD,566,10907,5517,10907,18310,0,11,1299,9304,1,10633
"AB GR",GR,564,11334,606,11334,34937,6998,13,637,5477,169,6327
"Spar HU",HU,564,14376,96,427,181906,10980,8,3758,30045,311,34224
"DM HU",HU,562,12257,289,12041,33729,9639,7,1197,5691,317,7249
"Plus NL",NL,562,15783,296,15783,30107,3800,31,4110,16582,199,20974
"Kritikos GR",GR,559,16418,9465,16418,46432,0,13,28,7207,7010,14297
"E.Leclerc Wroclaw",PL,557,14645,73,14640,14862,12525,447,1738,21658,5243,29137
"MyMarket GR",GR,550,18275,2475,18275,66857,5958,12,3087,23957,348,27447
"DM CZ",CZ,549,12129,324,11913,33116,32382,6,1180,5636,1041,7897
"Pão de Açucar BR",BR,548,14467,1627,14465,41481,0,19,1541,7001,1,8589
"Freshful RO",RO,547,20517,590,20517,41873,367,11,890,9572,15,10533
Spar,PL,547,24718,12833,24714,685390,77322,22,12300,11284,1995,26265
"Metro RU",RU,544,19377,798,19356,26406,44,12,2120,16378,16,18568
"Jumbo CL",CL,542,20473,69,19544,552613,1381,19,7485,9579,68,17490
"Univerexport RS",RS,537,10032,10,10032,20064,1176,19,575,10421,220,11251
"Sok FI",FI,536,9563,164,9563,36519,3254,82,1064,4477,263,5910
"Chronodrive FR",FR,534,8723,265,8657,17014,2103,22,447,4252,43,4789
"E.Leclerc Rzeszów",PL,534,13185,28,13185,39117,29350,28,660,4241,854,5839
"Yandex Lavka RU",RU,534,3179,142,3179,9396,2132,80,531,2370,73,3069
"Plazavea PE",PE,516,27213,145,27213,198398,0,19,4860,12404,0,17410
"Drogeria Olmed",PL,514,42113,9672,42113,139072,21034,14,7571,22745,1505,31926
"Apteka Zawiszy",PL,505,20285,298,20285,80332,10130,236,793,9633,228,10980
"Hemkop SE",SE,503,10600,295,10600,33219,7261,18,310,4897,217,5466
"Interspar AT",AT,501,21097,1712,21097,66840,6095,12,656,29471,151,30341
Intermarche,PL,499,18827,65,18827,166849,19102,14,3462,8488,1376,13592
Rossmann,PL,499,24006,22961,24001,77804,25430,15,864,28054,583,29587
"Idea RS",RS,498,12221,257,12221,21255,6647,93,547,5476,94,6235
"Spar SI",SI,488,17602,721,17602,61773,2726,12,651,19686,103,20495
"Dr Max Drogeria",PL,484,13958,13927,13958,43586,0,206,1550,14227,0,16025
"Migros Online CH",CH,484,12272,12272,12272,37882,1466,25,1301,10311,224,11891
"Mega Image RO",RO,481,12824,156,12822,38524,9695,11,439,5811,153,6459
"Benulekaren SK",SK,473,9118,539,9118,46825,6202,11,2577,4601,128,7356
"E.Leclerc Radom",PL,472,14345,4204,14336,45183,11796,68,2951,6757,1928,11761
"Famila a casa IT",IT,471,12352,52,12342,29973,6416,803,1492,19286,313,21915
"e-Dostavka BY",BY,470,30300,18170,30297,87360,2191,10,6510,16682,163,23422
"Basko IT",IT,466,8377,70,8371,25610,1423,7,269,9219,43,9555
Ceneo,PL,465,192814,12242,192185,257554,30218,868,3217,46729,380,51499
"Cornershop - Lider CL",CL,462,20590,48,19889,124795,1343,18,1074,6683,52,7934
"GPSfarma AR",AR,462,5757,1424,5757,26201,1160,48,2124,4767,67,7022
"Mercado Libre MX",MX,458,60704,60704,60704,122469,0,849,1370,17122,1,19381
"Apteka Olmed",PL,457,44599,1682,44595,152811,19298,18,10389,30039,1734,42279
"Carulla CO",CO,455,9949,1881,9946,29751,4080,38,1198,4935,184,6394
Aptelia,PL,454,14400,64,14400,69160,10024,199,1958,6835,325,9371
"MegaMarket RO",RO,447,5357,0,5357,6465,564,11,1266,6009,190,7487
"Feedo CZ",CZ,443,22111,1549,22111,66439,910,192,1037,14282,33,15595
"Carrefour ES",ES,439,12783,108,12560,15341,277,40,693,6610,30,7395
"eTabletka SK",SK,439,11761,107,11761,79189,6676,435,7287,14151,89,22007
"Unimarc CL",CL,433,10573,116,10554,31719,1204,16,2242,15634,28,17941
"Lopido CO",CO,432,10293,566,10282,20732,598,24,5191,24814,53,30094
"E.Leclerc Lublin Turystyczna",PL,431,13148,247,13148,16144,13924,6,520,11679,2106,14357
"Lider CL",CL,427,10924,1138,10924,250040,1086,24,16268,21209,151,37777
"Patika24 HU",HU,426,4403,26,4402,10798,3262,8,553,5321,89,5982
"Kruidvat NL",NL,425,8864,808,8861,24595,1738,179,666,6576,100,7546
"Ecofamily HU",HU,424,7271,6358,7270,23588,4295,8,2788,46481,752,50047
"E.Leclerc Katowice",PL,422,10998,27,10988,11567,12574,290,1300,16472,5342,23436
"Dr Max RO",RO,419,11896,11896,11896,29779,5820,199,1018,11633,206,13084
"iFresh SK",SK,404,8008,7875,8008,175535,0,9,4895,29345,2,34358
"Teta Drogerie CZ",CZ,403,8970,76,8967,26091,7046,7,848,7853,232,8968
"Cornershop - Jumbo CL",CL,400,27121,77,26790,143218,1348,14,817,8729,124,9813
"OnlinePrima HU",HU,397,7562,83,7562,23526,6153,6,650,9522,268,10477
"Cornershop - Wong PE",PE,396,19669,63,19630,59262,0,14,633,8828,0,9518
"Apteki 36.6 BG",BG,394,10013,78,10013,47334,677,11,1401,5143,57,6648
"Dia AR",AR,394,4427,82,4422,13816,575,24,523,2128,16,2703
"Unimarkt AT",AT,392,3385,347,3384,15713,3230,119,350,2768,223,3476
"Majestic UK",UK,382,1290,147,1290,16908,1158,166,1768,1035,137,3121
"Iceland UK",UK,380,5598,250,5597,30770,16127,16,1350,5400,1366,8156
"Carrefour IT",IT,379,13058,3897,13029,37022,12103,33,477,5863,334,6744
Stokrotka,PL,379,7604,10,7604,162743,2841,19,2218,3586,291,6305
"DrankDozijn BE",BE,376,3521,36,3521,14351,2124,5,625,5532,376,6548
"DrankDozijn NL",NL,376,3520,36,3520,14348,250,5,614,5532,43,6207
"Bringo RO",RO,373,31422,97,26242,52757,9526,25,1810,1224,742,3867
"Billa AT",AT,371,9180,328,9180,29708,6612,11,310,15249,142,15732
"Walmart GT",GT,369,8689,117,8688,152278,4021,21,4736,11492,160,16494
"Elefant RO",RO,366,42752,44204,44204,58867,2005,101,1126,21247,20,22540
"Świat Leku",PL,364,11697,69,11697,35456,1866,137,1332,8730,180,10426
"Ulabox ES",ES,362,5921,30,5921,12463,0,14,227,2723,2,2983
"Cornershop - Metro PE",PE,361,16708,13,16433,55106,0,12,584,7503,1,8144
"Ica New Version SE",SE,358,5805,5645,5805,106658,5414,14,1849,2704,272,4930
"E.Leclerc Lublin Tomasza Zana",PL,354,11121,286,11112,14352,10493,13,462,5168,1043,6715
"Farmacia Tei RO",RO,352,24400,21196,24398,25948,2420,8,637,11089,107,11878
"Cruz Verde CO",CO,350,4354,37,4353,19505,1200,66,1291,1990,84,3445
"Ica SE",SE,349,11441,118,11441,703660,12673,15,21533,5157,211,27324
"Gall & Gall NL",NL,347,3001,1561,3001,22372,62,5,4504,4092,14,8632
"Ulta US",US,347,33228,966,33228,93125,0,19,281,32110,1,32441
"Mercado Livre BR",BR,343,28152,21999,28060,156954,0,683,5988,12285,1,19235
"E.Leclerc Elblag",PL,339,10707,125,10678,29702,15830,32,1434,8601,2184,12287
Allecco,PL,336,11722,92,11720,40292,10608,20,590,5292,178,6138
Carrefour,PL,330,16067,308,16064,123651,35768,241,2047,8315,2044,12798
"Bebe Tei RO",RO,325,26250,384,26240,27122,515,8,836,11752,45,12675
"Mpreis AT",AT,325,7993,352,7993,28066,4465,314,790,13047,100,14278
"Roastmarket DE",DE,324,3829,35,3829,34776,392,28,415,15855,16,16328
"Carrefour BR",BR,322,15153,506,15119,143494,0,16,11076,23900,0,35062
"Globus RU",RU,322,13883,13557,13830,47595,37,9,2192,7566,6,9825
"Gorillas App IT",IT,319,1564,5,1564,4389,6335,7,15,21,209,257
"Mercado Libre AR",AR,316,32623,18204,19126,70416,464,176,755,22055,77,23115
"Sipo HU",HU,310,5271,5241,5256,11694,1375,8,656,3265,111,4054
"Cornershop - Santa Isabel CL",CL,308,7084,45,7083,8761,998,15,607,10429,50,11110
"SOpharmacy BG",BG,304,9841,3943,9840,30951,3512,369,886,10369,121,11773
"Bipa AT",AT,301,10894,10894,10894,23951,561,13,385,14785,18,15221
Empik,PL,301,129140,43556,122329,304953,25565,67,4421,45112,244,50163
"Jumbo AR",AR,300,9462,97,9418,53955,784,21,2192,4611,30,6900
"Cora RO",RO,299,45405,13,45405,93002,6369,8,4522,31908,763,37264
DoDomku,PL,299,6642,636,6642,19521,2523,46,255,3670,447,4474
"Easy Coop IT",IT,299,9281,576,9281,27311,9730,7,1753,18523,862,21162
"Mall SK",SK,296,11196,69,11196,28073,1132,308,736,20348,1102,22539
"Apteka Nove BG",BG,295,11692,19,11692,41126,3404,391,1772,15128,145,17463
"E.Leclerc Gdansk",PL,295,10484,3,10484,29097,9784,26,1387,8248,1859,11592
"Amazon NL",NL,291,0,0,0,119142,0,0,0,0,17,17
"Tudrogueria Virtual CO",CO,291,8303,820,8303,16024,461,23,394,3845,25,4301
"Apteka Medea BG",BG,284,8796,74,8795,26875,0,9,611,4784,2,5435
"Sephora US",US,283,19671,2323,19669,124673,0,18,807,13531,2,14405
"Merqueo - Bogota CO",CO,282,2677,21,2677,6566,5797,22,322,1313,169,1832
"i-apteka",PL,282,9736,7923,9736,20852,5847,7,410,10271,475,11196
"E.Leclerc Tychy",PL,279,9566,30,9558,9742,11589,52,288,4282,1685,6333
Makeup,PL,278,103505,8635,103504,443734,58202,5,18193,33496,880,52774
Makro,PL,278,3180,1,3180,8697,32612,7,534,1454,1653,3665
"Mercado Libre CL",CL,277,0,0,0,69179,0,0,0,0,0,0
"Argos UK",UK,273,5625,1,5621,8205,0,3,502,17932,1,18450
"Edeka DE",DE,271,3646,1452,3646,4912,94,19,200,3926,103,4256
"PriceSmart CR",CR,271,3504,65,3502,51880,3331,11,10267,2948,686,13945
"Groby HU",HU,267,8367,28,8367,22231,3539,6,1137,9206,230,10604
"MaxiCoffee FR",FR,267,5659,4906,5609,13917,1589,479,692,9478,207,10866
"Farmacia la Pret Mic RO",RO,262,8628,88,8628,26415,4268,21,1865,10655,802,13363
"E.Leclerc Gliwice",PL,260,8551,334,8551,23417,8049,31,1102,6332,1551,9044
"Apteka Medkon",PL,254,6754,6751,6751,28238,8310,13,3918,14214,1219,19394
"Delitea SE",SE,254,9956,271,9956,23866,5570,10,204,4488,76,4808
"Dunnes IE",IE,254,14368,94,14347,31773,10373,5,564,12201,276,13082
Wapteka,PL,252,18405,17543,18390,63657,34042,4,4333,9748,589,14739
"Supermarket AM",AM,250,7263,471,7115,17695,0,8,891,13294,1,14208
"Afya Pharmacy BG",BG,246,9258,30,9256,30863,746,11,2040,10617,144,12832
"Helpnet RO",RO,245,6892,246,6892,19461,2869,5,1343,3146,135,4648
"Szybki Koszyk",PL,244,4340,57,4340,14855,622,117,631,2008,40,2813
"Olimpica CO",CO,241,11271,286,11264,47139,1083,20,1519,14721,53,16361
"Rappi - Exito CO",CO,241,21176,4397,16552,64939,9518,22,5275,23487,262,29088
"Farmatodo CO",CO,238,12710,458,12710,56239,5789,21,592,16023,101,16779
"Merqueo - Medellin CO",CO,235,2076,16,2076,4732,5034,20,269,999,155,1448
"Metroiroda HU",HU,230,3505,75,3495,7096,1325,6,701,3795,173,4688
"Disco AR",AR,228,8079,64,7702,32250,974,105,2240,12806,35,15211
"Chedraui MX",MX,227,30563,204,30563,92054,0,12,1454,16426,1,17935
"Rappi - Exito Express CO",CO,227,17845,3276,14442,37896,6079,21,4759,21345,223,26374
"Linio CL",CL,226,52938,207,52861,85022,0,184,703,19481,0,20459
"Rappi - Carulla CO",CO,226,15278,7410,11660,48414,9601,20,4869,16998,260,22180
"Rappi - Carulla Express CO",CO,226,14201,3447,10451,42196,7623,32,4825,15524,217,20635
"Merqueo - Cali CO",CO,222,1488,8,1488,3431,971,17,244,706,30,1001
"Lisek App",PL,221,1771,117,1771,2059,881,8,7,817,92,931
"Coop UK",UK,219,9477,82,9477,212475,19218,2,2186,4430,647,7420
"Igooods RU",RU,217,16371,4,16370,35156,85,7,203,7420,6,7677
"Beauty Bay UK",UK,215,13077,86,13077,53601,0,3,330,5921,1,6289
"Booker Foodservice UK",UK,214,11917,100,11917,22220,3562,131,444,5421,119,6153
"Перекрёсток Впрок RU",RU,214,16350,563,16350,33959,2356,11,2367,27080,225,29718
"Superpharm Apteka",PL,212,11256,2412,11256,29690,14537,5,477,14380,206,15098
Cocolita,PL,208,9461,73,9449,41352,13767,5,1437,16584,1085,19154
"Booker UK",UK,206,9041,68,9041,17182,9371,128,360,4113,679,5296
"Yandex Market RU",RU,206,0,0,0,0,0,16,389,1,91,497
"Утконос RU",RU,204,40613,1923,40613,104146,948,14,589,23068,37,23762
"Benu HU",HU,203,5004,16,5004,16355,2736,6,2198,11176,406,13801
"Minifarm RO",RO,203,2684,12,2684,4504,141,9,600,2237,116,2976
"Pyaterochka App RU",RU,203,5758,19,5758,14739,388,7,230,2726,5,2989
"Rappi Lider CL",CL,203,15348,4817,13953,73847,1297,10,5579,16787,32,22461
"Emag HU",HU,199,89449,12585,89398,89493,6831,8,1762,51923,136,53911
"Getir IT",IT,194,1743,24,1743,4537,8165,7,99,868,110,1088
"Deliberry - Caprabo ES",ES,184,8621,2,8582,9739,0,12,454,22778,1,23275
"Rappi Jumbo CL",CL,183,15502,12240,15362,57503,1390,9,4974,16608,32,21684
"Panda Market HU",HU,179,2398,79,2398,5993,1490,5,113,1102,83,1315
"Deliberry - Solri ES",ES,178,9130,0,9102,10240,0,10,437,23832,1,24287
"Auchan FR",FR,177,1519,65,1519,5146,614,235,313,1659,150,2365
"Coursesu FR",FR,176,4210,2341,4210,12595,1202,17,6315,28425,868,35632
"Vodovoz RU",RU,176,1026,105,1026,2114,0,7,307,1813,0,2131
"Deliberry - Mercadona Barcelona ES",ES,175,5729,11,5126,6865,0,10,418,13840,1,14273
"Deliberry - Mercadona Madrid ES",ES,173,5665,45,4977,6778,0,12,371,13433,1,13825
"Linella MD",MD,173,3286,12,1016,3286,0,8,135,11672,0,11818
"PennyDomu CZ",CZ,173,1785,16,1785,5069,0,75,218,842,1,1143
"Rappi Unimarc CL",CL,173,12246,1402,11709,22721,1285,10,2825,13222,33,16114
"Everli - Coop IT",IT,162,11702,652,11702,12977,50,45,3560,5655,1497,10770
"Deliberry - Supercor ES",ES,161,4086,0,4065,5010,0,12,362,8572,1,8955
"Rappi - Pricesmart CO",CO,159,1829,48,1316,3451,1050,17,1611,1944,46,3622
"Professional Farmaline RO",RO,155,8609,6,8609,18341,2680,5,521,5023,58,5627
"Dirck3 NL",NL,151,506,12,506,2391,144,4,90,942,8,1048
"Look Fantastic UK",UK,147,17311,2067,17288,55782,0,3,703,7901,1,8659
"Deliberry - Dia ES",ES,143,4171,0,4153,5032,0,11,236,8825,1,9079
"Deliberry - La Plaza ES",ES,143,4250,0,4203,5109,0,10,341,9241,1,9596
"Everli - Metro IT",IT,143,2380,137,2380,3236,1516,40,257,1223,593,2117
"Medexpressz HU",HU,137,1371,1360,1371,2930,0,5,320,828,23,1179
"Ozon RU",RU,136,35970,28069,35892,44604,1654,497,5476,33794,124,40046
"Nazuby CZ",CZ,135,1745,44,1745,5988,188,6,111,788,21,932
"Exito CO",CO,132,8707,1492,8703,35808,2874,33,2095,14970,232,17366
"Subra BG",BG,132,7154,61,7154,17962,2603,9,186,3278,296,3789
"Superxtra PA",PL,132,4308,4308,4308,9010,0,0,0,0,0,0
"Alkohol CZ",CZ,131,4195,110,4195,11735,273,15,974,2333,22,3357
"Automercado CR",CR,131,12532,76,12465,19398,0,17,3765,38266,1,42062
"Coop EE",EE,130,9184,9184,9184,20009,1897,3,433,4123,56,4630
"Cora Drive BE",BE,122,13803,10191,13803,91216,4300,19,4184,16423,1270,21967
"Condis ES",ES,121,6603,3323,6449,6983,0,8,208,3162,0,3385
"Amazon Fresh DE",DE,113,2791,2768,2791,3067,5978,354,1087,1413,255,3116
"E-tinex MK",MK,110,4385,0,4385,8770,442,4,80,1975,34,2099
"Vea Digital AR ",AR,104,2474,15,1880,10114,876,100,1029,5889,34,7062
"Farmacia Pasteur CO",CO,103,9175,611,9108,59613,614,11,1587,5141,27,6815
"Farmacity AR",AR,97,2837,51,2837,5410,1174,8,310,987,39,1346
"Savage & Whitten IE",IE,97,3719,41,3719,7438,924,9,368,1731,77,2192
"Vitania BG",BG,96,7293,235,7293,7293,2288,7,334,3354,80,3786
"Koffievoordeel NL",NL,95,498,5,498,3100,1256,3,469,453,34,963
"Kaufland DE",DE,90,29701,1025,29471,37072,705,66,776,13674,41,14598
"PriceSmart PA",PA,90,1653,31,1653,19494,988,9,3546,1027,364,4959
"PriceSmart GT",GT,88,1610,25,1609,14361,2111,7,2589,1048,572,4226
"Kaffedeal DK",DK,86,366,5,366,950,798,4,43,168,32,248
"Okey RU",RU,82,4065,1821,4023,4155,221,10,286,11022,27,11366
"Brack CH",CH,81,7774,637,7660,18972,1893,72,248,6337,139,6817
"Rappi Cruz Verde CL",CL,81,5052,2220,5039,32965,1401,7,2340,5416,712,8502
"Comfandi Supermercados CO",CO,72,760,620,696,812,0,22,657,2612,1,3294
"Durst DE",DE,69,1104,69,1104,1173,0,8,33,28,1,76
"Droguerias Cafam CO",CO,68,4275,1591,4275,10966,1404,20,615,6390,54,7088
"Pretty Little Thing UK",UK,66,2430,25,2430,11914,0,10,2648,22911,1,25578
"PedidosYa DIA AR",AR,64,0,0,0,0,0,6,0,0,0,20
"Kaffekapslen DK",DK,61,786,292,786,1808,1518,39,41,699,143,923
"Kapselkongen DK",DK,57,279,1,279,575,689,23,56,261,32,372
"Saturn DE",DE,57,2577,172,2577,5306,1008,248,2489,12863,4237,19844
"Comfandi Droguerias CO",CO,56,4538,4388,4538,5891,0,26,594,7841,0,8466
"Asos UK",UK,55,8623,26,8623,21854,0,29,175,4182,1,4402
"Emag RO",RO,54,63296,984,63291,63299,5133,5,1067,34773,147,36057
"iDrinks HU",HU,52,6486,6359,6486,13974,252,6,970,6511,55,7559
"Bigshop MK",MK,51,1006,0,1006,3722,600,189,465,1207,231,2095
"Expert DE",DE,50,1039,14,999,1121,402,153,65,1216,28,1465
"Winelivery IT",IT,49,1480,47,1480,3216,0,5,269,1189,1,1467
"PedidosYa Carrefour AR",AR,48,4514,180,4514,4514,0,7,102,2060,0,2173
"Very UK",UK,47,3900,0,0,4218,0,15,49,2,1,78
"Bol NL",NL,46,19732,10359,19860,34876,2388,31,2350,22623,476,25502
"Carrefour AR",AR,41,3269,1942,3269,11036,512,91,493,5465,30,6094
"Altex RO",RO,38,2315,25,2315,4472,2023,6,307,3120,118,3556
"BilkaToGo DK",DK,37,3826,385,3826,21793,1539,5,83,1593,36,1737
"Selver EE",EE,37,3713,41,3705,9882,2694,4,264,4073,159,4511
"Jumia EG",EG,36,2311,6,2311,4373,0,96,187,1436,1,1724
"Ep DE",DE,35,196,2,196,631,264,73,120,403,93,691
"Galaxus CH",CH,32,9228,3753,9228,16804,967,18,3067,8587,1282,12973
"Kesko FI",FI,31,4617,0,0,64734,8091,17,5336,0,4307,9708
"John Lewis UK",UK,28,372,49,375,473,187,6,28,304,17,356
"Mercator SI",SI,27,12691,292,12691,12691,2251,5,19,5805,79,5928
"Rappi Turbo CL",CL,26,730,63,730,968,0,184,608,2276,47,3116
"Rappi Turbo PE",PE,26,844,726,844,1656,0,130,518,4644,46,5342
"Carrefour FR",FR,24,11142,4156,11132,15717,1641,6,1506,11545,189,13262
"Media Markt DE",DE,24,1369,133,1366,2467,1140,103,1577,8619,913,11219
"Rappi Turbo AR",AR,23,681,45,681,1543,0,122,464,2127,46,2761
"Rappi Turbo CO",CO,23,1079,703,1079,2268,0,122,1018,6071,46,7260
"Datart CZ",CZ,20,933,154,933,1378,940,16,142,634,63,858
"Rappi Carrefour AR",AR,20,1287,1287,1287,1357,0,111,212,3977,46,4347
"Rappi Coto AR",AR,20,1524,1524,1524,3168,0,112,413,4718,46,5292
"Boulanger FR",FR,17,788,214,788,1842,361,25,114,1876,141,2158
"Rappi Farmacity AR",AR,16,0,0,0,0,0,99,254,46,46,445
"Euronics DE",DE,15,9628,20,204,38214,1260,33,912,41999,415,43425
"Qvc US",US,14,15223,1057,15223,16648,0,17,170,18396,0,18598
"BCC NL",NL,11,1816,468,1816,2402,650,3,128,1703,55,1894
"El Corte Ingles ES",ES,11,580,2,579,1160,667,101,118,3276,68,3570
"Leclerc FR",FR,11,241,44,106,449,494,38,131,937,231,1340
"Sodimac CL",CL,11,126,2,117,267,0,152,73,640,1,866
"Wildberries RU",RU,10,0,0,0,0,1524,10,21,4,133,168
"Mediaworld IT",IT,9,253,10,249,506,1440,7,144,1074,483,1710
"Intermarche FR",FR,8,352,16,323,591,642,14,61,1487,420,1985
"AO UK",UK,7,684,135,684,938,278,63,7,618,8,698
"Unieuro IT",IT,6,1732,814,1730,2152,1124,2,19,788,46,859
"Barrys Beacon IE",IE,4,157,8,157,157,383,7,54,78,67,206
" SberMarket - Lenta RU",RU,0,0,0,0,0,0,8,15,1,89,113
"0815 DE",DE,0,0,0,0,0,0,5,26,1,41,73
Allegro,PL,0,281,0,281,0,0,0,0,2085,0,2085
"Amazon Fresh UK",UK,0,0,0,0,0,362,20255,219,212,20441,41129
"Amazon UK",UK,0,36,36,36,0,6874,0,0,0,0,31
"Apteka Melissa",PL,0,0,0,0,0,51595,6,26,12,921,993
"Apteka Nowa Farmacja",PL,0,0,0,0,0,20060,23,10,2,2004,2096
"Azbuka Vkusa RU",RU,0,0,0,0,0,199,6,15,1,22,45
"Bestway Best-one UK",UK,0,0,0,0,0,0,0,0,1,0,25
"Bestway Foodservice UK",UK,0,0,0,0,0,0,0,2,15,0,43
"Bestway UK",UK,0,0,0,0,0,0,0,1,7,0,24
"Easy CL",CL,0,0,0,0,0,0,2,139,3,2,147
"Metro Delivery RU",RU,0,0,0,0,0,0,25,20,18,32,95
"SberMarket - Metro RU",RU,0,0,0,0,0,0,6,14,1,115,136
"Shoplink IE",IE,0,0,0,0,0,0,185,2,1,242,430
"Soriana MX",MX,0,0,0,0,0,0,2,35,2,19,58
"Tiendas Jumbo CO",CO,0,0,0,0,0,5231,6,0,0,278,321
