﻿Site,Country,Categories,Prices,"Products changed","Products downloads",Relations,Search,"Categories difference","Categories difference (%)","Prices difference","Prices difference (%)","Relations difference","Relations difference (%)","Search results difference","Search results difference (%)"
"Pilulka CZ",CZ,7670,26514,9142,26514,756291,0,0,0,"-20038","-43.04433822631836",0,0,"-21429","-100"
"Ocado UK",UK,6465,46566,3041,46558,438048,40948,0,0,"-117","-0.2506265640258789","-968","-0.2204931080341339","-11","-0.02685612440109253"
"Auchan FR",FR,5447,22847,3608,22847,140705,779,"-13",0,"-317","-1.3685028553009033","-2404","-1.6798384189605713",6,"0.7761966586112976"
frisco,PL,4682,15186,275,15181,269852,111034,0,0,"-20","-0.13152702152729034","-630","-0.23291753232479095",140,"0.12624669075012207"
"Pilulka SK",SK,4240,39455,15514,39451,479927,9753,0,0,"-2","-0.005068809259682894",240,"0.05003262683749199","-270","-2.6938042640686035"
"Mytime DE",DE,3749,11425,329,11425,81618,1261,12,0,134,"1.1867859363555908",1030,"1.2781059741973877",26,"2.1052632331848145"
"Albert Heijn NL",NL,3497,21050,3069,21049,103771,4240,"-1",0,"-1","-0.004750368185341358","-20","-0.019269494339823723",0,0
"Morrisons UK",UK,3224,21126,1860,21103,98115,31624,0,0,59,"0.2800588607788086",243,"0.2482834756374359",0,0
"Coto Digital AR",AR,3140,18633,15269,18604,120209,1218,3,0,"-29","-0.1553959846496582","-415","-0.3440442979335785",0,0
"Waitrose UK",UK,3062,16483,363,16482,1496316,33943,0,0,0,0,0,0,49,"0.14456835389137268"
"Asda UK",UK,2895,26071,392,26071,767854,37724,0,0,12,"0.04604934900999069",17164,"2.2864298820495605",5,"0.013255918398499489"
"Albert Heijn BE",BE,2847,8515,1505,8515,43889,5935,"-1",0,"-1","-0.011742602102458477","-4","-0.0091130705550313",0,0
"Rohlik CZ",CZ,2784,23155,2778,23155,210680,10479,"-1",0,"-23","-0.0992320328950882","-351","-0.16632626950740814",0,0
Auchan,PL,2438,11679,3860,11679,224689,25880,0,0,"-3","-0.025680534541606903","-3079","-1.3518141508102417","-40","-0.15432098507881165"
"Kosik CZ",CZ,2324,13148,308,13148,73824,20894,"-8",0,"-754","-5.423679828643799","-3721","-4.798503875732422","-55","-0.26254236698150635"
"Auchan HU",HU,2237,33825,346,33825,336362,10788,0,0,"-12","-0.03546413779258728","-501","-0.14872515201568604",1,"0.00927041843533516"
"Sainsburys UK",UK,2204,29029,466,29029,1519335,80390,0,0,156,"0.5402971506118774",10249,"0.67915278673172",70,"0.08715139329433441"
"Amazon Fresh UK",UK,2188,9303,9227,9295,49212,15930,"-218","-9",227,"2.5011017322540283",9599,"24.231943130493164","-33","-0.20672805607318878"
"Notino SK",SK,2099,35502,22954,35502,102829,185,0,0,35191,"11315.4345703125","-935","-0.90108323097229","-12","-6.091370582580566"
"Amazon Fresh IT",IT,2029,7530,7478,7530,35296,8483,"-1",0,488,"6.929849624633789",1688,"5.022613525390625",498,"6.236693859100342"
"Amazon UK",UK,1975,0,0,0,2077799,33829,0,0,0,0,0,0,"-58","-0.1711570769548416"
"Drogerie Natura",PL,1968,26120,57,26119,115240,74997,0,0,"-14","-0.053570061922073364","-58","-0.05030442774295807","-4","-0.005333262030035257"
"Boots UK",UK,1926,22279,1315,22256,99114,6496,0,0,"-1680","-7.011978626251221","-20953","-17.45108985900879","-275","-4.06143856048584"
"Brakes UK",UK,1895,9232,398,9232,27735,30913,0,0,"-1","-0.010830716229975224","-3","-0.010815488174557686",0,0
"Ageo CZ",CZ,1873,23143,27,23143,89600,18329,0,0,22737,"5600.24609375",982,"1.1081269979476929",169,"0.9306167364120483"
"Jumbo NL",NL,1819,18964,1778,18964,72738,4263,"-3",0,"-61","-0.3206307590007782","-267","-0.36572837829589844",0,0
"Notino CZ",CZ,1735,36441,23547,36441,97697,12477,0,0,35872,"6304.3935546875","-2129","-2.1327109336853027","-7442","-37.36131286621094"
"Yuga RO",RO,1692,11221,166,11221,56223,631,2,0,"-57","-0.505408763885498",267,"0.47716063261032104","-1","-0.1582278460264206"
"Alcampo ES",ES,1689,17646,3011,17646,54799,547,0,0,0,0,"-2","-0.0036495684180408716",0,0
"Cefarm 24",PL,1688,12654,195,12652,94451,15603,0,0,"-11","-0.08685353398323059","-44","-0.04656330868601799","-114","-0.7253292798995972"
"Drogas La Rebaja CO",CO,1687,12069,1057,12069,361022,7696,0,0,79,"0.6588823795318604",10329,"2.9453110694885254",0,0
"Rewe DE",DE,1534,8616,7863,8616,31559,1551,0,0,"-2","-0.02320723980665207","-6","-0.019008396193385124",0,0
"Delhaize BE",BE,1525,12345,2244,12343,50930,22518,0,0,"-698","-5.351529598236084","-1962","-3.7094457149505615",49,"0.21807824075222015"
"Otto DE",DE,1415,0,0,0,0,154,"-9",0,0,0,0,0,"-4","-2.5316455364227295"
eZebra,PL,1257,41570,139,41038,146768,37671,0,0,"-104","-0.24955607950687408","-484","-0.32868823409080505","-1","-0.0026544914580881596"
"Picnic NL",NL,1229,6944,815,6943,15120,2210,0,0,"-2","-0.02879355102777481","-6","-0.039666797965765",0,0
"Tesco UK",UK,1221,28939,1301,28822,325575,24497,0,0,24,"0.08300190418958664",1973,"0.609699547290802",82,"0.335859090089798"
"Kifli HU",HU,1214,13375,655,13375,53493,9511,0,0,"-105","-0.778931736946106","-409","-0.7587844729423523",4,"0.042074259370565414"
"Apteka Nowa Farmacja",PL,1213,14206,346,14072,67433,23758,0,0,"-47","-0.32975512742996216",523,"0.7816469669342041",26,"0.10955671966075897"
"Barbora LV",LV,1196,11109,85,11109,41116,1222,"-4",0,"-82","-0.7327316403388977","-502","-1.2062088251113892",42,"3.5593221187591553"
"Barbora LT",LT,1189,12872,159,12857,44029,1273,"-1",0,"-54","-0.4177626371383667","-149","-0.33727195858955383","-68","-5.070842742919922"
"E-Fresh GR",GR,1173,10672,174,10669,52606,5914,"-8",0,"-227","-2.0827598571777344","-1065","-1.984311819076538","-33","-0.554901659488678"
"Barbora EE",EE,1161,12005,95,12005,42152,686,"-5",0,116,"0.9756917953491211",400,"0.9580379128456116","-603","-46.78044891357422"
"Amazon DE",DE,1145,257,253,257,711540,5193,0,0,0,0,0,0,"-99","-1.8707482814788818"
"Lekarna CZ",CZ,1116,26557,235,26557,118762,4405,0,0,"-113","-0.42369702458381653","-552","-0.4626447856426239","-1","-0.022696323692798615"
"Moja Lekaren SK",SK,1114,22910,192,22910,101685,3433,0,0,"-113","-0.4908135235309601","-490","-0.47956937551498413","-3","-0.08731082826852798"
"Amazon IT",IT,1086,508,508,508,414933,21250,0,0,0,0,0,0,97,"0.45856380462646484"
"Mathem SE",SE,1054,13277,454,13250,36061,5563,0,0,"-97","-0.7252878546714783","-238","-0.6556654572486877",0,0
"S-kaupat FI",FI,1043,36012,845,34058,317293,4394,0,0,"-35","-0.09709545969963074","-429","-0.13502369821071625","-22","-0.49818840622901917"
"Salcobrand CL",CL,1039,6700,0,0,31188,1137,"-3",0,3,"0.0447961762547493",6,"0.01924186944961548",0,0
"Carrefour BE",BE,1035,20205,62,19838,608103,21442,0,0,21,"0.10404280573129654","-744","-0.122198186814785",0,0
" SberMarket - Lenta RU",RU,1029,0,0,0,0,476,5,0,0,0,0,0,6,"1.2765957117080688"
"Apteka Manada",PL,1019,14485,1287,14455,39645,42056,0,0,"-16","-0.11033722013235092","-3162","-7.3866424560546875",48,"0.11426395177841187"
"Eroski ES",ES,1004,25611,421,25601,53900,448,0,0,18,"0.07033172994852066",88,"0.1635323017835617","-2","-0.4444444477558136"
"Zakaz - Novus UA",UA,997,42657,26784,42657,87769,2024,0,0,0,0,"-8","-0.009114004671573639",0,0
"Coop NL",NL,992,16842,1709,16842,69396,953,"-62","-5","-7","-0.04154549166560173","-2283","-3.1850333213806152","-2","-0.20942407846450806"
"Walmart AR",AR,992,11850,139,9249,46732,1151,"-2",0,134,"1.1437350511550903",725,"1.5758471488952637",1,"0.08695652335882187"
"Picnic DE",DE,963,6929,151,6929,13914,975,"-2",0,1,"0.014434180222451687",6,"0.04314063861966133",0,0
"Auchan RO",RO,946,21758,156,21701,86683,8651,0,0,"-38","-0.17434391379356384","-161","-0.18538989126682281","-2","-0.023113371804356575"
"SberMarket - Metro RU",RU,936,0,0,0,0,3364,2,0,0,0,0,0,"-4","-0.11876484751701355"
"Remedium BG",BG,921,26897,55,26895,78294,702,0,0,"-22","-0.08172666281461716","-224","-0.2852849066257477",0,0
"Coop Shop IT",IT,920,8855,52,8855,26586,2376,0,0,"-47","-0.5279712677001953","-141","-0.5275564193725586",1,"0.04210526496171951"
Selgros,PL,920,21505,15112,21505,72071,25047,0,0,"-49","-0.22733598947525024","-162","-0.22427421808242798","-24","-0.09572812914848328"
"Knuspr DE",DE,916,10957,229,10957,39473,626,2,0,"-45","-0.40901654958724976","-80","-0.20226025581359863",0,0
"Coop SE",SE,913,9662,676,9658,32521,5465,0,0,0,0,"-1","-0.0030748415738344193",0,0
Hebe,PL,907,12459,4270,12459,93170,30045,0,0,"-34","-0.2721523940563202","-211","-0.2259560227394104",12,"0.039956048130989075"
"Unipatika HU",HU,848,4165,62,4164,29105,2513,0,0,"-9","-0.2156205028295517","-94","-0.32192882895469666",0,0
"SuperValu IE",IE,847,16517,115,16517,226158,10589,"-2",0,"-3","-0.018159806728363037",1190,"0.528964102268219",59,"0.5603038668632507"
"Mall CZ",CZ,826,23443,857,23435,101117,8407,0,0,19116,"441.7841491699219","-8033","-7.3595967292785645","-548","-6.119486331939697"
"Polski Koszyk",PL,815,13381,154,13336,20456,5644,0,0,"-2","-0.014944332651793957","-1","-0.004888302180916071","-300","-5.0471062660217285"
"Tigros IT",IT,808,9920,200,9919,29792,5558,0,0,"-56","-0.561347246170044","-168","-0.5607476830482483","-4","-0.07191658020019531"
"Coursesu FR",FR,791,17907,9251,17907,43664,1154,"-25","-3","-574","-3.1058924198150635","-1365","-3.0313796997070312","-19","-1.6197783946990967"
"Auchan RU",RU,776,27876,639,27876,88606,6752,0,0,33,"0.11852171272039413","-164","-0.1847470998764038","-58","-0.8516886830329895"
"Zakaz - Metro UA",UA,772,31672,20106,31672,59982,0,0,0,"-2","-0.006314327009022236","-4","-0.006668222602456808",0,0
"Superdrug UK",UK,763,15393,94,15380,43255,5698,0,0,"-73","-0.47200310230255127","-175","-0.4029472768306732","-6","-0.10518933832645416"
"Pilulka RO",RO,754,38846,4825,38838,144567,3591,0,0,"-30","-0.07716843485832214",2020,"1.4170764684677124",1,"0.027855154126882553"
"Coop DK",DK,739,10909,8029,10908,88936,927,0,0,58,"0.5345129370689392",2147,"2.47381591796875","-74","-7.39260721206665"
"Bringmeister DE",DE,735,17186,361,17186,44007,2028,1,0,88,"0.5146800875663757",145,"0.33058229088783264",0,0
"Walmart CR",CR,730,13758,360,13757,176300,35880,0,0,62,"0.4526869058609009",1025,"0.5847952961921692",81,"0.22626329958438873"
"Intervare DK",DK,729,8751,7866,8751,25553,0,0,0,"-12","-0.1369394063949585","-34","-0.13287997245788574",0,0
"Apteka Gemini",PL,712,27612,930,27612,95780,75535,0,0,"-27","-0.09768804907798767",490,"0.5142197608947754","-27","-0.035732246935367584"
"Rimi LV",LV,706,15412,28,15405,45377,4852,0,0,15,"0.09742157906293869",77,"0.16997791826725006",0,0
"eZiko Apteka",PL,691,5918,139,5888,33527,37103,0,0,"-32","-0.5378151535987854","-170","-0.5044959783554077","-1","-0.0026951271574944258"
"Liki24 UA",UA,676,32115,32115,32115,116950,0,676,0,32115,0,116950,0,0,0
"Gurkerl AT",AT,671,8770,813,8770,31264,2718,0,0,3,"0.03421923145651817","-4","-0.012792631052434444",8,"0.29520294070243835"
"Bennet IT",IT,669,18566,135,18565,37408,2679,0,0,97,"0.5252044200897217",186,"0.4997044801712036","-8","-0.29772982001304626"
"Dr Max SK",SK,664,16911,16827,16911,63955,5163,0,0,"-45","-0.2653927803039551","-184","-0.28687694668769836",0,0
"Alza SK",SK,663,12499,0,0,50252,2529,"-6",0,"-50","-0.39843812584877014","-721","-1.414474368095398",1,"0.03955696150660515"
"Tesco CZ",CZ,659,16767,53,16767,544799,11746,0,0,22,"0.13138249516487122",267,"0.04903293028473854",0,0
"Tesco IE",IE,658,17244,801,17242,262283,5079,"-2",0,"-22","-0.12741804122924805","-1180","-0.44788071513175964","-9","-0.17688679695129395"
"Dr Max CZ",CZ,656,20401,20388,20401,81005,3954,0,0,"-100","-0.4877810776233673","-451","-0.5536731481552124",0,0
"Alza CZ",CZ,652,18444,0,0,57430,14225,"-6",0,"-1686","-8.375558853149414","-6733","-10.493586540222168","-27","-0.1894470900297165"
"Crai Spesa Online",IT,650,7616,7034,7616,27435,1331,0,0,7488,5850,108,"0.3952135145664215",0,0
"Vasalekaren SK",SK,648,9456,151,9456,65248,3173,0,0,0,0,0,0,0,0
"Metro Delivery RU",RU,646,16349,1554,16349,48746,473,1,0,49,"0.30061349272727966","-914","-1.8405154943466187","-9","-1.8672199249267578"
"Poiesz NL",NL,645,8617,8,8611,10834,138,0,0,0,0,0,0,4,"2.985074520111084"
"Rossmann DE",DE,645,15452,115,15452,54610,466,0,0,"-132","-0.8470225930213928","-422","-0.7668265700340271",0,0
"City Gross SE",SE,641,12823,115,12823,26802,5950,0,0,"-7","-0.054559625685214996","-14","-0.05220763757824898",0,0
"Mat SE",SE,641,10229,3486,10229,32307,8441,0,0,"-10","-0.09766578674316406","-31","-0.09586245566606522",0,0
"Rossman HU",HU,641,14464,227,14459,51172,7665,0,0,"-4","-0.027647221460938454","-544","-1.0518988370895386","-13","-0.1693149209022522"
"Tottus CL",CL,639,8373,1255,8372,36754,2240,0,0,8373,0,36754,0,6,"0.2685765326023102"
Barbora,PL,638,8116,1538,8116,65582,4035,0,0,0,0,"-13","-0.019818583503365517","-54","-1.3206162452697754"
"Cold Storage SG",SG,635,10070,2,61,32903,0,2,0,"-1","-0.00992950052022934","-256","-0.7720377445220947",0,0
"Esselunga A Casa IT",IT,622,14528,1177,14528,43595,14626,0,0,0,0,2,"0.004587892442941666",24,"0.16436104476451874"
"Hoogvliet NL",NL,619,8799,155,8799,13822,1848,0,0,0,0,1,"0.007235366385430098","-4","-0.21598272025585175"
"DOZ.pl",PL,609,15493,13943,15493,61761,51699,"-5",0,"-39","-0.2510945200920105","-60","-0.09705439954996109",335,"0.6522077918052673"
Apteline,PL,608,24414,347,24413,80001,18032,0,0,23473,"2494.473876953125","-1981","-2.416383981704712","-126","-0.6939090490341187"
"DM SK",SK,608,6776,161,6776,300255,2152,0,0,"-1","-0.0147557919844985",925,"0.30902349948883057",0,0
"Tesco SK",SK,598,14946,76,14946,207165,211,0,0,"-51","-0.3400680124759674","-909","-0.43686380982398987",0,0
"E.Leclerc Bielany",PL,595,31269,148,31003,99286,33837,0,0,0,0,0,0,0,0
"Tesco HU",HU,593,14947,253,14947,814856,8808,0,0,4,"0.026768386363983154",78,"0.009573159739375114","-9","-0.10207553952932358"
Amazon,PL,592,381,380,380,734020,16154,0,0,0,0,0,0,"-372","-2.2509984970092773"
"Apteka Galen",PL,592,8739,17,8736,40559,3329,0,0,3,"0.03434066101908684",9,"0.022194821387529373",5,"0.1504211723804474"
"Thanopoulos GR",GR,591,15989,506,15989,57461,8881,0,0,"-78","-0.4854671061038971","-237","-0.41075947880744934","-95","-1.0583778619766235"
"Metro RU",RU,588,21450,479,21429,27740,4837,0,0,1303,"6.467463970184326",1441,"5.47929573059082",0,0
"Willys SE",SE,587,10453,1217,10453,34630,5021,0,0,4,"0.03828117623925209",9,"0.025995783507823944",23,"0.4601840674877167"
"Yandex Lavka RU",RU,585,2974,71,2268,45826,12686,1,0,19,"0.6429780125617981",541,"1.1946560144424438","-37","-0.2908119261264801"
"Nuko LV",LV,582,7576,7374,7576,32967,0,0,0,"-78","-1.0190750360488892","-287","-0.863054096698761",0,0
"Bestway Foodservice UK",UK,581,10675,344,10675,33771,4614,0,0,2,"0.018738873302936554",2,"0.005922591779381037",23,"0.5009801983833313"
"Bestway Best-one UK",UK,569,6547,491,6547,21119,12650,0,0,"-19","-0.28936949372291565","-57","-0.26917263865470886","-50","-0.3937007784843445"
"Bestway UK",UK,569,9870,347,9870,31497,30427,0,0,"-34","-0.3432956337928772","-127","-0.40159371495246887","-34","-0.11161813139915466"
"Dr Max",PL,569,13978,13968,13978,48435,27393,0,0,"-27","-0.1927882879972458",783,"1.6431629657745361",4,"0.014604403637349606"
"Plus NL",NL,564,15424,939,15424,29498,3717,0,0,"-4","-0.02592688612639904",305,"1.0447709560394287","-2","-0.053777895867824554"
"Spar HU",HU,564,13944,114,433,178168,10023,"-2",0,"-1","-0.007171029224991798","-149","-0.0835590586066246",18,"0.17991004884243011"
"Pingvinpatika HU",HU,562,7380,6948,7380,38891,2848,0,0,"-12","-0.16233766078948975","-39","-0.10017980635166168","-3","-0.10522623360157013"
"Carulla CO",CO,556,11355,152,11355,65158,6031,0,0,"-4","-0.035214368253946304",171,"0.2631295621395111","-1","-0.016578249633312225"
"Kritikos GR",GR,555,15787,7738,15787,44509,0,0,0,0,0,0,0,0,0
"Apteka Melissa",PL,551,28009,27769,27769,103978,56025,0,0,"-55","-0.19598060846328735","-168","-0.16131199896335602",52,"0.09290193766355515"
"DM HU",HU,543,5765,159,5765,290083,9625,0,0,"-1","-0.01734304614365101",1459,"0.5055019855499268",1,"0.010390689596533775"
"E.Leclerc Rzeszów",PL,541,12889,15,12889,38192,32391,0,0,"-190","-1.452710509300232","-487","-1.2590811252593994","-308","-0.9419248104095459"
"DM CZ",CZ,540,5865,208,5865,376031,13539,0,0,"-5","-0.08517887443304062","-8","-0.0021274390164762735","-2","-0.014769958332180977"
"E.Leclerc Wroclaw",PL,537,15116,100,15103,15318,10472,"-1",0,"-212","-1.3830897808074951","-209","-1.3460423946380615","-171","-1.6066898107528687"
"Benu CZ",CZ,536,12513,107,12513,56040,5277,0,0,"-80","-0.6352735757827759","-348","-0.6171525716781616","-2","-0.037885963916778564"
"Sok FI",FI,535,9298,367,9298,35876,3081,0,0,10,"0.10766580700874329",22,"0.061359960585832596","-7","-0.22668394446372986"
"Chronodrive FR",FR,532,8421,2868,8372,17167,2145,0,0,"-8","-0.09491042792797089","-94","-0.5445802807807922",8,"0.37435656785964966"
"MyMarket GR",GR,532,14467,2473,14467,51733,5626,0,0,"-3","-0.02073254995048046","-13","-0.025122715160250664",0,0
"Easy Coop IT",IT,525,10312,1749,10312,36908,17406,0,0,7,"0.06792818754911423",20,"0.054218173027038574","-11","-0.06315668672323227"
"Univerexport RS",RS,524,9231,0,9231,18462,780,0,0,0,0,0,0,0,0
Rossmann,PL,515,24208,300,24203,78209,38742,0,0,21520,"800.59521484375","-9","-0.01150630321353674",6,"0.015489467419683933"
"Drogeria Olmed",PL,510,36253,21482,36253,117611,27667,0,0,34643,"2151.739013671875",9,"0.007652930915355682",5,"0.018075337633490562"
"Jumbo CL",CL,509,19739,175,18774,620439,1573,0,0,0,0,1591,"0.25709059834480286","-4","-0.2536461651325226"
"Apteka Zawiszy",PL,504,18011,489,18011,72755,18338,0,0,"-34","-0.18841783702373505","-143","-0.19616450369358063",0,0
"Ebag BG",BG,504,10870,2735,10824,37361,1209,0,0,"-95","-0.8663930892944336","-312","-0.8281793594360352",0,0
Intermarche,PL,496,19564,1,19564,174873,25239,0,0,"-12","-0.06129955127835274","-359","-0.2048712521791458","-48","-0.18982085585594177"
"Colruyt BE",BE,495,6127,108,6006,68470,14343,0,0,"-17","-0.2766927182674408","-40","-0.058385636657476425","-7","-0.04878048598766327"
"Hemkop SE",SE,494,9876,1126,9876,30816,5156,0,0,"-50","-0.5037275552749634","-166","-0.5357949733734131",51,"0.9990205764770508"
"Interspar AT",AT,490,21272,261,21272,66250,6143,0,0,16,"0.07527286559343338",46,"0.06948220729827881",2,"0.032567985355854034"
"Spar SI",SI,490,17950,1152,17950,63207,2484,0,0,"-102","-0.5650343298912048","-372","-0.5850988626480103",0,0
"Famila a casa IT",IT,487,12923,194,12697,38719,6338,0,0,0,0,0,0,0,0
"Mega Image RO",RO,481,13487,118,13485,40367,11036,0,0,"-101","-0.7433029413223267","-224","-0.551846444606781","-13","-0.11765770614147186"
"Silpo UA",UA,471,11558,125,11558,28894,0,0,0,7,"0.06060081347823143",14,"0.0484764538705349",0,0
"Benulekaren SK",SK,468,8797,104,8797,45547,6407,0,0,"-24","-0.2720780074596405","-84","-0.18408538401126862",31,"0.4861982464790344"
"Cornershop - Lider CL",CL,465,20994,34,20994,135424,3798,0,0,9,"0.04288777709007263",131,"0.09682688862085342",1,"0.026336582377552986"
"Basko IT",IT,463,8531,145,8527,26092,4254,0,0,0,0,0,0,1,"0.023512814193964005"
Ceneo,PL,463,174989,8874,174620,238618,22920,0,0,"-6784","-3.7321274280548096","-7759","-3.1492388248443604",1,"0.004363192245364189"
"GPSfarma AR",AR,460,5190,399,5190,25110,1061,0,0,"-52","-0.9919877648353577","-253","-0.9975160956382751",0,0
"Apteka Olmed",PL,454,39889,1453,39885,133926,20390,0,0,38838,"3695.337890625",2,"0.001493384363129735","-3","-0.014710930176079273"
"MegaMarket RO",RO,447,5598,0,5598,6701,567,0,0,0,0,0,0,0,0
"Carrefour ES",ES,441,13952,125,13740,16234,592,0,0,42,"0.30194103717803955",49,"0.3027494549751282",0,0
"Lider CL",CL,426,11692,270,11692,228942,2512,0,0,171,"1.4842461347579956","-2117","-0.9162161946296692","-146","-5.492851734161377"
"Patika24 HU",HU,426,4926,16,4926,15450,4292,0,0,"-1","-0.020296325907111168","-3","-0.01941370591521263",0,0
"E.Leclerc Lublin Turystyczna",PL,424,13049,196,13049,15991,13728,0,0,3,"0.02299555391073227",3,"0.0187640730291605",4,"0.029146021232008934"
"Istegelsin TR",TR,418,5621,33,5621,12633,0,0,0,"-44","-0.7766990065574646","-97","-0.7619795799255371",0,0
"E.Leclerc Katowice",PL,417,9628,68,9613,10007,9924,0,0,"-73","-0.7524997591972351","-76","-0.7537439465522766","-46","-0.4613841474056244"
"Feedo CZ",CZ,416,17625,1227,17615,51555,372,0,0,76,"0.43307310342788696","-106","-0.20518378913402557","-1","-0.2680965065956116"
"Apteka 9-1-1 UA",UA,413,21165,412,21165,44218,1741,0,0,"-11","-0.05194559693336487","-21","-0.047469425946474075",0,0
"Eva UA",UA,411,49097,46470,49096,135463,1537,0,0,48704,"12392.875","-1553","-1.1334443092346191",0,0
"Kruidvat NL",NL,402,7855,605,7853,21940,1830,0,0,5,"0.06369426846504211",17,"0.07754413038492203","-1","-0.05461496487259865"
"Dia AR",AR,395,3801,18,3797,11811,538,0,0,"-20","-0.5234231948852539","-61","-0.5138140320777893","-3","-0.5545286536216736"
"Apteki 36.6 BG",BG,393,9717,33,9717,45197,669,0,0,"-2","-0.02057824842631817","-18","-0.03980979695916176","-1","-0.1492537260055542"
"Unimarkt AT",AT,392,3254,266,3246,15393,3133,0,0,0,0,0,0,0,0
"Cornershop - Jumbo CL",CL,383,25580,101,25580,131575,1346,0,0,"-12","-0.04688965156674385","-259","-0.19645918905735016",0,0
"OnlinePrima HU",HU,382,7435,72,7435,23198,5787,0,0,0,0,175,"0.7601094841957092",0,0
"Majestic UK",UK,371,1227,24,1227,16043,1031,0,0,"-3","-0.24390244483947754","-710","-4.238047122955322",0,0
"Ecofamily HU",HU,370,5600,46,5599,18000,4099,0,0,"-27","-0.4798294007778168","-82","-0.45348966121673584","-9","-0.2190847098827362"
"Carrefour IT",IT,368,10754,3044,10748,31848,10942,0,0,"-133","-1.2216404676437378","-393","-1.218944787979126",28,"0.25655120611190796"
"Bringo RO",RO,361,30825,55,27822,51570,11107,1,0,25,"0.08116883039474487",164,"0.31902891397476196",19,"0.1713564246892929"
"Iceland UK",UK,361,5415,212,5374,25907,13952,0,0,1,"0.018470631912350655","-569","-2.149116277694702","-507","-3.5064666271209717"
"Jumbo AR",AR,361,10147,131,10080,59529,722,0,0,"-75","-0.7337116003036499","-432","-0.720468282699585","-5","-0.6877579092979431"
"Globus RU",RU,358,16373,230,15862,50272,736,"-2",0,1148,"7.540229797363281",17649,"54.09986877441406",2,"0.2724795639514923"
"Ica New Version SE",SE,358,5739,5469,5739,107804,3997,0,0,0,0,"-1","-0.0009276007767766714","-2","-0.0500125028192997"
"Ulabox ES",ES,355,6278,2455,6278,13165,0,0,0,"-10","-0.15903307497501373","-22","-0.16683097183704376",0,0
"Mercado Libre AR",AR,352,28471,1296,14195,63129,421,0,0,"-62","-0.21729226410388947","-289","-0.4557065963745117","-184","-30.413223266601562"
"Ica SE",SE,347,11367,203,11367,693076,9395,0,0,"-5","-0.04396763816475868","-663","-0.09556908160448074","-2","-0.021283388137817383"
"E.Leclerc Lublin Tomasza Zana",PL,346,11226,145,11219,14189,10715,0,0,"-1","-0.00890709925442934","-1","-0.007047216407954693","-4","-0.03731691464781761"
"Świat Leku",PL,344,11088,17,11088,29526,1764,0,0,81,"0.7358953356742859",368,"1.2620892524719238","-1","-0.056657224893569946"
"Vkusvill RU",RU,343,12089,12087,12087,30279,895,1,0,"-10","-0.08265145868062973","-18","-0.059411823749542236",0,0
"Ulta US",US,340,32919,720,32919,90863,0,1,0,32880,"84307.6953125",59,"0.06497511267662048",0,0
"E.Leclerc Gliwice",PL,339,6676,47,6674,6790,7599,0,0,"-98","-1.4467079639434814","-99","-1.4370735883712769","-54","-0.7056056261062622"
Allecco,PL,336,11532,85,11531,39117,20781,0,0,"-53","-0.45748811960220337","-178","-0.4529838263988495","-3","-0.014434180222451687"
Carrefour,PL,333,15980,56,15978,122994,34024,2,0,"-87","-0.5414825677871704","-2289","-1.8270635604858398","-225","-0.6569535136222839"
"Azbuka Vkusa RU",RU,323,13885,13162,13480,24666,1853,0,0,228,"1.6694735288619995","-560","-2.2199318408966064","-5","-0.26910656690597534"
"Bebe Tei RO",RO,322,23412,153,23316,23412,3450,0,0,"-44","-0.1875852644443512","-44","-0.1875852644443512",3,"0.08703219890594482"
"Farmacia Tei RO",RO,321,20932,267,20810,20932,2595,0,0,"-60","-0.28582316637039185","-60","-0.28582316637039185","-5","-0.19230769574642181"
"Elefant RO",RO,317,26689,28178,28178,70593,1924,0,0,26522,"15881.4375","-485","-0.6823489665985107",16,"0.8385744094848633"
"Merqueo - Bogota CO",CO,310,3732,180,3732,9403,8662,2,0,"-71","-1.8669471740722656",375,"4.153743743896484","-30","-0.34514495730400085"
"SOpharmacy BG",BG,305,9229,872,9228,29151,3532,0,0,"-22","-0.2378121316432953","-70","-0.23955374956130981","-2","-0.056593094021081924"
Empik,PL,302,167142,54968,163874,526274,28297,0,0,21,"0.01256574597209692","-235","-0.044633615761995316","-25","-0.08827060461044312"
"Bipa AT",AT,299,10115,10073,10113,22194,546,0,0,4,"0.03956087306141853",12,"0.054097916930913925",2,"0.36764705181121826"
DoDomku,PL,298,5655,284,5654,16653,1779,0,0,"-23","-0.4050722122192383","-60","-0.3590019643306732","-10","-0.5589714646339417"
"Rappi - Exito CO",CO,295,20993,9538,16898,72199,13140,"-1",0,"-110","-0.5212529301643372","-1118","-1.5248850584030151","-98","-0.7402930855751038"
"Watsons UA",UA,292,9527,499,9527,26884,317,0,0,9439,"10726.13671875","-650","-2.3607177734375",0,0
"Tudrogueria Virtual CO",CO,291,8646,658,8646,16642,492,0,0,0,0,0,0,0,0
"Rappi Lider CL",CL,289,16156,3142,13100,87676,3996,0,0,47,"0.2917623817920685",378,"0.4329996109008789","-41","-1.0156056880950928"
Makro,PL,287,3239,1,3239,8862,29093,0,0,1,"0.030883261933922768","-31","-0.348588764667511","-23","-0.07899437099695206"
"Apteka Medea BG",BG,284,8505,51,8505,25494,1967,0,0,2,"0.02352111041545868",7,"0.027464982122182846","-10","-0.5058168768882751"
"MaxiCoffee FR",FR,283,6001,5006,5959,14842,1025,0,0,"-5","-0.08325008302927017","-9","-0.06060197949409485",37,"3.7449393272399902"
"Cornershop - Santa Isabel CL",CL,282,6380,17,6380,7949,976,0,0,"-2","-0.03133814036846161","-3","-0.03772635757923126",0,0
"E.Leclerc Tychy",PL,281,9636,40,9629,9788,9894,1,0,26,"0.27055150270462036",25,"0.2560688257217407","-27","-0.2721499800682068"
"Sephora US",US,281,19019,2234,19018,87050,0,0,0,18923,"19711.458984375",253,"0.2914847433567047",0,0
"i-apteka",PL,281,9445,7713,9445,20253,10870,0,0,"-15","-0.15856236219406128","-35","-0.17251577973365784","-5","-0.04597701132297516"
"Mall SK",SK,280,8345,1162,8345,23758,989,0,0,7111,"576.256103515625","-107","-0.4483553469181061","-41","-3.9805824756622314"
"Idea RS",RS,278,11234,23,11234,15014,4916,0,0,90,"0.807609498500824",144,"0.9683927297592163",15,"0.30605998635292053"
"Cruz Verde CO",CO,277,4443,183,4443,13124,1077,0,0,"-12","-0.2693602740764618","-32","-0.2432350218296051",0,0
"Rappi - Exito Express CO",CO,277,17045,3946,13704,43968,10039,0,0,"-158","-0.9184444546699524",233,"0.5327540636062622","-230","-2.239750623703003"
"Argos UK",UK,273,6166,12,6157,8355,0,0,0,3,"0.04867759346961975",4,"0.04789845645427704",0,0
"PriceSmart CR",CR,271,3241,2880,3239,10520,30565,0,0,"-233","-6.706965923309326","-39586","-79.00450897216797",0,0
"Delitea SE",SE,269,9871,334,9871,23830,1961,0,0,"-25","-0.25262731313705444","-58","-0.24279972910881042",0,0
"Konzum HR",HR,266,10142,112,10136,15876,3627,0,0,"-61","-0.5978633761405945","-141","-0.8803146481513977","-51","-1.3866231441497803"
"Merqueo - Medellin CO",CO,266,3321,153,3321,8181,7980,6,2,32,"0.9729400873184204","-27","-0.32894736528396606",30,"0.37735849618911743"
"Afya Pharmacy BG",BG,265,8173,212,8168,26160,696,0,0,3,"0.036719705909490585","-360","-1.3574661016464233",0,0
"Groby HU",HU,265,8451,36,8451,22371,3056,0,0,0,0,0,0,0,0
Makeup,PL,264,88926,3964,88926,384408,76923,0,0,85354,"2389.52978515625","-5346","-1.3716343641281128","-3740","-4.6365742683410645"
"Rappi Jumbo CL",CL,261,16295,5372,15727,61269,1381,0,0,6,"0.03683467209339142",76,"0.12419721484184265",1,"0.07246376574039459"
"Amazon NL",NL,260,0,0,0,75621,0,0,0,0,0,0,0,0,0
"Supermarket AM",AM,258,8800,12,8755,22017,0,0,0,"-77","-0.8674101829528809","-196","-0.8823661804199219",0,0
"Apteka Medkon",PL,254,5330,5325,5325,22279,13801,1,0,1,"0.018765246495604515",100,"0.45087695121765137",69,"0.5024759769439697"
"Dunnes IE",IE,254,14296,103,14289,31603,10731,0,0,"-91","-0.6325154900550842","-174","-0.5475658774375916","-24","-0.2231520265340805"
"Rappi Unimarc CL",CL,252,12485,3944,10846,29639,1252,0,0,32,"0.2569662034511566","-2","-0.006747410632669926",0,0
Wapteka,PL,252,17300,13516,17283,60542,36730,0,0,"-48","-0.27668896317481995","-160","-0.2635827362537384",4,"0.010891466401517391"
"Farmacia la Pret Mic RO",RO,251,7500,28,7500,23722,4072,0,0,"-17","-0.22615404427051544","-52","-0.21872633695602417",0,0
"Merqueo - Cali CO",CO,250,2199,112,2199,5622,841,5,2,39,"1.8055555820465088","-10","-0.1775568127632141",1,"0.1190476194024086"
"Rappi - Carulla CO",CO,249,15210,6810,11637,62079,12809,0,0,43,"0.2835102379322052",276,"0.44658026099205017",162,"1.2809362411499023"
"Rappi - Carulla Express CO",CO,247,14042,3974,10462,50082,12309,0,0,68,"0.4866180121898651",688,"1.3928817510604858","-13","-0.10550235211849213"
"Helpnet RO",RO,245,6909,2727,6909,19510,2430,0,0,"-35","-0.5040322542190552","-100","-0.5099439024925232",0,0
"Sipo HU",HU,244,3491,3479,3488,6712,1231,0,0,"-8","-0.2286367565393448","-19","-0.2822760343551636","-1","-0.08116883039474487"
"Szybki Koszyk",PL,242,4385,14,4385,15256,908,0,0,"-2","-0.04558924213051796","-6","-0.03931332752108574",0,0
"Farmatodo CO",CO,238,11755,706,11755,41094,5304,0,0,"-18","-0.15289221704006195","-64","-0.15549832582473755","-1","-0.018850142136216164"
"Rappi Santa Isabel CL",CL,238,6115,420,5876,7453,1201,0,0,0,0,0,0,0,0
Cocolita,PL,234,10639,48,10633,48143,12984,0,0,"-84","-0.783362865447998","-581","-1.192430853843689","-124","-0.9459871649742126"
"Metroiroda HU",HU,232,3761,44,3754,7610,1396,0,0,0,0,12,"0.15793630480766296",0,0
"Linio CL",CL,230,48263,75,48185,79455,990,0,0,1,"0.0020720234606415033","-3","-0.003775579622015357",2,"0.2024291455745697"
"Утконос RU",RU,225,21589,2298,21589,45979,7507,0,0,20878,"2936.427490234375",1,"0.002174953231588006","-345","-4.393784999847412"
"Edeka DE",DE,219,3358,1342,3358,4466,0,0,0,"-6","-0.17835909128189087","-6","-0.13416816294193268",0,0
"Igooods RU",RU,219,20283,37,20282,44103,809,0,0,"-79","-0.38797760009765625","-378","-0.8498010635375977",2,"0.24783147871494293"
"Kesko FI",FI,219,13198,506,13198,222636,9061,0,0,32,"0.24305027723312378",526,"0.23681959509849548","-9","-0.09922822564840317"
"Superpharm Drogeria",PL,219,10838,306,10836,50210,46031,0,0,"-11","-0.10139183700084686","-32","-0.06369173526763916","-14","-0.030405038967728615"
"Booker Foodservice UK",UK,213,11848,1146,11840,22190,3517,0,0,17,"0.1436903029680252",36,"0.16249887645244598",7,"0.1994301974773407"
"Makeup UA",UA,211,136318,40555,136318,748251,3617,0,0,135119,"11269.3076171875","-26188","-3.381544589996338","-456","-11.1956787109375"
"Superpharm Apteka",PL,211,9385,234,9385,24718,17648,0,0,"-18","-0.1914282739162445","-70","-0.2823947072029114",27,"0.15322627127170563"
"Booker UK",UK,208,9122,923,9120,17441,9908,0,0,9,"0.09876001626253128",18,"0.10331171751022339","-3","-0.030269397422671318"
"Coop UK",UK,208,9415,167,9414,208618,18795,0,0,0,0,"-186","-0.08907875418663025",0,0
"Benu HU",HU,207,4890,1,4890,15895,2729,0,0,"-1","-0.020445717498660088","-67","-0.41974690556526184",0,0
"Yandex Market RU",RU,206,65888,12385,65601,118350,12883,0,0,2151,"3.3748059272766113",4954,"4.368760585784912","-195","-1.4910537004470825"
"Перекрёсток Впрок RU",RU,205,17035,691,17028,38968,15020,0,0,78,"0.45998701453208923",419,"1.086928367614746",43,"0.2871069014072418"
"Minifarm RO",RO,203,4493,9,4493,14224,194,0,0,6,"0.13371963798999786",429,"3.1098225116729736",0,0
"Beauty Bay UK",UK,200,13007,114,13007,50792,0,0,0,39,"0.3007402718067169",136,"0.26847758889198303",0,0
"Emag HU",HU,199,88044,3755,88008,88093,7129,0,0,51,"0.05795915424823761",51,"0.05792689695954323",47,"0.6636543273925781"
"Rappi - Pricesmart CO",CO,197,1954,143,1430,5558,898,0,0,0,0,0,0,0,0
"Parfums UA",UA,187,66397,5188,66397,157552,1825,0,0,65749,"10146.4501953125","-2914","-1.8159610033035278",2,"0.10970927029848099"
"Look Fantastic UK",UK,184,18451,1704,18429,58930,0,0,0,14,"0.0759342610836029",269,"0.4585670232772827",0,0
"Deliberry - Caprabo ES",ES,182,8630,1,8630,9749,0,0,0,0,0,0,0,0,0
"Deliberry - Mercadona Barcelona ES",ES,177,5753,0,5749,6876,0,0,0,"-1","-0.017379214987158775","-1","-0.01454122457653284",0,0
"Vodovoz RU",RU,177,1055,88,1055,2169,0,0,0,1,"0.09487666189670563",2,"0.09229349344968796",0,0
"Deliberry - Solri ES",ES,176,7919,1,7919,9017,0,0,0,0,0,0,0,0,0
"Deliberry - Mercadona Madrid ES",ES,173,5577,1,5574,6690,0,0,0,0,0,0,0,0,0
AptekaLeki,PL,162,5252,39,5252,16064,1773,0,0,"-2","-0.038066234439611435","-8","-0.04977600648999214",0,0
"Deliberry - Supercor ES",ES,161,4081,0,4079,5005,0,0,0,0,0,0,0,0,0
"Everli - Coop IT",IT,160,10073,61,10073,11179,4,0,0,"-78","-0.7683972120285034","-82","-0.7281768918037415","-7079","-99.94352722167969"
"Professional Farmaline RO",RO,155,8588,51,8588,18277,2496,0,0,3,"0.034944672137498856",5,"0.027364272624254227","-1","-0.040048059076070786"
"Pyaterochka App RU",RU,148,5353,103,5353,6763,1909,0,0,"-98","-1.7978352308273315","-199","-2.8583741188049316",0,0
"Tiendas Jumbo CO",CO,145,16890,99,16840,80532,5936,0,0,38,"0.22549252212047577",415,"0.5179924368858337","-34","-0.5695142149925232"
"Vea Digital AR ",AR,145,3476,1283,3155,13821,835,145,0,3476,0,13821,0,835,0
"Deliberry - Dia ES",ES,143,3377,0,3377,4208,0,0,0,0,0,0,0,0,0
"Deliberry - La Plaza ES",ES,143,3550,0,3521,4338,0,0,0,0,0,0,0,0,0
"Everli - Metro IT",IT,141,2663,14,2663,3502,1513,"-1",0,"-12","-0.44859811663627625","-16","-0.45480385422706604",3,"0.1986754983663559"
"Exito CO",CO,137,13073,213,13058,77996,3739,0,0,"-29","-0.22134025394916534","-224","-0.28637176752090454",2,"0.0535188652575016"
"Nazuby CZ",CZ,137,1558,35,1558,7012,134,0,0,"-4","-0.2560819387435913","-16","-0.22766079008579254",0,0
"Automercado CR",CR,131,13216,751,13154,22014,24887,0,0,26,"0.19711902737617493",44,"0.20027309656143188","-1","-0.004018000792711973"
"Medexpressz HU",HU,127,1231,1221,1231,1894,0,0,0,0,0,0,0,0,0
"Coop EE",EE,125,9835,9834,9834,21260,1856,0,0,0,0,0,0,0,0
"Ozon RU",RU,122,47706,25453,47517,74539,9958,0,0,"-341","-0.7097217440605164",59,"0.0792158991098404",213,"2.1857361793518066"
"Condis ES",ES,121,6506,93,6447,6883,0,0,0,60,"0.9308097958564758",65,"0.9533587694168091",0,0
"Subra BG",BG,118,5682,1,5682,14072,2548,0,0,"-13","-0.22827041149139404","-42","-0.2975768744945526",0,0
"Cora Drive BE",BE,116,13200,9446,13200,86921,4507,0,0,0,0,"-744","-0.8486853241920471",0,0
"Farmacia Pasteur CO",CO,114,8674,52,8667,54207,557,0,0,73,"0.8487384915351868",1725,"3.2868411540985107",1,"0.17985612154006958"
"Auchan UA",UA,107,6453,108,6453,19106,0,0,0,"-42","-0.6466512680053711","-126","-0.6551580429077148",0,0
"Amazon Fresh DE",DE,106,9635,9543,9635,15211,1704,"-12","-10",276,"2.94903302192688",462,"3.132415771484375",1,"0.05871990695595741"
"Produktoff UA",UA,106,13049,298,13049,13197,0,0,0,37,"0.2843528985977173",36,"0.27353546023368835",0,0
"Koffievoordeel NL",NL,99,540,470,540,3367,1313,0,0,0,0,5,"0.14872099459171295",0,0
"Carrefour AR",AR,98,3942,2718,3942,23349,627,0,0,9,"0.22883294522762299","-256","-1.0845160484313965",0,0
"Boohoo UK",UK,97,1351,268,1351,6181,0,0,0,"-5","-0.3687315583229065","-21","-0.3386004567146301",0,0
"Vitania BG",BG,97,7347,68,7347,7347,2285,0,0,3,"0.04084967449307442",3,"0.04084967449307442","-1","-0.0437445305287838"
"Cora RO",RO,91,25296,10,25285,25296,7559,0,0,21,"0.0830860510468483",21,"0.0830860510468483","-29","-0.38218238949775696"
"Kaffedeal DK",DK,91,436,13,436,1142,616,0,0,7,"1.6317015886306763",5,"0.4397537410259247","-3","-0.48465266823768616"
"Kaufland DE",DE,90,25621,687,25620,30877,689,0,0,"-132","-0.5125616192817688","-141","-0.4545747637748718","-4","-0.5772005915641785"
"Okey RU",RU,80,10450,6796,10335,10484,1557,0,0,"-12","-0.11470082402229309","-13","-0.12384490668773651",30,"1.9646365642547607"
"Rappi Cruz Verde CL",CL,78,5060,1976,3240,32651,1153,0,0,"-7","-0.13814879953861237","-67","-0.2047802358865738",4,"0.3481287956237793"
"Droguerias Cafam CO",CO,67,4235,172,4235,10803,1328,0,0,20,"0.47449585795402527",37,"0.34367454051971436","-2","-0.15037593245506287"
"Media Markt DE",DE,67,1898,113,1898,5408,1226,"-1","-1","-10","-0.5241090059280396","-23","-0.42349475622177124",2,"0.16339869797229767"
"Farmacity AR",AR,64,4162,19,4162,9164,1168,0,0,3823,"1127.7286376953125","-61","-0.6612465977668762",0,0
"Rozetka UA",UA,62,92389,6191,92195,114813,3241,0,0,92389,0,114813,0,"-22","-0.6742261648178101"
"Sanctuary UK",UK,62,108,1,108,481,0,0,0,0,0,1,"0.2083333283662796",0,0
"Kaffekapslen DK",DK,60,719,192,719,1703,1276,0,0,0,0,0,0,2,"0.15698586404323578"
"Apteka Nove BG",BG,59,11786,3,11786,26518,3389,0,0,"-7","-0.05935724452137947",46,"0.17376850545406342",0,0
"Asos UK",UK,56,8398,99,8398,21281,0,0,0,55,"0.6592352986335754",136,"0.6431780457496643",0,0
"Kapselnkogen DK",DK,56,283,2,283,587,550,0,0,0,0,0,0,0,0
"Saturn DE",DE,55,1828,51,633,201,1503,0,0,1828,0,128,"175.34246826171875",1503,0
"iDrinks HU",HU,52,6712,6572,6712,14457,252,0,0,0,0,0,0,0,0
"Emag RO",RO,49,53184,469,53181,53185,5438,0,0,"-1220","-2.2424821853637695","-1220","-2.242440938949585",359,"7.0683207511901855"
"Expert DE",DE,49,1039,5,1015,1124,405,0,0,"-8","-0.7640878558158875","-8","-0.7067137956619263",34,"9.164420127868652"
"Pretty Little Thing UK",UK,49,1589,98,1589,4395,0,0,0,10,"0.6333122253417969","-17","-0.3853127956390381",0,0
"Very UK",UK,47,3605,7,6,3920,0,0,0,"-21","-0.5791505575180054","-27","-0.6840638518333435",0,0
"Winelivery IT",IT,45,1397,23,1397,3100,0,0,0,"-26","-1.8271257877349854","-62","-1.9607843160629272",0,0
"Fudge UK",UK,44,95,1,95,520,0,0,0,0,0,0,0,0,0
"Bol NL",NL,43,18749,5390,18839,32057,2405,0,0,18601,"12568.2431640625",5812,"22.145170211791992","-15","-0.6198347210884094"
"Altex RO",RO,38,1858,231,1858,3610,2538,0,0,"-236","-11.270296096801758","-503","-12.22951602935791","-26","-1.0140405893325806"
"BilkaToGo DK",DK,33,3587,53,3587,21351,1355,0,0,0,0,0,0,"-1","-0.07374631613492966"
"Ep DE",DE,33,196,170,196,626,325,0,0,"-1","-0.5076141953468323","-3","-0.476947546005249",0,0
"John Lewis UK",UK,28,312,125,319,413,131,0,0,297,1980,"-10","-2.3640661239624023","-1","-0.7575757503509521"
"Mercator SI",SI,27,13285,322,13285,13285,1979,0,0,"-13","-0.09775906056165695","-13","-0.09775906056165695",0,0
"StTropez UK",UK,26,30,1,30,79,0,0,0,"-1","-3.225806474685669","-5","-5.952381134033203",0,0
"Carrefour FR",FR,25,10993,5565,10986,15429,1817,0,0,110,"1.0107507705688477",38,"0.24689753353595734",71,"4.066437721252441"
"St. Tropez US",US,25,32,1,32,80,0,0,0,1,"3.225806474685669",1,"1.2658227682113647",0,0
"Avansas TR",TR,24,457,17,457,463,0,0,0,0,0,0,0,0,0
"Qvc US",US,24,16748,1903,16748,20769,0,0,0,"-310","-1.8173291683197021","-300","-1.4238929748535156",0,0
"Boulanger FR",FR,18,22,4,22,30,0,0,0,"-168","-88.42105102539062","-606","-95.28302001953125","-263","-100"
"Shoplink IE",IE,17,117,117,117,351,0,17,0,117,0,351,0,0,0
"Durst DE",DE,16,1012,85,1012,1097,0,0,0,0,0,0,0,0,0
"Euronics DE",DE,15,10672,0,222,40341,1173,0,0,"-2","-0.01873711869120598","-9","-0.022304832935333252",0,0
"BCC NL",NL,14,1824,65,1799,2396,643,0,0,"-7","-0.38230475783348083","-7","-0.29130253195762634",0,0
"Mercado Libre CL",CL,12,6562,129,6562,12730,1261,0,0,"-1","-0.015236934646964073",25,"0.19677291810512543",11,"0.8799999952316284"
"El Corte Ingles ES",ES,11,4075,31,4075,5215,725,0,0,0,0,0,0,10,"1.3986014127731323"
"Leclerc FR",FR,11,249,3,38,249,305,0,0,1,"0.4032258093357086","-239","-48.97541046142578","-47","-13.352272987365723"
"Wildberries RU",RU,10,85581,6394,85581,94266,1489,0,0,"-8152","-8.697043418884277","-11017","-10.464177131652832","-15","-0.9973404407501221"
"Mediaworld IT",IT,9,250,22,248,500,1436,0,0,"-3","-1.1857707500457764","-6","-1.1857707500457764","-1","-0.06958942115306854"
"Myer AU",AU,9,1070,10,48,1778,139,0,0,"-49","-4.378909587860107","-80","-4.3057050704956055",8,"6.106870174407959"
"Coles AU",AU,8,285,20,115,572,384,0,0,"-2","-0.696864128112793","-4","-0.6944444179534912",3,"0.787401556968689"
"Intermarche FR",FR,8,432,295,432,808,1134,0,0,"-10","-2.2624435424804688","-19","-2.2974607944488525",5,"0.44286978244781494"
"Sushi33 UA",UA,8,47,0,47,92,0,0,0,0,0,0,0,0,0
"AO UK",UK,7,902,186,902,1186,190,0,0,"-3","-0.33149170875549316","-3","-0.25231286883354187",0,0
"Sushiya UA",UA,7,39,1,39,69,0,0,0,0,0,0,0,0,0
"Woolworths AU",AU,7,1349,0,99,2184,365,0,0,"-38","-2.7397260665893555",9,"0.4137931168079376",1,"0.2747252881526947"
"Unieuro IT",IT,6,1634,219,1632,2038,1037,0,0,"-18","-1.0895884037017822","-15","-0.7306380867958069","-9","-0.8604206442832947"
"Easy CL",CL,3,605,538,605,689,402,0,0,"-1","-0.16501650214195251","-1","-0.14492753148078918","-9","-2.1897809505462646"
"Sodimac CL",CL,1,0,0,0,0,313,0,0,0,0,0,0,"-1","-0.31847134232521057"
"0815 DE",DE,0,0,0,0,0,0,0,0,0,0,0,0,0,0
"Billa AT",AT,0,0,0,0,0,603,0,0,0,0,0,0,0,0
"Disco AR",AR,0,0,0,0,0,0,0,0,0,0,0,0,0,0
"Dr Max RO",RO,0,0,0,0,0,2457,0,0,0,0,0,0,0,0
"E.Leclerc Elblag",PL,0,0,0,0,0,0,0,0,0,0,0,0,0,0
"E.Leclerc Gdansk",PL,0,0,0,0,0,0,0,0,0,0,0,0,0,0
"E.Leclerc Radom",PL,0,0,0,0,0,0,0,0,0,0,0,0,0,0
"Gall & Gall NL",NL,0,0,0,0,0,62,0,0,0,0,0,0,0,0
"Lopido CO",CO,0,0,0,0,0,0,0,0,0,0,0,0,0,0
"Mpreis AT",AT,0,0,0,0,0,0,0,0,0,0,0,0,0,0
"Roastmarket DE",DE,0,0,0,0,0,0,0,0,0,0,0,0,0,0
"Selver EE",EE,0,0,0,0,0,0,0,0,0,0,0,0,0,0
Spar,PL,0,0,0,0,0,63731,"-538","-100","-23274","-100","-733929","-100","-10185","-13.779154777526855"
"eTabletka SK",SK,0,0,0,0,0,5693,0,0,0,0,0,0,1,"0.017568517476320267"
