﻿Site,Country,Categories,Prices,"Products changed","Products downloads",Relations,Search,"Categories time","Prices time","Products time","Search time","Total time"
"Mytime DE",DE,4839,11789,588,11789,103986,2992,2108,2878,5587,150,10783
frisco,PL,4707,16895,195,16894,318019,98290,118,4425,26808,395,32033
"Albert Heijn NL",NL,3466,21665,516,21664,105823,4907,441,1608,2651,91,4904
"Makro CZ",CZ,3412,8423,587,8423,843014,455,3009,33199,6190,47,42807
"Metro SK",SK,3219,6404,35,6404,293337,0,2937,23407,6017,1,32509
"Rohlik CZ",CZ,3015,24191,2946,24191,227635,31867,2175,3896,14556,898,21716
"Albert Heijn BE",BE,2872,10108,207,10107,50421,6464,421,1334,2010,141,3958
"Coto Digital AR",AR,2850,18348,41,18344,109787,1597,1701,3106,9280,49,14207
"Notino SK",SK,2761,40670,5951,40670,118348,307,1285,6986,28934,15,37369
"Kosik CZ",CZ,2690,17378,2984,17377,100723,35664,463,1724,8186,979,11467
"Galen BG",BG,2673,14205,138,14205,98043,4951,1374,2314,6966,111,10860
"Pilulka SK",SK,2629,39119,14163,39117,251743,11045,16,9989,20735,277,31134
Auchan,PL,2609,16793,340,16793,277428,70232,85,14869,9073,4574,29060
"Notino CZ",CZ,2401,21496,2690,21496,56070,60699,1094,7591,13705,1443,24069
"Pilulka CZ",CZ,2359,32994,11020,32977,158657,34268,15,11623,31384,972,44076
"Drogeo CZ",CZ,2146,23432,9,23432,89976,43195,17,1845,12029,836,14820
"Drogerie Natura",PL,1981,14307,50,14306,79577,50087,94,4553,25763,4533,35050
"Amazon Fresh IT",IT,1918,8311,8249,8300,32037,2937,3469,2947,8005,443,14887
"Jumbo NL",NL,1808,17579,1138,17579,66827,4759,1063,1798,15907,130,18949
"Auchan HU",HU,1743,23047,55,23042,172169,17720,12,4473,11936,705,17291
"Otto DE",DE,1681,16864,650,17545,69543,198,789,1052,8278,17,10177
"Yuga RO",RO,1664,9071,110,9071,45024,1244,1940,4352,19148,133,25620
"Cefarm 24",PL,1660,13455,206,13431,98416,14998,2134,3810,17090,5402,28523
"Alza CZ",CZ,1646,30555,90,24,122924,34876,281,1792,235,1450,3818
"Delhaize BE",BE,1602,13990,4099,13986,59956,16949,95,2558,10066,790,13560
"Apteka Nowa Farmacja",PL,1383,15764,250,15760,82730,22907,10681,3493,16679,1959,32919
"Alza SK",SK,1374,13803,0,0,58721,3833,180,548,3165,0,3893
eZebra,PL,1370,37235,45,37235,139841,25266,77,26456,23765,0,50438
"Amazon BR",BR,1322,0,0,0,684662,0,0,0,0,21,21
"Picnic NL",NL,1316,7104,117,7053,16400,2675,554,997,3189,91,4855
"Remedium BG",BG,1309,26762,243,26652,95600,1544,386,8772,32111,200,41557
"Barbora LT",LT,1297,16780,130,16772,58659,1358,49,1759,7859,72,9797
" SberMarket - Lenta RU",RU,1278,13635,230,13631,91224,859,31,4485,6772,71,11435
"Coop CH",CH,1257,18304,1454,18304,66613,2009,300,2077,28417,148,31018
"Rewe DE",DE,1251,9239,203,9234,33968,2905,20,1380,9378,358,11179
"Barbora EE",EE,1243,13179,12631,13179,46223,1396,41,1471,6060,84,7689
"Kifli HU",HU,1242,13705,373,13646,54694,11274,606,597,6234,365,7860
"E-Fresh GR",GR,1210,11744,266,11741,56898,6554,2330,4084,24004,657,31125
"Farmaline BE",BE,1205,30768,564,30768,147105,0,1477,5480,25826,1,32892
"iGlobus Zlicin CZ",CZ,1202,19724,66,19723,36515,10456,13,2264,35250,440,38001
"SberMarket - Metro RU",RU,1196,7267,61,7264,58569,359,27,3104,3884,187,7261
Hebe,PL,1189,19266,10460,19260,178426,30225,760,4349,28348,792,34378
"Moja Lekaren SK",SK,1186,24527,166,24527,133042,4720,675,3770,13603,186,18346
"Lekarna CZ",CZ,1179,29312,261,29313,129080,5152,665,3724,16940,193,21650
"Barbora LV",LV,1168,13846,13271,13846,52698,1379,51,2044,6582,96,8816
"S-kaupat FI",FI,1164,43519,748,43519,331804,6408,15,4925,32029,138,37269
"Albert App CZ",CZ,1121,8057,110,8057,44100,2694,498,2242,3651,61,6506
"Amazon DE",DE,1072,170,170,170,524092,13165,0,0,0,4171,4171
"Dr Max SK",SK,1070,22962,125,23005,98655,7212,680,6581,29409,429,37166
"Knuspr DE",DE,1065,11761,135,11761,49839,1639,521,493,5297,148,6496
"Mathem SE",SE,1045,12238,24,12035,33717,7444,14,1126,12867,509,14548
"Amazon IT",IT,1041,540,538,540,568537,6582,0,0,0,988,988
"Eroski ES",ES,1041,25778,11326,25770,54620,562,17,3131,12865,41,16088
"Picnic DE",DE,1036,7083,198,7083,14246,1856,443,843,2980,166,4447
"Salcobrand CL",CL,1021,7582,0,7581,31966,2579,305,610,3931,40,4914
"Auchan RO",RO,1013,24863,7,24825,432464,7493,27,5458,17454,534,23833
"Vkusvill RU",RU,1001,11677,519,11673,47361,1518,336,5641,24982,224,31219
"Zakaz - Novus UA",UA,1001,17930,841,17930,37912,0,20,1979,9180,1,11238
Bee,PL,994,52391,11679,52390,179109,9402,465,3458,24259,249,28645
"Coop NL",NL,987,16307,1727,16307,70055,989,1734,2029,21200,65,25075
Selgros,PL,975,21032,13174,21025,72987,28513,449,938,9417,1579,12488
"Carrefour BE",BE,932,19030,130,19022,274148,20269,1012,13750,9150,7743,31826
"Coop Shop IT",IT,924,11178,15,11177,33562,6323,14,659,7559,381,8643
"Coop SE",SE,914,9945,129,9945,33915,7968,13,918,4606,215,5776
"Unipatika HU",HU,875,4378,70,4379,30739,4691,521,1172,2519,309,4550
"Pilulka RO",RO,870,10399,333,10408,45377,3426,18,453,4847,68,5465
"Magnit App RU",RU,859,4030,263,4030,11170,0,15,1126,2864,2,4029
"SuperValu IE",IE,842,16234,114,16231,222676,12872,866,16554,17495,678,36092
"Tesco IE",IE,833,16894,187,16870,417377,4331,12,9202,6482,889,16940
"Tigros IT",IT,832,10010,45,10010,30074,7099,15,608,5769,239,6674
"Ebag BG",BG,823,11440,2516,11367,42837,1803,19,1292,5383,30,6769
"Apteka Manada",PL,811,14698,1268,14340,48922,38453,53,2280,23618,3271,29301
"Wong PE",PE,811,23795,165,20413,147536,1834,16,8618,17780,74,26573
"Superpharm Drogeria",PL,795,16740,267,16740,90721,38232,56,1648,24663,433,26883
"Walmart MX",MX,789,23185,1778,23155,99927,3126,85,10431,18221,110,28908
"Polski Koszyk",PL,785,20302,55,20284,65599,1977,25,866,9490,67,10540
"Auchan RU",RU,775,25849,383,25849,78719,450,16,1711,18852,52,20728
"eZiko Apteka",PL,770,7229,82,7206,43649,18746,346,1828,4143,1039,7410
"Dr Max CZ",CZ,763,21801,17,21815,93178,7991,489,5415,30094,547,36631
"Coop DK",DK,758,11191,8231,11190,89113,1181,351,3400,13490,38,17343
"Zakaz - Metro UA",UA,754,11991,334,11991,23137,0,14,2270,9067,1,11388
"Sklavenitis GR",GR,731,9881,361,9881,29643,4395,118,1149,4683,257,6242
"Masxmenos CR",CR,730,9288,62,9286,25479,0,27,1577,9910,0,11529
"Walmart CR",CR,730,14363,66,14360,183780,5049,16,5097,15133,152,20494
"Mall CZ",CZ,728,38911,780,38911,108841,15804,540,939,73406,0,74885
"Cruz Verde CL",CL,726,9384,1,9383,131100,3077,15,18220,4252,37,22596
"Apteka Gemini",PL,718,27270,6844,27293,94375,64666,59,4622,17171,782,22745
"Rimi LV",LV,717,14583,1306,14583,42816,5378,17,717,15003,119,15883
"Bringmeister DE",DE,716,15737,362,15736,42859,4341,9,380,6926,142,7490
"Lunys SK",SK,714,5359,253,5359,18729,0,455,1038,4394,1,5905
"Esselunga A Casa IT",IT,713,15151,1305,15151,46262,16919,18,4538,26272,1288,32154
"Tesco CZ",CZ,709,16686,87,16686,547984,24731,15,15065,10443,3956,29846
"Intervare DK",DK,707,8978,8263,8978,26010,0,10,319,3971,111,4439
"Rimi EE",EE,707,12271,1066,12271,36016,3702,16,684,12631,112,13468
"Gurkerl AT",AT,685,9573,1402,9572,34603,3425,350,321,4284,109,5100
"Bennet IT",IT,682,19368,93,18600,39049,15215,11,1072,9420,722,11270
Barbora,PL,680,9452,8415,9448,121414,7268,80,3193,4430,815,8717
"Poiesz NL",NL,666,7830,0,7824,10057,124,18,541,6467,44,7087
"DM SK",SK,660,12428,14,12060,35482,2161,8,1247,5969,91,7362
"Rimi LT",LT,660,14882,116,14882,44686,3412,15,693,15243,82,16062
"Maxi RS",RS,659,7843,12,7843,25953,6933,11,545,3501,123,4205
"DOZ.pl",PL,658,19753,204,19751,80254,56044,530,3493,13106,1971,19183
"Rossmann DE",DE,656,15756,172,15756,54229,449,696,1204,14780,19,16732
Amazon,PL,654,679,669,672,999998,25376,0,0,0,1288,1288
"Hoogvliet NL",NL,652,8764,161,8764,14321,1850,12,723,9709,104,10565
"Tesco HU",HU,649,15536,75,15536,1030377,8622,9,25438,10016,1619,37711
"Apteka Rosa",PL,648,9493,18,9493,57246,2115,53,3447,11470,145,15181
"Tesco SK",SK,648,15881,78,15881,228169,836,8,6177,10911,115,17419
"City Gross SE",SE,645,12762,136,12762,27851,8936,9,352,5946,361,6688
"Crai Spesa Online",IT,641,7388,5,7389,26575,7039,382,1046,17176,1081,19699
"Rossman HU",HU,640,14702,108,14702,53708,7695,566,657,21689,169,23136
"Mercator SI",SI,628,12861,4,12861,38583,2293,296,287,5940,81,6647
Apteline,PL,620,25076,488,25075,81959,16481,417,1332,16111,503,18440
"E.Leclerc Bielany",PL,609,32002,69,31610,101726,35449,117,4021,15321,21939,41520
"Colruyt BE",BE,606,7861,59,7872,93127,14840,11,14653,20527,1741,37055
"Thanopoulos GR",GR,598,15606,209,15606,52002,9109,16,4820,19398,700,24980
"Benu CZ",CZ,597,14236,235,14381,67037,5897,11,6235,10214,73,16627
"Apteka Galen",PL,594,8353,6,6674,22074,2984,51,2362,21494,1129,25074
"Pingvinpatika HU",HU,591,7588,365,7592,40956,2851,10,5153,9608,324,15124
"Willys SE",SE,583,10521,197,10521,34777,6857,9,613,5188,226,6057
"Vasalekaren SK",SK,582,10180,72,10180,64072,4111,1171,7977,22659,640,32476
"Plus NL",NL,581,15606,106,15606,31199,4342,53,2319,7506,167,10103
"Carrefour EG",EG,576,16139,299,16132,83541,403,9,1536,10008,19,11620
"Glovo Kaufland RO",RO,574,9020,37,9020,16022,0,14,309,130,1,479
"E.Leclerc Wroclaw",PL,572,15871,43,15860,16375,12336,478,1862,23991,5098,31495
"DM HU",HU,570,12616,21,12248,34349,9740,6,1222,6045,316,7644
"Zakaz - Metro MD",MD,567,10551,67,10551,17779,0,15,1351,8392,1,9780
"Dr Max",PL,566,14279,85,13988,53681,25548,239,2436,12974,1241,16946
"Spar HU",HU,565,15418,2799,15416,354735,11470,9,7956,27366,479,36001
Lek24,PL,562,6041,67,6041,21595,4411,12,1201,2733,218,4213
"Yandex Lavka RU",RU,561,2885,316,2885,8151,0,100,712,4337,194,5364
"Kritikos GR",GR,560,16741,13374,16741,47277,0,16,47,7649,7068,14827
Spar,PL,559,25319,11055,25315,661714,76818,25,11882,11800,2351,26764
"Apteka Melissa",PL,552,27804,1090,27622,102721,60834,61,7749,20689,2223,30843
"AB GR",GR,550,11266,320,11266,33683,8130,16,784,5237,205,6284
"Chronodrive FR",FR,549,8017,150,7413,15365,2124,14,507,4734,108,5380
"DM CZ",CZ,548,12354,22,11987,33663,32893,8,1181,5932,1086,8248
"Pão de Açucar BR",BR,548,23633,2361,23627,56211,0,12,2911,11373,0,14337
"Freshful RO",RO,543,19142,639,19142,39100,361,14,1033,10283,16,11400
"Jumbo CL",CL,543,21184,73,20100,534780,2433,14,7307,9934,173,17782
"Univerexport RS",RS,540,9609,9322,9609,19218,1413,21,574,10014,255,10889
"MyMarket GR",GR,538,14558,2197,14558,52214,6910,15,2715,18150,380,21318
"Carrefour ES",ES,533,15090,50,14506,18209,412,31,540,7780,25,8402
"E.Leclerc Rzeszów",PL,531,11598,381,11593,33898,24813,65,676,4543,819,6164
"Drogeria Olmed",PL,524,45302,2067,45297,150684,26603,52,11972,35117,2958,50198
"Plazavea PE",PE,516,26501,32,26489,193072,1900,11,4261,11993,119,16511
"Idea RS",RS,514,11995,14,11995,21181,7211,97,559,5442,109,6237
Rossmann,PL,508,24414,58,24409,79116,31598,15,914,24688,702,26412
"Apteka Zawiszy",PL,505,20520,204,20640,80742,21242,242,1020,9851,453,11675
"Metro RU",RU,505,19935,2058,19934,25250,1428,12,2072,23520,60,25730
"Hemkop SE",SE,504,10364,172,10364,32467,7266,9,289,4851,230,5405
"Benulekaren SK",SK,501,9137,433,9153,48404,6818,8,3157,4264,139,7608
"Interspar AT",AT,500,21976,285,21976,265927,6360,15,2580,26288,144,29247
Intermarche,PL,498,18581,60,18581,160039,14597,51,3899,8492,1384,14086
"Migros Online CH",CH,484,12244,798,12244,37951,1324,32,1291,10081,198,11646
"Spar SI",SI,481,16577,777,16577,58372,2694,16,634,19587,105,20388
"Mega Image RO",RO,478,12553,63,12551,37570,9755,13,800,5648,196,6725
"Famila a casa IT",IT,477,12092,52,12067,27961,6466,813,1497,18833,344,21510
"Dr Max Drogeria",PL,476,17199,52,17192,54559,6731,45,2792,17742,349,20991
"E.Leclerc Radom",PL,472,13328,338,13320,41935,10268,121,2725,7004,2298,12227
"e-Dostavka BY",BY,468,35163,1379,35161,101648,2000,11,7811,16794,159,24869
"Carulla CO",CO,464,11483,157,11473,64593,912,25,1720,5322,49,7185
"Apteka Olmed",PL,463,47090,2107,47079,162460,20611,25,12711,36475,2123,51433
"Basko IT",IT,463,8425,82,8425,25768,1571,8,295,9410,47,9787
Ceneo,PL,463,193937,4085,191940,258048,45768,974,4132,52078,0,57184
Aptelia,PL,459,14630,19,14630,72716,10065,215,2308,8412,317,11316
"GPSfarma AR",AR,456,9220,1689,9220,40136,1587,22,3042,10960,156,14210
"MegaMarket RO",RO,447,5297,0,5297,6401,569,12,1274,6017,185,7505
"eTabletka SK",SK,442,11772,10,11772,79224,6792,469,7844,14783,87,23247
"Lider CL",CL,441,10608,516,10608,207076,1884,16,24059,22390,216,46797
"Patika24 HU",HU,441,4399,6,4398,10593,3228,8,571,7286,88,7964
"Dr Max RO",RO,434,8762,31,8797,24322,8697,205,1130,8134,427,9928
"Ecofamily HU",HU,434,6621,25,6620,21334,4089,9,2194,36609,602,39443
"Unimarc CL",CL,433,9544,15,9544,28631,2320,11,656,9339,100,10124
"E.Leclerc Lublin Turystyczna",PL,432,12668,37,12668,15652,12948,51,1143,25707,4629,31567
"Lopido CO",CO,431,10387,5,10386,20149,875,28,4879,31145,38,36107
"Cornershop - Jumbo CL",CL,430,26768,91,26555,149625,2631,12,839,8009,193,9192
"Cornershop - Lider CL",CL,426,18779,47,18379,123982,2111,12,907,3800,164,5013
"E.Leclerc Katowice",PL,413,8867,20,8858,9355,9830,102,438,4591,1443,6675
"iFresh SK",SK,409,7065,6775,7065,139169,0,10,4169,21588,0,25871
"Farmacia Tei RO",RO,405,24375,24369,24373,26087,3255,11,741,12285,166,13227
"Kruidvat NL",NL,405,8782,242,8773,24490,1752,199,730,6989,80,8027
"Teta Drogerie CZ",CZ,400,8544,51,8441,23221,6781,8,1291,8048,150,9551
"Glovo Biedronka Warszawa",PL,399,3170,397,3170,6030,671,10,203,89,729,1044
"OnlinePrima HU",HU,397,7686,81,7686,23741,6163,5,674,8752,288,9741
"Apteki 36.6 BG",BG,395,9973,56,9973,47365,1343,12,1627,5332,91,7102
"Mercado Libre MX",MX,391,40339,761,39954,86928,2863,739,924,13039,366,15132
"Unimarkt AT",AT,391,3410,321,3409,15302,3294,261,902,2879,219,4279
"Ica SE",SE,379,11092,102,11092,662859,12653,7,21841,4939,218,27347
"DrankDozijn BE",BE,378,3656,46,3656,14895,2132,8,635,5746,380,6781
"DrankDozijn NL",NL,378,3656,46,3656,14895,250,8,626,5747,45,6439
Stokrotka,PL,372,7692,6,7692,158806,12563,25,3382,3602,413,7629
"Bebe Tei RO",RO,371,26431,100,26420,27410,1551,11,925,13806,97,14859
"Talabat Mart EG",EG,371,6494,6014,6467,47972,543,7,2017,53714,13,55781
"Billa AT",AT,370,9316,293,9316,30156,6643,12,330,15471,143,15988
"Walmart GT",GT,369,9290,39,9289,160377,4349,11,4648,9723,136,14609
"Świat Leku",PL,367,11837,109,11837,38358,1917,164,1382,9767,181,11542
"Carrefour IT",IT,363,13442,3707,13432,37851,4665,186,1390,6286,333,8234
"Ulabox ES",ES,363,5791,9,5791,12168,0,6,225,2620,0,2865
"Bringo RO",RO,358,30480,82,31507,48807,7024,27,1718,1163,820,3805
"Apteka Prima 24",PL,355,4536,25,4535,20521,1490,49,382,2360,109,2927
"E.Leclerc Lublin Tomasza Zana",PL,355,10726,45,10710,13989,9325,20,491,6609,1001,8164
"Feedo CZ",CZ,351,21095,6846,21095,57866,468,153,1232,32701,21,34198
"Cornershop - Wong PE",PE,349,16786,45,16784,50508,1804,8,555,8284,157,9041
"Gall & Gall NL",NL,347,3220,986,3221,23984,68,9,5423,6063,21,11534
"Rossmann App CZ",CZ,344,10954,201,8890,35470,0,7,2921,4287,1,7251
"E.Leclerc Elblag",PL,339,10497,33,10467,29087,14521,86,1753,9732,2568,14172
"Cornershop - Metro PE",PE,338,14568,32,14560,47777,1697,9,523,6722,148,7446
"Roastmarket DE",DE,336,3504,119,3504,32154,384,22,462,12414,16,12930
Allecco,PL,335,11832,11,11831,40850,10767,27,647,5712,179,6622
Carrefour,PL,335,14222,61,14220,119167,35060,238,2481,7723,2536,13129
"Mercado Livre BR",BR,332,106760,2286,106741,1333095,0,642,13922,43395,1,58838
"Mpreis AT",AT,325,8000,237,8000,28019,4563,302,836,7737,101,9013
"Sipo HU",HU,320,4814,30,4803,10363,1441,8,790,2732,114,3674
"Cornershop - Santa Isabel CL",CL,316,7649,26,7649,9440,1502,14,607,10179,155,10964
"Mercado Libre AR",AR,314,37035,345,8141,79852,301,165,853,31172,130,32388
"Jumbo AR",AR,311,11922,16,11903,52108,1059,10,2335,6525,57,8973
"Gastronom BG",BG,309,7768,15,7768,24188,937,12,395,5314,209,5958
Empik,PL,302,206625,43894,107736,595258,33273,114,20834,58984,0,79932
"Ica New Version SE",SE,302,5055,4190,5055,109887,5845,6,1851,2294,231,4475
"Amazon NL",NL,300,0,0,0,96506,0,0,0,0,17,17
"Cora RO",RO,300,50888,43,43573,104491,6484,9,4385,60198,0,64592
"Bipa AT",AT,299,12227,128,12227,26677,570,14,391,16582,17,17034
DoDomku,PL,299,6013,491,6013,17582,2329,67,301,3125,369,3934
"Easy Coop IT",IT,299,8977,45,8977,26843,9886,7,1838,17757,874,20495
"SOpharmacy BG",BG,296,9990,3790,9990,31485,6287,376,988,11097,560,13058
"E.Leclerc Gdansk",PL,295,9576,0,9576,26275,8370,73,1563,8857,2282,12827
Makeup,PL,292,88366,83826,88366,459838,87581,44,24791,39636,0,64471
"Tudrogueria Virtual CO",CO,291,8705,43,8705,16599,941,23,339,4007,44,4430
"Apteka Nove BG",BG,287,11378,17,11378,39897,6246,11,2718,14384,371,17523
"Apteka Medea BG",BG,284,8638,82,8637,26006,0,10,1194,4947,0,6183
"Sephora US",US,283,19906,2391,19906,127965,0,11,822,15815,0,16694
"E.Leclerc Tychy",PL,278,7062,27,7056,7139,9829,60,205,3393,1553,5241
"Konzum HR",HR,278,10721,57,10720,16771,3363,317,2428,32757,434,35958
"i-apteka",PL,276,10093,870,10093,21771,5894,10,439,10627,465,11578
Makro,PL,272,3092,6,3092,8400,31490,6,556,1414,1636,3653
"Edeka DE",DE,270,3747,1417,3747,4985,113,8,216,4083,119,4435
"Groby HU",HU,269,8155,57,8155,21786,3587,6,1122,8786,276,10210
"Farmacia la Pret Mic RO",RO,265,8403,26,8403,27335,5940,34,1351,8177,773,10366
"E.Leclerc Gliwice",PL,260,7837,4,7837,21519,6741,30,1329,6934,1923,10254
"PriceSmart CR",CR,258,2972,45,2967,44173,3359,7,8631,2493,744,11906
"Dunnes IE",IE,255,12829,37,12295,20843,11852,3,654,16675,468,17828
"Apteka Medkon",PL,254,7659,7655,7655,31608,4326,14,4330,15957,1400,21740
"Azbuka Vkusa RU",RU,254,10232,13,621,21519,0,30,1780,3759,639,6261
"La Comer MX",MX,254,22550,123,22550,22285,3951,8,401,57887,169,58473
Wapteka,PL,252,18703,17853,18683,64158,42099,40,3525,10135,736,14510
"Supermarket AM",AM,247,6703,148,6557,16367,0,9,965,14631,1,15623
"Szybki Koszyk",PL,247,4258,32,4252,14547,637,142,621,1977,42,2809
"Lisek App",PL,246,2025,12,2025,2885,1157,10,52,930,95,1095
"Helpnet RO",RO,245,6847,525,6865,19347,5130,8,1349,3113,247,4754
"Merqueo - Bogota CO",CO,243,1821,59,1821,4129,2282,10,193,906,92,1208
"Delitea SE",SE,242,9205,8992,9211,22483,5676,5,184,4147,76,4438
"Olimpica CO",CO,241,9767,545,9648,30015,2583,11,1482,12340,126,13990
"Farmatodo CO",CO,238,13223,363,13223,61071,3880,21,485,16696,70,17333
"Carrefour BR",BR,237,8504,5,8380,43763,0,13,6187,12666,1,18908
"Afya Pharmacy BG",BG,234,10204,171,10204,31957,1844,10,2324,11802,307,14475
"Metroiroda HU",HU,230,3350,66,3341,6762,1244,6,738,4020,180,4959
"Disco AR",AR,227,7868,15,7511,32145,1526,99,2278,11354,47,13804
"Перекрёсток Впрок RU",RU,227,15690,204,12697,38047,2532,8,973,10441,70,11555
"Linio CL",CL,226,48900,74,48435,81944,0,116,915,18731,0,19880
"Rappi - Exito CO",CO,226,0,10708,14431,55919,0,98,7901,0,0,7999
"Benu HU",HU,221,4976,3,4976,15184,2752,6,3641,6882,375,10919
"Getir IT",IT,217,1694,6,1694,4395,7610,8,111,821,108,1053
"Rappi - Carulla Express CO",CO,216,12472,5573,8513,29735,1387,89,6370,40734,92,47306
"Superpharm Apteka",PL,214,11763,179,11763,30621,24506,6,505,17000,331,17875
"Igooods RU",RU,213,16037,6,16036,35958,444,8,238,7326,18,7645
"MaxiCoffee FR",FR,211,5350,296,5309,13209,1583,477,872,9141,279,10780
"Pyaterochka App RU",RU,210,5526,98,5526,14143,1251,7,247,2616,15,2912
Cocolita,PL,208,11304,112,11277,48924,16101,37,2002,22038,1507,25641
"Exito CO",CO,208,9471,211,9468,38172,1478,135,2668,15776,121,18753
"Rappi - Carulla CO",CO,206,14513,7956,10558,43662,4606,138,7442,60448,177,68239
"Subra BG",BG,206,8513,39,8513,22980,4908,12,290,3918,647,4896
"Yandex Market RU",RU,206,0,0,0,59010,0,0,0,0,0,0
"Minifarm RO",RO,203,4879,2,4876,13520,531,10,849,5018,207,6108
"Panda Market HU",HU,203,2578,49,2578,6483,1071,6,128,1214,84,1438
"Emag HU",HU,199,0,3567,52959,114916,0,9,1946,0,0,1955
"Rappi Lider CL",CL,197,16694,12014,14748,76322,3245,8,5352,18032,84,23538
"Merqueo - Medellin CO",CO,189,1006,5,1006,2226,1476,8,151,492,74,727
"Deliberry - Caprabo ES",ES,184,8543,0,8528,9657,0,14,981,48252,1,49257
"Vodovoz RU",RU,184,1115,125,1115,2287,0,7,333,1983,0,2330
"Farmacia Pasteur CO",CO,181,7294,31,6819,45675,1152,10,1412,4249,51,5767
"Deliberry - Solri ES",ES,178,9124,0,9116,10235,0,14,967,49393,0,50380
"Coursesu FR",FR,177,4188,2280,4187,10544,1348,11,3361,12941,448,16771
"Rappi - Exito Express CO",CO,177,0,0,0,31477,0,126,6370,0,0,6496
"Tiendas Jumbo CO",CO,176,15944,317,15910,63197,2775,29,1283,13552,87,15032
"Deliberry - Mercadona Barcelona ES",ES,175,5718,0,5132,6855,0,16,900,36326,1,37250
"Deliberry - Mercadona Madrid ES",ES,173,5651,0,4978,6764,0,13,849,35505,1,36374
"Linella MD",MD,173,5473,5122,5449,8578,0,11,228,3884,1,4139
"PennyDomu CZ",CZ,173,1635,4,1635,4622,0,75,232,751,2,1064
"Rappi Carrefour AR",AR,173,5313,276,5289,10032,2020,90,1386,16296,65,17847
"Rappi Jumbo CL",CL,172,15894,13252,15668,54975,3636,9,4729,17003,85,21877
"Rappi Turbo CL",CL,169,0,0,0,0,596,144,449,19,105,718
"Rappi Unimarc CL",CL,168,12129,1770,11635,23248,3361,6,2775,12983,84,15884
"Deliberry - Supercor ES",ES,161,4086,0,4084,5010,0,12,761,26852,1,27630
"Everli - Coop IT",IT,160,11938,78,11938,13082,7488,40,866,12604,844,14368
"Professional Farmaline RO",RO,155,8340,12,8340,17726,5345,5,511,4709,102,5359
"Auchan FR",FR,154,1527,28,1527,5092,576,189,387,1738,146,2487
"Dirck3 NL",NL,151,531,4,531,2489,144,6,91,240,26,368
"Rappi Turbo CO",CO,151,1347,1071,1347,7039,2678,157,4620,4842,194,9819
"Rappi Coto AR",AR,150,9860,348,9732,22602,1851,88,2427,20644,81,23262
"Rappi - Pricesmart CO",CO,149,1762,1178,1568,4691,3076,71,2491,5823,177,8566
"Rappi Turbo PE",PE,144,1175,1016,1175,4176,1691,165,2219,3559,103,6051
"Deliberry - Dia ES",ES,143,4171,0,4171,5032,0,17,668,27252,1,27941
"Deliberry - La Plaza ES",ES,143,4250,0,4220,5109,0,15,669,28273,1,28961
"Everli - Metro IT",IT,143,2491,3,2491,3315,1500,34,326,2629,485,3483
"Rappi Turbo AR",AR,139,1119,62,1119,4320,1455,145,2305,1876,74,4403
"Medexpressz HU",HU,137,1381,1,1381,2950,0,5,345,730,30,1113
"Nazuby CZ",CZ,135,1711,1,1711,5854,161,5,183,771,16,980
"Superxtra PA",PA,135,6483,106,6483,13703,0,68,67,3055,3,3205
"Alkohol CZ",CZ,131,4605,2639,4605,12896,0,16,1105,3693,1,4857
"Extra BR",BR,128,77364,19,77352,77364,0,36,1094,17153,17,18381
"Ozon RU",RU,127,58258,26641,44886,84492,1345,559,3243,33535,488,38038
"Automercado CR",CR,125,12047,11,11973,18791,0,114,2144,35938,1,38213
"Condis ES",ES,121,6654,88,6496,7047,0,5,195,3128,1,3338
"Cora Drive BE",BE,121,13959,7067,13959,91396,4553,12,4066,15799,1320,21272
"Rappi Farmacity AR",AR,112,6136,4505,5862,18157,1865,111,3380,20243,86,23835
"Amazon Fresh DE",DE,109,10498,10480,10491,15582,6450,335,16636,11161,584,28729
"E-tinex MK",MK,109,4293,0,4293,8586,393,4,79,1973,30,2093
"Mercado Libre CL",CL,109,48816,1063,48789,65552,2220,121,638,26419,137,27374
"Coop EE",EE,105,1388,28,1388,3283,1225,4,96,668,56,828
"Vea Digital AR ",AR,104,2356,7,1705,9526,1147,98,1037,5327,50,6522
"Jumia NG",NG,101,2332,42,2332,3186,120,52,96,1052,24,1228
"Savage & Whitten IE",IE,100,3720,94,3720,7440,925,6,371,1703,74,2167
"Vitania BG",BG,98,7256,216,7256,7256,4280,8,368,3404,238,4034
"Farmacity AR",AR,97,3266,10,3266,6215,1229,5,303,1141,58,1510
"Everli - Kaufland",PL,94,0,0,0,0,0,0,0,0,0,0
"Everli - Lidl",PL,91,0,132,133,14790,0,0,0,866,483,1376
"Kaufland DE",DE,90,29982,600,28832,37578,731,63,637,14801,37,15584
"PriceSmart PA",PA,90,1649,16,1647,19448,1014,4,3872,1047,297,5233
"Koffievoordeel NL",NL,89,486,54,487,2872,1289,5,409,577,29,1024
"PriceSmart GT",GT,87,1548,27,1545,13919,2321,6,2233,1110,513,3872
"Kaffedeal DK",DK,84,383,8,383,969,835,4,46,176,34,261
"Brack CH",CH,80,8433,726,8317,21115,1734,73,282,7795,182,8371
"Mall SK",SK,79,390,8,390,3534,4,189,246,2802,621,3883
"Comfandi Supermercados CO",CO,72,4505,4290,4500,9098,763,24,1579,9930,243,11782
"Durst DE",DE,69,1123,69,1123,1192,0,6,22,22,5,59
"Droguerias Cafam CO",CO,68,4473,1581,4473,11426,2307,42,699,9177,100,10028
"Media Markt DE",DE,68,1254,33,1246,3016,462,568,1894,5384,453,8310
"Rappi Cruz Verde CL",CL,66,4561,2729,3535,30283,3112,5,1929,4896,84,6941
"Rozetka UA",UA,62,70698,7311,70622,89979,0,131,5676,19702,1,25775
"Kaffekapslen DK",DK,61,785,6,785,1810,1517,56,67,898,177,1201
"PedidosYa DIA AR",AR,61,2332,0,2332,2332,684,4,96,1026,21,1152
"Emag RO",RO,60,58002,356,57994,58010,5094,5,1020,40349,198,41661
"Comfandi Droguerias CO",CO,56,4437,2282,4431,8779,1833,8,1081,7492,311,8899
"Kapselkongen DK",DK,54,254,0,254,510,644,23,53,237,33,347
"iDrinks HU",HU,53,6592,6463,6592,14226,253,5,1224,6862,53,8160
"Bigshop MK",MK,51,1022,1,1022,3813,560,154,358,1147,152,1815
"Expert DE",DE,51,934,3,934,999,0,82,61,1953,12,2112
"PedidosYa Carrefour AR",AR,48,4163,50,4163,4163,940,5,98,1816,23,1947
"Jumia EG",EG,42,2385,6,2385,4691,23,34,131,1287,21,1478
"BilkaToGo DK",DK,37,10077,490,10077,54917,1725,7,122,4350,38,4630
"Datart CZ",CZ,37,1011,332,1011,1390,1338,7,149,731,75,966
"Ep DE",DE,37,211,1,211,674,0,77,126,436,1,643
"Selver EE",EE,37,4096,11,4073,9016,2792,4,171,6060,501,6750
"Altex RO",RO,36,1480,3,1414,2902,1804,6,139,1625,139,1914
"Bol NL",NL,36,16720,15981,16846,27546,2335,29,1886,18359,530,20828
"Saturn DE",DE,34,653,1,653,1359,401,217,706,2381,2434,5744
"Winelivery IT",IT,34,1333,5,1333,2804,0,4,178,738,0,924
"Galaxus CH",CH,33,8628,5803,8628,8628,1011,20,1859,9193,1238,12335
"Kesko FI",FI,31,4397,0,0,61753,8730,908,1097,0,1272,3334
"Americanas BR",BR,29,5065,850,5022,41579,0,314,1059,45993,1,47392
"Carrefour FR",FR,24,10391,741,10391,15485,1595,10,976,11096,472,12577
"Shoplink IE",IE,20,152,0,152,456,1816,31,62,90,108,292
"Deeski NG",NG,19,168,0,168,259,180,14,59,312,20,405
"Boulanger FR",FR,17,919,3,919,2138,372,24,124,2179,135,2465
"Euronics DE",DE,15,9552,5,194,37737,0,33,928,42228,1,43262
"Qvc US",US,14,15571,903,15571,17103,0,23,213,17656,1,17912
"BCC NL",NL,11,1797,12,1797,2385,660,5,134,1683,65,1893
"El Corte Ingles ES",ES,11,3907,19,3905,5089,678,57,594,21067,78,21810
"Leclerc FR",FR,10,218,65,217,436,735,17,306,10428,969,11725
"Wildberries RU",RU,10,57343,3985,57228,59374,1617,11,184,29895,32,30331
"Intermarche FR",FR,8,435,3,435,846,853,5,49,900,249,1212
"Unieuro IT",IT,6,1659,809,1657,2068,1136,4,18,763,46,838
"Barrys Beacon IE",IE,4,154,8,154,154,390,6,43,78,59,187
"Carrefour AR",AR,4,2974,1911,2945,6773,512,85,259,4493,38,4886
"Konga NG",NG,3,2753,20,2753,2998,186,95,16,2338,14,2466
"Musgrave IE",IE,3,0,0,0,0,4016,3,28,5,966,1003
"Alcampo ES",ES,0,0,0,0,0,0,31,18,13,76,138
Allegro,PL,0,2297,14,2297,0,0,0,0,46112,0,46113
"Chedraui MX",MX,0,0,0,0,0,0,4,58,1,63,126
"Cruz Verde CO",CO,0,0,0,0,0,0,5,63,2,46,116
"Dia AR",AR,0,0,0,0,0,0,4,61,4,89,158
"Drogas La Rebaja CO",CO,0,0,0,0,0,0,31,3659,2,146,3839
"Easy CL",CL,0,0,0,0,0,0,3,84,9,8,104
"Elefant RO",RO,0,0,0,0,0,1967,365,8,1,91,465
"Globus RU",RU,0,0,0,0,0,306,181,4,1,428,621
"Heb MX",MX,0,0,0,0,0,0,0,0,0,0,0
"Mediaworld IT",IT,0,0,0,0,0,0,37,0,2,237,276
"Merqueo - Cali CO",CO,0,0,0,0,0,0,4,52,2,203,261
"Metro Delivery RU",RU,0,0,0,0,0,0,146,4,2,290,442
"Okey RU",RU,0,0,0,0,0,428,10,27,6,444,495
"Samokat RU",RU,0,0,0,0,0,0,15,33,0,20,68
"Sodimac CL",CL,0,0,0,0,0,0,27,117,1,1,146
"Soriana MX",MX,0,0,0,0,0,0,2,56,1,231,290
"Tottus CL",CL,0,0,0,0,0,2003,3,106,2,51,162
"Утконос RU",RU,0,0,0,0,0,0,22,23,1,1012,1058
