﻿Site,Country,Categories,Prices,"Products changed","Products downloads",Relations,Search,"Categories difference","Categories difference (%)","Prices difference","Prices difference (%)","Relations difference","Relations difference (%)","Search results difference","Search results difference (%)"
"Pilulka CZ",CZ,7737,47776,307,730,775247,21753,48,0,229,"0.4816287159919739",2751,"0.3561183512210846",39,"0.17960762977600098"
"Ocado UK",UK,6486,47366,116,2700,448958,34527,"-4",0,"-92","-0.19385561347007751","-1252","-0.2780924439430237",9,"0.026073353365063667"
"Auchan FR",FR,5505,25382,483,861,176132,784,"-80","-1","-20","-0.07873395830392838","-1187","-0.6694149971008301","-1","-0.12738853693008423"
frisco,PL,4682,15095,20,2712,266118,110596,0,0,13,"0.0861954614520073",2193,"0.8309178948402405",88,"0.0796322450041771"
"Pilulka SK",SK,4144,39781,321,507,469053,10061,12,0,131,"0.33039093017578125",1986,"0.42520666122436523","-14","-0.13895781338214874"
"Mytime DE",DE,3750,11387,23,234,79111,1303,10,0,348,"3.1524593830108643",1942,"2.516554594039917",59,"4.742765426635742"
"Albert Heijn NL",NL,3524,20906,135,343,104627,1530,"-3",0,3,"0.01435200683772564",12,"0.011470630764961243",0,0
"Morrisons UK",UK,3230,21101,157,2126,97977,26809,0,0,21101,0,"-41","-0.041829053312540054","-3","-0.011189020238816738"
"Waitrose UK",UK,3064,16157,209,1381,1440960,24432,1,0,"-30","-0.18533390760421753","-6852","-0.4732658565044403","-79","-0.32230427861213684"
"Asda UK",UK,2882,26254,336,2465,755109,32039,78,2,167,"0.6401656270027161",28701,"3.951085329055786","-4","-0.012483225204050541"
"Albert Heijn BE",BE,2847,8599,54,113,44296,5927,"-4",0,"-2","-0.02325310930609703","-10","-0.022570306435227394","-4","-0.06744225323200226"
"Rohlik CZ",CZ,2790,23106,89,730,209002,10430,1,0,54,"0.23425298929214478",31,"0.01483459398150444","-44","-0.4200878441333771"
Auchan,PL,2434,11573,362,1321,217679,26030,1,0,"-279","-2.3540329933166504","-5831","-2.6088318824768066",50,"0.1924557387828827"
"Kosik CZ",CZ,2317,13032,31,621,72874,18566,2,0,"-19","-0.14558272063732147","-156","-0.21361084282398224","-54","-0.2900107502937317"
"Coto Digital AR",AR,2226,15839,92,390,78164,1217,153,7,36,"0.22780485451221466",2089,"2.74597430229187",0,0
"Sainsburys UK",UK,2209,28854,38,2392,1501874,62307,0,0,60,"0.20837675034999847","-5442","-0.36103910207748413",83,"0.13338904082775116"
"Notino SK",SK,2103,1274,893,1274,106726,193,1,0,"-1123","-46.8502311706543","-438","-0.40871936082839966","-29","-13.06306266784668"
"Amazon Fresh UK",UK,1961,8628,473,473,39291,10115,"-433","-18","-13","-0.15044555068016052","-1696","-4.137897491455078",18,"0.17827077209949493"
"Boots UK",UK,1925,23719,822,6546,119385,6742,2,0,"-99","-0.4156520366668701","-382","-0.31895262002944946",16,"0.2378828376531601"
"Brakes UK",UK,1895,9234,28,217,27740,30749,0,0,"-6","-0.06493506580591202","-18","-0.06484617292881012","-30","-0.09746905416250229"
"Ageo CZ",CZ,1879,533,89,533,90485,18309,"-1",0,"-84","-13.614262580871582",3077,"3.520272731781006",1460,"8.665203094482422"
"Auchan HU",HU,1862,33184,104,2391,327935,10543,"-1",0,"-1","-0.003013409674167633",6528,"2.031069755554199",26,"0.2472187876701355"
"Amazon Fresh IT",IT,1853,5781,791,791,27550,6588,"-2",0,27,"0.4692387878894806","-157","-0.5666438341140747",6588,0
"Jumbo NL",NL,1828,18892,22,262,72357,1531,91,5,"-251","-1.311184287071228",1534,"2.1659629344940186","-3","-0.19556714594364166"
"Notino CZ",CZ,1734,1501,1109,1501,101673,12634,1,0,"-1000","-39.984004974365234",1591,"1.5896964073181152","-103","-0.8086676597595215"
"Alcampo ES",ES,1701,17004,52,349,52962,564,0,0,340,"2.0403263568878174",1210,"2.338073968887329",1,"0.17761988937854767"
"Cefarm 24",PL,1688,13173,0,30,98258,15972,0,0,"-37","-0.2800908386707306","-300","-0.3043892979621887","-24","-0.1500375121831894"
"Drogas La Rebaja CO",CO,1687,11948,158,3838,348988,7698,0,0,6,"0.050242841243743896",563,"0.16158427298069",3,"0.03898635506629944"
"Yuga RO",RO,1687,11358,112,203,56655,624,4,0,101,"0.8972194790840149",681,"1.216636300086975",27,"4.522613048553467"
"Delhaize BE",BE,1533,13293,26,369,54341,22550,0,0,52,"0.3927195966243744",604,"1.1239928007125854","-16","-0.07090312987565994"
"Otto DE",DE,1489,0,0,0,0,162,13,0,0,0,0,0,1,"0.6211180090904236"
"Rewe DE",DE,1324,8684,43,216,31726,1538,"-56","-4",16,"0.18458698689937592",5,"0.01576242782175541","-4","-0.25940337777137756"
"Barbora LT",LT,1320,12584,29,100,45480,1113,10,0,57,"0.4550171494483948",1178,"2.659022092819214","-50","-4.2992262840271"
eZebra,PL,1251,42770,4,2376,143801,37473,4,0,"-133","-0.3100016415119171",644,"0.4498557448387146","-58","-0.15453891456127167"
"Picnic NL",NL,1233,6971,11,93,15192,705,1,0,5,"0.07177720218896866",8,"0.052687037736177444",0,0
"Tesco UK",UK,1220,28971,130,2679,318515,20815,0,0,84,"0.2907882332801819",9156,"2.9596681594848633","-7","-0.03361828997731209"
"Apteka Nowa Farmacja",PL,1211,13988,81,871,65250,23756,0,0,"-10","-0.07143877446651459","-2517","-3.7141971588134766","-10","-0.04207691550254822"
"Kifli HU",HU,1199,13188,90,1545,52594,9495,3,0,142,"1.0884562730789185",584,"1.1228610277175903","-10","-0.10520778596401215"
"E-Fresh GR",GR,1171,11091,19,544,54722,5925,3,0,"-7","-0.06307442486286163",107,"0.19591687619686127","-70","-1.1676397323608398"
"Barbora LV",LV,1167,11200,29,155,40038,1323,3,0,195,"1.7719218730926514",584,"1.4802048206329346",109,"8.978583335876465"
"Amazon DE",DE,1140,202,12699,12700,731594,5396,"-11",0,0,0,309915,"73.49547576904297","-23","-0.42443254590034485"
"Lekarna CZ",CZ,1116,26204,520,807,117504,4334,"-1",0,194,"0.7458669543266296",974,"0.8358362913131714","-76","-1.723356008529663"
"Moja Lekaren SK",SK,1114,22532,541,641,100115,3405,"-1",0,242,"1.085688591003418",1097,"1.107879400253296","-288","-7.798537731170654"
"Amazon IT",IT,1086,508,507,508,414933,21826,0,0,0,0,0,0,"-248","-1.1234936714172363"
"Mathem SE",SE,1063,12850,30,553,34980,5568,0,0,54,"0.42200687527656555",111,"0.31833434104919434",31,"0.5598699450492859"
"Salcobrand CL",CL,1041,6858,11,6858,31721,1139,4,0,"-11","-0.1601397544145584","-3","-0.00945656280964613",0,0
"Coop NL",NL,1037,0,39,144,41241,76,0,0,"-9601","-100",0,0,0,0
"Carrefour BE",BE,1036,20599,85,620,606563,21465,0,0,"-57","-0.2759488821029663","-16292","-2.615697145462036","-2","-0.009316625073552132"
"Apteka Manada",PL,1019,14790,33,1142,43622,42230,2,0,8,"0.05411987379193306",1,"0.0022924738004803658",32,"0.07583297789096832"
"Walmart AR",AR,1009,12358,58,480,49948,1194,1,0,83,"0.676171064376831",495,"1.0009504556655884",6,"0.5050504803657532"
"Eroski ES",ES,1005,25673,9,114,54022,447,0,0,305,"1.202302098274231",643,"1.204593539237976",0,0
"Zakaz - Novus UA",UA,998,41932,110,154,86194,2019,0,0,36,"0.08592705428600311",169,"0.19645452499389648",1,"0.0495540127158165"
" SberMarket - Lenta RU",RU,970,16582,52,826,73071,494,"-2",0,134,"0.8146887421607971",684,"0.94492107629776",3,"0.6109979748725891"
"Picnic DE",DE,967,6950,34,126,13952,980,0,0,33,"0.4770854413509369",66,"0.47529885172843933",10,"1.0309277772903442"
"Auchan RO",RO,950,21368,55,633,85110,8612,2,0,148,"0.6974552273750305",581,"0.6873380541801453",20,"0.23277467489242554"
Selgros,PL,925,21507,1007,1023,74540,24909,3,0,"-229","-1.0535516738891602","-588","-0.7826642394065857","-115","-0.4595588147640228"
"SberMarket - Metro RU",RU,923,15858,371,613,59364,3243,"-1",0,4,"0.025230225175619125","-5","-0.008421903476119041",71,"2.238335371017456"
"Remedium BG",BG,919,26811,3,253,80097,702,0,0,13,"0.0485110841691494","-451","-0.5599145889282227",0,0
"Coop SE",SE,913,9700,49,468,32646,5389,0,0,"-41","-0.420901358127594",198,"0.6102070808410645","-11","-0.20370370149612427"
"Knuspr DE",DE,910,10808,19,105,38976,623,0,0,3,"0.027764923870563507","-4","-0.010261672548949718",0,0
Hebe,PL,871,11437,113,2035,79201,29908,3,0,"-62","-0.5391772985458374","-452","-0.567461371421814",53,"0.17752470076084137"
"SuperValu IE",IE,852,16494,4,835,225058,10547,7,0,"-17","-0.10296165943145752","-320","-0.14198368787765503","-35","-0.33075031638145447"
"Unipatika HU",HU,846,4171,5,272,29176,2320,0,0,4,"0.0959923192858696",29,"0.09949565678834915",0,0
"Polski Koszyk",PL,837,15788,56,713,23365,6123,0,0,"-71","-0.4476953148841858","-92","-0.3922070264816284","-14","-0.2281244844198227"
"Coursesu FR",FR,831,18984,56,103,46086,1171,6,0,"-888","-4.46859884262085","-1898","-3.9554851055145264","-4","-0.3404255211353302"
"Mall CZ",CZ,826,6357,1274,6357,108295,10251,0,0,"-4175","-39.64109420776367",357,"0.3307454288005829","-103","-0.9947846531867981"
"Tigros IT",IT,791,9904,20,445,29744,5611,0,0,47,"0.4768185019493103",141,"0.4763030707836151","-2","-0.03563157096505165"
"Auchan RU",RU,784,26065,170,650,82873,13302,0,0,61,"0.23457929491996765",335,"0.4058736562728882",40,"0.30161362886428833"
"Zakaz - Metro UA",UA,780,31697,112,171,60928,0,"-1",0,5425,"20.64936065673828",7173,"13.34387493133545",0,0
"Superdrug UK",UK,763,15497,53,379,43580,5719,0,0,69,"0.4472387731075287",24,"0.05510148033499718",18,"0.3157340884208679"
"Coop DK",DK,740,10915,158,182,80671,982,0,0,64,"0.589807391166687","-6356","-7.303480625152588",2,"0.20408163964748383"
"Bringmeister DE",DE,730,16443,106,434,42420,1947,"-1",0,1365,"9.052925109863281",3018,"7.659509658813477",41,"2.15110182762146"
"Intervare DK",DK,730,8631,267,357,25214,0,0,0,31,"0.3604651093482971",95,"0.3781997561454773",0,0
"Walmart CR",CR,730,13489,63,1583,171354,35822,0,0,25,"0.1856803297996521",1179,"0.6928161978721619","-5","-0.013955955393612385"
"Apteka Gemini",PL,712,28175,173,2575,95421,75672,0,0,24,"0.08525452017784119",1022,"1.0826386213302612",791,"1.0563427209854126"
"Rimi LV",LV,709,15208,19,83,44800,4594,0,0,"-90","-0.5883122086524963","-262","-0.5814211368560791","-2","-0.04351609945297241"
"eZiko Apteka",PL,687,5968,67,631,33986,36727,0,0,20,"0.3362474739551544",23,"0.06772075593471527",8,"0.021787086501717567"
"Bennet IT",IT,668,18350,9,85,36972,2685,"-2",0,"-1","-0.005449294112622738",1,"0.00270482269115746",0,0
"Tesco CZ",CZ,659,16879,14,829,548609,11765,1,0,56,"0.33287760615348816",350,"0.06383844465017319","-51","-0.4316181540489197"
"Tesco IE",IE,659,17170,48,752,254238,5021,5,0,"-5","-0.029112081974744797",1565,"0.619377613067627","-1","-0.019912386313080788"
"Alza CZ",CZ,657,20553,101,662,65837,14259,4,0,152,"0.7450615167617798",493,"0.7544686794281006","-4","-0.02804459072649479"
"Dr Max SK",SK,657,15907,317,317,59556,5160,0,0,63,"0.3976268470287323",317,"0.53512042760849",0,0
"Vasalekaren SK",SK,652,9308,28,180,64172,3138,0,0,"-8","-0.08587376773357391","-49","-0.0762990266084671",6,"0.19157087802886963"
"Alza SK",SK,651,12917,93,222,49861,2527,4,0,84,"0.6545624732971191","-2773","-5.268457412719727","-38","-1.4814814329147339"
"Dr Max CZ",CZ,650,20504,383,383,81551,3966,0,0,11,"0.05367686599493027",181,"0.222440704703331",0,0
"Poiesz NL",NL,648,8507,0,12,10675,134,0,0,"-6","-0.07048044353723526","-47","-0.4383510649204254","-1","-0.7407407164573669"
"City Gross SE",SE,647,12489,5,505,26275,5831,0,0,"-6","-0.04801920801401138","-15","-0.057055916637182236","-3","-0.05142269283533096"
"Crai Spesa Online",IT,647,71,70,71,27600,1314,1,0,"-59","-45.38461685180664","-6","-0.02173440530896187",0,0
"Rossmann DE",DE,647,15625,24,145,55080,466,0,0,82,"0.5275686979293823",196,"0.35711681842803955","-1","-0.21413275599479675"
"Mat SE",SE,646,10085,120,330,31841,8317,20,3,"-43","-0.42456555366516113",576,"1.842315673828125","-35","-0.4190613031387329"
"Rossman HU",HU,641,14257,29,1091,51200,7353,0,0,25,"0.17566047608852386",193,"0.3783794343471527",6,"0.08166598528623581"
"Tottus CL",CL,632,8667,160,1534,36923,2231,12,1,432,"5.245901584625244",2371,"6.862120628356934",25,"1.1332728862762451"
"Metro Delivery RU",RU,630,15835,77,705,47513,448,"-5",0,133,"0.8470258712768555",355,"0.7527884840965271",9,"2.0501139163970947"
"DOZ.pl",PL,621,15360,10,1202,61935,51714,1,0,26,"0.1695578396320343",505,"0.8220738768577576",2,"0.003867574268952012"
"Esselunga A Casa IT",IT,621,14553,27,493,43719,14656,0,0,23,"0.15829318761825562",161,"0.3696221113204956","-1","-0.006822678726166487"
"Hoogvliet NL",NL,619,8790,38,106,13797,170,0,0,"-13","-0.14767692983150482","-29","-0.2097497433423996",0,0
Apteline,PL,610,995,27,995,81709,18002,1,0,"-42","-4.050144672393799",502,"0.6181733012199402","-1","-0.00555462995544076"
"DM SK",SK,610,6944,243,264,390847,2143,0,0,6944,0,390847,0,2143,0
"Tesco SK",SK,596,15173,4,9,215021,211,0,0,"-3","-0.01976805552840233",15,"0.0069765495136380196",0,0
"Apteka Galen",PL,593,8772,67,376,40769,3309,0,0,63,"0.7233896255493164",357,"0.8834009766578674",0,0
"Thanopoulos GR",GR,593,16104,48,406,59450,7679,1,0,"-52","-0.3218618333339691","-99","-0.16624964773654938",12,"0.15651492774486542"
Barbora,PL,592,6416,1,357,54422,3734,"-6","-1","-19","-0.2952602803707123","-357","-0.6517096161842346",29,"0.7827260494232178"
"E.Leclerc Bielany",PL,591,30724,27,2414,97529,33689,0,0,"-32","-0.10404474288225174","-94","-0.0962887853384018",116,"0.34551572799682617"
Amazon,PL,589,360374,23526,23526,739588,16551,0,0,359996,"95237.0390625",58324,"8.561144828796387",49,"0.29693371057510376"
"Willys SE",SE,589,10440,102,517,34575,4926,0,0,"-19","-0.1816617250442505","-67","-0.1934068500995636","-49","-0.9849246144294739"
"Tesco HU",HU,588,15314,7,2294,822598,8795,0,0,18,"0.11767782270908356",649,"0.0789586678147316",7,"0.07965407520532608"
"Yandex Lavka RU",RU,588,2864,17,146,43951,12754,"-2",0,"-40","-1.3774104118347168","-684","-1.5324296951293945",185,"1.4718751907348633"
"Bestway Foodservice UK",UK,582,10766,44,287,34068,4608,0,0,"-1","-0.0092876385897398",11,"0.03229879215359688","-1","-0.021696681156754494"
"Nuko LV",LV,582,8520,183,183,37508,0,"-9","-1","-22","-0.2575509250164032","-390","-1.0290780067443848",0,0
"Metro RU",RU,580,21498,98,649,26649,4893,2,0,175,"0.8207100033760071",255,"0.9661286473274231",14,"0.28694403171539307"
"Bestway Best-one UK",UK,572,6684,14,103,21554,587,1,0,"-11","-0.16430172324180603","-16","-0.0741771012544632",0,0
"Bestway UK",UK,572,10046,60,731,32061,18002,1,0,"-11","-0.10937655717134476","-36","-0.11216001212596893",2,"0.011111111380159855"
"Dr Max",PL,569,13636,826,827,46878,27323,0,0,"-106","-0.7713578939437866",1220,"2.6720399856567383",16,"0.058593034744262695"
"Spar HU",HU,566,14125,344,1471,180209,10044,0,0,"-7","-0.04953297600150108",132,"0.07330197840929031",3,"0.029877502471208572"
"Plus NL",NL,565,15523,27,236,29276,1454,0,0,"-2","-0.012882447801530361",25,"0.08546716719865799","-1","-0.06872852146625519"
"Carulla CO",CO,556,11340,7,626,64979,6065,0,0,"-278","-2.392838716506958",7752,"13.546053886413574",7,"0.11554968357086182"
"Kritikos GR",GR,555,15759,315,315,44436,0,"-1",0,1,"0.006345983128994703","-3","-0.006750827189534903",0,0
"Pingvinpatika HU",HU,554,7374,51,379,38807,2638,1,0,26,"0.353837788105011",296,"0.7686115503311157",0,0
"DM HU",HU,544,5710,231,616,373875,11695,0,0,5710,0,373875,0,11695,0
"E.Leclerc Wroclaw",PL,543,15075,85,1220,15282,10786,0,0,92,"0.6140292286872864",94,"0.6189096570014954",205,"1.9374350309371948"
"E.Leclerc Rzeszów",PL,540,13116,288,1672,38738,32109,0,0,344,"2.693391799926758",1038,"2.7533156871795654","-82","-0.25472956895828247"
"DM CZ",CZ,539,5963,310,417,289751,13653,0,0,5963,0,289751,0,13653,0
Spar,PL,538,23411,1458,1639,725663,73681,0,0,"-5","-0.021352920681238174","-1222","-0.16811463236808777",57,"0.07742040604352951"
"Benu CZ",CZ,536,12878,288,669,57253,5257,"-1",0,47,"0.3663003742694855",5731,"11.123403549194336",10,"0.19058509171009064"
"Sok FI",FI,535,9273,123,428,35805,3061,1,0,20,"0.21614611148834229",47,"0.13143911957740784","-2","-0.06529546529054642"
"Chronodrive FR",FR,531,8571,61,152,17520,2113,0,0,"-27","-0.31402650475502014","-30","-0.17094017565250397","-18","-0.8446738719940186"
"MyMarket GR",GR,529,14324,153,341,50031,5597,0,0,"-37","-0.2576422393321991","-97","-0.19350463151931763",1,"0.01786990649998188"
"Easy Coop IT",IT,520,10328,554,571,36316,17488,0,0,"-7","-0.06773100793361664","-18","-0.04954037442803383",45,"0.25798314809799194"
"Univerexport RS",RS,518,8612,12,218,17224,755,3,0,77,"0.902167558670044",154,"0.902167558670044",12,"1.6150740385055542"
"Ebag BG",BG,516,10565,82,169,36607,1222,0,0,100,"0.9555661678314209",325,"0.8957610130310059",3,"0.24610336124897003"
"Drogeria Olmed",PL,510,1616,396,1616,116116,27539,0,0,36,"2.2784810066223145",230,"0.19847090542316437",3,"0.010894828476011753"
"Jumbo CL",CL,510,19657,8,1545,634072,1560,3,0,1,"0.005087505094707012",6816,"1.0866376161575317","-1","-0.06406150013208389"
"Apteka Zawiszy",PL,504,18062,74,928,72982,18262,1,0,52,"0.2887284755706787",259,"0.3561459183692932",11,"0.06027067080140114"
"Colruyt BE",BE,495,6180,5,250,69364,14247,0,0,2,"0.032372936606407166",97,"0.14003781974315643","-3","-0.021052632480859756"
Intermarche,PL,493,19709,121,3415,176821,25493,0,0,1,"0.005074081476777792","-983","-0.5528559684753418","-182","-0.7088607549667358"
"Hemkop SE",SE,492,9853,95,517,30747,5119,0,0,"-5","-0.050720226019620895","-22","-0.07150053977966309","-2","-0.03905487060546875"
"Interspar AT",AT,489,21275,36,252,66196,6147,0,0,"-101","-0.472492516040802","-238","-0.35825029015541077",6,"0.0977039560675621"
"Spar SI",SI,489,18087,10,165,63155,2502,"-1",0,0,0,"-1091","-1.698160171508789",2,"0.07999999821186066"
Rossmann,PL,483,2548,12,2545,76486,39390,"-21","-4","-46","-1.7733230590820312","-1326","-1.7041072845458984",5,"0.012695188634097576"
"Mega Image RO",RO,482,13583,10,376,40550,11077,0,0,"-8","-0.05886248126626015","-66","-0.16249753534793854",0,0
"Migros Online CH",CH,481,12600,76,81,37771,1353,0,0,"-13","-0.1030682623386383","-34","-0.08993519097566605",0,0
"Silpo UA",UA,469,11322,1,38,28277,0,2,0,"-57","-0.5009227395057678","-142","-0.4996657073497772",0,0
"Cornershop - Lider CL",CL,465,20922,13,1642,134093,3783,0,0,22,"0.10526315867900848",97,"0.07239022105932236",8,"0.21192052960395813"
"Benulekaren SK",SK,464,8501,10,367,44043,6361,0,0,24,"0.2831190228462219",70,"0.15918859839439392",34,"0.5373795032501221"
Ceneo,PL,464,186155,5020,5781,251934,22466,1,0,4059,"2.229043960571289",4630,"1.8721896409988403",40,"0.17836439609527588"
"Basko IT",IT,463,8436,7,382,25805,4266,0,0,"-18","-0.21291695535182953","-57","-0.2204005867242813","-8","-0.18717828392982483"
"GPSfarma AR",AR,457,5212,9,415,25333,1062,0,0,"-134","-2.506546974182129","-552","-2.132509231567383",2,"0.18867924809455872"
"Apteka Olmed",PL,454,1112,126,1112,132612,20308,0,0,40,"3.7313432693481445",181,"0.1366749405860901",7,"0.03448105975985527"
"Carrefour ES",ES,441,14085,15,162,16333,591,0,0,1,"0.007100255694240332","-4","-0.0244842991232872","-2","-0.3372681140899658"
"Lider CL",CL,426,11731,20,1335,240680,2597,0,0,"-228","-1.9065139293670654",10421,"4.525773048400879",23,"0.8935508728027344"
"Patika24 HU",HU,426,4925,3,173,15424,3402,0,0,"-9","-0.18240778148174286","-30","-0.1941245049238205",2,"0.05882352963089943"
"E.Leclerc Lublin Turystyczna",PL,424,12820,74,1276,15787,13363,0,0,278,"2.216552495956421",291,"1.877903938293457",313,"2.398467540740967"
"E.Leclerc Katowice",PL,419,9792,9,1039,10118,9986,0,0,29,"0.29703983664512634",50,"0.4966229498386383",5,"0.05009518191218376"
"Feedo CZ",CZ,417,18279,76,615,51667,373,0,0,"-239","-1.2906361818313599",273,"0.5311903953552246","-1","-0.26737967133522034"
"Dr Max RO",RO,414,11161,283,283,36164,2458,0,0,60,"0.5404918193817139",300,"0.8364934325218201",0,0
"Istegelsin TR",TR,414,5565,5,63,12355,0,"-2",0,35,"0.6329113841056824","-278","-2.2005858421325684",0,0
"Eva UA",UA,411,819,819,819,133281,1488,0,0,"-216","-20.869565963745117",6339,"4.993618965148926",1,"0.06724949926137924"
"Apteka 9-1-1 UA",UA,410,21115,101,174,44097,1739,"-60","-12",70,"0.3326205611228943","-123","-0.2781546711921692","-1","-0.05747126415371895"
"Kruidvat NL",NL,407,7728,24,138,19725,119,0,0,117,"1.5372487306594849",304,"1.565315842628479",0,0
"Dia AR",AR,395,4055,6,180,12622,539,0,0,"-7","-0.1723289042711258","-33","-0.26076650619506836",15,"2.862595319747925"
"Apteki 36.6 BG",BG,393,9734,2,143,45177,667,0,0,"-5","-0.051339972764253616","-27","-0.05972922593355179",0,0
"Unimarkt AT",AT,393,3255,19,140,15110,3131,1,0,1,"0.030731407925486565","-161","-1.0542858839035034",45,"1.4581983089447021"
"OnlinePrima HU",HU,383,7484,3,1159,22482,5787,0,0,"-6","-0.08010680973529816","-239","-1.0518903732299805",0,0
"Cornershop - Jumbo CL",CL,381,25049,9,457,125788,1346,0,0,76,"0.30432868003845215",698,"0.5579982399940491",3,"0.22338049113750458"
"Vkusvill RU",RU,374,12262,98,98,32414,877,3,0,"-12","-0.09776763617992401","-36","-0.11093990504741669",0,0
"eTabletka SK",SK,373,10401,104,211,38123,5613,0,0,11,"0.10587102919816971",26,"0.06824684143066406",5613,0
"Majestic UK",UK,371,1196,5,66,16108,998,0,0,0,0,1590,"10.951921463012695","-35","-3.3881897926330566"
"Carrefour IT",IT,367,12710,197,710,35260,11350,0,0,"-833","-6.150778770446777","-1217","-3.3363490104675293",40,"0.35366931557655334"
"Ecofamily HU",HU,364,5246,0,912,16774,5055,0,0,"-57","-1.074863314628601","-163","-0.9623900055885315","-2","-0.03954913839697838"
"Iceland UK",UK,361,5319,33,321,24468,8642,0,0,"-1","-0.01879699155688286",2388,"10.815217018127441",252,"3.0035758018493652"
"Bringo RO",RO,359,29082,97,23861,44715,11049,1,0,182,"0.6297577619552612",204,"0.4583136737346649",18,"0.1631765067577362"
"Ica New Version SE",SE,358,5678,5403,5421,107112,3969,0,0,0,0,0,0,"-1","-0.02518891729414463"
"Ulabox ES",ES,355,6284,10,24,13170,0,0,0,25,"0.39942482113838196",53,"0.40405580401420593",0,0
"Ica SE",SE,349,11302,2,615,695136,9348,0,0,"-2","-0.01769285276532173","-496","-0.07130207121372223",0,0
"Globus RU",RU,348,16110,6,238,42577,740,1,0,"-52","-0.32174235582351685","-12894","-23.244577407836914",25,"3.4965035915374756"
"Mercado Libre AR",AR,347,28599,374,2330,63909,616,1,0,63,"0.22077375650405884",294,"0.46215516328811646",58,"10.394265174865723"
"E.Leclerc Lublin Tomasza Zana",PL,346,11430,14,1269,14321,10602,0,0,22,"0.1928471177816391",17,"0.11884787678718567",77,"0.7315914630889893"
"Jumbo AR",AR,343,9317,1,283,50619,703,"-8","-2","-545","-5.526262283325195","-3288","-6.099393367767334","-4","-0.5657708644866943"
"Świat Leku",PL,343,10677,9,366,26959,1769,0,0,420,"4.094764709472656",181,"0.675927996635437",5,"0.28344669938087463"
"Ulta US",US,340,10,9,10,89656,0,0,0,"-123","-92.481201171875","-104","-0.11586453020572662",0,0
Allecco,PL,336,11633,25,620,39705,20616,0,0,"-70","-0.5981372594833374","-169","-0.42383506894111633","-5","-0.024247126653790474"
Carrefour,PL,335,16102,145,3853,122218,34359,0,0,44,"0.274006724357605",1488,"1.2325022220611572",204,"0.5972771048545837"
"E.Leclerc Gliwice",PL,335,6652,7,856,6767,7639,0,0,"-44","-0.657108724117279","-49","-0.7188966870307922",12,"0.1573357880115509"
"Azbuka Vkusa RU",RU,324,14259,19,207,25743,1867,0,0,"-134","-0.9310081005096436","-2329","-8.296523094177246",50,"2.75178861618042"
"Bebe Tei RO",RO,322,23142,131,251,23142,3459,2,0,"-37","-0.15962724387645721","-37","-0.15962724387645721","-1","-0.028901733458042145"
"Farmacia Tei RO",RO,320,20650,57,380,20650,3585,0,0,"-38","-0.18368135392665863","-38","-0.18368135392665863","-5","-0.13927575945854187"
"SOpharmacy BG",BG,309,9310,83,278,29614,3529,0,0,100,"1.0857763290405273",322,"1.0992763042449951",2,"0.05670541524887085"
Empik,PL,302,94238,1254,3553,260254,28341,0,0,"-42727","-31.195560455322266","-13488","-4.927267074584961","-23","-0.08108870685100555"
"Merqueo - Bogota CO",CO,301,3704,13,297,9166,8779,0,0,"-115","-3.0112595558166504","-286","-3.0258145332336426","-1","-0.01138952188193798"
"Bipa AT",AT,298,10143,65,65,22260,550,0,0,"-7","-0.06896551698446274","-22","-0.09873440116643906","-1","-0.18148820102214813"
DoDomku,PL,298,4836,65,408,14197,1679,0,0,75,"1.5752992630004883",193,"1.3781776428222656",36,"2.1911137104034424"
"Tudrogueria Virtual CO",CO,291,8634,25,4126,16621,492,0,0,11,"0.12756581604480743",22,"0.1325381100177765",1,"0.20366598665714264"
Makro,PL,290,3287,15,413,9012,29229,2,0,19,"0.5813953280448914",63,"0.7039892673492432","-280","-0.9488630294799805"
"Watsons UA",UA,288,101,14,101,26309,419,0,0,"-30","-22.9007625579834",268,"1.0291463136672974",0,0
"Apteka Medea BG",BG,284,8523,2,163,25488,1979,0,0,19,"0.2234242707490921",60,"0.23596036434173584",14,"0.7124682068824768"
"Cornershop - Santa Isabel CL",CL,283,5885,1,264,7402,972,0,0,"-54","-0.9092440009117126","-64","-0.857219398021698","-9","-0.9174311757087708"
"Rappi Lider CL",CL,283,16672,8974,9089,89086,3917,0,0,124,"0.7493352890014648","-74","-0.08299686014652252","-75","-1.8787574768066406"
"E.Leclerc Tychy",PL,281,8934,20,1250,9078,9229,0,0,147,"1.6729259490966797",145,"1.623194932937622",125,"1.3730227947235107"
"Sephora US",US,281,354,289,354,86253,0,0,0,53,"17.607973098754883",239,"0.27786174416542053",0,0
"Rappi - Exito CO",CO,280,21108,7473,7973,78591,13923,17,6,"-254","-1.189027190208435","-3630","-4.41493034362793","-58","-0.4148487150669098"
"i-apteka",PL,280,9469,441,529,20295,10975,0,0,"-25","-0.26332420110702515","-57","-0.2800707519054413","-5","-0.04553734138607979"
"MaxiCoffee FR",FR,279,6091,94,156,14871,1017,0,0,"-1","-0.01641497015953064","-15","-0.10076581686735153","-1","-0.09823182970285416"
"Idea RS",RS,278,10995,2,210,14724,4880,0,0,77,"0.7052573561668396",104,"0.7113543152809143","-3","-0.061437640339136124"
"Argos UK",UK,275,6053,8,3692,8146,0,0,0,"-3","-0.049537647515535355","-1","-0.012274457141757011",0,0
"Cruz Verde CO",CO,275,4483,15,2718,13243,1072,0,0,"-4","-0.08914642035961151","-12","-0.09053187817335129",32,"3.076923131942749"
"PriceSmart CR",CR,275,3520,0,282,52612,30892,"-1",0,"-5","-0.1418439745903015",979,"1.8960741758346558","-168","-0.5408886075019836"
"Konzum HR",HR,268,9941,26,236,15532,3671,0,0,162,"1.6566110849380493",305,"2.003021001815796",7,"0.1910480409860611"
"Delitea SE",SE,267,9960,22,295,23950,1957,0,0,39,"0.39310553669929504",90,"0.37720033526420593","-3","-0.15306122601032257"
"Groby HU",HU,266,8467,19,556,22406,3064,0,0,"-6","-0.07081317156553268","-26","-0.11590585112571716","-1","-0.032626427710056305"
"Afya Pharmacy BG",BG,265,8064,10,156,26651,696,0,0,10,"0.12416190654039383",40,"0.15031377971172333",0,0
Makeup,PL,264,4459,334,4459,394794,85288,0,0,"-641","-12.56862735748291",485,"0.12299998104572296",2414,"2.912855625152588"
"Sipo HU",HU,262,3344,119,119,6555,1083,0,0,20,"0.6016846895217896",51,"0.7841328382492065","-1","-0.09225092083215714"
"Supermarket AM",AM,258,9003,3,46,22707,0,"-1",0,"-104","-1.1419787406921387","-295","-1.2824971675872803","-397","-100"
"Dunnes IE",IE,257,14218,50,816,31374,10659,0,0,119,"0.8440315127372742",239,"0.7676248550415039",69,"0.6515581011772156"
"Rappi - Exito Express CO",CO,257,17164,1694,2336,41640,10868,15,6,"-376","-2.1436715126037598","-1595","-3.689140796661377","-140","-1.271802306175232"
"Amazon NL",NL,255,0,0,0,42801,0,0,0,0,0,0,0,0,0
"Merqueo - Medellin CO",CO,255,3517,11,341,8325,8229,1,0,"-14","-0.3964882493019104","-70","-0.8338296413421631","-33","-0.39941903948783875"
"Apteka Medkon",PL,254,5373,366,366,22426,13714,0,0,"-5","-0.09297136217355728","-10","-0.044571224600076675","-69","-0.500616729259491"
"Rappi Jumbo CL",CL,254,16393,9191,9450,61194,1381,0,0,15,"0.09158627688884735",683,"1.1287204027175903",3,"0.2177068144083023"
Wapteka,PL,252,17145,804,1184,60086,36711,0,0,79,"0.46290871500968933",199,"0.33229249715805054","-4","-0.010894729755818844"
"Farmacia la Pret Mic RO",RO,251,7312,49,298,23153,4068,0,0,33,"0.4533589780330658",89,"0.38588276505470276",0,0
"Rappi Unimarc CL",CL,246,11938,481,610,28622,1259,0,0,58,"0.48821547627449036",231,"0.8136381506919861",1,"0.0794912576675415"
"Helpnet RO",RO,245,6668,189,244,18808,2389,0,0,"-155","-2.271728038787842","-451","-2.3417623043060303","-1","-0.04184100404381752"
"Rappi - Carulla CO",CO,245,15076,4312,4696,60871,13325,14,6,"-186","-1.2187131643295288",384,"0.6348471641540527","-71","-0.5300089716911316"
"Rappi - Carulla Express CO",CO,243,13881,3023,3566,49522,12766,13,5,81,"0.5869565010070801",382,"0.7773707509040833","-20","-0.15642108023166656"
"Merqueo - Cali CO",CO,240,2163,32,175,5104,846,"-2",0,40,"1.8841261863708496",90,"1.7949740886688232","-26","-2.9816513061523438"
"Szybki Koszyk",PL,240,4284,4,62,14885,887,0,0,"-18","-0.4184100329875946","-85","-0.5678022503852844","-2","-0.22497187554836273"
"Farmatodo CO",CO,238,11827,12,2998,41488,5284,0,0,10,"0.08462384343147278",19,"0.045817356556653976","-2","-0.03783579170703888"
Cocolita,PL,234,10139,140,197,48374,12619,1,0,"-47","-0.46141764521598816",1366,"2.905888319015503",104,"0.8310027718544006"
"Rappi Santa Isabel CL",CL,234,6355,1,203,7733,1201,0,0,0,0,0,0,0,0
"Metroiroda HU",HU,233,3796,2,266,7665,1413,0,0,0,0,3,"0.03915426880121231",0,0
"Linio CL",CL,230,48381,73,267,79499,928,0,0,"-127","-0.2618124783039093","-132","-0.16576458513736725","-6","-0.6423982977867126"
"Перекрёсток Впрок RU",RU,226,16908,76,700,39860,15004,"-1",0,"-102","-0.5996472835540771","-620","-1.5316205024719238","-8","-0.053290702402591705"
"Apteka Melissa",PL,223,10616,590,590,27525,56212,223,0,10616,0,27525,0,"-48","-0.08531816303730011"
"Kesko FI",FI,220,13130,78,484,221223,9088,0,0,27,"0.20605967938899994","-131","-0.05918122082948685",44,"0.48651039600372314"
"Edeka DE",DE,219,3376,66,84,4482,0,0,0,7,"0.20777678489685059",19,"0.425722599029541",0,0
"Igooods RU",RU,219,20282,29,210,44355,806,0,0,36,"0.17781290411949158","-111","-0.2496289312839508","-2","-0.24752475321292877"
"Superpharm Drogeria",PL,219,10854,42,2181,50111,45991,0,0,10,"0.09221689403057098",39,"0.07788784056901932","-3","-0.0065225898288190365"
"Утконос RU",RU,219,1272,440,1272,42276,8353,0,0,"-682","-34.90276336669922",23,"0.05443400517106056","-12","-0.14345486462116241"
"Booker Foodservice UK",UK,213,11669,194,656,21886,3501,213,0,11669,0,21886,0,3501,0
"Makeup UA",UA,211,3199,1632,3199,719740,2048,0,0,"-821","-20.42288589477539","-25310","-3.397087335586548","-1546","-43.016136169433594"
"Superpharm Apteka",PL,211,9328,45,479,24399,17723,0,0,"-16","-0.17123287916183472","-9","-0.03687315806746483",4,"0.022574637085199356"
"Booker UK",UK,208,9380,256,902,17995,7743,208,0,9380,0,17995,0,7743,0
"Coop UK",UK,203,9386,3,822,205694,14410,"-1",0,1,"0.010655300691723824","-630","-0.30534499883651733","-6","-0.04162042215466499"
"Minifarm RO",RO,203,4499,1,110,13847,194,0,0,"-3","-0.06663704663515091","-52","-0.3741276264190674",0,0
"Beauty Bay UK",UK,200,12775,29,115,49815,0,0,0,54,"0.4244949221611023",104,"0.20920923352241516",0,0
"Emag HU",HU,200,86679,295,2546,86729,7158,0,0,1143,"1.3362795114517212",1144,"1.3366827964782715",187,"2.682541847229004"
"Benu HU",HU,198,4875,1,313,15635,2507,0,0,0,0,94,"0.6048516631126404",1,"0.03990422934293747"
"Rappi - Pricesmart CO",CO,194,1964,37,48,5539,908,0,0,5,"0.2552322745323181",283,"5.384322643280029",18,"2.0224719047546387"
"Parfums UA",UA,187,1272,88,1272,151046,1832,0,0,67,"5.560165882110596","-119","-0.07872192561626434",141,"8.338261604309082"
"Look Fantastic UK",UK,184,18299,88,155,58143,0,2,1,"-1","-0.005464480724185705","-204","-0.3496323823928833",0,0
"Deliberry - Caprabo ES",ES,182,8640,0,1,9759,0,"-5","-2","-4","-0.04627487435936928","-4","-0.04097101464867592",0,0
"Deliberry - Mercadona Barcelona ES",ES,177,6344,0,0,7437,0,0,0,0,0,0,0,0,0
"Vodovoz RU",RU,177,1020,10,66,2100,0,0,0,13,"1.2909632921218872",28,"1.3513513803482056",0,0
"Deliberry - Solri ES",ES,176,7921,0,0,9019,0,"-4","-2",0,0,"-1","-0.011086474172770977",0,0
"Deliberry - Mercadona Madrid ES",ES,173,6707,0,0,7796,0,"-6","-3",0,0,0,0,0,0
AptekaLeki,PL,162,5371,46,358,16441,1774,0,0,71,"1.3396226167678833",230,"1.4187897443771362",8,"0.45300114154815674"
"Deliberry - Supercor ES",ES,161,4081,0,0,5005,0,"-4","-2",0,0,0,0,0,0
"Amazon UK",UK,160,0,0,0,136298,34213,0,0,0,0,0,0,"-51","-0.14884427189826965"
"Everli - Coop IT",IT,160,10195,4,204,11324,0,0,0,46,"0.4532466232776642",54,"0.47914817929267883","-50","-100"
"Professional Farmaline RO",RO,155,8618,4,121,18350,2502,0,0,4,"0.04643603414297104",11,"0.059981461614370346","-1","-0.03995205834507942"
"Pyaterochka App RU",RU,147,5495,18,160,7149,1908,"-1",0,9,"0.16405396163463593",10,"0.14007563889026642",0,0
"Tiendas Jumbo CO",CO,146,16724,6,948,78526,5920,0,0,"-10","-0.05975857377052307","-163","-0.2071445882320404",14,"0.23704707622528076"
"Deliberry - Dia ES",ES,143,3377,0,0,4208,0,0,0,0,0,0,0,0,0
"Deliberry - La Plaza ES",ES,143,3550,0,0,4338,0,0,0,0,0,0,0,0,0
"Everli - Metro IT",IT,142,2635,0,72,3480,1499,0,0,42,"1.6197454929351807",45,"1.3100436925888062","-50","-3.227889060974121"
"Exito CO",CO,137,13066,15,1069,78308,3760,0,0,35,"0.2685902714729309",100,"0.12786415219306946",25,"0.6693440675735474"
"Nazuby CZ",CZ,137,1703,2,64,7220,134,0,0,1,"0.05875440686941147",69,"0.964900016784668",0,0
"Automercado CR",CR,130,12803,1,979,21280,25364,"-1",0,"-20","-0.1559697389602661","-39","-0.1829354166984558","-2","-0.007884569466114044"
"Medexpressz HU",HU,127,1222,81,81,1888,108,0,0,0,0,0,0,0,0
"Ozon RU",RU,122,47705,3782,4193,73788,9785,0,0,287,"0.6052553653717041","-52","-0.07042253762483597",375,"3.9851222038269043"
"Condis ES",ES,121,6474,11,14,6849,0,0,0,"-113","-1.7155002355575562","-114","-1.6372253894805908",0,0
"Subra BG",BG,118,5614,1,134,13749,2558,0,0,"-2","-0.03561253473162651","-6","-0.04362050071358681",1,"0.03910832852125168"
"Cora Drive BE",BE,116,13584,7207,7233,88995,4636,0,0,"-11","-0.08091209828853607","-349","-0.390625",14,"0.30289918184280396"
"Farmacia Pasteur CO",CO,114,8531,4,3251,53934,556,0,0,8,"0.09386366605758667",159,"0.29567644000053406",0,0
"Brack CH",CH,108,7997,34,120,22679,1605,2,1,"-8","-0.09993753582239151",89,"0.39397963881492615","-30","-1.8348623514175415"
"Produktoff UA",UA,106,11973,0,6,12121,0,0,0,6,"0.050137877464294434",6,"0.04952538013458252",0,0
"Auchan UA",UA,104,6515,10,61,19235,0,0,0,"-75","-1.1380879878997803","-225","-1.1562179327011108",0,0
"Carrefour AR",AR,98,3978,304,545,22812,625,0,0,227,"6.051719665527344",1716,"8.13424301147461",0,0
"Koffievoordeel NL",NL,98,517,0,68,3192,1311,0,0,0,0,"-8","-0.25",3,"0.2293577939271927"
"Amazon Fresh DE",DE,97,8974,287,287,13806,2588,"-20","-17","-87","-0.9601589441299438","-773","-5.302146911621094","-178","-6.435285568237305"
"Boohoo UK",UK,97,1268,8,24,5756,0,0,0,9,"0.714853048324585",44,"0.7703081369400024",0,0
"Vitania BG",BG,97,7368,9,132,7368,2287,0,0,"-15","-0.20316945016384125","-15","-0.20316945016384125",10,"0.4391743540763855"
"Cora RO",RO,91,25294,20,321,25294,7568,0,0,"-20","-0.07900766283273697","-20","-0.07900766283273697","-35","-0.4603446125984192"
"Kaffedeal DK",DK,91,431,1,54,1153,631,0,0,5,"1.1737089157104492",8,"0.6986899375915527",11,"1.774193525314331"
"Kaufland DE",DE,90,25371,84,353,30452,672,0,0,"-1614","-5.981100559234619","-3160","-9.40140438079834","-1","-0.1485884040594101"
"Okey RU",RU,82,10386,2787,3277,10483,1593,0,0,15,"0.14463408291339874",17,"0.16243073344230652",277,"21.04863166809082"
"Rappi Cruz Verde CL",CL,77,5052,1860,1965,32358,1146,0,0,"-4","-0.0791139230132103",76,"0.23542530834674835","-2","-0.17421603202819824"
"Media Markt DE",DE,70,2163,396,477,3835,1237,2,2,158,"7.880299091339111","-1875","-32.837127685546875",0,0
"Farmacity AR",AR,64,312,6,312,9063,1170,0,0,"-43","-12.112675666809082",20,"0.22116553783416748",0,0
"Rozetka UA",UA,62,89767,900,1794,110456,3202,0,0,14390,"19.0907039642334",16860,"18.01358985900879","-2","-0.062421973794698715"
"Sanctuary UK",UK,62,114,0,0,517,0,0,0,"-1","-0.8695651888847351","-6","-1.1472275257110596",0,0
"Kaffekapslen DK",DK,60,738,0,63,1758,1275,0,0,"-3","-0.4048582911491394","-10","-0.5656108856201172",1,"0.07849293202161789"
"Apteka Nove BG",BG,59,11809,1,138,26532,3389,0,0,"-3","-0.025397900491952896",84,"0.3176043629646301",1,"0.029515938833355904"
"Kapselnkogen DK",DK,56,280,3,59,581,547,0,0,0,0,0,0,0,0
"Saturn DE",DE,56,304,13,23,350,22,0,0,"-9","-2.875399351119995","-4","-1.1299434900283813",4,"22.22222137451172"
"Asos UK",UK,54,7367,150,150,18430,0,0,0,"-589","-7.403217792510986","-1318","-6.674093723297119",0,0
"iDrinks HU",HU,52,6684,161,180,14600,252,0,0,"-7","-0.1046181470155716","-9","-0.06160585954785347",0,0
"Emag RO",RO,49,54372,160,1028,54374,5237,0,0,"-3379","-5.850980758666992","-3378","-5.849148273468018","-171","-3.161982297897339"
"Expert DE",DE,49,976,0,17,1045,364,0,0,"-59","-5.700483322143555","-71","-6.362007141113281","-3","-0.8174387216567993"
"Pretty Little Thing UK",UK,49,1575,4,58,4299,0,0,0,"-41","-2.5371286869049072","-89","-2.028258800506592",0,0
"Very UK",UK,47,3318,0,60,3580,0,0,0,"-3","-0.09033423662185669","-13","-0.3618146479129791",0,0
"Fudge UK",UK,42,94,0,0,499,0,0,0,0,0,1,"0.2008032202720642",0,0
"Winelivery IT",IT,41,1490,12,80,3250,0,0,0,77,"5.449398517608643",162,"5.2461137771606445",0,0
"Altex RO",RO,38,2395,1,55,4621,2716,0,0,"-11","-0.4571903645992279","-95","-2.0144190788269043",0,0
"Bol NL",NL,37,327,202,331,20694,849,0,0,179,"120.9459457397461",11251,"119.1464614868164",31,"3.789731025695801"
"BilkaToGo DK",DK,33,3638,2,151,20881,1285,0,0,"-68","-1.8348623514175415","-173","-0.8216965794563293",1,"0.07788161933422089"
"Ep DE",DE,33,187,3,9,600,332,0,0,"-1","-0.5319148898124695","-1","-0.1663893461227417",13,"4.075234889984131"
"Mall SK",SK,29,604,67,604,5544,969,"-251","-89","-2091","-77.58812713623047","-16970","-75.37532043457031","-38","-3.7735848426818848"
"John Lewis UK",UK,28,22,3,22,425,135,0,0,"-2","-8.333333015441895",6,"1.431980848312378","-5","-3.5714285373687744"
"Mercator SI",SI,27,13400,25,218,13400,1983,0,0,40,"0.299401193857193",40,"0.299401193857193","-1","-0.05040322616696358"
"StTropez UK",UK,25,33,0,0,87,0,0,0,0,0,0,0,0,0
"Avansas TR",TR,24,426,5,23,431,0,0,0,15,"3.649635076522827",15,"3.605769157409668",0,0
"Qvc US",US,24,17034,54,97,20905,0,0,0,25,"0.14698101580142975",49,"0.23494437336921692",0,0
"St. Tropez US",US,24,32,0,0,80,0,0,0,"-1","-3.0303030014038086","-1","-1.2345678806304932",0,0
"Durst DE",DE,16,1003,87,1003,1090,0,7,77,"-1","-0.09960159659385681","-2","-0.18315018713474274",0,0
"Euronics DE",DE,15,10744,31,207,40464,1174,0,0,2,"0.0186185073107481","-18","-0.04446420446038246",0,0
"BCC NL",NL,14,1766,6,23,2288,617,0,0,"-31","-1.725097417831421","-45","-1.9288469552993774","-14","-2.218700408935547"
"Leclerc FR",FR,12,245,17,160,442,351,0,0,1,"0.4098360538482666","-35","-7.337526321411133","-92","-20.767494201660156"
"Mercado Libre CL",CL,12,6582,54,182,12710,1258,0,0,"-14","-0.21224984526634216","-38","-0.2980859875679016",3,"0.23904383182525635"
"El Corte Ingles ES",ES,11,4037,19,181,5189,733,0,0,37,"0.925000011920929",45,"0.8748055696487427",14,"1.9471487998962402"
"Wildberries RU",RU,10,125638,2836,4131,137197,1497,0,0,3018,"2.4612624645233154",3929,"2.9481945037841797","-7","-0.4654255211353302"
"Mediaworld IT",IT,9,239,5,50,478,1443,0,0,7,"3.0172414779663086",14,"3.0172414779663086",5,"0.3477051556110382"
"Myer AU",AU,9,1234,7,25,2111,155,0,0,"-20","-1.5948963165283203","-27","-1.2628624439239502","-12","-7.185628890991211"
"Coles AU",AU,8,294,0,106,590,415,0,0,2,"0.6849315166473389",4,"0.6825938820838928",0,0
"Intermarche FR",FR,8,458,81,122,859,1210,0,0,8,"1.7777777910232544",14,"1.6568046808242798",9,"0.7493755221366882"
"Sushi33 UA",UA,8,46,0,24,90,0,0,0,0,0,0,0,0,0
"AO UK",UK,7,873,0,0,1149,188,0,0,"-13","-1.4672685861587524","-20","-1.7108639478683472",0,0
"Sushiya UA",UA,7,39,0,13,69,0,0,0,0,0,0,0,0,0
"Woolworths AU",AU,7,1388,1,96,2214,361,0,0,7,"0.5068790912628174",4,"0.18099547922611237",2,"0.5571030378341675"
"Unieuro IT",IT,6,1640,13,29,2031,1050,0,0,0,0,"-2","-0.09837678074836731",10,"0.9615384340286255"
"Easy CL",CL,3,617,2,3,701,415,0,0,2,"0.3252032399177551",2,"0.28612303733825684",8,"1.965601921081543"
"Drogerie Natura",PL,1,0,0,0,0,0,0,0,0,0,0,0,"-73932","-100"
"Sodimac CL",CL,1,0,0,0,0,304,0,0,0,0,0,0,0,0
"0815 DE",DE,0,0,0,0,0,0,0,0,0,0,0,0,0,0
"Billa AT",AT,0,0,0,0,0,607,0,0,0,0,0,0,1,"0.16501650214195251"
"Boulanger FR",FR,0,0,0,0,0,0,0,0,0,0,0,0,"-19","-100"
"Carrefour FR",FR,0,0,0,0,0,97,0,0,0,0,0,0,45,"86.53845977783203"
"Coop CH",CH,0,0,0,0,0,0,0,0,0,0,0,0,0,0
"Disco AR",AR,0,0,0,0,0,0,0,0,0,0,0,0,0,0
"Droguerias Cafam CO",CO,0,0,0,0,0,1288,0,0,0,0,0,0,0,0
"E.Leclerc Elblag",PL,0,0,0,0,0,0,0,0,0,0,0,0,0,0
"E.Leclerc Gdansk",PL,0,0,0,0,0,0,0,0,0,0,0,0,0,0
"E.Leclerc Radom",PL,0,0,0,0,0,0,0,0,0,0,0,0,0,0
"Gall & Gall NL",NL,0,0,0,0,0,67,0,0,0,0,0,0,"-2","-2.8985507488250732"
"Lopido CO",CO,0,0,0,0,0,0,0,0,0,0,0,0,0,0
"Mpreis AT",AT,0,0,0,0,0,0,0,0,0,0,0,0,0,0
"Optifarm RO",RO,0,0,0,0,0,0,0,0,0,0,0,0,0,0
"Potravinydomu CZ",CZ,0,0,0,0,0,0,0,0,0,0,0,0,0,0
"Roastmarket DE",DE,0,0,0,0,0,0,0,0,0,0,0,0,0,0
"S-kaupat FI",FI,0,0,0,0,0,3300,"-1040","-100","-34000","-100","-299611","-100","-534","-13.92801284790039"
"Sas AM",AM,0,0,0,0,0,0,0,0,0,0,0,0,0,0
"Vea Digital AR ",AR,0,0,0,0,0,671,0,0,0,0,0,0,"-5","-0.7396449446678162"
