﻿Site,Country,Categories,Prices,"Products changed","Products downloads",Relations,Search,"Categories time","Prices time","Products time","Search time","Total time"
"Pilulka CZ",CZ,14753,45745,6226,19330,1728438,21999,21596,25462,22054,1358,70989
"Pilulka SK",SK,7055,37933,17162,37931,864744,9889,4686,12067,17130,209,34388
"Ocado UK",UK,6462,46389,3062,46382,443330,42107,1314,11292,39812,2009,54640
frisco,PL,4704,15609,0,0,289752,98213,32,11458,52592,0,64082
"Mytime DE",DE,4051,11050,172,11049,90923,2929,1759,2398,5112,167,9485
"Samokat RU",RU,3607,6196,462,6196,79324,15,28,52,6823,13,6980
"Albert Heijn NL",NL,3498,21256,1613,21255,106679,4254,461,1615,1975,77,4200
"Morrisons UK",UK,3302,21030,1909,21030,98604,32521,640,5711,17864,2138,26463
"Asda UK",UK,3153,28030,888,28029,838733,41346,6,9589,16831,1149,27972
"Waitrose UK",UK,3090,16434,1109,16434,1544726,34620,29,23765,5828,873,31536
"Albert Heijn BE",BE,2893,9969,684,9969,51608,6142,480,1360,807,131,2813
"Coto Digital AR",AR,2795,16222,181,16194,97445,1214,1758,2890,7920,44,12664
"Rohlik CZ",CZ,2755,23576,3137,23576,212859,13130,2253,3732,15294,648,22085
"Galen BG",BG,2600,12778,239,12778,91581,2740,1309,2260,6144,61,9836
"Notino SK",SK,2573,39039,24670,39039,113124,136,1163,6180,30051,15,37558
"Drogeo CZ",CZ,2568,37518,24,37518,149335,27079,16,2487,18112,525,21231
"Kosik CZ",CZ,2499,15716,356,15715,88894,28474,453,1598,7447,806,10391
"Amazon Fresh UK",UK,2441,6768,6740,6753,13126,17086,999,18202,4639,636,24553
"Sainsburys UK",UK,2211,30493,501,30493,1629269,85445,225,26524,22916,1917,52818
"Notino CZ",CZ,2096,18943,10576,18943,51998,25009,965,6399,13570,1041,22163
"Amazon Fresh IT",IT,2095,7649,7594,7642,36840,2159,2996,6945,4776,441,15176
"Amazon UK",UK,2091,1996,1987,1997,2322885,39648,0,0,0,5186,5186
Auchan,PL,2062,13053,4487,13053,239933,19338,21,8462,6793,1727,17252
"Drogerie Natura",PL,1980,19534,30,19530,86713,37531,42,2861,21787,1595,26426
"Boots UK",UK,1912,23405,1455,23387,87184,7565,11,2934,33893,246,37157
"Jumbo NL",NL,1910,18718,1523,18718,73331,4255,1257,2122,16992,121,20535
"Brakes UK",UK,1895,9302,311,9302,27948,30961,859,1799,4223,321,7232
"Auchan HU",HU,1866,34847,499,34845,365913,7432,11,16105,18112,403,34844
"Otto DE",DE,1689,14905,377,15514,70277,739,806,1075,7215,33,9165
"Yuga RO",RO,1665,10008,84,10008,49877,489,1516,3650,15848,55,21112
"Cefarm 24",PL,1649,13484,38,13463,100373,14292,2116,3768,17044,4740,27746
"Delhaize BE",BE,1561,14307,5776,14305,59350,15347,9,1104,7188,390,8736
eZebra,PL,1324,41218,12341,40240,146022,31147,7,5360,48872,3116,57446
"Barbora EE",EE,1320,12415,41,12415,50934,675,43,1765,5595,60,7491
"Kifli HU",HU,1274,14837,3937,14837,61061,10072,596,627,6681,394,8357
"Tesco UK",UK,1263,28954,582,28742,347644,25271,7,11745,14318,9173,35542
"Apteka Manada",PL,1261,14586,2079,13791,40092,28117,22,4144,27168,2420,33809
"E-Fresh GR",GR,1246,12989,156,12985,66863,6197,2362,4506,26825,634,34366
"Picnic NL",NL,1241,6785,178,6757,14821,2220,591,1073,3066,76,4819
"Alcampo ES",ES,1196,16191,3266,15996,46072,313,2906,4937,39492,807,48169
"Coop CH",CH,1193,17771,543,17769,63351,1898,264,1696,24687,121,26814
"iGlobus Zlicin CZ",CZ,1184,22451,22451,22451,84949,7714,9,3954,36820,440,41250
"SberMarket - Metro RU",RU,1158,7239,565,6703,49280,647,28,6064,48152,222,54495
"Lekarna CZ",CZ,1142,28742,217,28742,127049,4663,554,3321,13866,192,18044
"Moja Lekaren SK",SK,1140,24457,108,24457,107560,4356,555,2796,11661,179,15276
" SberMarket - Lenta RU",RU,1125,8690,1146,6848,58522,564,15,6582,58698,0,65295
"Barbora LT",LT,1121,12260,368,12247,40699,1083,27,998,5815,56,6920
"S-kaupat FI",FI,1121,41470,132,41463,372126,4969,14,2728,24401,94,27397
Hebe,PL,1095,15092,5745,15091,154020,26371,547,2830,20746,509,24865
"Mall CZ",CZ,1083,38002,1498,38000,135083,0,700,2782,0,0,3482
"Amazon DE",DE,1072,10,10,10,986393,15387,0,0,0,1283,1283
"Apteka Nowa Farmacja",PL,1058,14824,446,14481,57850,19652,9901,2134,12785,1403,26298
"Carrefour BE",BE,1053,17895,220,17562,435776,21426,955,13628,8982,2182,26021
"Mathem SE",SE,1039,13128,749,13096,35704,7567,15,1127,13852,494,15518
"Coop NL",NL,1028,17082,2676,17082,72471,695,1716,3026,22813,67,27663
"Salcobrand CL",CL,1010,6702,0,0,30115,1143,257,612,3730,15,4640
"Eroski ES",ES,1008,24704,87,24697,52010,498,17,3132,13400,39,16616
"Auchan RO",RO,1004,22543,46,22523,98522,7603,21,933,10399,142,11576
"Alza CZ",CZ,1003,24177,67,28,92844,20177,182,1212,5818,803,8060
"Vkusvill RU",RU,1002,9772,9771,9771,40160,1072,420,6176,40363,166,47147
"Remedium BG",BG,999,27469,27,27466,83708,702,222,5808,25993,87,32165
"Knuspr DE",DE,989,8799,187,8799,33630,1236,458,459,4165,147,5256
"Picnic DE",DE,983,7075,133,7075,14204,1852,457,837,3025,170,4505
"Amazon IT",IT,974,544,531,544,234792,5721,0,0,0,360,360
Selgros,PL,958,22688,16341,22671,79167,27873,431,929,10086,1480,13042
"Coop Shop IT",IT,932,10298,90,10298,30848,5384,10,641,7007,362,8039
"Coop SE",SE,926,10011,508,10011,33926,7937,15,927,4684,209,5873
"Dr Max SK",SK,880,18850,18782,18850,80499,5063,492,3489,22313,238,26587
"Unipatika HU",HU,854,4364,45,4363,31028,4662,452,913,2121,212,3759
"SuperValu IE",IE,845,16578,102,16578,224124,10420,870,16645,17766,521,35961
"Tigros IT",IT,838,10114,3845,10113,30378,6450,8,467,5781,231,6511
"Magnit App RU",RU,827,3846,1750,3846,11202,0,9,2021,2824,1,4867
"Wong PE",PE,811,21115,332,21112,51998,0,15,2167,11053,1,13264
"Polski Koszyk",PL,801,19487,76,19454,64044,8597,12,824,9524,478,11071
"Superpharm Drogeria",PL,799,16098,223,16096,100489,32524,14,1569,21803,372,23844
"Pilulka RO",RO,794,41735,2876,41668,155360,3586,379,2663,28521,114,31775
"Superdrug UK",UK,775,15539,157,15526,43777,6869,12,857,34117,427,35462
"Tesco IE",IE,773,16952,241,16929,414374,4116,9,10232,7240,755,18420
"Coop DK",DK,753,11018,8055,11018,88817,1141,345,3302,13518,38,17262
"Auchan RU",RU,749,21653,322,21653,69640,350,9,1270,14255,19,15608
"eZiko Apteka",PL,737,7035,93,7006,41180,19107,325,1645,3218,940,6166
"Bringmeister DE",DE,731,16446,805,16446,42449,5437,10,624,7317,143,8129
"Intervare DK",DK,731,8916,7769,8916,26039,0,6,324,3817,110,4274
"Masxmenos CR",CR,730,8779,180,8771,24048,0,23,1387,8545,1,9970
"Walmart CR",CR,730,14026,403,14018,180155,0,19,5136,14794,1,20032
"Sklavenitis GR",GR,716,10113,114,10113,30064,5662,133,1359,6761,358,8637
"Apteka Gemini",PL,713,25811,472,25811,89759,54088,4,2840,15472,648,19087
"Dr Max CZ",CZ,704,21239,21228,21239,89894,7786,550,4715,31531,490,37359
"Gurkerl AT",AT,699,9961,1236,9960,36038,3061,395,330,4543,102,5400
"Rimi EE",EE,695,12561,640,12561,36828,3742,10,635,12193,96,12955
"Walmart AR",AR,692,0,0,0,0,0,514,1177,0,24,1715
"Tesco CZ",CZ,683,16845,170,16845,553489,16956,9,11689,10144,2851,25062
"Drogas La Rebaja CO",CO,674,11928,964,11928,362170,6632,72,9412,11692,401,21718
"Tottus CL",CL,673,9410,194,9410,40472,1082,15,605,4246,21,4917
"Bennet IT",IT,671,18724,116,18724,37713,14643,10,1034,8688,466,10228
"Rossman HU",HU,665,14995,6201,14995,54858,7729,386,664,23569,170,24837
"Maxi RS",RS,663,8053,73,8053,28328,5926,8,438,3613,97,4177
"DOZ.pl",PL,657,15733,284,15733,63522,46868,374,1916,10537,1569,14452
"Mat SE",SE,656,10627,3666,10627,32627,11762,2504,295,9629,190,12638
"Poiesz NL",NL,655,8255,0,8249,10486,133,12,502,6021,9,6557
Barbora,PL,654,7823,80,7818,65448,6395,22,1340,3586,989,6014
"City Gross SE",SE,650,12707,91,12707,27545,8656,6,418,6038,358,6842
"Rossmann DE",DE,648,15746,452,15746,54894,449,451,955,14397,19,15863
"Crai Spesa Online",IT,647,7458,6883,7458,26857,6551,335,894,10351,703,12296
"Rimi LT",LT,645,14651,1068,14648,43873,3389,9,628,14250,67,14977
"Hoogvliet NL",NL,636,8967,240,8967,14319,1890,8,475,7821,62,8385
"DM SK",SK,632,12602,12364,12602,36133,2170,7,1233,5552,47,6873
"Esselunga A Casa IT",IT,626,14788,1320,14788,43790,14964,11,3914,23979,1183,29114
"Tesco SK",SK,617,15871,174,15871,227904,211,10,4843,9409,24,14529
"E.Leclerc Bielany",PL,613,30105,132,29741,95105,35865,40,3651,13442,21527,38760
Apteline,PL,610,24686,86,24685,79990,14954,475,1463,15902,491,18385
"Vasalekaren SK",SK,603,9844,630,9844,66102,3641,1250,8140,20565,555,30559
Amazon,PL,601,421,417,420,808975,18053,0,0,0,366,366
"Thanopoulos GR",GR,593,16148,528,16148,54200,9132,11,5010,21919,700,27675
"Apteka Galen",PL,591,8618,7612,7962,29413,2974,11,1295,8604,292,10243
"Tesco HU",HU,589,15472,93,15472,860907,9572,9,18679,10925,2040,32180
"Alza SK",SK,587,10045,0,0,43202,2453,92,395,2271,0,2758
"Pingvinpatika HU",HU,587,7340,385,7340,39748,2852,10,5079,9397,347,14877
"Willys SE",SE,585,10578,2539,10575,34972,6886,10,347,4965,218,5563
"Bestway Foodservice UK",UK,583,11056,522,11056,35084,4720,293,441,5187,115,6069
"Bestway Best-one UK",UK,573,6731,306,6731,21927,12628,299,363,3145,320,4150
"Bestway UK",UK,573,9959,580,9959,32062,30456,285,419,4624,681,6033
"Spar HU",HU,571,13997,790,3471,179962,11209,11,9079,26345,331,35858
"Dr Max",PL,569,13429,13422,13429,50779,23932,239,1771,12491,751,15302
"Zakaz - Metro MD",MD,567,11257,6167,11257,19122,0,10,1211,9228,1,10468
"Benu CZ",CZ,566,14069,111,14068,64399,5519,8,5049,8565,63,13748
"AB GR",GR,565,11534,783,11534,34771,7008,9,1019,5432,171,6665
"E.Leclerc Wroclaw",PL,565,15384,86,15371,15590,0,456,1830,23322,3060,28712
"Kritikos GR",GR,560,16182,13310,16182,45871,0,11,19,7104,7032,14206
"Plus NL",NL,559,15726,656,15726,30491,3802,28,4076,16307,190,20649
"DM HU",HU,555,11811,10770,11594,32568,9476,7,1180,5467,168,6862
"Apteka Melissa",PL,552,27776,27584,27590,85659,51530,16,6156,17903,687,24947
"Freshful RO",RO,550,20727,499,20727,42295,322,10,858,9422,12,10345
Spar,PL,548,24566,13938,24540,700555,87519,17,12619,11276,2394,27310
"DM CZ",CZ,544,11594,10217,11378,31917,21163,9,1141,5367,369,6920
"Ebag BG",BG,541,11601,2607,11553,40439,1468,10,1092,5312,28,6470
"Chronodrive FR",FR,538,8435,2714,8411,16898,2131,16,389,4034,49,4517
"MyMarket GR",GR,538,15485,2360,15485,57962,5653,11,2894,16418,405,19764
"Sok FI",FI,538,9512,257,9512,36369,3202,74,1067,4498,302,5996
"Univerexport RS",RS,536,9851,0,9851,19702,1160,17,570,10252,218,11072
"Carrefour ES",ES,532,14735,166,14598,16589,266,27,1340,7309,27,8723
"E.Leclerc Rzeszów",PL,532,13098,80,13097,38459,37141,24,635,4070,1015,5790
"Yandex Lavka RU",RU,532,3140,225,3140,9122,2280,73,499,2293,79,2960
"Metro RU",RU,529,19625,11233,19601,24144,39,9,1868,17606,15,19534
"Jumbo CL",CL,528,20398,826,19402,593057,1383,11,7907,9513,63,17798
"Drogeria Olmed",PL,512,39975,18518,39975,131111,20648,12,6859,20295,2010,29266
"Apteka Zawiszy",PL,504,19690,320,19690,77872,10132,239,758,9433,229,10793
"Hemkop SE",SE,502,10689,2539,10689,33370,7146,8,290,4912,218,5454
Intermarche,PL,500,18189,38,18188,165321,20064,10,3350,8339,1564,13483
Rossmann,PL,500,23850,659,23845,77213,25307,12,869,28016,582,29548
"Colruyt BE",BE,495,6268,666,5361,74790,14223,6,11188,34813,1771,47875
"Interspar AT",AT,490,20995,1663,20976,65464,6141,11,787,30880,141,31859
"Spar SI",SI,486,17616,1213,17553,62046,2242,11,2995,19987,68,23097
"Mega Image RO",RO,484,13156,72,13154,40048,9733,9,699,5951,143,6852
"Migros Online CH",CH,480,12685,898,12684,38057,1379,18,663,11526,68,12298
"Idea RS",RS,478,12218,91,12218,20596,6463,89,673,5475,94,6352
"Benulekaren SK",SK,476,8975,86,8975,47284,6141,7,2590,4082,125,6843
"Famila a casa IT",IT,475,12241,212,12158,28920,5499,810,1493,19156,272,21747
"E.Leclerc Radom",PL,472,14186,4180,14178,45032,11926,38,3200,6978,1836,12149
"e-Dostavka BY",BY,472,25561,8831,25561,73510,2882,8,4349,12409,222,17048
"GPSfarma AR",AR,465,5891,547,5891,29036,1160,18,2337,5679,82,8132
"Carulla CO",CO,464,10411,277,10402,59646,3985,22,1685,4682,177,6620
Ceneo,PL,464,187835,11227,187467,252088,27646,782,3005,45750,305,50071
"Basko IT",IT,463,8386,3020,8385,25643,826,7,274,9216,34,9547
"Cornershop - Lider CL",CL,458,20787,702,20162,129466,1353,15,1115,6683,66,7985
"Apteka Olmed",PL,457,43022,212,43017,146970,19040,10,8604,25270,1535,35511
Aptelia,PL,454,12904,67,12904,63546,9943,205,1911,5879,316,8355
"MegaMarket RO",RO,447,5469,0,5469,6578,570,9,1306,6192,192,7712
"Feedo CZ",CZ,442,21104,1579,21104,65015,535,189,1005,13226,36,14515
"eTabletka SK",SK,437,11507,131,11507,77662,6123,356,6291,11722,81,18503
"Lopido CO",CO,433,10147,44,10133,19774,573,16,4740,24805,64,29636
"Unimarc CL",CL,432,10181,113,10150,29638,450,10,1937,13577,48,15589
"E.Leclerc Lublin Turystyczna",PL,429,13145,203,13145,16105,14024,10,452,10788,2365,13644
"Ecofamily HU",HU,428,6351,28,5003,21564,4226,6,2645,65468,0,68119
"Lider CL",CL,428,10542,182,10542,241770,1069,15,11747,17231,100,29220
"Patika24 HU",HU,426,5157,12,5157,15778,4428,4,676,6396,103,7196
"E.Leclerc Katowice",PL,422,10939,28,10924,11469,12670,289,1327,16764,6407,24866
"Dr Max RO",RO,419,12587,12587,12587,34509,6027,226,1437,13736,191,15615
Stokrotka,PL,415,7362,127,7361,166252,1201,19,2365,3461,81,6204
"Kruidvat NL",NL,408,9013,1350,9010,22395,1759,173,650,6664,79,7586
"Teta Drogerie CZ",CZ,399,9031,259,9031,26375,6837,6,755,7658,199,8663
"Dia AR",AR,395,4116,14,4111,12804,551,18,485,2008,18,2539
"Apteki 36.6 BG",BG,394,10121,62,10121,45833,679,10,1379,5211,49,6679
"OnlinePrima HU",HU,392,7385,87,7385,22840,5985,6,588,5000,267,5881
"Unimarkt AT",AT,392,3307,272,3305,15197,3071,122,324,2599,204,3265
"Iceland UK",UK,386,5461,402,5459,29218,15880,3,3338,9294,2212,14870
"Cornershop - Jumbo CL",CL,384,25791,1093,25231,132511,1347,12,823,7828,63,8832
"DrankDozijn BE",BE,381,3494,29,3494,14230,2034,5,634,5509,380,6539
"DrankDozijn NL",NL,381,3494,29,3494,14230,250,5,624,5504,46,6191
"Bringo RO",RO,375,31990,137,28930,52892,9999,23,1775,861,556,3280
"Billa AT",AT,371,8956,201,8956,28807,6127,10,413,21319,162,21925
"Walmart GT",GT,371,8660,194,8653,152271,0,20,4621,10215,1,14930
"Carrefour IT",IT,370,13358,3678,13333,39393,11611,25,389,9235,350,10029
"Majestic UK",UK,368,1358,13,1357,18752,1152,159,1712,972,126,2986
"Świat Leku",PL,363,11595,417,11595,33768,1853,152,1277,8166,187,9863
"Istegelsin TR",TR,360,5148,22,5148,11531,0,14,166,2361,1,2564
"Ulabox ES",ES,356,6057,4,6057,12731,0,5,228,2805,1,3049
"Ica New Version SE",SE,354,5719,5563,5719,107865,5554,4,1678,2506,249,4528
"Farmacia Tei RO",RO,351,24155,20582,24153,25699,2402,8,630,11257,97,12023
"Cruz Verde CO",CO,350,3896,12,3895,17156,1184,62,1381,1807,92,3353
"E.Leclerc Lublin Tomasza Zana",PL,347,10991,141,10983,13999,10658,12,438,5062,1285,6821
"Gall & Gall NL",NL,347,3029,361,3029,21666,69,5,3953,3281,13,7264
"Ica SE",SE,345,11485,92,11485,699428,12128,5,21508,5063,204,27135
"Jumbo AR",AR,345,9978,72,9943,60264,742,15,2412,4730,29,7231
"Ulta US",US,343,33159,1184,33159,94100,0,11,243,32386,1,32669
"Elefant RO",RO,342,46785,48500,48500,108704,2123,97,1145,23681,20,24999
"E.Leclerc Elblag",PL,339,10516,182,10492,29154,16230,18,1332,8440,2157,11996
Allecco,PL,336,11593,110,11591,39680,10521,19,580,5343,179,6243
"Globus RU",RU,336,14161,13734,14061,49346,37,8,2244,8152,8,10463
"Amazon NL",NL,334,0,0,0,101566,0,0,0,0,15,15
Carrefour,PL,332,15302,162,8354,90608,34705,182,3263,6117,2272,11993
"Bebe Tei RO",RO,325,25603,208,25593,25603,533,11,742,13864,43,14685
"Mpreis AT",AT,325,7747,141,7747,27252,4131,306,780,12913,91,14111
"Mercado Libre AR",AR,318,30177,866,17219,66303,601,177,716,20533,72,21544
"Roastmarket DE",DE,317,3864,117,3865,33379,396,24,444,17070,15,17568
"Gorillas App IT",IT,311,1537,1537,1537,4127,0,7,10,19,1,38
"Sipo HU",HU,306,4705,4692,4696,10714,1323,7,635,2442,125,3224
Empik,PL,302,179817,48178,144711,540987,25502,64,14410,49660,0,64134
"Rappi - Exito CO",CO,302,22361,4810,18204,82886,9363,13,6688,25049,248,32041
"SOpharmacy BG",BG,301,9746,526,9745,30388,3521,376,867,10238,107,11615
DoDomku,PL,300,6453,532,6453,19039,1726,38,211,3138,264,3710
"Bipa AT",AT,299,10216,10216,10216,22496,538,12,389,13847,16,14282
"Mall SK",SK,296,10415,61,10415,27507,864,338,792,18949,795,20910
"Cora RO",RO,295,43166,40628,43166,87002,6304,6,3650,29672,650,34038
"E.Leclerc Gdansk",PL,295,9910,46,9909,27495,9295,20,1221,7712,1768,10751
"Apteka Nove BG",BG,293,11706,15,11706,40753,3398,333,1520,9716,117,11718
"Rappi Lider CL",CL,292,15014,4329,12233,88943,1295,7,7879,16618,32,24588
"Tudrogueria Virtual CO",CO,291,8555,848,8555,16485,482,14,381,3938,25,4371
"Cornershop - Santa Isabel CL",CL,290,6884,352,6883,8522,1000,16,606,10393,53,11075
"Rappi - Carulla CO",CO,290,15323,7940,11914,56541,8951,12,6179,17345,282,23849
Makro,PL,288,3178,16,3178,8663,31673,3,541,1453,1571,3585
"Apteka Medea BG",BG,284,8731,74,8730,26680,0,7,1072,4904,1,6012
"Sephora US",US,283,19496,2569,19495,125258,0,10,786,12921,1,13758
"i-apteka",PL,281,9585,7806,9585,20608,5863,12,393,10099,502,11134
"Rappi - Carulla Express CO",CO,280,14129,3243,10526,48575,7663,14,5947,15836,226,22052
"E.Leclerc Tychy",PL,279,8944,19,8936,9146,10593,53,285,3963,1998,6325
"Merqueo - Bogota CO",CO,279,2746,12,2746,7200,5345,12,284,1254,178,1736
Makeup,PL,278,94537,7818,94537,403220,54984,4,16043,32979,912,50129
"Azbuka Vkusa RU",RU,276,12867,5,5,24392,202,16,2079,15333,163,17620
"Argos UK",UK,273,5889,5,5888,8311,0,3,491,18723,2,19239
"PriceSmart CR",CR,269,3518,129,3515,52482,0,10,6638,2260,1,8938
"Groby HU",HU,268,8239,49,8239,21911,3539,6,1115,8787,235,10160
"Rappi - Exito Express CO",CO,267,18493,4116,15718,46092,6444,12,5677,20771,232,26716
"E.Leclerc Gliwice",PL,262,7806,132,7806,21374,7894,20,941,5753,1379,8119
"Farmacia la Pret Mic RO",RO,259,8225,33,8225,25166,4185,27,1613,9909,647,12217
"Rappi Jumbo CL",CL,256,15350,12354,15040,64682,1387,7,6854,16462,32,23405
"Delitea SE",SE,255,9825,205,9825,23559,5473,4,187,4429,75,4716
"Apteka Medkon",PL,254,5190,5186,5186,21756,8312,5,3634,11038,1272,15971
"Rappi Unimarc CL",CL,253,12080,7372,11680,28895,1282,6,4084,13011,31,17153
"Supermarket AM",AM,252,7609,7317,7572,19870,0,8,1035,15486,1,16544
Wapteka,PL,252,18259,14201,18240,63605,34202,5,2923,7255,585,10897
"Dunnes IE",IE,251,14154,100,14133,31251,10330,4,898,12084,358,13366
"Edeka DE",DE,248,3444,1359,3444,4660,93,9,190,3729,119,4058
"Olimpica CO",CO,247,11396,83,11371,48232,782,11,1478,12780,35,14340
"Afya Pharmacy BG",BG,246,8457,345,8454,26161,720,10,2111,12185,163,14484
"Helpnet RO",RO,245,6841,179,6841,19322,2443,7,1041,3168,100,4335
"Szybki Koszyk",PL,239,4298,48,4298,14850,737,102,1131,3923,40,5216
"Farmatodo CO",CO,238,12718,84,12718,56191,5311,13,512,16004,94,16661
"Metroiroda HU",HU,230,3521,61,3512,7135,1332,5,748,4028,180,4985
"Merqueo - Medellin CO",CO,229,2284,1,2284,5422,4976,10,221,1042,168,1447
"Disco AR",AR,228,7861,34,7740,32315,969,104,2099,10686,31,12943
"MaxiCoffee FR",FR,228,4343,3598,4313,8930,1012,359,453,7200,116,8137
"Linio CL",CL,226,47714,213,47650,73257,0,106,703,16141,0,17022
"Igooods RU",RU,224,17111,35,17110,35584,191,5,204,7992,7,8245
"Merqueo - Cali CO",CO,224,1675,2,1675,4195,762,11,200,764,24,1004
"Lisek App",PL,220,1744,50,1744,2002,619,4,8,798,336,1152
"Booker Foodservice UK",UK,212,11849,5151,11849,22126,3536,124,423,5387,115,6068
"Superpharm Apteka",PL,212,11097,116,11097,29542,14299,3,576,16518,205,17328
"Перекрёсток Впрок RU",RU,212,16019,435,16015,36200,2860,7,2510,24830,230,27614
"Coop UK",UK,210,9578,245,9577,210710,19062,3,2307,4479,642,7581
Cocolita,PL,208,10315,257,10297,45444,13728,3,1269,17415,1072,19803
"Beauty Bay UK",UK,207,13266,163,13265,51876,0,3,316,6096,1,6445
"Booker UK",UK,205,9006,3417,9006,17179,9307,132,394,4074,684,5299
"Minifarm RO",RO,203,2670,3,2670,4505,140,9,543,2001,127,2700
"Утконос RU",RU,203,37504,2371,37504,92350,1155,8,620,28683,42,29402
"Rappi - Pricesmart CO",CO,201,1869,1096,1377,5368,722,10,2107,2065,37,4224
"Auchan FR",FR,200,1536,156,1536,5359,626,316,526,1945,164,2956
"Emag HU",HU,199,96154,91932,95957,96207,6983,10,1333,51036,134,52604
"Benu HU",HU,196,5007,19,5007,17335,2756,3,2070,7200,406,9692
"Getir IT",IT,186,1584,1584,1584,4151,0,5,98,807,0,912
"Deliberry - Caprabo ES",ES,184,8646,5,8637,9766,0,8,230,15148,1,15395
"Coursesu FR",FR,182,4230,2664,3665,13092,1132,32,10940,51950,0,62922
"Panda Market HU",HU,177,2236,64,2236,5519,1426,4,141,1022,148,1324
"Deliberry - Solri ES",ES,176,8005,0,7998,9105,0,8,213,13262,1,13491
"Vodovoz RU",RU,176,1044,137,1044,1886,0,5,154,1130,1,1295
"Deliberry - Mercadona Barcelona ES",ES,175,5926,2,5326,7077,0,9,196,9368,1,9579
"Linella MD",MD,174,6624,1,1012,6624,0,7,183,27907,1,28105
"Deliberry - Mercadona Madrid ES",ES,173,5804,1,5109,6924,0,7,192,8845,1,9052
"PennyDomu CZ",CZ,173,1804,17,1804,5124,0,75,242,853,23,1203
"Pyaterochka App RU",RU,173,6213,57,6213,13027,386,4,205,2960,5,3195
"Deliberry - Supercor ES",ES,161,4087,0,4085,5011,0,9,158,5692,1,5865
"Everli - Coop IT",IT,160,11846,223,11846,13122,43,28,2432,6151,1391,10013
"Professional Farmaline RO",RO,155,8675,28,8675,18492,2464,6,773,7830,64,8693
"Look Fantastic UK",UK,153,17609,158,17585,52461,0,3,616,8121,1,8788
"Dirck3 NL",NL,151,487,8,487,2314,144,4,91,253,12,364
"Vea Digital AR ",AR,150,3816,31,3061,14737,867,105,1509,9965,34,11627
"Deliberry - Dia ES",ES,143,4160,0,4160,5020,0,9,152,5645,2,5816
"Deliberry - La Plaza ES",ES,143,4239,0,4209,5097,0,8,139,6111,1,6262
"Everli - Metro IT",IT,143,2493,97,2493,3340,1485,26,367,1348,604,2348
"Nazuby CZ",CZ,137,1629,65,1629,5629,161,4,121,734,29,894
"Medexpressz HU",HU,136,1340,1326,1340,2866,0,4,290,929,1,1228
"Ozon RU",RU,136,74863,0,0,117854,1802,493,5244,69077,0,74814
"Exito CO",CO,135,12649,160,12625,72596,2725,22,3346,19981,222,23619
"Automercado CR",CR,132,13316,46,13244,20429,0,14,2037,36661,1,38727
"Subra BG",BG,132,6448,2,6448,17455,2593,10,174,2955,267,3425
"Alkohol CZ",CZ,131,3860,129,3860,10809,0,13,731,1872,2,2627
"Metro Delivery RU",RU,131,6642,708,5904,18035,44,19,418,17023,63,17544
"Coop EE",EE,127,9418,9416,9416,20501,1928,3,438,4126,57,4638
"Condis ES",ES,121,6566,146,6521,6934,0,2,191,3269,1,3473
"Cora Drive BE",BE,118,13377,9569,13377,88483,4424,12,4059,16058,1279,21470
"Amazon Fresh DE",DE,113,9074,9002,9070,14127,6301,157,3181,6378,144,9893
"E-tinex MK",MK,109,4341,0,4341,8474,374,3,76,2028,34,2148
"Farmacia Pasteur CO",CO,103,8729,69,8722,57129,564,7,1661,5856,28,7595
"Koffievoordeel NL",NL,98,509,9,509,3161,1274,3,469,365,29,870
"Savage & Whitten IE",IE,98,3736,50,3736,7472,904,8,322,1721,74,2134
"Farmacity AR",AR,97,3852,104,3852,7348,1172,5,286,1302,42,1639
"Vitania BG",BG,97,7152,105,7152,7152,2272,6,326,3275,75,3692
"Rappi Cruz Verde CL",CL,93,5060,2820,3783,35944,1320,4,2695,5493,32,8249
"Kaufland DE",DE,90,30712,894,30704,38072,703,72,746,15357,45,16255
"PriceSmart PA",PA,90,1654,66,1654,18995,0,4,2701,820,1,3538
"PriceSmart GT",GT,88,1609,60,1609,14067,0,4,1949,971,0,2933
"Kaffedeal DK",DK,85,385,2,385,1001,738,3,44,184,33,265
"Brack CH",CH,80,8297,578,7958,20450,0,66,265,7093,106,7557
"Okey RU",RU,80,4018,2544,3991,4035,222,6,267,10836,21,11149
"Kesko FI",FI,74,0,0,0,99550,0,268,12963,0,0,13231
"Comfandi Supermercados CO",CO,72,4562,4258,4548,9270,0,8,381,2895,1,3291
"Durst DE",DE,69,1035,67,1035,1102,0,4,21,29,1,60
"Droguerias Cafam CO",CO,67,4219,1429,4219,10830,1395,15,596,5993,54,6665
"Media Markt DE",DE,67,2422,66,2413,6692,1088,223,5273,18787,1574,25865
"Sanctuary UK",UK,62,105,1,105,454,0,3,43,51,7,104
"Kaffekapslen DK",DK,61,783,25,783,1802,1516,67,65,825,160,1119
"Kapselkongen DK",DK,57,283,2,283,591,689,22,55,262,35,375
"Comfandi Droguerias CO",CO,56,4670,4414,4656,9201,0,6,332,2311,1,2656
"Saturn DE",DE,56,2318,54,2318,4680,958,327,2395,12307,4036,19071
"Asos UK",UK,55,8488,21,8488,21373,0,40,216,3845,1,4118
"Emag RO",RO,54,59461,57873,59458,59463,4826,9,1056,31672,152,32953
"iDrinks HU",HU,52,6415,6396,6415,13815,252,5,1561,6375,78,8039
"Bigshop MK",MK,51,995,4,995,3683,548,154,384,1462,173,2175
"Expert DE",DE,49,1029,38,992,1105,386,71,51,1226,32,1391
"Pretty Little Thing UK",UK,49,2050,174,2050,6051,0,6,259,1035,2,1311
"Winelivery IT",IT,49,1375,34,1375,2577,0,4,249,1037,1,1294
"Very UK",UK,47,3828,1,4,4150,0,14,47,4,0,73
"Bol NL",NL,46,18618,11114,18711,33466,2352,33,2091,20749,428,23321
"Fudge UK",UK,45,89,0,89,501,0,3,28,42,31,104
"Carrefour AR",AR,41,3481,2597,3480,11708,501,127,467,5608,31,6249
"Altex RO",RO,38,2231,1,2231,4317,2093,4,225,3150,120,3505
"Jumia EG",EG,38,2446,33,2446,4938,0,46,237,1798,24,2112
"BilkaToGo DK",DK,37,3787,48,3787,21386,1481,5,84,1632,36,1783
"Selver EE",EE,37,4062,81,4055,10518,2739,4,258,5601,218,6091
"Ep DE",DE,34,210,9,210,673,278,71,120,432,85,712
"Galaxus CH",CH,32,8691,2766,8685,15849,855,18,2867,8481,1268,12646
"John Lewis UK",UK,28,359,68,368,493,153,4,20,270,12,306
"Mercator SI",SI,27,12671,12501,12671,12671,1771,5,18,5658,50,5751
"Carrefour FR",FR,25,6083,1628,6083,8062,1764,8,1713,28187,368,30284
"StTropez UK",UK,25,25,2,25,66,0,3,15,13,71,102
"Avansas TR",TR,24,541,22,541,545,0,2,20,244,1,269
"Qvc US",US,24,16397,1349,16397,18055,0,27,118,19720,1,19881
"St. Tropez US",US,23,16,1,16,47,0,4,18,10,0,36
"Shoplink IE",IE,20,149,0,149,447,1744,27,37,87,99,251
"Boulanger FR",FR,17,773,60,773,1813,357,20,97,1797,143,2059
"Euronics DE",DE,15,9844,8,242,38844,1161,31,932,41934,435,43399
"Mercado Libre CL",CL,12,6710,201,6710,12850,0,17,451,5992,38,6510
"BCC NL",NL,11,1902,24,1902,2522,645,10,118,1757,52,1943
"El Corte Ingles ES",ES,11,3838,104,3830,4831,687,62,313,20663,217,21261
"Leclerc FR",FR,11,235,3,129,474,588,9,160,1294,441,1909
"Sodimac CL",CL,11,112,2,103,237,0,47,178,605,2,833
"Wildberries RU",RU,10,49087,3689,49087,51326,1570,12,259,23337,122,23800
"Mediaworld IT",IT,9,290,11,287,580,1476,7,133,1191,471,1803
"Intermarche FR",FR,8,357,248,354,687,818,7,71,1093,236,1410
"AO UK",UK,7,768,153,768,1066,275,63,7,717,7,800
"Unieuro IT",IT,6,1766,272,1764,2192,1139,3,17,941,45,1009
"Costcutter IE",IE,4,159,9,159,159,387,6,19,78,73,176
"Easy CL",CL,3,538,39,538,623,0,3,58,476,3,541
"0815 DE",DE,0,0,0,0,0,0,2,13,0,20,36
"Easy Coop IT",IT,0,0,0,0,0,0,4,4,1,1392,1404
"Rewe DE",DE,0,0,0,0,0,3232,8,9,2,374,404
"Tiendas Jumbo CO",CO,0,0,0,0,0,5002,4,41,4,251,300
"Yandex Market RU",RU,0,0,0,0,0,0,4,25,1,94,126
