﻿Site,Country,Categories,Prices,"Products changed","Products downloads",Relations,Search,"Categories time","Prices time","Products time","Search time","Total time"
"Ocado UK",UK,6539,48395,123,2506,461616,40655,1341,11485,2198,1919,17352
frisco,PL,4707,15894,6,2415,302994,86632,52,10878,5757,1768,18698
"Mytime DE",DE,4658,11528,16,145,101693,3014,1993,2650,70,155,4952
"Asda UK",UK,3458,29669,29,2105,933485,50793,12,9245,813,1125,12050
"Makro CZ",CZ,3423,7264,1,2,739885,411,3227,24363,23,39,27959
"Morrisons UK",UK,3196,20843,0,0,96221,31388,608,5526,17941,2089,26466
"Waitrose UK",UK,3100,16449,30,1148,1571872,32899,36,22565,446,803,25100
"Metro SK",SK,3026,6236,1,1,285698,0,2818,22190,15,1,25135
"Rohlik CZ",CZ,2968,23908,48,789,224210,22843,2056,3658,506,835,7205
"Coto Digital AR",AR,2859,17650,39,465,105932,1192,2456,4942,382,45,7872
"Notino SK",SK,2675,523,206,523,117211,126,1212,6460,1646,16,9487
"Galen BG",BG,2672,13851,0,165,99588,5074,1368,2307,85,105,3927
"Kosik CZ",CZ,2662,16837,34,610,96331,33283,464,1689,293,951,3459
"Albert Heijn BE",BE,2661,10113,23,109,47654,6221,1109,3067,105,291,4607
Auchan,PL,2542,16269,19,1314,480727,26559,35,15857,848,3568,20721
"Drogeo CZ",CZ,2509,665,41,665,130545,42333,20,2234,352,719,3406
"Samokat RU",RU,2485,4926,24,129,58731,17,22,49,84,7,196
"Pilulka SK",SK,2421,39980,104,389,247818,11597,24,3277,216,259,3929
"Amazon Fresh UK",UK,2406,8736,410,410,51356,16701,692,2031,337,378,3489
"Notino CZ",CZ,2295,238,8,238,53077,34118,1057,6755,374,1256,9606
"Pilulka CZ",CZ,2268,34704,79,504,169972,34585,19,4958,321,1514,6905
"Sainsburys UK",UK,2266,30184,77,2392,1756490,83394,253,27856,1922,3672,35400
"Amazon UK",UK,2211,2063,27191,27195,1937884,36954,0,0,0,12355,12355
"Drogerie Natura",PL,1991,14957,25,488,79369,37242,48,3564,802,3104,7603
"Amazon Fresh IT",IT,1946,7662,560,561,36771,2934,2847,1259,1367,161,5653
"Boots UK",UK,1905,25721,480,5161,133851,7961,15,3868,7700,251,11974
"Brakes UK",UK,1895,9077,8,208,27274,30672,876,1820,101,312,3148
"Jumbo NL",NL,1870,18581,33,268,72869,4209,1407,1927,250,116,3759
"Auchan HU",HU,1833,28318,32,1808,214998,10545,24,4743,1084,526,6525
"Cefarm 24",PL,1661,13943,3,836,102608,14362,2182,3880,1138,4742,12001
"Alcampo ES",ES,1644,17072,216,546,68838,512,3280,2115,861,149,6430
"Delhaize BE",BE,1587,14527,34,357,61594,15580,20,1885,242,436,2636
"Yuga RO",RO,1554,7206,6,56,35708,394,1784,3739,2874,61,8486
"Albert Heijn NL",NL,1547,21239,18,219,73458,3786,998,1334,107,149,2669
"Barbora EE",EE,1428,13575,10,45,50536,1373,35,1809,24,87,1979
"Barbora LT",LT,1416,15008,33,85,52663,1281,34,1452,46,56,1619
eZebra,PL,1369,43169,0,607,153936,31834,12,5718,803,2722,9384
"Tesco UK",UK,1316,28543,21,2538,348916,23809,11,9906,1095,7271,18713
"Remedium BG",BG,1304,27082,0,161,95230,1530,329,7410,549,181,8526
"Kifli HU",HU,1287,14514,55,1617,59546,9936,587,621,743,368,2374
"Coop CH",CH,1285,18358,6,68,67952,2072,284,1731,102,141,2296
"Picnic NL",NL,1241,6962,1,77,15240,2227,543,998,48,79,1686
"E-Fresh GR",GR,1239,12726,20,516,61913,6763,2393,4315,1075,656,8476
"Rewe DE",DE,1232,9617,7,202,35226,3178,18,1363,218,382,2001
"iGlobus Zlicin CZ",CZ,1229,22338,30,430,87221,7710,16,4555,634,349,5616
"Amazon DE",DE,1197,171,171,171,363539,13030,0,0,0,3109,3109
Hebe,PL,1169,730,74,730,160502,25323,641,3078,1003,582,5412
"Moja Lekaren SK",SK,1167,24098,16,136,131087,4700,651,3729,80,188,4717
"Lekarna CZ",CZ,1161,28503,21,357,125956,5126,650,3594,215,198,4740
"S-kaupat FI",FI,1156,42622,9,281,324956,6372,3,2859,205,111,3332
"Barbora LV",LV,1149,12944,18,55,44268,1396,52,2035,30,101,2243
"Alza CZ",CZ,1083,23760,83,131,89198,28226,223,2006,269,1924,4469
"Albert App CZ",CZ,1073,8124,0,0,59097,0,520,1826,4,1,2399
"Apteka Nowa Farmacja",PL,1058,14436,25,625,45254,16221,11854,2794,1498,2929,19112
"Mathem SE",SE,1049,12816,8,485,34940,7482,12,1115,739,504,2390
"Eroski ES",ES,1047,25558,314,451,54311,606,15,3467,267,45,3822
"Picnic DE",DE,1033,7164,9,160,14412,1843,492,897,73,160,1631
"Knuspr DE",DE,1021,9615,23,128,37827,1456,479,477,61,155,1194
"Amazon IT",IT,1020,536,536,536,223549,6861,0,0,0,664,664
"Coop NL",NL,1010,16706,11,116,71940,1205,1357,2227,241,61,3946
"Dr Max SK",SK,1010,22818,25,420,96403,6971,454,3232,431,245,4417
"Salcobrand CL",CL,1009,6525,0,0,28972,1094,266,634,4117,15,5057
"Auchan RO",RO,1003,24792,25,526,439984,7722,16,4995,431,479,6188
"Zakaz - Novus UA",UA,1000,18708,22,108,39673,0,6,1803,61,1,1905
Selgros,PL,981,22251,294,1230,77688,28871,445,925,555,1542,3562
Bee,PL,975,43581,297,378,156781,9451,447,2833,188,236,3914
"Alza SK",SK,971,10606,18,110,46733,3286,125,402,40,122,710
"Carrefour BE",BE,962,18552,83,559,178326,20275,910,9583,379,6797,17808
"Coop SE",SE,926,10095,1,486,34544,8106,11,908,226,218,1386
"Coop Shop IT",IT,924,9858,8,333,29620,5539,10,1086,266,372,1758
"Otto DE",DE,915,75,57,83,44657,198,423,579,446,17,1484
"Unipatika HU",HU,868,4401,2,299,31414,4678,559,1336,165,287,2385
"Pilulka RO",RO,865,0,0,0,0,0,6,734,1,108,849
"Magnit App RU",RU,864,4001,16,96,11610,0,17,1900,87,1,2013
"SuperValu IE",IE,845,16349,62,1102,220698,10444,872,16838,1239,518,19685
"Tigros IT",IT,840,10111,11,541,30373,7039,9,481,310,237,1063
"Superpharm Drogeria",PL,832,749,33,749,100963,33187,7,1134,770,379,2385
"Apteka Manada",PL,817,15149,50,946,42748,31554,26,2828,1876,2684,7466
"Wong PE",PE,811,20831,61,315,163374,1826,10,6929,3913,73,11018
"Polski Koszyk",PL,795,23512,22,917,75510,8031,14,933,536,320,1885
"Tesco IE",IE,787,17114,29,899,417061,4129,8,8136,411,710,9620
"Zakaz - Metro UA",UA,768,10587,10,119,21461,0,4,2438,96,1,2561
"Auchan RU",RU,767,24698,41,665,78707,350,13,1346,419,9,1854
"eZiko Apteka",PL,759,6921,0,503,41808,19145,336,1765,239,944,3318
"Coop DK",DK,758,11408,138,145,94391,1211,352,3284,209,38,3964
"Sklavenitis GR",GR,731,10138,14,268,30405,4341,134,1243,140,260,1803
"Ebag BG",BG,730,11639,18,65,42644,1606,18,1245,55,29,1381
"Masxmenos CR",CR,730,8772,8,26,24095,0,20,1834,65,6,1937
"Walmart CR",CR,730,13584,16,400,175075,4911,7,6061,521,163,6832
"Dr Max CZ",CZ,726,21494,26,350,89745,7847,372,2906,373,267,4011
"Rimi LV",LV,726,15016,6,57,44185,5331,11,754,61,102,959
"Mall CZ",CZ,720,3510,544,3510,106002,16234,570,1147,4805,4141,10787
"Apteka Gemini",PL,718,26929,1,1211,91728,54444,21,2819,579,657,4200
"Cruz Verde CL",CL,717,10149,1,1,175765,0,18,20964,9,0,21066
"Lunys SK",SK,714,5307,12,12,18858,0,523,1173,25,2,1754
"Bringmeister DE",DE,711,16506,26,156,44706,4402,10,384,73,143,701
"Intervare DK",DK,711,9392,72,169,27179,0,14,331,78,111,555
"Gurkerl AT",AT,700,9692,26,121,35141,3132,348,333,60,111,884
"Rimi EE",EE,698,12550,8,44,36748,3747,6,712,46,104,889
Barbora,PL,696,8839,1,653,116204,6812,24,2582,316,819,3882
"Walmart AR",AR,692,0,0,0,0,0,492,1166,1,8,1667
"Tesco CZ",CZ,689,16712,1,1172,553693,6401,10,10930,934,687,12867
"Bennet IT",IT,681,18943,18,429,38216,15136,9,1053,204,481,1779
"Drogas La Rebaja CO",CO,674,11679,77,3833,343845,7078,74,10366,4503,515,15585
"Rossman HU",HU,665,15250,3,937,56074,7715,660,801,1637,166,3321
"DM SK",SK,658,12695,1,23,36221,2170,9,1287,17,105,1457
"Poiesz NL",NL,658,7948,0,11,10161,128,17,547,2993,7,3582
"Rossmann DE",DE,658,15906,22,57,55142,454,536,1047,55,19,1685
"Rimi LT",LT,654,14640,2,42,43919,3394,10,709,46,73,869
"Hoogvliet NL",NL,652,8785,30,112,14355,1875,18,1139,198,123,1503
"DOZ.pl",PL,648,18604,61,1194,75853,47742,341,2242,571,1611,4847
"City Gross SE",SE,646,12782,2,520,28039,8912,9,354,245,362,991
"Crai Spesa Online",IT,643,364,0,364,27164,7020,286,780,426,613,2120
"Esselunga A Casa IT",IT,635,15198,1,611,45004,16618,16,4646,1197,1492,7382
"Tesco SK",SK,633,15734,2,65,228114,837,11,5689,57,106,6001
"E.Leclerc Bielany",PL,625,31933,5,2599,101820,35615,65,3601,1166,20355,25287
Apteline,PL,618,929,35,929,83520,14470,461,1400,715,455,3103
"Tesco HU",HU,617,15380,25,2389,1040313,5218,9,20492,2058,1403,24468
Amazon,PL,612,478,473,477,963735,18517,0,0,0,457,457
"Vasalekaren SK",SK,609,10159,30,167,67838,3915,1204,8708,355,582,10876
"Colruyt BE",BE,605,7996,0,248,93878,14449,12,14123,714,1593,16565
"Thanopoulos GR",GR,600,16124,50,50,53777,10347,16,4543,57,630,5286
"Apteka Galen",PL,593,8675,7,271,27581,3386,19,1612,597,282,2552
"Willys SE",SE,588,10740,15,445,35534,7000,9,326,216,908,1493
"Benu CZ",CZ,584,14318,17,284,66730,5901,8,5218,292,68,5621
"Pingvinpatika HU",HU,583,7576,9,303,41106,2844,11,5126,395,322,5876
"Plus NL",NL,583,16007,13,247,31520,3807,51,4215,265,191,4780
"Vkusvill RU",RU,579,6342,20,113,22577,1089,205,2643,285,154,3299
"Bestway Best-one UK",UK,576,6526,13,68,21205,12737,299,371,49,320,1072
"Bestway UK",UK,576,9184,35,517,29634,29805,296,416,261,682,1699
"Carrefour EG",EG,567,15057,66,98,73306,316,6,1200,117,16,1374
"Dr Max",PL,567,12502,7,687,47623,21935,275,1648,664,667,3329
"Glovo Kaufland RO",RO,566,9104,35,9104,15977,0,5,275,131,1,427
"Zakaz - Metro MD",MD,566,10802,9,47,18156,0,5,1317,453,1,1793
"Bestway Foodservice UK",UK,565,10323,20,257,32856,4748,291,430,174,113,1053
"Spar HU",HU,565,14796,480,1865,338114,11000,11,7610,3304,404,11502
"DM HU",HU,562,12500,16,820,34205,9697,8,1209,368,331,1947
"AB GR",GR,558,11415,8,503,34898,7399,18,821,226,197,1300
"E.Leclerc Wroclaw",PL,558,15715,34,1255,16138,13402,469,1816,1907,5374,9609
"Kritikos GR",GR,557,16577,213,340,46885,0,14,54,158,6965,7248
"Apteka Melissa",PL,552,27766,42,1096,81376,51404,20,5105,660,661,6522
"Chronodrive FR",FR,551,8503,95,178,16071,2145,17,431,108,110,676
"DM CZ",CZ,548,12332,0,846,33731,32471,9,1198,380,1088,2710
"Pão de Açucar BR",BR,548,22201,165,183,53540,0,2,1931,125,1,2087
"Jumbo CL",CL,546,20780,51,2393,594998,1376,17,7998,1524,74,9928
"Freshful RO",RO,545,20069,2,25,40979,363,5,871,13,15,943
"MyMarket GR",GR,545,14374,15,312,51622,5569,16,2030,317,307,2712
"Yandex Lavka RU",RU,545,3263,80,232,9370,0,92,679,362,296,1439
Spar,PL,544,24623,23,1990,682138,76877,19,12189,998,1987,15643
"Carrefour ES",ES,534,15596,12,132,18752,269,27,871,485,37,1438
"E.Leclerc Rzeszów",PL,534,12640,50,1367,37424,27354,31,664,507,988,2233
"Drogeria Olmed",PL,522,435,4,435,144712,21244,12,7818,189,1404,9493
"Plazavea PE",PE,516,26392,53,233,192168,1866,10,4886,115,135,5255
"Metro RU",RU,514,19920,157,619,24023,44,14,1935,574,15,2567
"Cold Storage SG",SG,510,9554,9,9554,28803,0,556,2289,10493,1,13347
"Apteka Zawiszy",PL,505,20199,148,947,79878,15588,237,842,471,319,1963
Rossmann,PL,504,920,52,920,79310,25599,11,878,1197,582,2743
"Hemkop SE",SE,503,10434,5,446,32680,7153,7,270,207,216,723
"Interspar AT",AT,500,21629,10,220,68068,6134,16,696,275,144,1190
Intermarche,PL,497,18914,1,2535,164384,18689,9,3311,1175,1362,6115
"Benulekaren SK",SK,495,9227,3,315,48148,6751,6,2609,159,144,2952
"Spar SI",SI,488,17198,13,194,59991,2704,14,649,241,103,1069
"Migros Online CH",CH,484,12307,0,57,38031,1444,17,1255,52,198,1549
"Dr Max Drogeria",PL,483,15792,5,7,49955,0,245,1818,282,0,2403
"Mega Image RO",RO,481,12795,22,384,38302,9661,6,551,175,154,921
"Famila a casa IT",IT,478,12313,4,113,29860,6401,814,1499,224,313,2868
"E.Leclerc Radom",PL,472,12915,209,1490,40475,10631,60,2588,719,2096,5527
"e-Dostavka BY",BY,468,33722,126,363,96997,2214,4,7758,181,165,8172
"Basko IT",IT,466,8409,3,427,25726,1501,6,271,474,47,818
"Apteka Olmed",PL,463,1028,7,1028,157356,19485,19,8819,491,1468,10878
"GPSfarma AR",AR,463,6818,17,428,27594,1165,3,2092,247,73,2431
Ceneo,PL,462,194085,1865,4784,259684,35485,845,2236,2280,483,6231
"Cornershop - Lider CL",CL,461,19150,9,2400,124759,1338,18,1120,987,59,2283
"Carulla CO",CO,455,9977,28,391,29682,4819,23,1147,230,246,1677
Aptelia,PL,454,501,50,501,72322,10051,208,2039,236,320,2863
"Mercado Libre MX",MX,451,52159,661,1889,107241,0,910,1251,494,1,2717
"MegaMarket RO",RO,447,5426,0,9,6534,573,7,1272,12,191,1491
"Feedo CZ",CZ,444,66,18,66,66869,467,200,1001,79,35,1348
"eTabletka SK",SK,441,11876,3,111,80527,6730,273,6696,80,86,7170
"Patika24 HU",HU,440,4421,0,243,10735,3216,7,567,314,88,983
"Cornershop - Jumbo CL",CL,436,27601,34,1066,146461,1351,17,911,561,67,1696
"Lopido CO",CO,433,10529,9,89,20311,602,14,6063,422,63,6574
"Unimarc CL",CL,433,11046,46,511,33129,1183,16,2484,1332,71,3921
"E.Leclerc Lublin Turystyczna",PL,431,12647,13,1336,15581,13508,10,484,1136,2762,4461
"Lider CL",CL,429,12258,26,2069,235420,1107,17,12059,3920,101,16243
"Ecofamily HU",HU,427,6975,1,816,22647,4231,7,1495,3469,378,5379
"Kruidvat NL",NL,424,8338,2,21,23626,1817,196,775,40,84,1129
"E.Leclerc Katowice",PL,420,9647,3,1126,10166,11110,93,405,526,1583,2629
"Dr Max RO",RO,419,13891,195,412,38227,6314,214,1373,407,207,2227
"iFresh SK",SK,405,8183,42,42,180145,0,5,4800,45,1,4959
"Glovo Biedronka Warszawa",PL,402,3206,114,3206,6280,549,4,185,71,63,339
"Teta Drogerie CZ",CZ,400,8605,5,433,24939,6698,5,841,384,250,1504
"OnlinePrima HU",HU,397,7553,0,1201,23185,6112,7,666,785,276,1756
"Apteki 36.6 BG",BG,395,9958,5,156,46976,1208,17,1431,81,88,1653
"Dia AR",AR,394,5116,15,112,15967,660,11,453,180,16,669
"Unimarkt AT",AT,392,3409,15,125,15739,3259,172,316,115,257,878
"Bringo RO",RO,388,31890,147,26447,51912,7071,25,1796,1296,682,3844
Stokrotka,PL,383,7597,1,145,161946,12877,20,2534,83,436,3409
"Iceland UK",UK,378,5608,21,347,30028,15505,4,1328,391,3127,4880
"DrankDozijn BE",BE,376,3593,1,70,14594,2255,7,639,112,572,1345
"DrankDozijn NL",NL,376,3591,1,68,14586,250,8,645,109,738,1520
"Billa AT",AT,372,9240,30,198,29955,6647,16,323,340,141,868
"Walmart GT",GT,369,8956,7,332,155106,4332,17,4954,459,164,5671
"Majestic UK",UK,365,1315,4,61,17361,1165,173,1862,54,131,2244
"Świat Leku",PL,365,11794,16,290,36219,1886,163,1336,238,180,1994
"Ulabox ES",ES,363,5921,2,3,12450,0,5,220,5,1,240
"Cornershop - Metro PE",PE,362,16817,32,237,55590,1855,8,522,176,134,883
"Istegelsin TR",TR,359,4880,0,0,11007,0,23,175,1,1,212
"Carrefour IT",IT,354,13136,251,893,36103,4607,168,1112,398,327,2034
"Farmacia Tei RO",RO,354,24606,273,283,26085,2405,4,666,149,111,960
"Ica New Version SE",SE,354,6928,5424,5455,139897,5527,7,2180,2423,225,4939
"E.Leclerc Lublin Tomasza Zana",PL,352,11406,8,1343,14706,10274,8,467,657,1140,2300
"Cornershop - Wong PE",PE,348,19581,30,237,58556,1912,8,531,222,136,950
"Gall & Gall NL",NL,347,3094,5,60,23071,69,10,5353,124,26,5529
"Talabat Mart EG",EG,347,6224,61,63,43902,476,6,1849,158,13,2086
"Rossmann App CZ",CZ,344,11228,158,182,36830,0,5,3048,88,1,3171
"Ica SE",SE,342,10888,1,627,640014,12701,8,19889,305,209,20720
"E.Leclerc Elblag",PL,339,10656,5,1064,29477,15381,36,1422,959,2347,4801
Allecco,PL,336,11830,25,673,40911,10697,20,608,310,178,1162
Carrefour,PL,335,16201,28,2833,127181,35731,178,2312,1909,2018,6556
"Roastmarket DE",DE,333,57,0,57,34615,390,21,439,976,16,1466
"Bebe Tei RO",RO,325,26483,36,112,27384,515,3,841,70,48,995
"Mercado Livre BR",BR,325,101653,1454,2174,770141,0,725,11020,591,1,12834
"Mpreis AT",AT,325,7997,3,132,28049,4604,313,806,125,100,1372
"Carrefour BR",BR,324,16036,52,76,127130,0,9,13432,135,0,13649
"Sipo HU",HU,322,5710,3,148,12728,1441,5,622,87,125,851
"SOpharmacy BG",BG,304,10087,23,180,32060,6469,387,999,209,209,1831
Empik,PL,301,118368,433,1187,334118,25792,64,3437,569,174,4710
"Bipa AT",AT,300,11108,13,57,24422,562,18,369,81,22,533
"Cornershop - Santa Isabel CL",CL,299,6961,9,394,8618,1016,13,665,590,55,1333
DoDomku,PL,299,6584,72,367,19242,2486,54,327,215,367,979
"Easy Coop IT",IT,299,9336,23,588,27104,10075,6,1738,1168,868,3797
"Amazon NL",NL,298,0,0,0,125032,0,0,0,0,21,21
"Cora RO",RO,298,44047,44,388,88106,6536,5,3585,197,779,4635
"Mall SK",SK,298,1136,49,1136,29880,1140,309,760,2702,1157,4960
"E.Leclerc Gdansk",PL,295,10623,0,793,29234,9356,34,1408,692,2057,4233
"Tudrogueria Virtual CO",CO,291,8097,478,3923,15688,459,11,381,1819,24,2246
"Apteka Nove BG",BG,288,11590,0,143,41716,6242,15,2761,187,375,3365
"Apteka Medea BG",BG,284,8679,1,153,26111,0,13,1114,95,2,1249
"Sephora US",US,283,225,220,225,123185,0,7,944,64,1,1057
"i-apteka",PL,281,9796,82,509,20988,5870,3,432,541,416,1417
Makeup,PL,278,1108,204,1108,461341,62153,4,10698,501,935,12418
"E.Leclerc Tychy",PL,277,9169,8,1074,9364,10987,50,284,507,1658,2526
"Azbuka Vkusa RU",RU,275,11491,23,202,23762,133,26,1813,881,121,2860
"Konzum HR",HR,275,10961,1,144,17268,3430,311,2471,488,438,3722
"Argos UK",UK,273,5465,18,3672,8011,0,4,582,14103,2,14721
"Edeka DE",DE,271,3706,30,44,4966,137,8,203,44,107,368
Makro,PL,271,3071,0,504,8366,32236,4,516,234,1673,2443
"Groby HU",HU,268,8205,0,494,21805,3561,8,1131,519,241,1920
"Farmacia la Pret Mic RO",RO,264,8797,13,218,26882,4287,23,1829,274,768,2912
"Merqueo - Bogota CO",CO,264,2864,13,176,6653,5918,13,255,94,218,585
"PriceSmart CR",CR,264,3511,11,43,52326,3523,3,13728,84,943,14782
"E.Leclerc Gliwice",PL,260,7884,28,674,21570,7025,24,1071,473,1727,3321
"MaxiCoffee FR",FR,257,5610,18,116,13967,1581,428,697,453,183,1767
"Globus RU",RU,255,13431,310,317,45030,29,14,1422,199,6,1676
"Apteka Medkon",PL,254,6669,439,439,27897,8393,13,3917,928,1352,6236
"Dunnes IE",IE,253,13526,11,741,20882,9957,7,653,1104,387,2186
"Supermarket AM",AM,252,7015,5,18,16662,0,5,947,42,1,1009
Wapteka,PL,252,18688,1020,1070,64333,34268,6,4844,660,587,6163
"Delitea SE",SE,251,9982,19,241,24370,5597,5,176,110,82,394
"Mercado Libre AR",AR,250,29398,759,1078,60152,651,146,644,1775,87,2695
"Afya Pharmacy BG",BG,247,9771,3,166,32510,1799,13,2133,178,296,2641
"Helpnet RO",RO,245,6909,8,248,19485,2866,5,1297,114,134,1564
"Szybki Koszyk",PL,245,4264,2,86,14601,564,115,616,42,39,828
"Olimpica CO",CO,241,10432,12,315,42138,1081,13,1828,767,60,2701
"Farmatodo CO",CO,238,12722,25,3596,58950,5941,12,636,4507,100,5300
"Lisek App",PL,232,1898,23,150,2305,1046,3,8,71,295,386
"Gorillas App IT",IT,231,900,0,900,2158,5541,6,14,14,170,207
"Merqueo - Medellin CO",CO,230,2167,5,156,4861,5080,13,216,76,196,506
"Metroiroda HU",HU,230,3409,6,265,6898,1300,4,681,458,130,1278
"Disco AR",AR,228,8246,143,433,34384,1180,85,3274,1405,50,4836
"Chedraui MX",MX,227,30880,70,84,92928,0,9,1540,54,0,1651
"Linio CL",CL,227,50094,529,1786,82033,0,115,706,889,1,1798
"Rappi - Exito CO",CO,224,17829,1083,1172,51747,9720,100,7691,12888,375,21082
"Coop UK",UK,223,9085,10,680,212956,8801,5,4575,537,1375,6677
"Benu HU",HU,218,4979,3,348,15954,2743,6,2287,1118,371,3808
"Beauty Bay UK",UK,216,12170,12,25,50310,0,4,401,52,1,496
"Перекрёсток Впрок RU",RU,215,16048,48,572,36392,2325,14,897,292,56,1293
"Booker Foodservice UK",UK,214,11837,78,1024,22066,3522,128,451,496,117,1221
"Superpharm Apteka",PL,214,489,23,489,30287,14358,6,254,503,209,997
"Merqueo - Cali CO",CO,213,1610,4,65,3869,981,9,168,33,34,248
"Igooods RU",RU,212,16160,10,346,35461,39,9,231,246,6,528
"Exito CO",CO,210,9571,52,810,38608,3066,119,2928,1671,316,5069
"Vodovoz RU",RU,209,1120,4,27,2299,0,11,462,53,1,531
Cocolita,PL,208,10531,13,202,46664,11542,4,1427,360,1098,2943
"Yandex Market RU",RU,206,53399,2397,3141,68626,0,16,3383,2289,89,5906
"Booker UK",UK,205,8889,125,1264,16891,9102,119,366,599,676,1783
"Pyaterochka App RU",RU,205,5513,10,308,14678,383,6,243,146,4,420
"Утконос RU",RU,204,888,291,888,82607,1172,21,401,464,36,981
"Minifarm RO",RO,203,2637,6,150,4387,141,6,570,117,110,813
"Emag HU",HU,199,105089,216,1267,105130,7267,9,1700,1572,172,3621
"Getir IT",IT,198,1927,3,39,4820,8258,5,102,21,109,240
"Rappi Lider CL",CL,198,16510,1211,1277,77417,1220,10,5453,3861,32,9419
"Rappi - Carulla Express CO",CO,197,12919,565,660,30264,7086,124,5362,11419,285,17212
"Rappi Turbo CL",CL,185,0,0,0,0,0,155,522,19,21,718
"Deliberry - Caprabo ES",ES,184,8543,0,0,9657,0,14,768,59,1,851
"Rappi - Carulla CO",CO,183,14090,768,857,41619,9444,127,6247,13733,360,20489
"Panda Market HU",HU,182,2469,11,156,6131,1255,4,146,75,107,338
"Rappi - Exito Express CO",CO,182,12104,1040,1042,30728,5627,155,6630,13931,314,21044
"Mercado Libre CL",CL,180,41266,624,907,64277,1169,201,625,432,58,1367
"Deliberry - Solri ES",ES,178,9124,0,0,10235,0,18,761,36,1,824
"Rappi Turbo CO",CO,177,2187,35,35,9539,0,150,5522,136,19,5831
"Tiendas Jumbo CO",CO,177,14680,22,819,44853,5157,15,1431,879,165,2532
"Coursesu FR",FR,176,4255,50,88,8719,1325,13,10139,1343,2055,13555
"Deliberry - Mercadona Barcelona ES",ES,175,5718,0,0,6855,0,12,734,1360,1,2112
"Deliberry - Mercadona Madrid ES",ES,173,5651,0,0,6764,0,13,696,1417,0,2130
"PennyDomu CZ",CZ,173,1736,0,1,4931,0,75,232,3,1,316
"Rappi Jumbo CL",CL,172,16217,1277,1657,59740,1384,10,4752,2032,32,6877
"Rappi Unimarc CL",CL,167,12430,610,719,24559,1257,10,2771,1307,32,4141
"Everli - Coop IT",IT,162,12024,3,211,13172,7460,38,639,106,561,1359
"Deliberry - Supercor ES",ES,161,4086,0,0,5010,0,15,656,14,1,689
"Professional Farmaline RO",RO,155,8615,0,107,18366,2679,4,512,69,57,663
"Auchan FR",FR,154,1640,6,81,5501,569,150,237,100,129,619
"Rappi Carrefour AR",AR,153,6047,62,104,7258,0,86,1281,345,20,1737
"Dirck3 NL",NL,151,518,1,25,2446,144,8,100,13,24,152
"Rappi Coto AR",AR,151,8893,275,309,19699,0,89,2641,1430,23,4197
"Rappi - Pricesmart CO",CO,148,1777,13,15,4916,1016,77,2393,1778,77,4329
"Look Fantastic UK",UK,147,17037,48,135,54093,0,3,762,93,1,929
"Everli - Metro IT",IT,146,2502,0,32,3334,1457,36,278,18,297,633
"Deliberry - Dia ES",ES,143,4171,0,0,5032,0,17,594,1,1,617
"Deliberry - La Plaza ES",ES,143,4250,0,0,5109,0,13,604,102,0,723
"Rappi Turbo PE",PE,143,1329,23,23,4040,1724,135,2026,115,125,2404
"Medexpressz HU",HU,137,1373,0,87,2942,0,3,294,60,2,361
"Nazuby CZ",CZ,135,1768,0,69,6074,163,5,119,47,24,205
"Subra BG",BG,133,7771,7,144,19524,4980,13,229,75,614,961
"Alkohol CZ",CZ,131,4223,0,0,11768,0,19,1004,2,1,1035
"Automercado CR",CR,131,12149,22,63,18852,0,14,2280,364,0,2671
"Rappi Turbo AR",AR,129,990,0,1,3558,0,153,2149,34,24,2362
"Coop EE",EE,127,8867,0,24,19328,1842,2,413,13,56,496
"Extra BR",BR,127,94711,559,672,94711,0,48,1497,331,17,1969
"Ozon RU",RU,124,56106,2995,3049,84497,416,541,2670,14040,1402,18904
"Cora Drive BE",BE,122,13848,215,225,91864,4377,10,3788,286,1339,5508
"Condis ES",ES,121,6626,1,1,7007,0,4,193,17,0,222
"Rappi Farmacity AR",AR,114,6264,180,196,19042,0,125,3705,1830,21,5693
"Amazon Fresh DE",DE,112,9039,182,182,14084,6724,82,841,128,162,1223
"Vea Digital AR ",AR,104,2456,105,303,10068,1005,89,1506,2813,43,4458
"Farmacia Pasteur CO",CO,103,7177,59,3298,46344,601,10,1379,2143,25,3588
"Farmacity AR",AR,97,225,3,225,5994,1164,2,271,103,39,417
"Vitania BG",BG,96,7316,6,149,7316,4272,11,368,73,159,627
"Koffievoordeel NL",NL,95,474,5,56,2905,1253,5,421,33,29,492
"Savage & Whitten IE",IE,95,3695,16,148,7390,909,9,359,70,75,521
"Everli - Kaufland",PL,94,19753,216,492,47990,3624,26,1926,583,280,2929
"Everli - Lidl",PL,91,3413,99,99,23567,3075,22,1211,278,268,1813
"Kaufland DE",DE,90,28445,187,360,36055,729,62,764,315,38,1213
"Kaffedeal DK",DK,88,394,0,33,1008,826,7,52,17,33,110
"PriceSmart GT",GT,87,1600,0,20,14016,2204,7,3693,40,706,4454
"Brack CH",CH,81,7825,6,104,19059,1892,57,256,96,153,579
"Okey RU",RU,81,4030,392,562,4069,271,13,300,1504,24,1859
"Comfandi Supermercados CO",CO,72,4441,0,0,8989,0,10,855,0,1,874
"Durst DE",DE,69,1121,69,1121,1190,0,4,17,18,1,44
"Droguerias Cafam CO",CO,68,4323,1246,2949,11105,1417,20,610,4724,60,5422
"Pretty Little Thing UK",UK,68,2206,13,41,11708,0,11,2669,392,2,3088
"Rappi Cruz Verde CL",CL,64,4478,501,640,29448,1280,8,1887,886,32,2832
"Rozetka UA",UA,62,66447,457,919,85668,0,108,5329,445,1,5993
"Kaffekapslen DK",DK,61,807,0,71,1851,1524,45,59,54,132,291
"PedidosYa DIA AR",AR,61,2594,27,27,2594,0,4,39,14,2,62
"Emag RO",RO,60,57061,217,536,57065,5203,5,973,890,190,2122
"Kapselkongen DK",DK,57,272,0,59,550,690,25,56,55,39,176
"Comfandi Droguerias CO",CO,56,4553,18,18,8938,0,13,1121,36,1,1179
"Asos UK",UK,55,8443,54,67,21115,0,28,227,73,2,368
"iDrinks HU",HU,52,6507,168,187,14038,252,5,1136,196,52,1403
"Bigshop MK",MK,51,1029,1,54,3809,550,106,195,37,115,455
"Expert DE",DE,51,985,1,1,1058,0,97,80,268,20,470
"Jumbo AR",AR,49,2875,76,133,9477,765,4,354,75,30,476
"Winelivery IT",IT,49,1387,0,15,3070,0,3,217,10,0,233
"PedidosYa Carrefour AR",AR,48,3993,30,54,3993,0,3,51,27,1,86
"Very UK",UK,47,3791,43,94,4107,0,14,83,43,1,152
"Bol NL",NL,45,228,154,233,35070,2366,39,2341,515,515,3436
"Media Markt DE",DE,45,0,0,0,0,0,389,3414,1,2889,6694
"Carrefour AR",AR,41,3370,13,278,10041,500,80,749,709,26,1571
"Altex RO",RO,37,2376,0,101,4645,2036,3,201,159,109,478
"BilkaToGo DK",DK,37,3847,1,154,22421,1541,10,96,72,36,247
"Ep DE",DE,37,245,0,0,794,0,77,143,2,1,224
"Selver EE",EE,37,3693,0,24,10103,2742,3,232,30,215,486
"Jumia EG",EG,35,2217,8,37,4053,69,96,102,21,20,241
"Saturn DE",DE,34,733,0,1,1311,87,134,8825,16,7933,16911
"Galaxus CH",CH,33,9566,69,97,9566,963,15,1857,88,1285,3256
"Kesko FI",FI,31,4465,0,0,62832,9144,17,1255,0,981,2307
"Avansas TR",TR,28,611,0,0,660,0,2,22,0,1,26
"John Lewis UK",UK,28,16,3,16,511,180,4,79,15,88,187
"Americanas BR",BR,27,4929,21,22,34322,0,852,3140,73,1,4085
"Mercator SI",SI,27,12676,72,233,12676,2276,8,27,118,81,258
"Carrefour FR",FR,24,10540,15,162,15469,1537,5,1075,676,314,2078
"Datart CZ",CZ,20,904,10,12,1316,942,14,138,14,60,231
"MyDeal AU",AU,20,3977,75,3977,9717,954,3,70,1251,55,1380
"Shoplink IE",IE,18,141,0,122,423,1749,30,44,79,129,283
"Boulanger FR",FR,17,882,2,47,2068,373,23,119,109,142,395
"Euronics DE",DE,15,9642,17,188,38084,0,32,959,36343,2,37376
"Qvc US",US,14,15509,81,100,16981,0,14,183,359,0,570
"BCC NL",NL,11,1921,2,12,2539,668,6,138,15,55,221
"El Corte Ingles ES",ES,11,3933,1,139,5103,686,44,228,665,57,999
"Leclerc FR",FR,10,262,26,79,524,783,33,430,2692,974,4130
"Wildberries RU",RU,10,54209,1380,2185,56232,1570,10,174,1348,44,1746
"Mediaworld IT",IT,9,274,20,36,548,1489,28,122,94,249,494
"Coles AU",AU,8,317,12,307,637,389,7,102,1464,294,1867
"Intermarche FR",FR,8,456,0,115,882,886,4,41,312,244,602
"AO UK",UK,7,809,9,21,1082,281,63,45,20,44,185
"Woolworths AU",AU,7,1303,12,1303,2099,349,4,70,540,31,647
"Unieuro IT",IT,6,1724,0,14,2156,1147,3,18,8,59,94
"Barrys Beacon IE",IE,4,155,6,122,155,389,7,36,62,133,238
" SberMarket - Lenta RU",RU,0,0,0,0,0,0,9,22,1,90,122
"0815 DE",DE,0,0,0,0,0,0,2,10,1,3,16
Allegro,PL,0,1109,0,1109,0,0,0,0,14010,0,14010
"Cruz Verde CO",CO,0,0,0,0,0,0,10,63,2,39,124
"Easy CL",CL,0,0,0,0,0,0,3,81,12,11,107
"Elefant RO",RO,0,0,0,0,0,1907,1,11,1,28,41
"Linella MD",MD,0,0,0,0,0,0,6,1,1,1,11
"Metro Delivery RU",RU,0,0,0,0,0,0,23,37,19,29,108
"SberMarket - Metro RU",RU,0,0,0,0,0,0,5,24,2,117,149
"Sodimac CL",CL,0,0,0,0,0,0,16,119,2,1,138
"Soriana MX",MX,0,0,0,0,0,0,2,15,2,1,20
"Superdrug UK",UK,0,0,0,0,0,0,45,55,0,124,224
"Tottus CL",CL,0,0,0,0,0,1242,6,119,4,19,150
