﻿Site,Country,Categories,Prices,"Products changed","Products downloads",Relations,Search,"Categories time","Prices time","Products time","Search time","Total time"
"Ocado UK",UK,6555,48964,112,2432,2087983,40545,774,21674,1225,1220,26352
"Mytime DE",DE,4846,11951,22,150,104545,3039,2124,2826,73,165,5235
frisco,PL,4707,2109,22,2109,317051,94701,69,5520,4598,511,10899
"Asda UK",UK,3515,29182,32,2150,984080,50955,27,11127,925,1122,14068
"Makro CZ",CZ,3427,7900,5,16,791380,428,3252,26140,51,50,29834
"Albert Heijn NL",NL,3422,21699,6,226,105488,4384,441,1582,31,80,2208
"Morrisons UK",UK,3136,21090,57,1997,95615,31486,610,5430,1744,2079,10042
"Waitrose UK",UK,3074,15946,14,1058,1509456,32228,89,24645,450,865,27486
"Metro SK",SK,3044,6252,0,2,286677,0,2890,22170,25,0,25199
"Coto Digital AR",AR,3006,19708,1547,3272,133732,1190,3114,7333,2475,51,13028
"Rohlik CZ",CZ,2995,24249,81,934,226910,26533,2876,4123,608,886,8608
"Albert Heijn BE",BE,2864,10124,1,90,50547,6378,420,1332,25,125,1938
"Notino SK",SK,2723,894,875,894,120495,163,1397,6854,2173,17,10629
"Kosik CZ",CZ,2680,17324,69,823,100551,35809,468,1742,403,1034,3723
"Galen BG",BG,2664,14122,12,196,98541,4936,1489,2588,121,124,4410
Auchan,PL,2566,16791,35,1281,516381,25670,45,16673,852,3653,21572
"Pilulka SK",SK,2527,39630,119,375,247981,11511,22,5769,222,428,6558
"Drogeo CZ",CZ,2477,715,60,715,124443,42534,22,2389,387,758,3637
"Samokat RU",RU,2470,5047,32,165,54712,140,16,40,76,17,185
"Amazon Fresh UK",UK,2423,9458,699,699,50978,17734,1588,26727,430,409,29281
"Notino CZ",CZ,2375,298,297,298,57299,75673,1198,7497,441,1443,10778
"Pilulka CZ",CZ,2300,32095,166,562,165508,34641,20,4109,374,842,5445
"Sainsburys UK",UK,2268,29817,6,2402,1824732,83211,229,28247,1928,1805,34523
"Amazon UK",UK,2206,1612,42213,42200,1788533,35297,0,0,0,23187,23187
"Amazon Fresh IT",IT,2038,7681,690,691,36477,3227,2917,4892,1884,670,10385
"Drogerie Natura",PL,1994,15662,13,695,84738,50318,85,5418,1197,4916,11702
"Boots UK",UK,1977,25777,1051,9498,152274,7959,29,4129,18635,288,23263
"Auchan HU",HU,1904,29266,5,1983,238032,10315,20,4909,1160,526,6778
"Brakes UK",UK,1895,9541,7,212,28665,30815,861,1821,96,319,3136
"Jumbo NL",NL,1809,17881,43,276,67941,4242,1185,1914,293,114,3555
"Yuga RO",RO,1690,9087,20,69,45287,1255,2079,4711,3323,141,10291
"Cefarm 24",PL,1661,13649,25,833,100039,14972,2271,4179,1183,5429,13122
"Alza CZ",CZ,1611,30160,531,596,118215,29284,276,1662,395,1480,3872
"Delhaize BE",BE,1603,14059,67,441,60484,16803,14,2481,289,685,3509
"Otto DE",DE,1584,152,105,160,66191,194,737,948,557,17,2289
"Apteka Nowa Farmacja",PL,1367,16033,148,1038,84569,23046,10026,3384,1178,1903,16553
eZebra,PL,1364,42258,55,1508,150738,37345,43,8482,1940,7875,18490
"Alza SK",SK,1347,13495,57,173,57266,3799,178,505,50,122,884
"Tesco UK",UK,1327,27821,24,2501,340756,23737,20,10670,1223,8764,21165
"Barbora EE",EE,1319,13919,67,114,50283,1253,40,1775,55,88,1984
"Coop CH",CH,1311,18584,30,107,68329,2126,307,2072,221,146,2798
"Remedium BG",BG,1308,26765,12,257,94080,1541,416,8369,577,187,9622
"Picnic NL",NL,1305,7072,7,88,16250,2243,590,1031,48,78,1765
"Rewe DE",DE,1242,1809,3,50,4454,1074,24,4705,55,1216,6018
"Kifli HU",HU,1240,14036,44,1573,56542,10228,566,599,728,377,2323
"E-Fresh GR",GR,1218,12397,23,605,60308,6625,2319,4208,1253,656,8480
"Barbora LT",LT,1212,17367,67,105,57050,1324,40,1636,59,76,1849
"iGlobus Zlicin CZ",CZ,1212,19091,145,550,35637,10498,16,3095,944,532,4629
"Amazon DE",DE,1183,170,170,170,486281,13090,0,0,0,3233,3233
"Moja Lekaren SK",SK,1169,24254,279,387,132072,4699,583,3540,191,170,4568
"Lekarna CZ",CZ,1162,28722,274,596,126883,5123,569,3374,289,172,4497
"S-kaupat FI",FI,1157,42588,91,359,325938,6371,4,2740,310,140,3367
"Barbora LV",LV,1139,13947,102,135,47352,1394,55,2082,76,99,2338
Hebe,PL,1115,1710,1137,1710,154512,36911,648,3702,2928,1035,8417
"Albert App CZ",CZ,1075,8148,0,28,59202,2680,532,2022,18,73,2691
"Eroski ES",ES,1053,24531,41,215,51878,569,23,3679,165,45,3943
"Knuspr DE",DE,1047,11650,33,176,48396,1534,493,491,80,154,1252
"Mathem SE",SE,1047,12251,7,510,33631,7449,21,1112,762,502,2420
"Picnic DE",DE,1041,7113,5,159,14312,1857,467,878,71,164,1590
"Amazon IT",IT,1032,540,535,540,537026,6534,0,0,0,1061,1061
"Dr Max SK",SK,1031,22935,18,566,93312,7145,708,5095,669,378,6895
"Auchan RO",RO,1009,25167,30,578,433853,7501,15,5569,511,431,6860
"Salcobrand CL",CL,1000,7437,42,7436,32394,1176,267,600,4148,15,5053
"Zakaz - Novus UA",UA,1000,17620,10,19,37315,0,6,3042,14,1,3107
"Coop NL",NL,994,16682,0,99,71692,1014,1703,2190,224,70,4234
Bee,PL,986,52239,221,684,181213,9522,460,3384,332,235,4614
Selgros,PL,978,21532,819,1278,74800,28623,445,905,574,1578,3584
"Vkusvill RU",RU,975,9583,205,205,37347,1514,360,5598,492,245,6730
"Carrefour BE",BE,947,18767,24,513,280883,20295,888,11474,356,6286,19156
"Coop SE",SE,925,10020,45,516,34276,7935,17,912,243,219,1420
"Coop Shop IT",IT,924,11294,24,384,33919,6225,13,652,266,400,1357
"Unipatika HU",HU,873,4392,7,303,31090,4688,656,1253,158,263,2355
"Pilulka RO",RO,865,10544,44,192,44802,3451,7,417,105,84,659
"Magnit App RU",RU,860,4000,6,90,11575,0,6,1270,63,2,1352
"SuperValu IE",IE,844,16224,13,2435,221747,12833,867,16762,2654,641,21231
"Tigros IT",IT,837,10111,4,546,30374,7115,11,505,316,243,1102
"Ebag BG",BG,819,11510,70,158,42966,1568,9,1290,108,27,1467
"Wong PE",PE,811,23591,57,409,145568,1828,16,7984,7399,70,15542
"Apteka Manada",PL,805,14493,18,1105,48342,38026,36,1901,1592,2236,5829
"Tesco IE",IE,789,16997,12,897,415995,4387,10,9029,428,909,10730
"Walmart MX",MX,789,23620,187,187,102556,0,80,11671,282,0,12072
"Polski Koszyk",PL,788,20722,19,1040,66924,2011,19,856,564,68,1597
"Superpharm Drogeria",PL,780,770,49,770,101236,37525,25,1599,1258,437,3402
"Zakaz - Metro UA",UA,764,10330,24,81,20695,0,6,2598,123,1,2760
"eZiko Apteka",PL,763,7270,29,592,43338,18683,342,1784,280,1049,3496
"Auchan RU",RU,761,24069,289,746,75984,1348,8,1603,555,35,2259
"Dr Max CZ",CZ,758,20369,27,676,86172,7904,329,4540,642,437,6000
"Masxmenos CR",CR,730,8921,24,24,24387,0,28,2186,50,6,2281
"Walmart CR",CR,730,13884,40,343,177547,4938,21,7303,539,173,8116
"Sklavenitis GR",GR,729,10054,6,270,30153,4395,103,1303,146,283,1861
"Bringmeister DE",DE,721,15982,73,329,43403,4390,15,372,148,142,719
"Apteka Gemini",PL,718,27400,139,1524,94903,64726,17,3114,706,787,4726
"Mall CZ",CZ,718,4580,531,4579,104631,16080,663,841,7593,2986,12208
"Cruz Verde CL",CL,717,9796,4,938,146161,1379,24,18167,434,15,18701
"Rimi LV",LV,715,14989,11,72,43978,5360,15,749,78,114,984
Barbora,PL,711,9345,76,879,121345,10057,38,3081,470,994,4704
"Intervare DK",DK,710,9191,217,319,26587,0,8,333,148,110,618
"Lunys SK",SK,709,5317,35,38,18878,0,469,1005,50,2,1555
"Rimi EE",EE,708,12314,13,54,36143,3701,7,741,58,117,943
"Tesco CZ",CZ,708,16995,71,1288,561082,24951,9,11667,719,3969,16676
"Gurkerl AT",AT,698,9722,16,121,35385,3342,335,327,56,112,863
"Walmart AR",AR,692,0,0,0,0,0,508,1157,0,1,1667
"Bennet IT",IT,676,19237,183,1058,38787,15117,10,1076,473,817,2415
"Esselunga A Casa IT",IT,660,15248,30,625,46147,16820,30,5613,1308,1606,8593
"DM SK",SK,659,12537,40,66,35801,2152,7,1247,33,104,1425
"Maxi RS",RS,659,7889,42,164,26059,6690,9,468,76,116,689
"Poiesz NL",NL,656,7850,0,10,10062,126,18,502,3054,8,3595
"Rossmann DE",DE,656,16093,16,104,55727,459,751,1140,96,19,2044
"Rimi LT",LT,654,14610,18,66,43761,3387,13,706,71,82,902
"Hoogvliet NL",NL,652,8794,28,101,14354,1867,12,717,103,94,943
Amazon,PL,651,680,669,675,968740,25097,0,0,0,491,491
"Tesco SK",SK,650,16147,47,133,232341,829,18,4662,121,122,5065
"Apteka Rosa",PL,648,10187,1,31,62489,2055,14,3365,51,141,3630
"City Gross SE",SE,647,12753,1,518,28024,8902,13,353,242,366,999
"DOZ.pl",PL,646,19558,29,1464,79838,55975,389,2272,784,1851,5394
"Tesco HU",HU,646,15379,11,2243,1025754,8492,7,22065,1492,2027,26129
"Rossman HU",HU,640,15004,17,985,54647,7791,600,770,1597,170,3193
"Crai Spesa Online",IT,639,358,13,381,25239,6855,422,1157,898,975,3465
"Mercator SI",SI,631,12721,31,199,38163,2280,301,287,95,81,804
"E.Leclerc Bielany",PL,625,31832,38,2558,101420,35402,97,3570,1148,21321,26246
Apteline,PL,618,979,21,979,83350,15893,419,1248,657,482,2865
"Colruyt BE",BE,606,7937,2,281,94107,14013,7,14514,812,1908,17344
"Thanopoulos GR",GR,598,15763,13,294,52210,9102,7,4503,328,686,5566
"Apteka Galen",PL,594,7932,2,252,18462,3244,17,2873,1120,848,4889
"Pingvinpatika HU",HU,591,7540,15,310,41165,2841,9,4932,455,302,5720
"Plus NL",NL,591,15850,20,249,31261,3785,36,2632,127,175,3019
"Benu CZ",CZ,588,14254,103,447,66675,5898,8,7421,501,70,8037
"Willys SE",SE,588,10615,3,440,35155,6875,13,332,210,223,804
"Carrefour EG",EG,578,16432,93,195,87092,411,3,1353,201,20,1622
"Bestway Best-one UK",UK,574,6495,18,55,21031,11965,332,437,47,351,1247
"Bestway UK",UK,574,9104,19,530,29240,28895,328,499,293,756,1919
"E.Leclerc Wroclaw",PL,571,16502,173,1438,16898,12816,508,1912,2218,5168,9853
"Bestway Foodservice UK",UK,569,10438,8,210,33202,3949,330,520,164,111,1170
"Glovo Kaufland RO",RO,567,9095,856,9095,16182,0,7,279,131,1,435
"Zakaz - Metro MD",MD,567,10734,3,64,18162,0,6,1395,430,1,1850
"Dr Max",PL,566,13752,30,807,51536,25082,256,2924,798,1076,5113
"Spar HU",HU,564,15387,481,1856,353070,11467,14,7956,3637,412,12212
"Kritikos GR",GR,562,16699,30,368,47197,0,5,32,167,6922,7175
"DM HU",HU,561,12658,23,856,34475,9766,6,1209,382,329,1964
"Superdrug UK",UK,561,13513,161,354,41923,6716,14,566,515,1131,2369
"AB GR",GR,560,11396,18,512,34795,8012,6,565,232,220,1069
Lek24,PL,560,5878,30,71,20961,4333,12,1132,33,218,1420
Spar,PL,559,25358,1786,2092,673605,77017,28,11924,1013,2085,15522
"Vasalekaren SK",SK,558,10184,20,161,63043,3983,1531,9202,358,634,11750
"Yandex Lavka RU",RU,556,2904,39,152,8256,0,97,724,258,194,1282
"Apteka Melissa",PL,552,27188,167,1777,79452,60756,25,5538,1299,1068,8002
"Chronodrive FR",FR,548,7907,31,118,14571,2092,12,488,87,108,704
"DM CZ",CZ,548,12411,32,887,33916,32839,8,1179,398,1035,2656
"Pão de Açucar BR",BR,548,23647,54,121,56871,0,16,2111,89,1,2248
"Jumbo CL",CL,546,21119,19,2320,526286,1369,22,7184,1740,86,9298
"Freshful RO",RO,542,19614,64,146,40065,361,7,883,73,16,1025
"Coop DK",DK,540,10940,190,211,71826,1196,252,2506,242,39,3097
"Univerexport RS",RS,539,9738,14,133,19476,1314,17,571,149,234,992
"MyMarket GR",GR,538,14539,125,309,52025,6964,7,2212,357,351,2966
"Carrefour ES",ES,534,14894,45,202,17970,415,23,564,573,32,1216
"E.Leclerc Rzeszów",PL,534,12713,41,1664,37332,26061,33,675,676,815,2243
"Drogeria Olmed",PL,522,506,68,506,148054,26467,26,11548,305,2276,14240
"Cold Storage SG",SG,516,9603,3,29,29937,0,571,2256,32,0,2865
"Plazavea PE",PE,516,26110,38,293,191339,1841,17,4878,144,193,5352
"Apteka Zawiszy",PL,505,20180,79,1054,79511,21220,243,901,545,451,2223
Rossmann,PL,504,1204,6,1204,79617,31697,20,879,1235,705,2914
"Hemkop SE",SE,503,10388,7,449,32511,7212,11,274,208,221,745
"Benulekaren SK",SK,501,9386,31,433,49330,6754,7,3978,310,134,4459
"Interspar AT",AT,499,21194,12,230,66807,6365,8,658,293,141,1165
Intermarche,PL,496,18651,22,2505,161650,14564,16,3354,1169,1426,6220
"Idea RS",RS,490,12037,5,182,20940,6940,84,534,85,101,830
"Metro RU",RU,488,20055,117,590,26450,1386,7,2478,611,82,3213
"Migros Online CH",CH,484,12370,11,65,38386,1332,24,1328,52,186,1624
"Spar SI",SI,482,16796,16,217,58511,2700,10,628,260,102,1053
"Mega Image RO",RO,481,12447,5,368,37257,9817,6,610,168,175,1001
"Famila a casa IT",IT,478,12228,1,124,28962,6443,817,1493,276,313,2921
"Dr Max Drogeria",PL,477,16846,45,682,53467,6651,202,2522,907,254,3943
"E.Leclerc Radom",PL,472,13586,67,1314,42717,10356,80,2699,629,2118,5587
Ceneo,PL,465,196339,1314,6516,262720,45621,998,2499,5228,682,9747
"Carulla CO",CO,464,10877,34,413,61624,4948,11,2292,337,500,3176
"Apteka Olmed",PL,463,1104,69,1104,160001,20534,16,11486,623,1864,14067
"Basko IT",IT,462,8424,18,436,25759,1552,6,276,484,47,840
"e-Dostavka BY",BY,460,32915,156,502,83917,2032,5,7674,233,152,8121
Aptelia,PL,459,638,78,638,72935,10090,212,2059,291,332,2941
"GPSfarma AR",AR,457,6013,19,376,26930,1170,18,2963,457,104,3557
"MegaMarket RO",RO,447,5317,0,8,6419,569,8,1250,11,187,1466
"eTabletka SK",SK,441,11951,0,111,81587,6804,315,7777,84,87,8296
"Patika24 HU",HU,440,4407,1,249,10725,3218,6,572,337,88,1011
"Lider CL",CL,439,12916,96,2165,244963,1043,45,14941,4693,99,19901
"Cornershop - Jumbo CL",CL,438,26067,0,1028,143527,1354,19,823,463,119,1538
"Dr Max RO",RO,435,15216,74,342,43433,8729,196,1850,381,356,2821
"Lopido CO",CO,433,10788,6,86,20960,563,3,7733,522,89,8360
"Unimarc CL",CL,433,11033,14,511,33073,1135,20,2280,872,88,3275
"E.Leclerc Lublin Turystyczna",PL,432,13202,10,1476,16220,13401,18,1087,2831,4264,8235
"Ecofamily HU",HU,430,6727,6,778,21780,4146,6,2169,4220,646,7060
"Cornershop - Lider CL",CL,429,18763,4,2393,121513,1305,18,1018,906,96,2125
Stokrotka,PL,428,7757,41,932,177669,12330,24,2868,454,410,3967
"Kruidvat NL",NL,421,8779,55,86,24463,1758,205,818,98,109,1259
"E.Leclerc Katowice",PL,417,8677,18,1096,9157,9538,102,407,541,1460,2531
"Bringo RO",RO,408,32900,316,27956,56490,7060,27,2003,1320,723,4129
"iFresh SK",SK,406,7016,438,439,90389,0,9,3173,387,0,3652
"Teta Drogerie CZ",CZ,399,8724,4,538,25361,6797,6,734,640,192,1609
"Farmacia Tei RO",RO,398,418,418,418,25896,3249,6,701,221,160,1104
"Glovo Biedronka Warszawa",PL,397,3209,175,3209,6250,624,7,185,72,103,380
"OnlinePrima HU",HU,397,7462,4,1196,23052,6036,6,1105,882,307,2320
"Apteki 36.6 BG",BG,395,9887,1,150,46855,1293,8,1545,85,90,1757
"Dia AR",AR,393,5139,0,117,16060,664,15,503,162,17,706
"Mercado Libre MX",MX,392,37967,210,847,81091,0,732,895,279,1,1954
"Unimarkt AT",AT,391,3424,21,149,15274,3269,339,803,147,282,1582
"DrankDozijn BE",BE,378,3622,0,77,14725,2255,5,623,122,576,1336
"DrankDozijn NL",NL,378,3621,0,74,14722,250,5,616,117,60,810
"Iceland UK",UK,375,5533,23,351,29548,15375,15,1413,386,3067,4931
"Walmart GT",GT,369,9170,72,382,158028,4323,21,5953,745,225,7022
"Świat Leku",PL,366,11747,12,338,37120,1901,165,1371,279,183,2044
"Talabat Mart EG",EG,363,6218,608,609,46767,103,4,2316,2100,13,4478
"Ulabox ES",ES,363,5560,0,5,11629,0,7,210,7,0,234
"Carrefour IT",IT,360,13467,313,946,37085,4661,172,1005,431,344,1988
"Apteka Prima 24",PL,355,4518,8,42,20644,1435,9,404,28,108,588
"Bebe Tei RO",RO,355,4533,4409,4529,27065,1539,5,826,2105,90,3048
"E.Leclerc Lublin Tomasza Zana",PL,353,10164,41,1337,13398,8877,14,425,693,1067,2225
"Ica New Version SE",SE,353,6956,5489,5542,136715,5437,6,2193,2436,220,4924
"Feedo CZ",CZ,351,675,468,675,61715,507,150,1255,821,24,2325
"Cornershop - Wong PE",PE,347,16916,8,265,50331,1833,13,525,141,195,916
"Gall & Gall NL",NL,347,3284,18,83,22809,67,8,4668,180,19,4892
"Ica SE",SE,345,10859,65,742,642135,12657,6,19967,357,215,20870
"Rossmann App CZ",CZ,344,10961,100,201,36172,0,5,3036,98,2,3171
"Cornershop - Metro PE",PE,341,14872,3,205,48949,1752,14,511,119,167,846
"Majestic UK",UK,340,1366,4,76,16135,1184,149,1691,58,132,2051
Carrefour,PL,339,17154,85,3034,144406,38166,357,2448,2283,2299,7543
"E.Leclerc Elblag",PL,339,10546,14,1033,29176,14538,42,1460,863,2384,4787
"Istegelsin TR",TR,338,4778,11,25,10783,0,25,166,14,1,214
Allecco,PL,335,11954,6,685,41247,10765,20,610,364,179,1215
"Roastmarket DE",DE,334,67,8,67,33080,376,25,643,242,16,944
"Jumbo AR",AR,328,10204,41,805,52657,732,12,2266,413,30,2751
"Mpreis AT",AT,325,8027,1,129,28133,4566,370,800,149,99,1452
"Sipo HU",HU,324,5225,4,152,11623,1444,4,677,89,119,906
"Mercado Livre BR",BR,319,99081,1256,2711,741967,0,648,10029,746,2,11883
"Mercado Libre AR",AR,311,33823,1320,2239,74994,562,182,802,3833,84,4968
"Gastronom BG",BG,307,7729,31,116,24062,881,9,421,76,204,730
"SOpharmacy BG",BG,304,9889,17,160,31248,6468,398,1010,184,210,1827
"Cornershop - Santa Isabel CL",CL,303,7363,1,377,9091,1051,15,574,547,76,1222
Empik,PL,302,200049,2078,3066,593394,33639,80,19423,978,281,21212
"Bipa AT",AT,300,12231,39,97,26690,567,11,323,134,18,527
"Cora RO",RO,300,48130,28,419,96878,6476,4,3975,215,876,5169
"Amazon NL",NL,299,0,0,0,123084,0,0,0,0,17,17
DoDomku,PL,299,5949,85,397,17483,2327,44,299,216,312,887
"Easy Coop IT",IT,299,9149,24,625,24703,9955,7,1706,1253,870,3853
"Mall SK",SK,298,1535,63,1535,30224,1114,333,802,4179,1262,6609
"E.Leclerc Gdansk",PL,295,10397,14,951,28526,8809,46,1459,731,2109,4385
"Tudrogueria Virtual CO",CO,291,8331,75,3871,16058,459,3,280,1788,24,2107
"Apteka Nove BG",BG,287,11413,33,176,40256,6237,9,2798,220,389,3448
Makeup,PL,286,3499,1094,3499,535482,85735,7,13093,1484,1055,15927
"Apteka Medea BG",BG,284,8623,4,155,25635,0,5,1371,122,2,1523
"Sephora US",US,283,79,72,79,125384,0,15,842,45,1,947
"i-apteka",PL,280,9863,207,637,21218,5848,10,435,676,411,1561
"Konzum HR",HR,278,11009,7,158,17388,3442,320,2452,484,432,3703
"E.Leclerc Tychy",PL,276,8882,9,1213,9051,9936,60,291,576,1558,2509
"Argos UK",UK,274,5295,25,3781,7914,0,5,595,14928,2,15551
Makro,PL,271,3153,0,506,8639,31797,10,527,234,1631,2421
"Edeka DE",DE,270,3731,40,63,4969,125,11,310,68,106,503
"Groby HU",HU,268,8191,22,540,21820,3579,7,1385,900,428,2743
"Farmacia la Pret Mic RO",RO,264,8550,16,234,26923,6054,21,1409,524,853,2832
"PriceSmart CR",CR,264,3597,10,49,47136,3541,11,16499,139,1086,17757
"E.Leclerc Gliwice",PL,260,8166,9,724,22310,7238,41,1228,483,1811,3599
"Apteka Medkon",PL,254,7460,522,522,30950,8586,7,4829,1289,1540,7692
"Azbuka Vkusa RU",RU,254,10220,12,78,21443,1276,19,1659,331,209,2236
"Dunnes IE",IE,253,12919,8,704,21635,11969,6,706,994,497,2230
"Globus RU",RU,252,12956,311,314,43548,321,5,1488,189,19,1737
Wapteka,PL,252,18973,1242,1296,65168,42223,11,3604,712,733,5131
"Supermarket AM",AM,250,6946,6,70,17308,0,6,967,147,1,1134
"Szybki Koszyk",PL,247,4303,5,86,14715,609,118,626,45,51,862
"Rappi - Exito CO",CO,246,16886,1463,1660,52007,10314,140,8516,17728,355,26763
"Delitea SE",SE,245,9363,22,414,22860,5646,4,178,189,82,473
"Helpnet RO",RO,245,6913,43,291,19519,5134,4,1909,244,388,2563
"Lisek App",PL,242,2016,29,213,2885,1149,13,17,102,273,417
"Olimpica CO",CO,241,10014,59,341,41169,1252,3,2995,928,106,4060
"Farmatodo CO",CO,238,13158,83,3588,60313,6792,3,518,4488,105,5151
"Carrefour BR",BR,237,10609,139,381,45150,0,14,8500,656,1,9210
"Afya Pharmacy BG",BG,234,10022,11,174,31277,1815,8,2761,221,351,3372
"Metroiroda HU",HU,229,3282,18,264,6645,1238,4,573,513,166,1261
"Disco AR",AR,227,8151,28,362,34048,1172,98,3050,1337,75,4581
"Coop UK",UK,226,8888,2,633,211268,8143,6,5297,722,1444,7814
"Linio CL",CL,226,45809,188,413,78278,0,108,648,418,0,1264
"Rappi - Carulla Express CO",CO,225,12146,1924,2269,28602,6535,140,6170,19391,320,26037
"Getir IT",IT,223,1966,0,51,5343,8294,5,124,33,126,293
"Benu HU",HU,220,4884,0,345,13547,2748,5,2664,568,477,3728
"Beauty Bay UK",UK,217,11870,21,102,49656,0,4,370,86,1,536
"Перекрёсток Впрок RU",RU,215,15823,22,545,35931,2437,4,917,391,73,1419
"Booker Foodservice UK",UK,214,11853,80,1295,22152,2745,135,463,611,97,1347
"Superpharm Apteka",PL,214,527,32,527,30161,24118,6,649,799,333,1823
"Igooods RU",RU,213,16741,26,360,36871,448,4,238,241,18,546
"MaxiCoffee FR",FR,213,5366,20,121,12885,1584,506,823,563,277,2176
"Pyaterochka App RU",RU,211,5538,28,340,14600,1242,5,242,163,15,446
"Exito CO",CO,209,9692,30,800,39048,3125,130,3909,1567,275,5911
Cocolita,PL,208,10810,91,861,47024,15990,7,1873,1749,1729,5418
"Subra BG",BG,206,8369,2,150,21609,4973,11,268,76,646,1025
"Yandex Market RU",RU,206,0,0,0,62218,0,0,0,0,0,0
"Booker UK",UK,205,8898,122,1534,16940,8448,126,377,714,659,1910
"Minifarm RO",RO,203,4879,9,116,13551,527,6,767,124,284,1195
"Утконос RU",RU,203,552,49,552,69216,1486,14,326,325,45,768
"Merqueo - Bogota CO",CO,201,1210,0,68,2669,3168,3,112,36,181,334
"Emag HU",HU,199,105451,635,2247,105484,7061,12,2388,3277,284,6104
"Panda Market HU",HU,199,2455,0,169,6168,986,5,205,81,108,404
"Rappi Lider CL",CL,198,16565,8014,8688,77185,1322,14,5329,12399,31,17829
"Vodovoz RU",RU,191,1154,14,34,2370,0,4,336,61,2,407
"Deliberry - Caprabo ES",ES,184,8543,0,0,9657,0,16,872,91,1,989
"Rappi - Exito Express CO",CO,181,8106,969,1193,16984,3874,102,5617,15936,346,22014
"Merqueo - Cali CO",CO,179,1020,0,44,2325,940,1,102,24,42,171
"Deliberry - Solri ES",ES,178,9124,0,0,10235,0,18,864,48,1,940
"Coursesu FR",FR,177,4020,55,93,6631,1235,42,4323,728,860,5962
"Tiendas Jumbo CO",CO,177,12941,5,731,29171,5404,5,1417,1111,269,2831
"Merqueo - Medellin CO",CO,176,1037,0,65,2226,2646,3,98,35,167,305
"Deliberry - Mercadona Barcelona ES",ES,175,5718,0,0,6855,0,14,821,1770,1,2611
"Deliberry - Mercadona Madrid ES",ES,173,5651,0,0,6764,0,16,789,1831,0,2641
"PennyDomu CZ",CZ,173,1697,0,3,4782,0,164,210,4,1,383
"Rappi Carrefour AR",AR,172,5277,43,219,10686,1171,87,1297,731,70,2190
"Rappi Jumbo CL",CL,172,15953,6207,6301,57130,1398,12,4682,6991,31,11773
"Linella MD",MD,170,6186,63,64,12272,0,6,304,69,1,396
"Rappi Turbo CL",CL,169,1020,0,7,2136,596,169,1134,52,52,1409
"Rappi Unimarc CL",CL,168,11774,544,668,22212,1319,9,2698,1334,31,4090
"Everli - Coop IT",IT,162,12066,4,215,13212,7397,43,932,230,699,1922
"Deliberry - Supercor ES",ES,161,4086,0,0,5010,0,14,726,20,1,767
"Jumia NG",NG,158,7931,48,124,14622,455,81,271,57,21,442
"Professional Farmaline RO",RO,155,8416,3,115,17871,5355,6,553,78,105,766
"Auchan FR",FR,154,1684,5,85,5649,584,187,333,90,138,753
"Dirck3 NL",NL,151,520,0,22,2440,144,4,89,10,25,132
"Rappi Turbo CO",CO,151,2184,146,204,7833,1148,130,4908,535,102,5679
"Rappi Coto AR",AR,150,8008,60,349,18481,990,87,2479,774,52,3404
"Rappi - Pricesmart CO",CO,149,1828,30,38,4729,1634,114,2660,1481,128,4386
"Look Fantastic UK",UK,147,16738,55,88,53116,0,4,738,103,1,939
"Everli - Metro IT",IT,145,2503,0,37,3330,1510,37,381,42,381,846
"Rappi Turbo PE",PE,145,1253,33,33,3911,1700,169,1884,109,103,2267
"Deliberry - Dia ES",ES,143,4171,0,0,5032,0,15,680,2,1,703
"Deliberry - La Plaza ES",ES,143,4250,0,0,5109,0,15,673,111,0,805
"Musgrave IE",IE,139,826,7259,7259,2466,4001,9,425,2054,2323,4850
"Superxtra PA",PA,139,6434,37,37,13587,0,64,72,18,0,163
"Medexpressz HU",HU,137,1382,0,83,2952,0,4,344,51,2,404
"Nazuby CZ",CZ,135,1753,0,69,6029,162,4,186,34,16,246
"Rappi Turbo AR",AR,134,1051,2,23,3660,784,127,2070,110,65,2374
"Alkohol CZ",CZ,131,4427,7,28,12376,0,16,1114,26,0,1166
"Automercado CR",CR,125,11985,44,76,18716,0,27,1954,433,1,2429
"Extra BR",BR,125,75977,1992,2228,75977,0,42,1096,553,17,1769
"Ozon RU",RU,124,59602,2517,2809,95184,1532,541,2577,4414,307,8127
"Condis ES",ES,121,6670,0,0,7058,0,4,187,23,0,224
"Cora Drive BE",BE,120,13934,5775,5837,90834,4620,9,4529,7988,1484,14075
"Mercado Libre CL",CL,111,43535,0,0,60103,1151,107,574,881,46,1661
"Rappi Farmacity AR",AR,111,6031,441,488,17821,1277,140,3507,2907,67,6634
"Amazon Fresh DE",DE,107,9314,335,335,14408,7150,496,5628,200,146,6480
"Vea Digital AR ",AR,104,2415,16,226,9803,1000,97,1539,2654,55,4352
"Farmacia Pasteur CO",CO,103,6950,61,3497,41337,607,3,1280,2731,27,4076
"Farmacity AR",AR,97,242,17,242,6102,1157,8,314,112,39,476
"Savage & Whitten IE",IE,97,3629,19,180,7258,920,9,341,88,77,528
"Vitania BG",BG,96,7295,8,149,7295,4301,6,363,72,165,618
"Everli - Kaufland",PL,94,0,0,0,19709,0,0,0,0,0,0
"PriceSmart PA",PA,92,1646,7,37,18677,969,10,5258,56,395,5728
"Everli - Lidl",PL,91,0,0,0,23548,0,0,0,0,0,0
"Kaufland DE",DE,90,29928,204,423,37774,725,63,682,333,44,1162
"Koffievoordeel NL",NL,90,483,0,49,2887,1294,4,527,52,29,616
"PriceSmart GT",GT,89,1569,2,25,13204,2149,9,3540,28,544,4127
"Kaffedeal DK",DK,82,374,0,25,941,768,3,42,13,33,92
"Okey RU",RU,81,4277,649,1010,4312,926,6,220,2844,107,3192
"Brack CH",CH,80,7806,45,145,19278,1761,60,304,171,173,728
"Comfandi Supermercados CO",CO,72,4461,191,191,9008,0,4,778,412,2,1202
"Durst DE",DE,69,1125,71,1125,1196,0,5,27,18,4,59
"Pretty Little Thing UK",UK,69,2041,14,17,9901,0,14,2317,175,1,2524
"Droguerias Cafam CO",CO,68,4487,917,3005,11361,1437,17,701,5482,57,6262
"Media Markt DE",DE,68,1268,3,41,3314,462,681,4363,280,892,6220
"Rappi Cruz Verde CL",CL,64,4415,1538,1641,29199,1325,5,1830,3355,32,5243
"Rozetka UA",UA,62,71139,992,2400,90217,0,102,5584,809,1,6639
"Kaffekapslen DK",DK,61,805,0,70,1841,1513,51,39,77,198,366
"PedidosYa DIA AR",AR,61,2512,1,41,2512,445,7,73,20,14,117
"Emag RO",RO,60,58220,119,684,58228,5130,6,1145,1173,215,2638
"Kapselkongen DK",DK,57,254,0,56,510,684,22,55,54,33,165
"Comfandi Droguerias CO",CO,56,4433,2450,2450,8743,1147,6,774,4938,121,5844
"iDrinks HU",HU,53,6508,198,217,14275,252,10,1558,269,50,1903
"Bigshop MK",MK,51,1041,0,53,3871,573,109,197,57,127,494
"Expert DE",DE,51,949,0,3,1018,0,186,96,357,9,650
"PedidosYa Carrefour AR",AR,47,3816,28,221,3816,647,7,71,103,13,197
"Very UK",UK,47,3788,20,58,4110,0,14,66,28,1,125
"Carrefour AR",AR,41,3103,153,298,10508,511,91,963,893,28,1982
"BilkaToGo DK",DK,37,3786,8,163,21775,1559,7,83,75,36,225
"Datart CZ",CZ,37,984,7,17,1345,983,4,94,23,63,199
"Ep DE",DE,37,229,0,3,740,0,80,135,8,1,226
"Jumia EG",EG,37,2385,5,25,4680,35,36,142,18,27,225
"Selver EE",EE,37,3944,0,20,10684,2868,4,168,28,163,370
"Altex RO",RO,36,1512,10,86,2995,1832,2,121,119,130,376
"Bol NL",NL,36,267,152,272,19108,2439,29,1868,766,661,3343
"Saturn DE",DE,34,656,4,7,1416,404,299,703,28,2457,3489
"Winelivery IT",IT,34,1174,0,11,2488,0,3,159,8,1,174
"Galaxus CH",CH,33,8277,84,117,8277,1041,17,1840,106,1254,3230
"John Lewis UK",UK,33,19,6,19,581,183,5,87,24,79,197
"Kesko FI",FI,31,4435,0,0,62410,9183,675,1231,0,1130,3077
"Americanas BR",BR,29,5070,3,9,42657,0,314,1289,267,1,1895
"Avansas TR",TR,28,615,2,3,658,0,3,24,4,1,33
"Carrefour FR",FR,24,10188,420,665,13601,1533,10,803,1143,322,2286
"Coop EE",EE,24,26,0,0,52,40,2,13,0,56,73
"MyDeal AU",AU,20,9,2,9,9596,929,3,68,6,56,134
"Deeski NG",NG,19,199,0,17,316,225,11,48,42,31,133
"Shoplink IE",IE,19,151,0,125,453,1785,29,43,89,125,287
"Boulanger FR",FR,17,900,1,47,2105,379,21,133,119,155,430
"Euronics DE",DE,15,9531,16,185,37686,0,34,883,38943,1,39898
"Qvc US",US,14,15719,43,79,17218,0,17,174,342,1,549
"BCC NL",NL,11,1865,2,18,2465,663,8,132,20,54,218
"El Corte Ingles ES",ES,11,3910,0,137,5072,669,59,307,1017,84,1472
"Leclerc FR",FR,10,265,41,82,512,732,33,278,2473,650,3436
"Wildberries RU",RU,10,56598,810,2162,58510,1601,9,171,1285,38,1705
"Coles AU",AU,8,0,0,0,0,0,5,113,0,139,258
"Intermarche FR",FR,8,448,0,113,866,855,3,40,237,187,468
"AO UK",UK,7,766,1,13,1058,292,62,12,14,88,190
"Woolworths AU",AU,7,1473,3,114,2332,368,3,63,45,30,142
"Unieuro IT",IT,6,1701,14,14,2132,1153,3,18,8,45,80
"Barrys Beacon IE",IE,4,156,6,122,156,396,6,28,62,69,166
"Konga NG",NG,3,1109,200,1109,2999,177,131,38,647,21,839
"Rappi - Carulla CO",CO,1,388,46,51,927,9756,68,164,803,400,1441
" SberMarket - Lenta RU",RU,0,0,0,0,0,0,4,18,1,129,152
"Alcampo ES",ES,0,0,0,0,0,0,25,24,13,84,148
Allegro,PL,0,2242,193,2106,0,0,0,0,39749,0,39749
"Billa AT",AT,0,0,0,0,0,6430,181,2,0,1742,1930
"Chedraui MX",MX,0,0,0,0,0,0,6,15,0,2,23
"Cruz Verde CO",CO,0,0,0,0,0,0,2,4,1,42,49
"Drogas La Rebaja CO",CO,0,0,0,0,0,0,4,3545,1,275,3825
"Easy CL",CL,0,0,0,0,0,0,4,79,2,2,87
"Elefant RO",RO,0,0,0,0,0,2018,218,1,1,87,309
"Mediaworld IT",IT,0,0,0,0,0,0,13,2,2,240,257
"Metro Delivery RU",RU,0,0,0,0,0,0,23,21,21,49,114
"SberMarket - Metro RU",RU,0,0,0,0,0,0,7,16,1,115,140
"Sodimac CL",CL,0,0,0,0,0,0,27,74,2,1,105
"Soriana MX",MX,0,0,0,0,0,0,2,17,0,1,20
"Tottus CL",CL,0,0,0,0,0,1238,7,84,1,22,114
