﻿Site,Country,Categories,Prices,"Products changed","Products downloads",Relations,Search,"Categories time","Prices time","Products time","Search time","Total time"
"Amazon IT",IT,13714,530,530,530,339218,22030,0,0,0,384,384
"Pilulka CZ",CZ,7854,47504,316,525,800039,21613,8237,19356,1004,1610,30448
"Ocado UK",UK,6515,45798,274,2863,433067,41038,1356,11425,3569,1909,18687
"Auchan FR",FR,5944,41377,1189,1390,216384,798,8061,12882,1164,129,22325
frisco,PL,4690,15247,28,2774,278037,111327,30,11195,9150,2207,22733
"Pilulka SK",SK,4286,40227,342,342,519802,10489,2713,9867,329,651,13731
"Mytime DE",DE,4131,11394,30,199,95683,1279,1799,2347,95,46,4390
"Samokat RU",RU,3638,5303,14,188,39743,184,20,21,206,79,355
"Albert Heijn NL",NL,3504,21322,5,230,105762,4279,445,1530,28,81,2148
"Morrisons UK",UK,3227,21285,231,2123,98622,31802,615,5567,1951,2032,10286
"Waitrose UK",UK,3094,15908,82,1203,1477884,34273,40,19259,482,845,22060
"Coto Digital AR",AR,3013,18835,174,494,109727,1218,4840,4951,393,47,10278
"Asda UK",UK,2970,27539,76,2178,788543,38520,13,8599,1233,1112,11738
"Albert Heijn BE",BE,2838,8633,0,63,44335,5998,416,1310,11,133,1912
"Rohlik CZ",CZ,2699,23492,72,713,210023,10643,2603,4068,644,556,8014
"Notino SK",SK,2511,7038,7036,7038,261683,90,1137,6646,7533,14,15473
"Amazon Fresh UK",UK,2483,9457,589,589,53976,16192,2189,7179,289,529,10343
Auchan,PL,2473,12157,737,1501,232839,26974,22,9159,941,2556,12828
"Kosik CZ",CZ,2348,14296,34,446,79891,20141,445,1474,214,793,2968
"Auchan HU",HU,2275,24759,529,2302,247182,10594,10,12011,1185,412,13794
"Sainsburys UK",UK,2228,29946,64,2374,1613660,81121,232,26589,1862,1768,32111
"Amazon Fresh IT",IT,2138,7534,689,693,35876,10488,2954,1980,654,352,5956
"Amazon UK",UK,1982,2007,30170,30196,2047690,34875,0,0,0,13922,13922
"Drogerie Natura",PL,1981,27254,59,2288,118475,74968,20,5004,2514,2565,10186
"Boots UK",UK,1922,24857,715,5780,126279,6845,17,3634,8681,184,12640
"Brakes UK",UK,1895,9259,264,453,27818,30915,875,1821,212,315,3257
"Ageo CZ",CZ,1891,426,44,426,95241,19286,12,2235,1762,469,4525
"Jumbo NL",NL,1813,19060,53,326,72718,4296,1229,1922,299,119,3608
"Notino CZ",CZ,1773,687,654,687,232339,12122,787,5627,2355,858,9729
"Yuga RO",RO,1704,8679,16,24,43807,531,1612,3521,3149,50,8380
"Cefarm 24",PL,1698,12866,51,943,83161,12781,1977,4032,966,5809,12824
"Alcampo ES",ES,1691,17095,0,0,69809,567,19890,16985,0,0,36875
"Drogas La Rebaja CO",CO,1687,11947,118,3820,348860,6677,62,11975,4733,466,17350
"Delhaize BE",BE,1567,13943,132,386,58931,22713,10,3853,249,512,4672
"Otto DE",DE,1508,0,0,0,0,169,715,679,15,30,1439
"Rewe DE",DE,1383,9430,3,259,88494,1547,9,2946,430,158,3591
eZebra,PL,1276,40939,72,2528,142176,37873,13,5212,3066,3452,11838
"Tesco UK",UK,1243,28604,196,2648,331843,24807,11,12855,1734,8036,23134
"Kifli HU",HU,1234,14245,45,1501,57922,9560,616,580,689,370,2291
"Picnic NL",NL,1234,6971,5,89,15162,2256,589,1074,43,79,1795
"Apteka Nowa Farmacja",PL,1213,14806,39,960,70082,24147,9162,2295,776,1562,13829
"Barbora EE",EE,1210,12478,68,135,46471,1168,39,1758,67,79,1961
"Barbora LV",LV,1186,11860,86,152,44881,1228,54,1569,75,73,1791
"E-Fresh GR",GR,1182,12202,32,471,60140,6144,2266,4127,984,635,8039
"Barbora LT",LT,1165,12228,36,87,41620,722,30,1228,48,66,1392
"Lekarna CZ",CZ,1126,28331,58,482,125550,4341,668,3395,273,177,4607
"Moja Lekaren SK",SK,1124,24285,85,301,106641,3489,660,2897,162,143,3920
"Amazon DE",DE,1102,293,292,293,728191,5394,0,0,0,2281,2281
"Mathem SE",SE,1044,12875,4,32,28166,5430,5,893,21229,168,22326
"Carrefour BE",BE,1039,19798,36,504,611543,21438,952,12433,136,971,14854
"Coop NL",NL,1020,16678,8,119,70592,966,1656,2996,237,66,4998
"Apteka Manada",PL,1019,14598,38,1171,43074,42026,18,2487,1750,2059,6352
"Salcobrand CL",CL,1015,6955,14,6931,31636,1150,244,590,3562,14,4449
"Walmart AR",AR,1009,13654,80,506,58188,1221,540,4133,2220,55,6981
"Zakaz - Novus UA",UA,1004,31667,133,184,66400,1856,5,1639,84,64,1832
"Eroski ES",ES,1000,25071,14,212,52732,438,8,3043,136,36,3255
" SberMarket - Lenta RU",RU,991,19552,1,8,76552,532,8,6146,84,75,6357
Hebe,PL,975,12184,572,2283,101814,29960,465,1765,1578,901,4776
"Picnic DE",DE,965,6912,2,171,13872,979,456,835,84,58,1442
"Auchan RO",RO,959,22264,34,535,94515,8738,11,898,274,149,1439
"SberMarket - Metro RU",RU,949,17620,80,497,67216,719,9,5421,1097,103,6673
"Knuspr DE",DE,943,11217,38,160,41137,620,438,440,72,45,1018
"Remedium BG",BG,942,27136,15,206,81604,700,223,7545,593,163,8569
"Mall CZ",CZ,927,1745,178,1745,106271,6714,688,1577,6641,3651,12617
"Coop Shop IT",IT,920,10437,0,62,31348,2256,4,519,40,109,690
Selgros,PL,915,21459,884,1152,72048,25053,412,856,518,1426,3271
"Coop SE",SE,914,9884,40,507,33342,5554,5,627,249,167,1066
"SuperValu IE",IE,848,16480,27,787,228030,10585,474,9231,482,466,11016
"Unipatika HU",HU,846,4204,3,287,29357,2529,467,904,143,146,1681
"Tigros IT",IT,830,9976,19,531,29985,6439,4,474,306,230,1032
"Polski Koszyk",PL,810,17036,10,618,57041,7010,6,766,380,359,1586
"Pilulka RO",RO,782,38000,453,453,140761,3583,420,2503,563,175,3756
"Zakaz - Metro UA",UA,775,18259,135,201,37277,2184,4,1268,92,71,1464
"Superdrug UK",UK,763,15644,10,262,45084,5721,12,1149,698,368,2325
"Auchan RU",RU,755,28878,176,846,92643,1115,4,1628,631,82,2418
"Coop DK",DK,742,10966,310,334,89192,1006,351,3370,324,43,4145
"Dr Max SK",SK,738,17158,325,325,69260,5093,494,3114,377,249,4267
"Bringmeister DE",DE,731,16645,56,215,42867,1397,4,450,96,43,619
"Intervare DK",DK,731,9074,180,276,26490,0,5,338,134,106,602
"Walmart CR",CR,730,13751,100,140,178884,0,6,5569,231,0,5884
"Sklavenitis GR",GR,717,9864,34,315,29588,5680,66,792,147,228,1254
"Apteka Gemini",PL,712,27246,85,2566,92270,75578,10,2720,1191,906,4914
"Rimi LV",LV,701,15593,30,86,45914,4871,7,1340,170,165,1703
"eZiko Apteka",PL,701,6340,68,601,35711,37264,304,1495,293,1790,3906
"Dr Max CZ",CZ,686,21016,395,396,85643,5069,901,6003,645,309,7901
"Rimi EE",EE,685,12981,15,48,37643,3723,6,1244,98,176,1546
"Tottus CL",CL,683,9208,148,1288,46968,1054,4,557,643,28,1252
"Liki24 UA",UA,679,33725,138,178,122103,4241,6,5804,1597,192,7700
"Gurkerl AT",AT,673,9232,9,100,32804,2791,405,311,46,101,886
Barbora,PL,670,8041,2,399,66254,3809,19,3546,191,568,4374
"Alza SK",SK,667,13098,47,134,53859,2534,137,592,54,89,896
"Bennet IT",IT,665,18253,220,377,36759,4681,5,1015,171,149,1363
"Metro Delivery RU",RU,664,17528,86,677,54764,13,8,2551,1030,7,3729
"Vasalekaren SK",SK,663,9723,20,163,66872,3308,1517,10011,356,696,12607
"Tesco CZ",CZ,662,16755,3,749,551113,11756,10,11156,509,2203,14159
"Maxi RS",RS,660,8065,51,111,28162,4629,3,431,53,79,580
"Poiesz NL",NL,657,8523,0,11,10764,136,13,525,2155,12,2714
"Tesco IE",IE,654,0,0,0,265232,0,0,0,0,0,0
"Alza CZ",CZ,651,20358,44,556,63793,14080,147,1053,268,660,2159
"Rossmann DE",DE,649,15551,24,117,54297,398,502,1392,151,22,2113
"Crai Spesa Online",IT,643,142,141,142,27360,2404,460,1226,245,279,2222
"Mat SE",SE,641,10359,126,353,32635,8444,1903,279,320,145,2662
"City Gross SE",SE,640,12659,3,516,26610,5904,4,402,245,273,945
"Rossman HU",HU,640,14443,21,1032,51321,7754,7,3048,1253,173,4540
"Rimi LT",LT,634,14937,22,56,44654,3289,6,1254,115,128,1532
"DOZ.pl",PL,622,15394,84,1179,61871,51848,323,1540,509,1661,4094
"DM SK",SK,620,12718,5,30,36081,2178,2,1180,23,46,1268
"Hoogvliet NL",NL,619,8827,31,107,13821,1849,7,436,93,63,611
"Esselunga A Casa IT",IT,616,14732,9,571,43293,15544,12,4438,1111,1340,6941
"Yandex Lavka RU",RU,612,2147,210,210,2740,2288,88,723,228,72,1116
"Tesco HU",HU,608,15199,7,2279,833591,8849,8,16908,1427,1885,20580
Apteline,PL,607,1038,19,1038,82416,18142,456,1378,721,675,3291
"E.Leclerc Bielany",PL,601,31682,57,2527,100228,34126,12,3749,1132,17209,22179
"Tesco SK",SK,596,15069,7,15,215027,211,11,4247,23,46,4496
"Thanopoulos GR",GR,595,15782,30,354,54242,9393,10,4525,3536,666,8768
Amazon,PL,593,423,410,422,760456,17045,0,0,0,233,233
"Apteka Galen",PL,590,8806,24,344,40971,3348,12,1407,291,215,1960
"Metro RU",RU,586,21908,62,695,28748,957,3,1370,355,54,1818
"Willys SE",SE,586,10434,25,458,34519,5064,3,328,216,228,797
"Nuko LV",LV,583,8360,67,67,35962,0,656,1202,230,1,2111
"Bestway Foodservice UK",UK,578,10801,50,391,34171,4611,289,451,241,114,1141
"Bestway Best-one UK",UK,573,6613,19,95,21453,12628,300,374,65,332,1109
"Bestway UK",UK,573,9829,84,704,31523,30361,323,424,349,690,1832
"Dr Max",PL,569,13741,916,916,52321,27398,352,2666,1051,1189,5290
"AB GR",GR,564,11467,122,439,34518,6936,3,1059,226,178,1487
"Spar HU",HU,564,13791,65,296,177577,9893,7,8924,21278,391,30680
"Plus NL",NL,562,15344,7,229,28926,3742,33,1752,111,111,2046
"Pingvinpatika HU",HU,559,7372,23,310,38210,2840,10,4606,435,361,5429
"DM HU",HU,556,11882,24,760,32458,9563,3,1140,331,169,1667
"Kritikos GR",GR,555,15826,29,344,44571,0,3,20,168,6156,6378
"Apteka Melissa",PL,552,27818,1387,1387,88427,56477,18,6227,972,781,8067
"ADD UA",UA,547,12289,16,61,49663,2701,5,2370,1344,41,3796
Spar,PL,547,23336,1535,1824,721976,74390,12,12975,860,1846,16133
"Benu CZ",CZ,543,14057,31,397,62682,5288,7,4678,243,81,5039
"DM CZ",CZ,540,11402,39,375,31272,13638,3,1024,163,256,1461
"E.Leclerc Wroclaw",PL,540,15525,50,1340,15732,13059,482,1845,2107,5781,10241
"E.Leclerc Rzeszów",PL,538,12599,47,1446,36218,31854,32,613,484,915,2081
"Sok FI",FI,537,9386,34,337,36156,3084,76,1165,169,353,1785
"MyMarket GR",GR,536,14399,175,393,51801,5633,5,1606,504,327,2471
"Superpharm Drogeria",PL,530,12341,38,2221,36672,47238,11,1017,2257,692,4043
"Chronodrive FR",FR,527,8302,53,129,16600,2149,11,358,80,45,504
"Univerexport RS",RS,523,9606,3,239,19212,763,6,553,255,177,1000
"Ebag BG",BG,521,11341,47,103,38975,1217,3,1070,77,46,1215
"Easy Coop IT",IT,516,10155,55,674,36128,18399,3,226,620,298,1166
"Jumbo CL",CL,510,19960,13,1454,619972,1369,3,8473,1354,90,10156
"Drogeria Olmed",PL,509,1007,400,1007,121409,27680,12,6745,460,2496,9813
"Apteka Zawiszy",PL,507,18764,100,996,75170,18450,240,769,532,430,2070
"Cold Storage SG",SG,498,9615,1,39,29490,0,529,2796,46,1,3377
Rossmann,PL,497,2545,7,2542,76639,37817,9,496,2934,1072,4560
"Colruyt BE",BE,496,6171,14,246,69734,14368,7,15870,9181,2330,27463
Intermarche,PL,495,19568,3,3511,174533,25248,10,3091,1629,1934,6924
"Hemkop SE",SE,494,10155,20,479,31721,5133,4,268,220,175,692
"Famila a casa IT",IT,493,12776,36,164,38270,5937,688,1373,200,243,2520
"Spar SI",SI,492,17695,16,201,61696,2214,9,2974,271,64,3344
"Interspar AT",AT,490,21285,22,236,66314,6133,6,748,280,135,1198
"Mega Image RO",RO,481,13422,9,368,40571,11010,5,931,172,192,1340
"Apteka 9-1-1 UA",UA,475,21449,25,102,49163,1751,42,619,161,70,933
"Benulekaren SK",SK,470,8714,8,294,45181,6301,5,2438,146,136,2751
"Silpo UA",UA,468,10998,5,44,27445,0,3,250,23,1,303
"e-Dostavka BY",BY,466,26325,449,496,75688,0,4,4727,258,1,5053
Ceneo,PL,465,182153,1886,5221,247050,23091,771,2170,2008,374,5558
"Carulla CO",CO,464,11272,13,385,64396,4145,13,1904,278,199,2435
"Basko IT",IT,462,8489,6,449,25966,5105,2,258,483,220,988
"Cornershop - Lider CL",CL,460,21770,78,1615,138934,1377,3,1091,383,39,1613
"GPSfarma AR",AR,460,5817,23,515,27325,1095,5,2417,543,78,3054
"Apteka Olmed",PL,454,1118,55,1118,137943,20591,8,7968,582,1932,10545
"MegaMarket RO",RO,447,5621,0,9,6731,571,7,1353,12,198,1582
"Carrefour ES",ES,441,13570,13,136,15878,582,12,461,716,61,1266
"Patika24 HU",HU,426,4934,9,262,15195,4324,5,636,301,100,1053
"E.Leclerc Lublin Turystyczna",PL,425,12951,24,1315,15959,13733,8,445,1080,2106,3687
"Istegelsin TR",TR,421,5689,10,81,12789,0,17,192,40,0,259
"Dr Max RO",RO,418,11026,226,226,35846,2355,259,1681,243,94,2297
"E.Leclerc Katowice",PL,418,9602,9,1104,10005,11221,86,400,510,1788,2807
"Eva UA",UA,416,699,661,699,138116,1547,475,7183,590,77,8386
"Feedo CZ",CZ,415,17407,172,497,50188,369,437,3517,477,83,4559
"Lider CL",CL,415,11629,0,0,209278,0,5,11851,1410,58,13437
"Dia AR",AR,395,3946,6,105,12229,500,13,576,184,19,798
"eTabletka SK",SK,395,11075,27,176,66143,6079,310,4121,190,92,4740
"Unimarkt AT",AT,394,3273,6,121,15094,3102,143,363,102,242,858
"Apteki 36.6 BG",BG,393,9759,34,173,45459,717,4,1337,88,49,1498
"Ecofamily HU",HU,392,5963,13,832,19152,4176,5,1080,6970,317,8392
"Kruidvat NL",NL,392,7747,86,98,18351,1724,182,643,107,86,1031
"Cornershop - Jumbo CL",CL,383,25689,1,405,131440,1334,3,768,169,36,1043
"OnlinePrima HU",HU,382,7554,14,1158,23516,5787,5,1368,763,189,2342
"Iceland UK",UK,379,5556,36,338,25653,14451,6,986,454,1619,3091
"Billa AT",AT,372,8972,43,213,28757,6290,4,471,564,186,1265
"Bringo RO",RO,371,30111,450,29856,50155,11226,21,1844,885,585,3368
"Carrefour IT",IT,371,11077,259,945,33351,10975,30,431,483,343,1313
"Vkusvill RU",RU,369,11859,173,173,30846,1080,36,974,179,52,1269
"Ica New Version SE",SE,368,5806,5375,5401,108881,4069,3,1785,2411,189,4476
"Majestic UK",UK,367,1308,0,64,16562,1141,174,1787,60,139,2186
Stokrotka,PL,365,7258,9,115,157716,1005,19,2100,62,59,2420
"Globus RU",RU,358,15808,18,388,44273,42,5,2176,231,7,2455
"Ica SE",SE,357,11549,3,654,704312,9443,3,22208,318,161,23002
"Ulabox ES",ES,357,6250,3,32,13126,0,4,264,17,0,294
"Jumbo AR",AR,352,10735,83,756,63303,739,5,2588,415,31,3075
"Mercado Libre AR",AR,350,28905,150,541,64799,642,190,701,888,40,1857
"Świat Leku",PL,349,11427,10,303,30988,1809,130,1206,194,180,1748
"E.Leclerc Lublin Tomasza Zana",PL,345,11481,28,1455,14500,10650,9,517,724,1269,2545
"Ulta US",US,343,384,383,384,93566,0,3,274,371,0,676
"E.Leclerc Gliwice",PL,342,7206,8,1016,7321,9376,211,991,1500,5152,7873
Allecco,PL,336,10931,17,663,37202,20982,18,592,307,362,1335
Carrefour,PL,333,16113,188,4002,125732,32356,168,2230,2384,2403,7281
"Mpreis AT",AT,325,7634,7,134,26983,4027,372,739,294,90,1510
"Azbuka Vkusa RU",RU,323,14781,288,295,29245,237,9,2156,941,27,3157
"Elefant RO",RO,323,1295,1309,1309,79344,1924,104,743,660,21,1571
"Bebe Tei RO",RO,320,23778,56,190,23778,3430,127,908,285,196,1551
"Idea RS",RS,314,11608,247,434,15869,5050,78,397,200,76,764
"Gall & Gall NL",NL,313,2999,20,51,19135,128,5,2995,48,14,3071
"Rappi - Exito CO",CO,312,23446,1562,1836,81201,7312,3,6928,9015,250,16231
"Roastmarket DE",DE,312,102,100,102,31656,378,10,897,720,16,1657
"Watsons UA",UA,311,154,69,154,25866,307,5,426,390,33,867
"MaxiCoffee FR",FR,304,5992,96,155,14759,990,700,1013,823,155,2699
"SOpharmacy BG",BG,304,9414,19,176,29588,3530,258,639,143,84,1145
DoDomku,PL,300,6277,100,400,18462,1871,40,205,197,289,739
Empik,PL,300,113256,728,1492,325793,28625,211,14407,853,209,15925
"Amazon NL",NL,299,32437,1471,1471,79191,0,442,4677,0,32,5151
Makro,PL,299,3625,1,532,9939,29188,6,597,245,1463,2324
"Bipa AT",AT,297,9946,83,83,21786,530,10,276,113,19,436
"Rappi - Exito Express CO",CO,297,19163,797,978,48075,5244,3,6331,7461,256,14072
"Rappi Lider CL",CL,293,16268,2779,2874,90790,1178,4,7916,7177,32,15173
"Tudrogueria Virtual CO",CO,291,8497,41,4060,16396,492,3,412,1801,27,2258
"Merqueo - Bogota CO",CO,288,3560,5,139,8884,5649,3,247,65,196,517
"Apteka Medea BG",BG,284,8473,3,160,25003,1986,3,522,149,246,935
"E.Leclerc Tychy",PL,283,9661,7,1140,9800,11412,52,291,536,1754,2653
"Sephora US",US,283,163,154,163,88957,0,6,568,83,1,700
"Cornershop - Santa Isabel CL",CL,281,6506,0,191,8070,991,4,341,203,29,581
"Mall SK",SK,280,1113,82,1113,24012,687,348,620,2948,1589,5521
"i-apteka",PL,280,9537,538,642,20508,11002,4,480,683,1140,2341
"Cruz Verde CO",CO,277,3929,7,2463,12445,1102,66,865,1127,94,2158
Makeup,PL,277,3852,304,3852,398562,80658,4,13996,1761,1498,17424
"Selver EE",EE,276,10795,21,40,34156,2755,2,242,22,71,354
"Argos UK",UK,273,5857,1,197,7963,0,6,673,15161,0,15866
"Sipo HU",HU,271,3846,187,187,7702,1274,6,535,105,118,771
"PriceSmart CR",CR,270,3457,4,5,45242,0,4,8331,12,1,8370
"Konzum HR",HR,268,10573,9,156,16575,3601,312,2422,477,446,3668
"Delitea SE",SE,266,10152,12,271,24295,1967,4,178,123,33,357
"Afya Pharmacy BG",BG,265,8457,5,150,27413,698,9,2586,304,225,3136
"Groby HU",HU,265,8421,16,533,22272,3044,6,1464,832,276,2593
"Rappi - Carulla CO",CO,261,15475,1923,2365,54056,7788,3,5674,7703,247,13649
"Rappi - Carulla Express CO",CO,260,13938,1054,1285,44627,7337,3,5597,6805,248,12676
"Farmacia la Pret Mic RO",RO,255,7644,20,259,24070,4088,25,1749,347,680,2817
"Apteka Medkon",PL,254,5290,376,376,20713,13824,8,3588,1085,2601,7293
"Dunnes IE",IE,254,14342,35,719,31636,10709,3,557,343,196,1124
"Rappi Unimarc CL",CL,254,11809,412,510,27957,1269,4,4064,1040,31,5159
"Merqueo - Medellin CO",CO,253,3011,1,140,7252,5222,3,209,66,186,469
"Rappi Jumbo CL",CL,252,16385,1691,1756,61622,1388,3,6693,3088,32,9850
Wapteka,PL,252,17598,866,1329,61486,36657,5,2800,465,668,4036
"Supermarket AM",AM,250,8740,2,21,21965,0,6,794,62,1,877
"Farmatodo CO",CO,249,13562,48,3693,57607,5400,7,709,4609,95,5453
"Edeka DE",DE,246,3338,51,77,4578,0,4,238,82,1,331
"Helpnet RO",RO,245,6819,39,287,19084,2431,4,1222,129,111,1485
"Szybki Koszyk",PL,239,4342,5,107,15042,896,102,1138,100,84,1435
"Rappi Santa Isabel CL",CL,234,5591,0,148,6807,1192,4,1233,382,31,1653
"Metroiroda HU",HU,231,3670,2,264,7409,1379,4,1150,586,242,1986
"Linio CL",CL,228,44755,341,803,71254,0,148,918,548,0,1663
"Disco AR",AR,227,0,0,0,0,839,87,2063,2,41,2194
"Утконос RU",RU,225,730,310,730,45929,2246,3,282,367,99,777
"Makeup UA",UA,220,4119,1573,4119,771040,3792,3,21303,1000,45,22606
"Kesko FI",FI,219,12983,24,394,221254,8222,12,10459,876,1142,12598
"Igooods RU",RU,218,20364,7,384,44408,92,3,225,272,6,553
"Merqueo - Cali CO",CO,218,2029,1,59,4369,752,3,150,29,26,211
"Booker Foodservice UK",UK,212,11899,30,1238,22274,3551,147,649,596,126,1541
"Перекрёсток Впрок RU",RU,212,16962,46,759,39253,3929,5,2594,2143,282,5055
"Coop UK",UK,211,9439,16,832,209784,18870,6,2178,401,649,3427
"Rappi - Pricesmart CO",CO,209,1912,16,28,5477,824,3,2198,791,53,3048
"Booker UK",UK,208,9116,29,1334,17399,9953,140,433,623,692,1916
Cocolita,PL,208,10828,65,463,47361,13372,4,1236,771,1114,3165
"Benu HU",HU,206,4915,0,336,15964,2712,5,2019,460,367,2861
"Yandex Market RU",RU,206,53668,1738,2809,89632,3639,15,2231,1336,182,3867
"Minifarm RO",RO,203,4974,12,125,15136,143,5,818,138,110,1081
"Beauty Bay UK",UK,201,13152,1,38,51532,0,4,437,24,0,524
"Emag HU",HU,199,96428,1961,3531,96479,7116,5,1448,3265,175,4989
"Parfums UA",UA,187,798,69,798,158827,1720,4,4003,914,133,5195
"Look Fantastic UK",UK,184,17370,44,70,46737,0,4,826,61,1,970
"Deliberry - Caprabo ES",ES,182,8551,0,0,9668,0,8,194,2,0,215
"Vodovoz RU",RU,179,1057,17,66,2172,0,4,153,83,2,246
"Deliberry - Mercadona Barcelona ES",ES,177,5747,0,0,6870,0,4,176,5,1,196
"Deliberry - Solri ES",ES,176,7905,0,0,9003,0,9,205,6,1,229
"Deliberry - Mercadona Madrid ES",ES,173,5564,0,0,6677,0,4,161,4,1,177
"Jumia NG",NG,163,7037,198,218,15392,0,93,305,107,1,515
AptekaLeki,PL,162,1679,0,50,5046,1540,9,1229,46,139,1427
"Deliberry - Supercor ES",ES,161,4082,0,0,5006,0,7,174,5,1,192
"Panda Market HU",HU,161,2214,25,118,5080,2133,5,149,57,62,277
"Everli - Coop IT",IT,160,10283,17,282,11775,6565,18,2012,151,2494,4681
"Superpharm Apteka",PL,157,9045,20,447,20774,17544,5,386,527,294,1238
"Professional Farmaline RO",RO,155,8563,18,132,18208,2497,4,672,105,60,856
"Vea Digital AR ",AR,150,9,0,0,9,890,87,1399,24,32,1543
"Pyaterochka App RU",RU,148,5786,18,278,12297,2175,2,287,284,36,632
"Tiendas Jumbo CO",CO,145,16736,3,815,80869,5086,3,8830,989,205,10071
"Deliberry - Dia ES",ES,143,3377,0,0,4208,0,7,144,5,1,162
"Deliberry - La Plaza ES",ES,143,3550,0,0,4338,0,6,162,25,0,199
"Everli - Metro IT",IT,142,2589,1,42,3458,1508,17,169,25,668,882
"Exito CO",CO,137,13128,16,793,77112,2780,105,3715,1824,215,5902
"Nazuby CZ",CZ,137,1598,1,61,7161,134,5,111,30,23,174
"Ozon RU",RU,136,34774,4651,4785,48160,3358,453,4568,4607,288,10028
"Automercado CR",CR,132,13411,21,36,22906,0,8,1805,96,1,1921
"Subra BG",BG,129,5911,6,154,14761,2547,9,152,76,225,474
"Zakaz - Auchan UA",UA,128,6677,59,60,14746,0,2,438,29,0,482
"Coop EE",EE,127,9760,36,36,21167,1840,2,451,17,119,614
"Medexpressz HU",HU,125,1196,90,91,1839,0,3,206,58,0,270
"Amazon Fresh DE",DE,122,9426,279,280,15169,1771,168,1186,243,67,1673
"Condis ES",ES,121,6502,0,0,6880,0,2,187,6,1,206
"Cora Drive BE",BE,118,13469,119,235,89261,4515,10,11849,965,1455,14359
"Farmacia Pasteur CO",CO,114,8613,23,3274,54063,558,4,1588,2674,30,4326
"Auchan UA",UA,108,6404,8,15,19028,0,10,2847,17,1,2888
"Produktoff UA",UA,102,0,0,0,0,0,3,401,1,1,406
"Koffievoordeel NL",NL,99,521,0,66,3210,1275,2,573,91,28,696
"Vitania BG",BG,98,7290,63,188,7290,2268,4,334,90,79,513
"Rappi Cruz Verde CL",CL,96,4978,827,889,35304,1165,2,2746,2970,31,5768
"Boohoo UK",UK,92,1520,1,7,6714,0,3,532,9,2,561
"Farmacity AR",AR,90,45,4,45,4467,1162,2,208,21,43,275
"Kaffedeal DK",DK,90,412,0,41,1089,652,3,46,20,33,103
"Kaufland DE",DE,90,27437,27434,27434,34190,727,66,995,13261,58,14425
"Okey RU",RU,80,10067,1495,1933,10100,329,6,274,5703,24,6025
"Durst DE",DE,69,1032,67,1032,1097,0,4,15,16,1,40
"Apteka Nove BG",BG,67,11612,27,163,25965,3394,35,2336,147,136,2667
"Media Markt DE",DE,67,2098,14,70,5495,1217,1729,23410,3059,7577,35778
"Droguerias Cafam CO",CO,66,4209,45,2960,10700,1419,17,696,5478,53,6250
"Rozetka UA",UA,62,91446,1939,2344,108268,3148,91,4626,662,152,5719
"Sanctuary UK",UK,61,118,0,0,528,0,4,140,0,40,186
"Kaffekapslen DK",DK,60,759,5,69,1755,1325,53,45,66,186,351
"Kapselnkogen DK",DK,56,275,0,61,578,551,21,55,57,33,166
"Saturn DE",DE,56,1999,10,55,4257,843,318,2218,338,3938,6815
"Asos UK",UK,55,7192,42,132,16693,0,73,433,181,1,733
"iDrinks HU",HU,52,6475,157,176,14008,252,6,2457,268,98,2839
"Emag RO",RO,49,58959,174,604,58961,5140,9,789,879,322,2062
"Pretty Little Thing UK",UK,49,1716,25,40,4886,0,3,313,24,0,353
"Very UK",UK,47,3578,94,137,3916,0,16,148,74,0,261
"Fudge UK",UK,45,93,0,0,522,0,3,139,2,40,186
"Bol NL",NL,43,257,216,260,31975,2412,65,2239,1493,539,4350
"Winelivery IT",IT,43,1485,0,23,3270,0,3,260,21,1,286
"Carrefour AR",AR,41,3696,145,465,12492,177,81,647,930,80,1750
"Altex RO",RO,38,2141,19,56,4212,2535,4,132,57,136,333
"Ep DE",DE,35,213,6,9,682,259,74,121,33,83,312
"BilkaToGo DK",DK,33,3525,0,145,20062,1405,5,75,64,36,201
"Konga NG",NG,32,139,139,139,11953,0,65,91,66,1,226
"John Lewis UK",UK,27,17,8,17,420,122,4,146,22,11,192
"Mercator SI",SI,27,13247,3,158,13247,1747,3,22,72,49,161
"Carrefour FR",FR,25,0,0,0,15792,0,0,0,0,0,0
"StTropez UK",UK,25,24,0,0,71,0,3,124,2,55,187
"Avansas TR",TR,24,482,0,0,489,0,2,18,2,1,24
"Qvc US",US,24,17305,89,150,21438,0,21,194,907,1,1140
"St. Tropez US",US,23,22,0,0,63,0,3,16,2,15,36
"MyDeal AU",AU,19,17,10,17,8706,358,3,66,11,37,118
"Officeworks AU",AU,19,399,0,54,407,385,63,8,203,19,293
"Shoplink IE",IE,18,138,0,112,414,1811,27,36,74,125,263
"Boulanger FR",FR,17,681,7,55,1407,351,22,82,154,136,395
"Euronics DE",DE,15,9794,3,144,38788,1212,29,855,39553,222,40694
"The Good Guys AU",AU,15,778,3,20,1488,422,4,36,43,133,217
"BCC NL",NL,14,582,0,0,936,571,6,39,13,68,127
"Mercado Libre CL",CL,12,6534,91,312,12674,0,17,291,284,0,598
"El Corte Ingles ES",ES,11,3983,2,142,5115,751,30,222,1224,76,1555
"Leclerc FR",FR,10,240,11,118,480,485,18,140,1137,405,1702
"Wildberries RU",RU,10,160533,3626,5940,174260,1488,10,1175,2845,60,4362
"Mediaworld IT",IT,9,257,0,42,514,1434,15,111,117,320,563
"Myer AU",AU,9,1419,1,11,2540,176,9,105,25,25,165
"Coles AU",AU,8,289,0,101,580,396,6,56,253,170,485
"Intermarche FR",FR,8,398,81,114,731,1067,6,37,416,294,754
"Sushi33 UA",UA,8,47,0,24,92,0,3,24,12,9,48
"AO UK",UK,7,905,8,14,1203,190,75,74,20,7,193
"Woolworths AU",AU,7,1421,4,95,2268,367,3,79,51,40,174
"Unieuro IT",IT,6,1598,8,12,1998,1072,2,11,7,59,80
"Harvey Norman AU",AU,5,20,0,20,257,220,10,30,69,369,478
"Easy CL",CL,3,619,1,1,702,0,2,14,4,1,21
"Costcutter IE",IE,2,141,1,105,141,371,5,11,51,84,151
"Sodimac CL",CL,1,0,0,0,0,0,3,14,1,1,19
"0815 DE",DE,0,0,0,0,0,0,15,0,0,69,84
"Cora RO",RO,0,0,0,0,0,0,2,12,0,484,498
"Coursesu FR",FR,0,0,0,0,0,0,3,3,1,78,85
"E.Leclerc Elblag",PL,0,0,0,0,0,0,4,1,2,3669,3676
"E.Leclerc Gdansk",PL,0,0,0,0,0,0,3,1,4,3468,3476
"E.Leclerc Radom",PL,0,0,0,0,0,0,5,0,2,3495,3502
"Expert DE",DE,0,0,0,0,0,394,3,6,1,119,129
"Farmacia Tei RO",RO,0,0,0,0,0,0,3,11,1,127,143
"Lopido CO",CO,0,0,0,0,0,0,3,13,0,70,87
"S-kaupat FI",FI,0,0,0,0,0,3960,3,7,2,95,126
