﻿Site,Country,Categories,Prices,"Products changed","Products downloads",Relations,Search,"Categories time","Prices time","Products time","Search time","Total time"
"Ocado UK",UK,6550,44060,165,2509,1805632,40445,671,25895,1144,1008,30388
"Mytime DE",DE,5080,11943,32,195,107630,3031,2231,2915,94,153,5440
frisco,PL,4707,2115,11,2115,314313,94470,108,5737,2920,285,9287
"Asda UK",UK,3526,29404,76,2173,978759,51050,38,11234,1099,1117,14394
"Makro CZ",CZ,3471,7774,0,0,744618,438,3170,39462,0,0,42632
"Albert Heijn NL",NL,3440,21638,9,228,105744,4379,447,1593,30,80,2228
"Morrisons UK",UK,3132,20994,77,2039,95258,31634,619,5438,1774,2066,10074
"Waitrose UK",UK,3088,15855,32,1071,1502988,31964,104,22692,462,825,25713
"Metro SK",SK,3040,6029,505,2069,278543,0,2759,21123,2006,1,25990
"Rohlik CZ",CZ,2998,24182,139,976,226613,26443,2269,3830,626,887,7739
"Albert Heijn BE",BE,2863,10092,9,94,50419,6369,426,1333,20,124,1944
"Notino SK",SK,2729,1424,1270,1424,120178,168,1297,6817,2605,16,10902
"Kosik CZ",CZ,2681,17304,40,825,100205,35664,463,1727,395,1160,3822
"Galen BG",BG,2662,14160,9,171,97944,4937,1573,2664,112,127,4566
Auchan,PL,2575,16834,60,1289,510716,25660,68,16840,862,3916,22068
"Pilulka SK",SK,2567,39486,226,465,248260,11507,20,8081,239,244,8686
"Drogeo CZ",CZ,2482,802,107,802,126048,42669,19,2571,486,815,3971
"Coto Digital AR",AR,2471,19591,24,379,103087,1391,1709,3260,281,53,5362
"Samokat RU",RU,2455,4961,35,123,58254,140,19,43,59,16,177
"Amazon Fresh UK",UK,2408,9338,507,507,51651,17608,1374,29652,825,474,32622
"Notino CZ",CZ,2380,1821,994,1821,413400,75809,1167,7483,4240,1403,14432
"Pilulka CZ",CZ,2347,32942,287,704,167593,29417,17,5104,1042,4696,10963
"Sainsburys UK",UK,2265,29692,14,2304,1804360,83325,232,28076,1876,3615,36125
"Amazon UK",UK,2211,1999,2737,2744,1957387,0,1498,33742,0,23484,58724
"Amazon Fresh IT",IT,2122,7663,675,677,36845,3059,3058,2531,1439,107,7155
"Drogerie Natura",PL,1994,14737,1,655,80759,50092,81,3782,942,4464,9390
"Boots UK",UK,1974,25572,735,6885,151073,7852,38,3896,10599,246,14980
"Auchan HU",HU,1896,29124,214,2051,235456,10322,9,4899,1177,582,6830
"Brakes UK",UK,1895,9527,2,207,28623,30816,862,1800,95,323,3125
"Jumbo NL",NL,1810,17862,50,312,67149,4188,1240,1802,292,115,3501
"Yuga RO",RO,1672,8363,21,116,40806,1124,1997,4168,3005,124,9327
"Cefarm 24",PL,1661,13582,7,837,99530,14953,2323,4131,1158,5414,13098
"Alza CZ",CZ,1638,30181,979,185,118751,29227,306,1920,270,1185,3746
"Otto DE",DE,1614,536,464,541,68591,226,747,979,769,17,2541
"Delhaize BE",BE,1602,14010,187,560,60246,16965,31,2216,403,581,3273
"Apteka Nowa Farmacja",PL,1382,15720,3,850,80254,22818,10020,3410,945,1891,16378
"Alza SK",SK,1372,13524,166,247,57543,3865,177,471,68,127,872
eZebra,PL,1365,42196,100,1561,150336,37351,51,8195,1682,9370,19440
"Amazon BR",BR,1357,0,59140,59140,125462,0,0,0,0,2,44
"Tesco UK",UK,1325,27682,71,2525,336994,23610,22,10320,1529,8330,20671
"Coop CH",CH,1312,18551,59,132,68513,2025,303,2048,270,166,2839
"Remedium BG",BG,1307,26769,22,281,94101,1542,383,8668,604,170,9895
"Picnic NL",NL,1303,7072,3,81,16246,2246,565,1017,45,79,1723
"Barbora EE",EE,1259,13764,135,206,48166,1290,35,1591,99,101,1852
"Rewe DE",DE,1243,9253,179,4459,33652,3302,17,1617,4651,357,6680
"Kifli HU",HU,1240,13897,45,1613,55958,11281,576,592,751,364,2331
"iGlobus Zlicin CZ",CZ,1214,19154,92,604,35697,10387,12,3082,968,559,4662
"E-Fresh GR",GR,1193,12001,12,614,57938,6393,2269,4089,1277,656,8328
"Amazon DE",DE,1187,170,653,653,451397,13392,0,0,0,4649,7148
"S-kaupat FI",FI,1186,42679,151,427,331386,6375,4,2805,490,112,3575
"Moja Lekaren SK",SK,1169,24294,206,445,132155,4762,608,3526,226,168,4608
"Lekarna CZ",CZ,1162,28813,306,758,127215,5174,591,3390,379,174,4633
Hebe,PL,1115,1471,235,1471,155996,30570,864,4512,2435,874,8806
"Albert App CZ",CZ,1086,8174,3,30,59244,2680,538,2103,19,76,2789
"Knuspr DE",DE,1056,11728,109,303,48933,1530,497,485,138,147,1297
"Eroski ES",ES,1053,26050,6,245,55185,571,16,3385,163,42,3637
"Dr Max SK",SK,1049,23570,445,938,95122,7165,711,5088,1488,370,7724
"Mathem SE",SE,1047,12093,52,543,33297,7482,16,1117,794,572,2523
"Vkusvill RU",RU,1044,9602,267,267,39987,1494,328,5026,610,218,6216
"Amazon IT",IT,1040,540,532,540,543276,6712,0,0,0,1027,1866
"Picnic DE",DE,1037,7099,3,154,14284,1855,444,825,68,169,1516
"Salcobrand CL",CL,1014,7487,38,7486,32761,1187,286,610,4021,15,4960
"Auchan RO",RO,1007,25516,28,1218,440758,7526,29,5024,951,425,6712
"Zakaz - Novus UA",UA,1001,17962,24,138,38150,0,4,1883,73,1,2000
"Coop NL",NL,994,16590,13,115,71302,1004,1800,2239,245,66,4405
Bee,PL,987,52995,216,592,177908,9591,455,3356,299,236,4568
Selgros,PL,978,21401,413,1245,74315,28615,453,913,561,1588,3613
"Carrefour BE",BE,946,18626,46,480,206274,20335,919,10380,354,6694,18470
"Coop SE",SE,925,10052,34,519,34391,7974,13,912,242,218,1407
"Coop Shop IT",IT,924,11261,7,381,33811,6234,10,652,281,377,1348
"Unipatika HU",HU,875,4395,8,303,31072,4688,587,1254,166,270,2298
"Pilulka RO",RO,864,10434,304,357,44467,3451,9,417,219,71,758
"Magnit App RU",RU,849,3979,16,91,11298,0,8,1292,79,1,1394
"SuperValu IE",IE,842,16236,13,1047,221580,12766,872,16770,1177,640,19762
"Musgrave IE",IE,837,10486,10501,10501,34325,4050,24,6671,27096,2599,36450
"Tigros IT",IT,837,10083,4,559,30290,7104,9,520,323,240,1121
"Ebag BG",BG,814,11454,96,184,42846,1569,8,1262,120,27,1450
"Apteka Manada",PL,811,14422,27,1110,42117,38038,27,1861,1512,2209,5694
"Wong PE",PE,811,23600,46,429,145654,1828,21,7829,7731,72,15736
"Tesco IE",IE,793,17305,59,914,423124,4349,17,10667,471,1006,12519
"Polski Koszyk",PL,790,20539,8,1050,66392,1996,13,874,577,67,1636
"Walmart MX",MX,789,23526,33,63,103012,979,83,11590,52,31,11825
"Superpharm Drogeria",PL,780,725,22,725,103138,38729,17,1416,1106,444,3090
"Zakaz - Metro UA",UA,764,10098,2,4,20445,0,4,2238,7,0,2268
"eZiko Apteka",PL,763,7275,10,579,43573,18684,348,1787,274,1032,3483
"Dr Max CZ",CZ,762,22458,12,402,95160,7928,316,4644,381,435,5837
"Auchan RU",RU,760,24222,282,870,74054,1352,9,1455,632,32,2194
"Coop DK",DK,755,11267,150,174,89529,1197,352,3344,216,39,4020
"Masxmenos CR",CR,730,9013,173,175,24691,0,27,2241,253,0,2534
"Walmart CR",CR,730,13819,335,637,176720,4985,24,7238,1100,182,8630
"Sklavenitis GR",GR,729,9992,15,282,29966,4395,109,1252,156,265,1811
Barbora,PL,726,9408,195,967,117662,9194,55,3180,535,974,4904
"Mall CZ",CZ,726,6324,799,6323,106452,15723,607,880,9415,3253,14297
"Bringmeister DE",DE,721,15826,59,279,42932,4380,12,362,126,142,679
"Apteka Gemini",PL,718,27415,151,1536,92702,64757,45,3395,717,794,5066
"Cruz Verde CL",CL,717,9844,5,939,146327,1379,26,18177,439,15,18724
"Rimi LV",LV,716,14901,6,70,43714,5356,11,746,73,118,982
"Tesco CZ",CZ,716,17029,36,1267,559247,25080,7,14044,639,4043,19015
"Lunys SK",SK,714,5381,53,68,19009,0,514,1052,84,1,1669
"Intervare DK",DK,710,9083,398,429,26291,0,30,325,192,110,677
"Rimi EE",EE,709,12306,17,89,36115,3701,6,687,90,107,910
"Gurkerl AT",AT,701,9414,73,217,34285,3394,337,322,101,107,898
"Walmart AR",AR,692,0,0,0,0,0,505,1166,0,1,1673
"Esselunga A Casa IT",IT,679,15289,6,636,46606,16818,13,4699,1122,1347,7216
"Bennet IT",IT,675,19367,150,973,39054,15100,9,1080,454,736,2318
"DM SK",SK,659,12418,35,66,35511,2153,7,1280,33,104,1460
"Maxi RS",RS,658,7921,24,147,26204,6704,7,459,69,122,677
"Poiesz NL",NL,658,7841,0,10,10053,124,28,549,3073,11,3678
"Rossmann DE",DE,656,16031,37,233,55434,457,605,1159,226,20,2042
"Rimi LT",LT,654,14575,6,55,43629,3393,10,705,59,83,890
Amazon,PL,653,679,668,675,1016038,25702,0,0,0,1124,1124
"Hoogvliet NL",NL,652,8753,42,116,14308,1853,25,818,119,97,1079
"Tesco SK",SK,652,16171,16,79,232751,827,8,4633,85,108,4985
"Apteka Rosa",PL,648,9800,6,32,60052,2069,13,3494,53,145,3760
"DOZ.pl",PL,648,19481,43,1460,80189,56012,488,2779,823,1943,6118
"City Gross SE",SE,647,12731,0,519,27993,8898,11,355,243,365,996
"Tesco HU",HU,646,15392,112,2348,1026114,8610,15,19340,1608,1821,23308
"Rossman HU",HU,640,14896,19,991,54417,7804,582,807,1584,169,3194
"Crai Spesa Online",IT,633,325,1,346,24498,6601,361,885,756,771,2787
"Mercator SI",SI,631,12711,1,163,38133,2281,301,288,78,81,788
"E.Leclerc Bielany",PL,625,31809,64,2568,101329,35319,110,3679,1161,21486,26554
Apteline,PL,618,965,16,965,83252,15880,424,1265,670,473,2913
"Colruyt BE",BE,606,7910,4,283,93645,14934,29,14741,770,1935,17580
"Plus NL",NL,598,15797,29,254,32507,3785,253,5745,146,326,6513
"Thanopoulos GR",GR,598,15711,22,340,52431,9116,8,4888,410,716,6061
"Benu CZ",CZ,596,14235,60,441,66587,5895,7,7544,513,68,8166
"Apteka Galen",PL,594,8710,1,353,25529,3155,42,2143,1715,986,4930
"Pingvinpatika HU",HU,591,7549,38,349,40841,2842,10,5051,467,314,5868
"Willys SE",SE,589,10624,9,449,35168,6886,11,533,366,333,1266
"Carrefour EG",EG,577,16691,50,161,90749,410,3,1345,162,19,1574
"Bestway Best-one UK",UK,572,6471,18,99,20953,12281,294,381,67,316,1099
"Bestway UK",UK,572,9045,34,602,29116,28906,298,428,314,672,1747
"Bestway Foodservice UK",UK,570,10486,27,331,33316,3939,297,452,214,99,1101
"E.Leclerc Wroclaw",PL,568,16192,22,1299,16593,12598,485,1887,2004,5095,9526
"Glovo Kaufland RO",RO,567,8989,220,8989,15955,0,7,281,130,2,437
"Zakaz - Metro MD",MD,567,10565,36,52,17839,0,8,1282,381,0,1690
"Dr Max",PL,566,13771,54,886,51690,25336,268,2872,858,1052,5103
"Spar HU",HU,564,15366,497,1892,354022,11510,15,7711,3665,392,11967
"Superdrug UK",UK,564,13464,53,295,42913,6726,17,528,471,1074,2151
"DM HU",HU,562,12634,21,851,34397,9761,7,1220,383,319,1967
"Kritikos GR",GR,562,16702,169,338,47206,0,7,27,159,6931,7173
"Yandex Lavka RU",RU,562,2931,17,193,8354,0,88,649,270,176,1192
Lek24,PL,561,5796,10,34,20703,4340,10,1131,19,219,1411
"AB GR",GR,560,11291,111,653,34477,8012,7,882,326,263,1511
"Vasalekaren SK",SK,558,10177,81,230,62865,3994,1203,8935,505,657,11325
Spar,PL,556,25406,1934,2204,665964,76974,19,11881,1077,2163,15675
"Apteka Melissa",PL,551,27950,156,1918,103489,60823,24,7854,1320,816,10115
"DM CZ",CZ,548,12392,30,883,33855,32826,5,1219,395,1033,2687
"Pão de Açucar BR",BR,548,23597,291,436,57888,0,20,2140,243,0,2439
"Chronodrive FR",FR,547,8093,209,357,14842,2110,10,467,218,126,831
"Univerexport RS",RS,544,9967,7,149,19934,1347,16,581,166,234,1016
"Freshful RO",RO,542,19488,58,155,39813,361,7,916,77,17,1058
"Jumbo CL",CL,539,21161,9,2322,525189,1392,21,7157,1562,105,9128
"MyMarket GR",GR,538,14514,122,296,52173,6964,9,1862,395,373,2683
"Carrefour ES",ES,534,15382,31,269,18519,418,19,808,835,24,1707
"E.Leclerc Rzeszów",PL,534,12290,25,1469,36592,25156,54,690,607,814,2227
"Drogeria Olmed",PL,522,547,55,547,148509,26535,11,12659,356,2365,15484
"Plazavea PE",PE,516,26411,293,497,168802,1845,14,4564,236,158,5089
"Cold Storage SG",SG,514,9508,3,26,29720,0,586,2345,30,0,2969
Rossmann,PL,512,1396,201,1396,79983,31691,19,903,1525,704,3240
"Apteka Zawiszy",PL,505,20249,61,1072,79679,21247,244,1082,604,460,2475
"Hemkop SE",SE,504,10318,2,443,32292,7227,12,281,206,218,744
"Benulekaren SK",SK,501,9397,12,378,49552,6766,7,4113,277,132,4558
"Interspar AT",AT,499,21159,11,222,66753,6358,8,657,284,143,1154
Intermarche,PL,498,18654,36,2515,160942,14606,11,3541,1183,1410,6410
"Idea RS",RS,489,11914,6,187,20680,6875,85,535,88,100,832
"Migros Online CH",CH,484,12370,14,122,38376,1313,18,1244,92,189,1574
"Spar SI",SI,483,16707,17,261,59518,2708,8,639,313,104,1116
"Mega Image RO",RO,480,12417,21,392,37168,9796,7,571,179,209,1004
"Famila a casa IT",IT,479,12228,11,131,28989,6431,821,1501,250,313,2907
"Dr Max Drogeria",PL,476,16781,28,678,53150,6658,198,2596,890,243,3990
"Metro RU",RU,474,19914,61,524,25266,1392,9,2126,508,69,2746
"E.Leclerc Radom",PL,472,13359,6,1207,42025,10201,98,2702,587,2157,5596
"e-Dostavka BY",BY,467,32556,56,459,88164,1921,4,7478,222,148,7912
Ceneo,PL,465,199018,1339,8348,264736,45656,1029,2826,4431,626,9333
"Carulla CO",CO,464,10814,15,410,61697,4937,28,2120,270,298,2762
"Apteka Olmed",PL,463,1071,39,1071,160275,20559,8,13038,647,1991,15773
"Basko IT",IT,463,8425,7,428,25762,1559,6,281,475,47,830
Aptelia,PL,459,541,14,541,72717,10085,211,2053,254,341,2923
"GPSfarma AR",AR,457,5904,28,382,28150,1514,20,2939,453,123,3551
"MegaMarket RO",RO,447,5317,0,8,6419,569,8,1290,11,192,1511
"eTabletka SK",SK,441,12037,9,112,82049,6807,217,8345,73,84,8759
"Patika24 HU",HU,440,4393,3,250,10658,3222,6,566,263,88,931
"Lider CL",CL,439,12914,36,2143,243809,1139,23,13141,4108,103,17507
"Dr Max RO",RO,434,15260,27,394,46214,8753,205,1912,379,334,2869
"Lopido CO",CO,433,10774,6,89,20804,611,15,8176,475,56,8735
"Unimarc CL",CL,433,10859,9,543,32561,1131,13,779,822,46,1684
"E.Leclerc Lublin Turystyczna",PL,432,12957,6,1441,15973,13072,45,1104,2908,4505,8603
"Ecofamily HU",HU,431,6735,0,743,21793,4138,4,2179,3993,620,6816
"Cornershop - Lider CL",CL,427,18717,20,2583,120648,1338,18,988,669,101,1883
"Cornershop - Jumbo CL",CL,424,26070,8,1051,143680,1354,18,791,331,106,1373
"E.Leclerc Katowice",PL,417,8506,22,1101,8950,9378,89,410,666,1460,2656
Stokrotka,PL,416,7757,10,156,171872,12155,26,2907,90,416,3637
"Kruidvat NL",NL,413,8786,75,134,24670,1764,229,840,133,93,1325
"Bringo RO",RO,412,32348,174,27113,56764,7083,26,1977,1258,741,4063
"iFresh SK",SK,407,7000,80,80,93566,0,5,3191,447,1,3717
"Farmacia Tei RO",RO,403,339,332,339,25793,3248,6,703,177,158,1062
"Teta Drogerie CZ",CZ,398,8445,19,483,24518,6753,5,727,453,160,1372
"OnlinePrima HU",HU,397,7437,2,1189,22934,6013,5,1251,806,271,2351
"Apteki 36.6 BG",BG,395,9914,10,159,46997,1297,7,1563,91,92,1787
"Mercado Libre MX",MX,393,38724,257,1243,84044,497,756,900,339,98,2148
"Unimarkt AT",AT,391,3422,17,148,15902,3276,154,392,151,309,1023
"Glovo Biedronka Warszawa",PL,390,2945,572,2945,5566,612,9,180,71,128,402
"DrankDozijn BE",BE,378,3622,1,73,14735,2255,12,654,115,573,1366
"DrankDozijn NL",NL,378,3622,1,72,14735,250,19,642,113,60,846
"Iceland UK",UK,376,5536,71,401,29663,15454,20,1164,962,1505,3690
"Billa AT",AT,370,9430,74,260,30575,6660,7,401,1031,189,1657
"Ica New Version SE",SE,369,7252,5539,6124,148909,5749,7,2492,2800,233,5606
"Walmart GT",GT,369,9033,52,362,156100,4311,21,5929,718,244,6992
"Talabat Mart EG",EG,367,6431,707,709,47876,101,4,2506,2303,14,4872
"Świat Leku",PL,366,11801,9,357,36109,1905,163,1388,305,181,2091
"Bebe Tei RO",RO,361,590,423,589,26686,1541,6,826,289,90,1226
"Ulabox ES",ES,361,5538,4,142,11578,0,8,207,69,0,292
"Carrefour IT",IT,360,13572,194,839,37647,4650,293,1157,629,354,2468
"Ica SE",SE,359,10982,7,635,650930,12683,9,20566,309,216,21428
"Cornershop - Wong PE",PE,357,16837,19,235,50189,1809,17,533,246,159,1007
"Apteka Prima 24",PL,355,4526,7,45,20619,1442,9,490,37,165,733
"E.Leclerc Lublin Tomasza Zana",PL,353,10027,16,1226,13165,8653,10,435,836,1084,2395
"Feedo CZ",CZ,351,782,508,782,60840,498,153,1236,1444,20,2927
"Gall & Gall NL",NL,347,3276,13,72,23094,67,19,5267,173,24,5497
"Cornershop - Metro PE",PE,345,14855,26,246,49101,1766,15,527,132,162,883
"Rossmann App CZ",CZ,344,10686,23,302,34998,0,5,2884,143,1,3061
"Majestic UK",UK,340,1337,1,68,15660,1197,147,2053,81,159,2459
"E.Leclerc Elblag",PL,339,10496,6,1004,29065,14411,68,1608,962,2418,5100
Allecco,PL,335,11773,17,727,40617,10746,20,628,419,181,1298
"Jumbo AR",AR,335,10740,10,358,52763,947,16,2421,197,36,2706
Carrefour,PL,334,17018,37,2942,141375,38070,153,2511,2103,2215,7140
"Roastmarket DE",DE,334,47,4,47,32549,379,21,599,197,16,849
"Mpreis AT",AT,325,8021,1,128,28105,4565,314,808,129,100,1377
"Mercado Livre BR",BR,324,104602,1439,4611,772143,0,661,10484,1196,1,12913
"Sipo HU",HU,324,4978,0,114,11110,1444,7,685,68,113,887
"Mercado Libre AR",AR,313,33747,928,4903,74798,620,176,818,9531,94,10683
"Cornershop - Santa Isabel CL",CL,308,7295,5,423,9012,1043,14,599,607,77,1305
"Gastronom BG",BG,307,7758,21,142,24157,896,8,399,95,197,722
"Cora RO",RO,301,48296,21,420,97924,6479,6,4657,249,956,5957
Empik,PL,301,187083,2526,3640,502969,33233,137,12845,1383,228,15259
"Bipa AT",AT,300,12194,85,131,26598,558,12,321,185,21,581
"Amazon NL",NL,299,0,0,0,102101,0,0,0,0,15,15
DoDomku,PL,299,5835,78,384,17102,2261,39,254,194,305,810
"Easy Coop IT",IT,299,9183,16,629,27468,10055,6,1830,1260,861,3982
"Mall SK",SK,298,2040,54,2040,29822,1126,322,790,5300,1290,7748
"SOpharmacy BG",BG,296,10073,35,273,31802,6473,386,998,312,216,1937
"E.Leclerc Gdansk",PL,295,10291,21,948,28158,8702,54,1591,832,2145,4675
"Tudrogueria Virtual CO",CO,291,8305,133,3880,16002,457,15,389,1789,29,2234
"Apteka Nove BG",BG,287,11407,3,152,40248,6236,6,2929,210,410,3584
Makeup,PL,286,2941,658,2941,526384,86920,6,14174,1230,1057,16782
"Apteka Medea BG",BG,284,8609,6,163,25601,0,4,1308,139,1,1473
"Sephora US",US,283,132,118,132,125294,0,12,865,76,0,1009
"Konzum HR",HR,278,11006,14,168,17310,3429,312,2450,513,432,3721
"i-apteka",PL,278,9852,127,555,21197,5887,6,421,591,438,1504
"E.Leclerc Tychy",PL,277,8640,8,1156,8784,9714,54,344,608,1558,2594
"Argos UK",UK,274,5353,48,3840,7989,0,7,519,15303,1,15855
Makro,PL,271,3155,0,508,8649,31903,4,527,238,1644,2435
"Edeka DE",DE,270,3744,59,90,4984,131,11,318,95,122,552
"Groby HU",HU,268,8163,15,525,21724,3582,4,1055,578,235,1896
"Farmacia la Pret Mic RO",RO,265,8411,25,264,27378,5917,37,1280,214,960,2512
"PriceSmart CR",CR,263,3601,7,46,53174,3535,11,15329,48,753,16167
"E.Leclerc Gliwice",PL,260,7839,13,772,21484,6921,49,1311,578,1825,3801
"Apteka Medkon",PL,254,7723,467,467,31888,8589,7,4199,982,1298,6520
"Azbuka Vkusa RU",RU,254,10035,12,81,21343,1268,30,1645,329,117,2140
"Dunnes IE",IE,252,13404,32,836,22168,11767,4,708,1188,527,2465
Wapteka,PL,252,18807,1288,1347,64536,42176,33,3665,707,728,5210
"Supermarket AM",AM,249,6853,3,36,17581,0,5,1035,90,1,1145
"Globus RU",RU,248,12702,339,343,41201,318,7,1305,205,18,1579
"Szybki Koszyk",PL,247,4242,5,90,14516,596,120,624,48,40,851
"Lisek App",PL,246,1958,39,217,2810,1154,9,38,105,275,440
"Helpnet RO",RO,245,6801,15,259,19197,5132,6,1894,217,386,2518
"Delitea SE",SE,242,9171,28,385,22379,5654,7,174,179,81,462
"Rappi - Exito CO",CO,242,16757,1227,1396,51248,10169,108,7699,16238,352,24427
"Olimpica CO",CO,241,10070,102,389,41441,1226,10,2393,919,89,3447
"Farmatodo CO",CO,238,13174,23,3581,60302,6791,13,674,4506,105,5342
"Carrefour BR",BR,237,10714,53,92,46046,0,16,8813,171,1,9048
"Afya Pharmacy BG",BG,234,10078,15,178,31605,1815,10,2436,230,356,3056
"Metroiroda HU",HU,229,3288,6,252,6646,1237,4,615,515,165,1304
"Disco AR",AR,227,8130,27,400,34381,1365,104,3486,1652,89,5352
"Coop UK",UK,226,8731,42,655,208152,8041,7,2587,360,661,3827
"Linio CL",CL,226,46514,394,554,79043,0,107,656,476,0,1357
"Getir IT",IT,221,1804,0,47,4832,7949,5,125,26,124,283
"Benu HU",HU,220,4953,0,347,14468,2750,4,2700,524,409,3652
"Beauty Bay UK",UK,217,12005,62,257,49977,0,6,317,154,1,554
"Перекрёсток Впрок RU",RU,215,15601,27,567,34879,2468,10,904,419,67,1437
"Booker Foodservice UK",UK,214,11877,102,1527,22210,2742,137,482,731,99,1480
"Superpharm Apteka",PL,214,535,14,535,30507,24598,7,585,827,334,1791
"Igooods RU",RU,213,16624,2,311,36400,449,6,226,217,17,506
"MaxiCoffee FR",FR,212,5351,20,129,13286,1577,480,797,421,257,1962
"Exito CO",CO,209,9301,23,737,37472,3115,255,3070,1741,497,5613
Cocolita,PL,208,10508,14,781,45018,16005,33,1756,1501,1526,4875
"Pyaterochka App RU",RU,206,5534,17,307,14262,1249,4,240,150,15,431
"Subra BG",BG,206,8337,16,160,21693,4851,9,260,83,644,1026
"Yandex Market RU",RU,206,0,0,0,62218,0,0,0,0,0,0
"Booker UK",UK,205,8876,164,1888,16909,8410,127,372,899,664,2091
"Merqueo - Bogota CO",CO,205,1677,18,100,3715,3911,12,186,53,199,454
"Minifarm RO",RO,203,4851,4,109,13466,528,7,839,118,218,1194
"Утконос RU",RU,203,559,38,559,67095,1529,14,344,314,49,776
"Panda Market HU",HU,201,2465,23,190,6152,984,5,181,92,107,391
"Emag HU",HU,199,108336,1588,3342,108369,7140,11,2554,4670,260,7625
"Rappi Lider CL",CL,198,16663,11014,11219,77632,1368,13,5362,14493,32,19957
"Rappi - Exito Express CO",CO,190,11301,613,818,28315,5222,145,6337,15438,330,22273
"Vodovoz RU",RU,190,1131,5,29,2319,0,4,329,51,1,390
"Deliberry - Caprabo ES",ES,184,8543,0,0,9657,0,16,835,59,1,922
"Deliberry - Solri ES",ES,178,9124,0,0,10235,0,16,834,42,0,902
"Coursesu FR",FR,177,3997,104,171,7505,1272,34,4210,1569,1195,7020
"Tiendas Jumbo CO",CO,177,15500,118,1344,39698,5449,19,1521,1688,213,3484
"Deliberry - Mercadona Barcelona ES",ES,175,5718,0,0,6855,0,19,810,1562,2,2401
"Deliberry - Mercadona Madrid ES",ES,173,5651,0,0,6764,0,17,759,1644,1,2427
"PennyDomu CZ",CZ,173,1681,0,0,4767,0,123,242,2,2,373
"Merqueo - Cali CO",CO,172,1004,0,45,2269,911,10,153,23,42,230
"Merqueo - Medellin CO",CO,172,983,0,59,2104,2542,7,135,32,164,342
"Rappi Carrefour AR",AR,172,5131,91,531,9776,1755,124,1256,1687,80,3155
"Rappi Jumbo CL",CL,172,15898,10394,10616,54453,1399,10,4680,11570,31,16337
"Linella MD",MD,170,6216,72,73,12332,0,6,290,79,1,393
"Rappi Unimarc CL",CL,168,11711,633,755,22215,1318,11,2725,1459,32,4250
"Rappi Turbo CL",CL,164,0,0,0,0,604,170,427,21,71,690
"Everli - Coop IT",IT,162,12012,0,197,13152,7424,40,894,210,705,1863
"Deliberry - Supercor ES",ES,161,4086,0,0,5010,0,17,711,19,0,752
"Professional Farmaline RO",RO,155,8366,1,122,17755,5352,4,542,82,105,753
"Auchan FR",FR,154,1678,4,78,5571,523,125,212,56,116,514
"Dirck3 NL",NL,151,532,0,25,2461,144,6,122,12,26,172
"Look Fantastic UK",UK,147,16885,115,165,52997,0,5,706,123,2,920
"Everli - Metro IT",IT,146,2474,0,51,3300,1505,37,348,57,380,825
"Deliberry - Dia ES",ES,143,4171,0,0,5032,0,17,648,2,1,672
"Deliberry - La Plaza ES",ES,143,4250,0,0,5109,0,16,650,105,0,776
"Rappi Turbo PE",PE,143,1216,20,21,3754,1670,167,1819,93,96,2178
"Superxtra PA",PA,139,6443,70,70,13612,0,69,70,34,0,185
"Rappi Turbo CO",CO,138,2076,136,180,7175,1197,103,4459,470,105,5142
"Medexpressz HU",HU,137,1384,0,85,2957,0,4,265,56,1,333
"Nazuby CZ",CZ,135,1736,0,69,5985,162,7,185,33,16,250
"Alkohol CZ",CZ,131,4385,11,19,12257,0,18,1253,17,2,1301
"Farmacia Pasteur CO",CO,130,7007,150,3514,42567,609,10,1448,2854,27,4372
"Automercado CR",CR,125,11929,11,90,18617,0,33,1968,486,6,2509
"Extra BR",BR,125,78874,519,785,78874,0,40,923,246,17,1299
"Ozon RU",RU,124,64495,3288,4844,97038,1826,542,2803,5035,486,9134
"Rappi Turbo AR",AR,122,1072,1,23,3744,1253,130,1928,86,80,2227
"Condis ES",ES,121,6662,1,1,7050,0,5,193,23,1,231
"Cora Drive BE",BE,120,13986,8270,8280,91153,4571,9,4075,10278,1519,15941
"Mercado Libre CL",CL,112,43990,2413,20879,60323,20,132,578,21184,53,22004
"Rappi Farmacity AR",AR,111,6129,260,299,17680,1665,143,3325,2204,87,5772
"Coop EE",EE,105,1390,0,7,3296,1225,2,92,5,57,158
"Vea Digital AR ",AR,104,2431,15,250,10024,1101,101,1544,3160,82,4895
"Amazon Fresh DE",DE,102,9248,521,522,14312,6737,128,1421,642,118,2319
"Farmacity AR",AR,97,547,59,547,6466,1165,10,328,229,49,619
"Savage & Whitten IE",IE,97,3678,9,158,7356,922,6,353,80,76,533
"Vitania BG",BG,96,7294,25,172,7294,4278,5,351,85,163,614
"Everli - Kaufland",PL,94,0,0,0,19709,0,0,0,0,0,0
"Everli - Lidl",PL,91,0,0,0,23548,0,0,0,0,0,0
"Kaufland DE",DE,90,29984,253,507,37773,733,63,875,370,42,1387
"PriceSmart GT",GT,90,1559,1,20,11305,2119,10,4299,128,617,5062
"Koffievoordeel NL",NL,89,484,8,58,2826,1295,8,409,39,29,488
"Kaffedeal DK",DK,82,379,0,33,952,863,9,59,16,33,119
"Okey RU",RU,81,4202,137,308,4237,969,6,228,822,79,1152
"Brack CH",CH,80,7790,11,110,19283,1761,51,259,91,158,582
"Comfandi Supermercados CO",CO,72,4458,223,223,8989,0,10,1548,494,1,2059
"Durst DE",DE,69,1125,71,1125,1196,0,6,23,18,2,51
"Pretty Little Thing UK",UK,69,2020,28,49,9760,0,12,2267,484,1,2776
"Droguerias Cafam CO",CO,68,4472,951,2991,11423,1437,25,752,5542,52,6379
"Media Markt DE",DE,68,1264,3,38,3265,444,856,4606,357,918,6741
"Rappi Cruz Verde CL",CL,63,4473,1830,1982,29513,1313,8,1818,3783,31,5660
"Rozetka UA",UA,62,74344,947,1609,91169,0,107,5397,625,1,6283
"Kaffekapslen DK",DK,61,803,2,71,1837,1513,74,53,78,154,360
"PedidosYa DIA AR",AR,61,2559,2,60,2559,612,11,77,28,19,140
"Emag RO",RO,60,50783,173,814,50789,5254,6,1148,1227,254,2710
"Comfandi Droguerias CO",CO,57,4430,2449,2449,8749,1147,9,1039,5804,178,7036
"Kapselkongen DK",DK,57,253,0,56,508,684,28,56,55,34,174
"iDrinks HU",HU,53,6573,169,188,14377,253,9,1569,201,68,1862
"Expert DE",DE,51,944,0,3,1010,0,95,81,303,12,492
"PedidosYa Carrefour AR",AR,49,3826,8,106,3826,803,10,91,49,19,174
"Very UK",UK,47,3909,23,118,4240,0,15,48,53,1,129
"Carrefour AR",AR,41,3110,118,347,10712,511,101,900,1065,40,2116
"Jumia EG",EG,40,2416,3,50,4820,45,45,159,33,24,263
"BilkaToGo DK",DK,37,11173,7501,7657,57589,1708,14,125,3288,38,3537
"Datart CZ",CZ,37,978,8,23,1335,988,9,148,31,61,252
"Selver EE",EE,37,4102,4,28,10948,2893,4,256,57,190,517
"Altex RO",RO,36,1516,102,102,2957,1850,4,134,197,123,462
"Bol NL",NL,36,148,131,151,27662,2413,31,1804,471,556,2883
"Ep DE",DE,35,212,0,4,683,0,73,125,11,1,211
"Saturn DE",DE,34,641,2,12,1347,395,277,690,45,2407,3421
"Winelivery IT",IT,34,1266,0,12,2702,0,3,178,8,1,192
"Galaxus CH",CH,33,8492,20,164,8492,1034,17,1883,149,1265,3326
"John Lewis UK",UK,32,18,4,18,587,181,6,28,20,96,152
"Kesko FI",FI,31,4413,0,0,62130,8906,545,1098,0,1311,2994
"Americanas BR",BR,29,5065,6,13,41964,0,307,1149,476,1,1962
"Carrefour FR",FR,24,10479,66,366,15708,1498,4,1279,1106,274,2674
"MyDeal AU",AU,20,8,4,8,9657,915,3,68,6,57,136
"Shoplink IE",IE,20,154,0,128,462,1848,30,46,87,115,278
"Officeworks AU",AU,19,369,0,51,374,354,76,9,216,19,320
"Boulanger FR",FR,17,935,1,52,2182,381,17,110,122,155,405
"Euronics DE",DE,15,9542,78,345,37677,0,27,774,38846,1,39687
"The Good Guys AU",AU,15,769,3,14,1476,392,5,46,26,140,218
"Qvc US",US,14,15680,50,109,17188,0,27,156,436,1,639
"BCC NL",NL,11,1858,3,25,2458,666,7,235,48,79,375
"El Corte Ingles ES",ES,11,3908,1,138,5072,670,72,291,825,84,1281
"Leclerc FR",FR,10,262,34,79,524,802,18,230,2237,664,3150
"Wildberries RU",RU,10,55918,1084,1951,57889,1572,10,168,1155,40,1596
"Myer AU",AU,9,8034,171,440,10028,0,11,1626,867,1,2510
"Coles AU",AU,8,314,0,93,631,405,5,51,191,174,421
"Intermarche FR",FR,8,450,0,115,869,863,6,49,271,219,547
"AO UK",UK,7,759,3,14,1046,290,67,9,16,42,149
"Woolworths AU",AU,7,1464,1,107,2293,360,3,62,43,30,140
"Unieuro IT",IT,6,1689,0,21,2113,1146,3,22,12,55,96
"Harvey Norman AU",AU,5,18,1,18,330,273,14,47,86,466,613
"Barrys Beacon IE",IE,4,152,6,119,152,384,7,34,62,102,206
" SberMarket - Lenta RU",RU,0,0,0,0,0,0,6,14,1,128,149
"Alcampo ES",ES,0,0,0,0,0,97,14,23,10,66,114
Allegro,PL,0,2117,2,1874,0,0,0,0,42087,0,42087
"Chedraui MX",MX,0,0,0,0,0,0,9,19,1,22,51
"Cruz Verde CO",CO,0,0,0,0,0,0,4,51,3,44,102
"Dia AR",AR,0,0,0,0,0,0,9,40,2,115,169
"Drogas La Rebaja CO",CO,0,0,0,0,0,0,25,3628,1,269,3923
"Easy CL",CL,0,0,0,0,0,0,3,77,3,2,86
"Elefant RO",RO,0,0,0,0,0,2007,208,1,1,86,296
"Mediaworld IT",IT,0,0,0,0,0,0,33,1,2,234,270
"Metro Delivery RU",RU,0,0,0,0,0,0,23,17,20,49,109
"Rappi - Carulla CO",CO,0,0,0,0,0,5742,30,41,22,394,493
"Rappi - Carulla Express CO",CO,0,0,0,0,0,6903,28,39,20,298,388
"Rappi - Pricesmart CO",CO,0,0,0,0,0,1618,46,27,22,223,319
"Rappi Coto AR",AR,0,0,0,0,0,1594,25,29,24,138,218
"SberMarket - Metro RU",RU,0,0,0,0,0,0,7,15,1,115,138
"Sodimac CL",CL,0,0,0,0,0,0,24,87,2,2,115
"Soriana MX",MX,0,0,0,0,0,0,2,22,2,65,91
"Tottus CL",CL,0,0,0,0,0,1235,9,86,1,24,120
