﻿Site,Country,Categories,Prices,"Products changed","Products downloads",Relations,Search,"Categories difference","Categories difference (%)","Prices difference","Prices difference (%)","Relations difference","Relations difference (%)","Search results difference","Search results difference (%)"
"Pilulka CZ",CZ,7827,25839,8072,25839,767577,0,0,0,"-20288","-43.98291778564453",0,0,"-21594","-100"
"Ocado UK",UK,6474,46596,3049,46587,438908,40913,0,0,"-63","-0.13502217829227448","-489","-0.111288882791996","-8","-0.019549865275621414"
"Auchan FR",FR,5408,22642,1309,22642,139179,759,"-19",0,"-56","-0.24671776592731476","-181","-0.1298794448375702",4,"0.5298013091087341"
frisco,PL,4682,15228,118,14852,271340,111224,0,0,"-22","-0.14426229894161224","-754","-0.27711012959480286","-32","-0.028762493282556534"
"Mytime DE",DE,4179,11408,422,11408,96104,1279,4,0,66,"0.5819079279899597",434,"0.45364272594451904","-18","-1.3878180980682373"
"Samokat RU",RU,3623,5184,388,5176,39856,840,1,0,183,"3.6592681407928467",2133,"5.6543755531311035",12,"1.4492753744125366"
"Albert Heijn NL",NL,3530,21187,1109,21186,105803,4298,0,0,0,0,0,0,0,0
"Morrisons UK",UK,3223,21217,1859,21195,98365,31644,"-3",0,27,"0.12741859257221222",152,"0.15476566553115845","-16","-0.05053695663809776"
"Waitrose UK",UK,3052,16298,3852,16296,1485348,33887,0,0,0,0,0,0,0,0
"Asda UK",UK,2930,26566,325,26566,776902,38126,0,0,"-15","-0.05643128603696823","-15319","-1.9336775541305542",26,"0.06824146956205368"
"Coto Digital AR",AR,2930,20213,17189,20184,125777,1217,"-2",0,127,"0.6322811841964722",1455,"1.1703479290008545",0,0
"Albert Heijn BE",BE,2848,8601,469,8601,44313,5985,0,0,0,0,0,0,0,0
"Rohlik CZ",CZ,2775,23128,3005,23128,209538,10586,"-1",0,"-67","-0.28885534405708313","-1013","-0.4811185896396637","-11","-0.10380296409130096"
Auchan,PL,2456,11565,3409,11565,220500,25905,0,0,"-23","-0.19848118722438812","-3534","-1.5774391889572144",0,0
"Kosik CZ",CZ,2328,14147,384,14147,78692,18895,"-2",0,9,"0.0636582225561142",451,"0.5764241218566895",0,0
"Amazon Fresh UK",UK,2273,8895,8859,8891,26252,15954,"-178","-7","-158","-1.745277762413025","-26704","-50.4267692565918","-151","-0.9375970363616943"
"Auchan HU",HU,2238,33789,890,33789,338528,10816,0,0,5,"0.014799905009567738","-1460","-0.429426908493042",2,"0.01849454455077648"
"Sainsburys UK",UK,2199,29214,463,29208,1519812,80466,"-7",0,"-74","-0.25266319513320923",13661,"0.9070139527320862",193,"0.24042953550815582"
"Notino SK",SK,2104,36842,23309,36842,106086,190,"-2",0,36505,"10832.34375",1419,"1.3557281494140625","-30","-13.636363983154297"
"Amazon Fresh IT",IT,2093,7710,7637,7710,36279,9009,"-2",0,195,"2.5948104858398438","-30","-0.08262414485216141","-278","-2.993431568145752"
"Amazon UK",UK,1985,0,0,0,133298,34281,0,0,0,0,0,0,"-60","-0.17471826076507568"
"Drogerie Natura",PL,1980,22850,1078,22849,78921,70265,0,0,"-44","-0.19219009578227997","-285","-0.35982123017311096",209,"0.29833275079727173"
"Boots UK",UK,1930,24417,1692,24400,122412,6641,0,0,"-104","-0.4241262674331665","-3191","-2.5405445098876953","-187","-2.738722801208496"
"Brakes UK",UK,1895,9254,87,9254,27801,30914,0,0,12,"0.12984202802181244",36,"0.12965963780879974",111,"0.3603545129299164"
"Jumbo NL",NL,1823,18991,1384,18990,72711,4272,"-2",0,"-77","-0.40381792187690735","-288","-0.394525945186615","-6","-0.14025245606899261"
"Notino CZ",CZ,1741,35911,23324,35911,96190,12523,"-2",0,35284,"5627.43212890625","-4637","-4.598966598510742",26,"0.208049938082695"
"Alcampo ES",ES,1690,17667,2369,17667,54907,549,0,0,"-6","-0.033950094133615494",184,"0.3362388610839844","-1","-0.1818181872367859"
"Cefarm 24",PL,1688,12330,139,12328,91807,15538,0,0,"-42","-0.33947622776031494","-362","-0.39275678992271423",54,"0.3487471044063568"
"Drogas La Rebaja CO",CO,1687,12052,874,12052,365897,6692,0,0,102,"0.8535565137863159",14509,"4.129054069519043",0,0
"Yuga RO",RO,1680,11045,103,11045,55272,628,1,0,"-32","-0.2888868749141693",267,"0.4854104220867157","-2","-0.3174603283405304"
"Ageo CZ",CZ,1583,17678,13,17678,63398,19002,"-289","-15",17258,"4109.0478515625","-25493","-28.678943634033203",1004,"5.578397750854492"
"Delhaize BE",BE,1522,12493,4935,12492,51520,22511,0,0,"-556","-4.260862827301025","-2211","-4.114943027496338","-3","-0.013325042091310024"
"Otto DE",DE,1452,0,0,0,0,156,"-14",0,0,0,0,0,"-1","-0.6369426846504211"
"Rewe DE",DE,1383,8745,775,8745,32026,1555,0,0,1,"0.01143641397356987","-3","-0.00936651136726141",0,0
eZebra,PL,1265,41801,103,41421,146955,37700,0,0,0,0,0,0,0,0
"Tesco UK",UK,1252,29043,6788,28920,336282,24587,1,0,25,"0.08615342527627945",1725,"0.5156071782112122",48,"0.195606991648674"
"Picnic NL",NL,1229,6940,247,6939,15106,2204,0,0,1,"0.01441129855811596",0,0,0,0
"Kifli HU",HU,1225,13428,635,13428,53970,9579,0,0,"-120","-0.8857395648956299","-523","-0.9597563147544861",0,0
"Apteka Nowa Farmacja",PL,1213,14406,298,14389,67962,23871,0,0,127,"0.8894180059432983",2885,"4.4332098960876465","-10","-0.041874293237924576"
"Barbora EE",EE,1193,12336,122,12336,43735,746,"-6",0,93,"0.7596177458763123",347,"0.7997602820396423","-469","-38.60082244873047"
"Barbora LV",LV,1144,11200,37,11200,41361,1262,1144,0,11200,0,41361,0,1262,0
"E-Fresh GR",GR,1139,9850,207,9847,47927,5539,"-20","-1","-234","-2.320507764816284","-1424","-2.885453224182129","-96","-1.703637957572937"
"Barbora LT",LT,1134,12863,114,12848,43637,1161,5,0,2,"0.015550890006124973",73,"0.16756954789161682","-147","-11.238532066345215"
"Lekarna CZ",CZ,1116,27104,227,27104,121655,4402,0,0,"-100","-0.367592990398407","-456","-0.3734307289123535","-4","-0.09078529477119446"
"Moja Lekaren SK",SK,1114,23339,204,23339,103252,3389,0,0,"-91","-0.3883909583091736","-372","-0.3589901924133301",4,"0.11816839128732681"
"Amazon DE",DE,1108,292,288,292,191073,5344,0,0,0,0,0,0,45,"0.8492168188095093"
"Amazon IT",IT,1086,526,526,526,414933,21933,0,0,0,0,0,0,"-117","-0.5306122303009033"
"Coop CH",CH,1083,16838,242,16838,63302,2095,0,0,1,"0.005939300172030926",124,"0.19627085328102112",471,"29.00246238708496"
"S-kaupat FI",FI,1078,36095,776,34091,321695,4368,0,0,"-48","-0.13280579447746277","-1674","-0.5176748633384705","-61","-1.3772860765457153"
"Mathem SE",SE,1049,13328,356,13301,36208,5539,0,0,"-120","-0.8923259973526001","-292","-0.800000011920929","-5","-0.09018758684396744"
"Carrefour BE",BE,1037,19902,41,19537,597393,21417,0,0,"-29","-0.1455019861459732","-1783","-0.29757532477378845",0,0
"Coop NL",NL,1025,16735,1905,16735,70923,952,"-8",0,"-18","-0.1074434444308281","-156","-0.21947410702705383",0,0
"Salcobrand CL",CL,1023,6819,83,6819,31409,1139,"-12","-1",1,"0.014667057432234287","-111","-0.3521573543548584",0,0
"Apteka Manada",PL,1019,14411,516,14405,42539,41928,0,0,"-43","-0.2974955141544342","-121","-0.283638060092926","-30","-0.07150007039308548"
"Eroski ES",ES,1002,25691,86,25683,54088,450,0,0,0,0,0,0,0,0
"Zakaz - Novus UA",UA,1000,31909,20131,31908,66591,1808,0,0,0,0,"-1","-0.0015016818651929498",0,0
"Walmart AR",AR,995,12304,40,9410,48517,1145,"-2",0,"-10","-0.08120837807655334","-328","-0.6715119481086731","-8","-0.6938421726226807"
" SberMarket - Lenta RU",RU,975,19125,776,19122,77911,496,"-20","-2","-113","-0.5873791575431824","-3914","-4.783379077911377","-9","-1.7821781635284424"
"Picnic DE",DE,964,6945,110,6945,13946,975,0,0,0,0,0,0,0,0
"Auchan RO",RO,945,21879,55,21826,91364,8691,0,0,"-48","-0.2189081907272339","-198","-0.21624691784381866","-9","-0.1034482792019844"
Hebe,PL,925,13507,6152,13506,112637,30129,0,0,"-138","-1.011359453201294","-1322","-1.1600663661956787","-20","-0.06633719056844711"
"Coop Shop IT",IT,920,10561,50,10561,31726,2243,0,0,"-4","-0.03786086291074753","-12","-0.03780956566333771",0,0
"Remedium BG",BG,920,26920,99,26907,81600,701,0,0,"-44","-0.16318053007125854",198,"0.24323727190494537",0,0
Selgros,PL,915,21403,16043,21389,71677,25054,"-2",0,"-28","-0.13065186142921448","-79","-0.1100953221321106","-37","-0.14746323227882385"
"SberMarket - Metro RU",RU,914,17250,1073,17244,67199,3243,4,0,"-108","-0.6221914887428284","-671","-0.9886547923088074","-18","-0.5519779324531555"
"Coop SE",SE,913,9709,866,9705,32688,5489,0,0,0,0,1,"0.0030593201518058777",0,0
"Knuspr DE",DE,912,10629,241,10629,38273,622,0,0,"-17","-0.15968438982963562","-58","-0.15131355822086334",0,0
"SuperValu IE",IE,848,16464,99,16464,225599,10585,"-4",0,2302,"16.2547664642334",39996,"21.54922103881836",10585,0
"Unipatika HU",HU,846,4172,50,4171,29121,2525,0,0,"-2","-0.04791566729545593","-14","-0.048052169382572174",0,0
"Mall CZ",CZ,832,49536,1723,49536,106540,9148,0,0,27716,"127.02108001708984","-1901","-1.7530269622802734","-406","-4.249528884887695"
"Polski Koszyk",PL,814,13261,67,13220,20296,5605,0,0,"-2","-0.015079544857144356","-5","-0.02462932839989662","-234","-4.007535457611084"
"Tigros IT",IT,807,10005,186,10004,30047,5591,0,0,46,"0.461893767118454",138,"0.4613995850086212","-4","-0.07149240374565125"
"Coursesu FR",FR,803,18082,9647,18082,44098,1166,"-2",0,"-52","-0.28675416111946106","-98","-0.2217395305633545",0,0
"Pilulka RO",RO,778,39481,4249,39471,144428,3605,0,0,70,"0.17761538922786713","-515","-0.3553120791912079",48,"1.3494517803192139"
"Zakaz - Metro UA",UA,772,18163,11719,18162,35839,2179,0,0,"-61","-0.33472344279289246","-118","-0.3281697630882263","-2","-0.09170105308294296"
"Superdrug UK",UK,763,15699,80,15686,44499,5751,0,0,"-5","-0.03183902055025101",20,"0.04496503993868828",2,"0.03478866070508957"
"Auchan RU",RU,745,28237,393,28237,90029,6013,"-1",0,4,"0.014167818240821362","-432","-0.4775538742542267","-16","-0.2653839886188507"
"Coop DK",DK,742,10943,8113,10942,87837,976,1,0,"-68","-0.6175642609596252","-2013","-2.240400552749634","-30","-2.982107400894165"
"Bringmeister DE",DE,731,17223,601,17223,43797,2021,0,0,412,"2.4507763385772705",531,"1.2272915840148926","-1","-0.04945598542690277"
"Walmart CR",CR,730,13797,812,13796,177965,35985,0,0,"-3","-0.021739130839705467",644,"0.3631831407546997",42,"0.11685167998075485"
"Intervare DK",DK,729,8761,8406,8761,25579,0,0,0,"-25","-0.28454360365867615","-73","-0.28457820415496826",0,0
"Sklavenitis GR",GR,718,9727,116,9727,29180,5663,0,0,21,"0.21636101603507996",62,"0.2129267156124115",2,"0.03532944619655609"
"Apteka Gemini",PL,712,27449,968,27449,94104,75606,0,0,"-42","-0.1527772694826126",1322,"1.4248453378677368","-22","-0.029089754447340965"
"Rimi LV",LV,710,15597,16,15590,45927,4854,0,0,"-12","-0.07687872648239136","-39","-0.08484531939029694",0,0
"eZiko Apteka",PL,692,5808,59,5781,32843,37138,0,0,"-44","-0.7518796920776367","-239","-0.7224472761154175","-2","-0.005385029595345259"
"Dr Max CZ",CZ,677,20484,20470,20484,82250,3954,0,0,"-82","-0.3987163305282593","-458","-0.5537554025650024","-1","-0.025284450501203537"
"Gurkerl AT",AT,672,9114,1259,9114,32558,2807,0,0,"-37","-0.404327392578125","-124","-0.37941375374794006",1,"0.03563791885972023"
"Alza SK",SK,666,12911,858,12910,52766,2511,0,0,"-60","-0.46257033944129944","-146","-0.27592983841896057","-11","-0.4361617863178253"
"Bennet IT",IT,666,18523,106,18521,37332,2676,0,0,99,"0.5373426079750061",201,"0.541326642036438",0,0
"Superpharm Drogeria",PL,666,11582,159,11580,59395,46486,"-15","-2","-9","-0.07764644920825958","-38","-0.06393754482269287","-1","-0.0021511390805244446"
"Tesco IE",IE,666,17278,300,17276,266951,5060,2,0,3,"0.017366135492920876",1298,"0.4886073172092438",16,"0.31720855832099915"
"Dr Max SK",SK,665,16679,16598,16679,64438,5176,0,0,"-57","-0.3405831754207611","-249","-0.3849305212497711",0,0
"Tesco CZ",CZ,662,16998,85,16998,559643,11846,0,0,23,"0.13549336791038513",198,"0.035392217338085175",1,"0.008442380465567112"
"Alza CZ",CZ,651,20535,0,0,65991,14102,0,0,"-30","-0.14587892591953278","-32","-0.048467956483364105","-21","-0.14869362115859985"
"Crai Spesa Online",IT,647,7615,7037,7615,27368,1329,2,0,7482,"5625.56396484375",47,"0.17202883958816528",0,0
"Vasalekaren SK",SK,647,9396,82,9396,64785,3160,0,0,17,"0.1812559962272644",88,"0.13601867854595184",2,"0.0633312240242958"
"Poiesz NL",NL,645,8574,0,8568,10790,138,0,0,"-1","-0.011661808006465435","-1","-0.009266981855034828",0,0
"Rossmann DE",DE,643,15280,2213,15280,53296,402,0,0,"-288","-1.8499486446380615","-705","-1.30553138256073",0,0
"City Gross SE",SE,642,12856,201,12856,26855,5958,0,0,0,0,2,"0.007447957526892424",0,0
"Mat SE",SE,641,10214,3113,10214,32260,8437,0,0,"-32","-0.31231701374053955","-100","-0.30902349948883057",0,0
"Rossman HU",HU,641,14466,241,14461,50507,7675,0,0,"-19","-0.13117018342018127","-1501","-2.886094331741333","-7","-0.091122105717659"
"Tottus CL",CL,641,8525,172,8524,36676,1041,0,0,"-146","-1.6837735176086426","-1238","-3.265284538269043",0,0
Barbora,PL,638,6833,103,6833,59409,3728,"-4",0,"-19","-0.27729129791259766","-617","-1.0278879404067993",160,"4.484304904937744"
"Cold Storage SG",SG,638,10056,6,82,32629,0,"-2",0,2,"0.019892580807209015","-189","-0.5759034752845764",0,0
"Esselunga A Casa IT",IT,621,14534,1181,14534,43509,14338,0,0,0,0,2,"0.004596961196511984","-3","-0.020919043570756912"
"Metro Delivery RU",RU,621,17482,135,1347,52749,0,"-1",0,184,"1.0637067556381226",528,"1.0110875368118286",0,0
"Hoogvliet NL",NL,619,8838,163,8838,13861,1849,0,0,0,0,"-1","-0.007213966455310583","-2","-0.10804970562458038"
"DOZ.pl",PL,612,15446,225,15446,62375,51762,0,0,29,"0.188104048371315",158,"0.2539498805999756",4,"0.0077282739803195"
Apteline,PL,608,24434,137,24433,80113,18025,0,0,23474,"2445.208251953125","-1409","-1.728367805480957","-166","-0.9125391840934753"
"DM SK",SK,608,12793,142,12575,35630,2166,0,0,0,0,"-1","-0.0028065447695553303",0,0
"Tesco SK",SK,598,15230,65,15230,211088,211,0,0,6,"0.039411455392837524",551,"0.2617117166519165",0,0
"E.Leclerc Bielany",PL,597,31483,664,31182,99480,33859,0,0,"-27","-0.08568708598613739","-53","-0.05324866995215416","-39","-0.1150510385632515"
"Apteka Galen",PL,592,8706,14,8617,38383,3326,0,0,11,"0.12650948762893677","-1929","-4.785175800323486","-4","-0.12012012302875519"
Amazon,PL,591,383,382,382,788294,16744,0,0,0,0,0,0,191,"1.153869390487671"
"Thanopoulos GR",GR,590,15684,365,15682,56417,9532,0,0,"-186","-1.1720227003097534","-586","-1.0280160903930664","-46","-0.4802672863006592"
"Tesco HU",HU,589,15146,99,15146,822874,8846,0,0,16,"0.10575016587972641",285,"0.03464670851826668","-1","-0.011303266510367393"
"Willys SE",SE,587,10421,405,10421,34458,5019,0,0,23,"0.22119638323783875",83,"0.24145454168319702",2,"0.03986446186900139"
"Yandex Lavka RU",RU,585,1959,139,1958,2386,9230,"-2",0,26,"1.3450595140457153",31,"1.3163481950759888",37,"0.4024801552295685"
"Nuko LV",LV,582,8314,7928,8314,35907,0,0,0,"-80","-0.9530616998672485","-355","-0.9789862632751465",0,0
"Bestway Foodservice UK",UK,579,10470,247,10470,33080,4611,"-3",0,23,"0.2201588898897171",71,"0.21509285271167755","-2","-0.043355733156204224"
"Metro RU",RU,576,21363,1059,21342,26406,4286,0,0,"-44","-0.2055402398109436","-62","-0.23424512147903442","-5","-0.11652295291423798"
"Dr Max",PL,569,13746,13736,13746,46811,27394,0,0,"-59","-0.42738139629364014",137,"0.2935253083705902",0,0
"Bestway Best-one UK",UK,566,6612,113,6612,21351,12704,0,0,"-7","-0.10575615614652634","-21","-0.09825940430164337","-1","-0.007870917208492756"
"Bestway UK",UK,566,9873,254,9873,31564,30518,0,0,"-17","-0.17189079523086548","-51","-0.16131582856178284","-94","-0.3070691227912903"
"Spar HU",HU,564,13878,828,3779,177309,10008,0,0,6,"0.04325259476900101","-322","-0.1812746673822403",7,"0.06999300420284271"
"Pingvinpatika HU",HU,562,7369,593,7369,38654,2851,0,0,"-11","-0.1490514874458313","-44","-0.11370096355676651","-6","-0.21001049876213074"
"Plus NL",NL,561,15325,704,15325,29394,3701,0,0,1,"0.00652571115642786",23,"0.07830853760242462",1,"0.027027027681469917"
"AB GR",GR,560,10834,2970,10834,32599,6963,0,0,"-423","-3.757661819458008","-1252","-3.698561429977417",4,"0.05747952312231064"
"Carulla CO",CO,556,10575,55,10573,61526,4242,0,0,24,"0.22746659815311432",25,"0.04064974561333656",3,"0.07077141106128693"
"Kritikos GR",GR,554,15786,8182,15786,44511,0,"-2",0,"-4","-0.025332488119602203","-13","-0.029197735711932182",0,0
"Apteka Melissa",PL,551,28204,27968,27968,104894,56044,0,0,"-45","-0.15929767489433289","-129","-0.12283023446798325",1,"0.0017843442037701607"
"DM HU",HU,543,12100,85,11882,32911,9725,"-1",0,1,"0.008265146054327488",0,0,"-1","-0.010281719267368317"
"DM CZ",CZ,540,11400,247,11400,31156,13595,0,0,"-3","-0.02630886621773243","-5","-0.016045698896050453",2,"0.014713454991579056"
"E.Leclerc Rzeszów",PL,539,13058,24,13058,38003,32994,0,0,"-164","-1.2403569221496582","-409","-1.0647714138031006","-289","-0.8683111667633057"
"Benu CZ",CZ,536,12797,84,12797,57322,5284,0,0,"-70","-0.5440273284912109","-325","-0.5637760758399963",1,"0.018928639590740204"
"E.Leclerc Wroclaw",PL,534,15528,31,15511,15726,11396,0,0,"-123","-0.7858922481536865","-122","-0.7698132395744324","-108","-0.9388039112091064"
"Sok FI",FI,533,9315,298,9315,35920,3077,0,0,5,"0.053705692291259766",10,"0.027847396209836006","-9","-0.29163965582847595"
"MyMarket GR",GR,532,14352,2401,14352,51436,5630,0,0,"-1","-0.006967184599488974","-2","-0.003888176055625081",0,0
"Chronodrive FR",FR,528,8266,204,8207,16518,2147,0,0,"-7","-0.08461259305477142","-101","-0.6077381372451782",0,0
"Univerexport RS",RS,522,9358,23,9358,18716,780,0,0,0,0,0,0,0,0
"Easy Coop IT",IT,516,10222,921,10222,36434,16465,0,0,"-9","-0.08796793967485428","-31","-0.0850130245089531","-11","-0.06676378101110458"
"Drogeria Olmed",PL,510,36283,6893,36283,117571,27665,0,0,34637,"2104.3134765625",14,"0.011909116059541702","-1","-0.0036145448684692383"
"Jumbo CL",CL,508,19797,183,18827,625837,1416,0,0,8,"0.040426500141620636",2889,"0.4637626111507416","-2","-0.14104372262954712"
"Apteka Zawiszy",PL,504,18010,358,18010,72556,18324,0,0,"-37","-0.2050202190876007","-140","-0.19258281588554382","-1","-0.005457025952637196"
"Ebag BG",BG,504,10834,2681,10785,37277,1205,0,0,647,"6.351232051849365",893,"2.4543755054473877",0,0
Rossmann,PL,504,24035,177,24030,77802,38761,0,0,21450,"829.7872314453125","-3","-0.00385579327121377","-1","-0.0025798461865633726"
"Colruyt BE",BE,495,6097,81,5999,68381,14344,0,0,"-6","-0.09831230342388153","-94","-0.13727638125419617",11,"0.07674597203731537"
"Hemkop SE",SE,495,10001,383,10001,31197,5163,0,0,"-70","-0.6950650215148926","-227","-0.7223777770996094","-2","-0.038722168654203415"
Intermarche,PL,494,19553,20,19553,174403,25220,0,0,"-16","-0.08176197111606598","-436","-0.24937227368354797","-52","-0.20576131343841553"
"Interspar AT",AT,490,21143,1762,21143,65869,6132,0,0,16,"0.07573247700929642",51,"0.07748640328645706",1,"0.0163105521351099"
"Spar SI",SI,489,17946,1147,17946,62931,2484,0,0,"-121","-0.6697293519973755","-398","-0.6284640431404114","-4","-0.1607716977596283"
"Famila a casa IT",IT,486,12856,124,12407,38516,5938,0,0,0,0,0,0,0,0
"Mega Image RO",RO,480,13358,3141,13356,39981,11032,0,0,"-98","-0.728299617767334","-294","-0.7299813628196716",3,"0.027201015502214432"
"Silpo UA",UA,470,11451,169,11451,28628,0,0,0,"-25","-0.21784594655036926","-75","-0.26129671931266785",0,0
"Benulekaren SK",SK,468,8826,32,8826,45737,6399,0,0,"-33","-0.37250253558158875","-138","-0.30081743001937866",24,"0.3764705955982208"
"Basko IT",IT,463,8554,78,8547,26161,4309,0,0,0,0,0,0,0,0
Ceneo,PL,462,175945,11791,175606,239353,22965,0,0,"-14612","-7.668046951293945","-18292","-7.099691390991211","-48","-0.20857776701450348"
"GPSfarma AR",AR,460,5577,38,5577,26620,1063,0,0,"-36","-0.6413682699203491","-164","-0.6123058795928955","-12","-1.116279125213623"
"Cornershop - Lider CL",CL,455,21049,61,21049,135878,1365,"-11","-2",14,"0.06655573844909668","-358","-0.2627792954444885",0,0
"Apteka Olmed",PL,454,39902,1776,39898,133758,20397,0,0,38852,"3700.1904296875",22,"0.016450319439172745","-3","-0.014705882407724857"
"MegaMarket RO",RO,447,5603,0,5603,6714,570,0,0,0,0,0,0,0,0
"Carrefour ES",ES,440,14040,89,13765,16411,582,0,0,"-7","-0.04983270540833473",0,0,0,0
"Patika24 HU",HU,426,4963,59,4963,15482,4318,0,0,"-1","-0.02014504373073578","-2","-0.012916559353470802",0,0
"E.Leclerc Lublin Turystyczna",PL,424,12871,1,12871,15784,13414,0,0,"-1","-0.0077688004821538925","-1","-0.006335128098726273","-4","-0.029810702428221703"
"E.Leclerc Katowice",PL,417,9566,10,9547,9965,9815,0,0,"-38","-0.39566847681999207","-39","-0.38984405994415283","-73","-0.7382686138153076"
"Eva UA",UA,415,49130,1330,49130,135364,1526,0,0,48885,"19953.060546875","-1083","-0.7937147617340088",0,0
"Feedo CZ",CZ,415,17617,1279,17607,50674,372,0,0,161,"0.9223189949989319","-275","-0.5397554636001587","-1","-0.2680965065956116"
"Lider CL",CL,415,11379,283,11379,205879,1123,0,0,"-4","-0.03514011949300766","-3476","-1.6603376865386963","-106","-8.624897956848145"
"Apteka 9-1-1 UA",UA,414,21134,216,21134,44150,1742,1,0,"-24","-0.11343227326869965","-51","-0.11538200825452805",0,0
"Dr Max RO",RO,414,10693,10693,10693,34828,2457,0,0,"-73","-0.6780605316162109","-231","-0.6588892936706543",0,0
"Vkusvill RU",RU,402,11974,11974,11974,31301,894,"-2",0,"-15","-0.12511469423770905","-97","-0.30893686413764954",0,0
"Kruidvat NL",NL,400,7647,414,7645,19587,1742,0,0,"-26","-0.3388505280017853","-57","-0.2901649475097656",1,"0.05743825435638428"
"eTabletka SK",SK,395,10806,26,10806,63981,5935,0,0,"-12","-0.11092623323202133","-70","-0.10928791016340256","-1","-0.01684636063873768"
"Dia AR",AR,394,3879,246,3875,12042,493,0,0,"-989","-20.31635093688965","-3105","-20.499109268188477","-103","-17.281879425048828"
"Apteki 36.6 BG",BG,393,9686,25,9686,45037,667,0,0,"-1","-0.01032311376184225","-6","-0.013320604339241982",0,0
"Unimarkt AT",AT,387,3243,271,3242,15040,3086,"-5","-1",0,0,"-99","-0.6539401412010193",0,0
"Cornershop - Jumbo CL",CL,383,25710,83,25710,132631,1345,0,0,"-3","-0.011667249724268913","-141","-0.10619708895683289",0,0
"OnlinePrima HU",HU,383,7554,93,7554,23044,5787,0,0,0,0,56,"0.2436053603887558",0,0
"Ecofamily HU",HU,381,5891,72,5890,18991,4162,0,0,"-20","-0.338352233171463",7,"0.03687315806746483","-10","-0.23969319462776184"
"Billa AT",AT,374,8820,8820,8820,28295,659,374,0,8820,0,28295,0,659,0
"Majestic UK",UK,374,1225,27,1225,17017,1025,0,0,"-6","-0.4874086081981659","-87","-0.508652925491333","-3","-0.29182878136634827"
"Carrefour IT",IT,371,11022,3133,11017,32890,10302,0,0,164,"1.5104070901870728",440,"1.3559322357177734",48,"0.46810999512672424"
"Iceland UK",UK,360,5386,262,5352,24271,14173,"-1",0,"-28","-0.5171777009963989",575,"2.426569938659668","-34","-0.2393186390399933"
"Globus RU",RU,358,16359,269,15949,47649,0,"-2",0,193,"1.1938636302947998",2812,"6.271605968475342",0,0
"Ica New Version SE",SE,358,5737,545,5737,107783,3994,0,0,0,0,0,0,8,"0.2007024586200714"
"Ulabox ES",ES,356,6294,381,6294,13194,0,0,0,"-19","-0.3009662628173828","-34","-0.25703054666519165",0,0
"Bringo RO",RO,355,30658,57,28175,50342,11108,"-5","-1","-354","-1.141493558883667","-790","-1.5450206995010376",5,"0.04503287374973297"
"Mercado Libre AR",AR,349,29256,1080,16400,64189,431,"-1",0,"-42","-0.14335449039936066","-115","-0.17883801460266113","-232","-34.99245834350586"
"Ica SE",SE,347,11349,126,11349,693107,9394,0,0,"-1","-0.008810572326183319","-76","-0.010963915847241879","-1","-0.01064395997673273"
"E.Leclerc Lublin Tomasza Zana",PL,346,11019,139,11010,14034,10360,0,0,"-10","-0.09067004919052124","-10","-0.0712047815322876","-16","-0.15420199930667877"
"Świat Leku",PL,345,11278,78,10867,29102,1775,0,0,156,"1.4026254415512085","-435","-1.4727290868759155","-1","-0.05630630627274513"
"Ulta US",US,343,32777,876,32777,90471,0,0,0,32770,"468142.84375","-74","-0.08172731846570969",0,0
"E.Leclerc Gliwice",PL,340,6520,9,6518,6636,7475,0,0,"-43","-0.6551882028579712","-42","-0.6289308071136475","-34","-0.4527899920940399"
"Jumbo AR",AR,339,10174,158,10106,57819,737,0,0,"-97","-0.9444065690040588","-546","-0.9354921579360962","-4","-0.5398110747337341"
Allecco,PL,336,11379,115,11378,38794,20782,0,0,"-33","-0.2891692817211151","-92","-0.2365889996290207","-2","-0.00962278712540865"
Carrefour,PL,334,16060,44,16058,123306,34292,0,0,"-69","-0.42780086398124695","-942","-0.7581610679626465",103,"0.30126649141311646"
"Farmacia Tei RO",RO,324,20828,227,20703,20828,2624,0,0,44,"0.21170130372047424",44,"0.21170130372047424",5,"0.19091255962848663"
"Azbuka Vkusa RU",RU,323,14804,185,14343,27023,0,0,0,969,"7.0039753913879395",230,"0.858433187007904",0,0
"Bebe Tei RO",RO,322,23318,177,23216,23318,3440,0,0,"-62","-0.2651839256286621","-62","-0.2651839256286621",0,0
"Elefant RO",RO,317,27169,28579,28579,69434,1919,0,0,27128,"66165.8515625",47,"0.06773602962493896","-1","-0.0520833320915699"
"Merqueo - Bogota CO",CO,308,3740,56,3740,9636,6100,"-5","-1","-196","-4.979674816131592","-626","-6.100175380706787","-65","-1.054339051246643"
"SOpharmacy BG",BG,305,9271,444,9270,29346,3528,0,0,"-12","-0.1292685568332672","-40","-0.13611924648284912","-1","-0.02833663858473301"
Empik,PL,302,169832,53936,164773,534355,28356,0,0,183,"0.10786978155374527",574,"0.1075347363948822","-24","-0.08456659317016602"
Makro,PL,300,3702,3,3702,10115,29703,0,0,1,"0.027019724249839783","-6","-0.05928267911076546",84,"0.2836017310619354"
"Rappi - Exito CO",CO,299,22230,10905,17873,72048,8501,0,0,"-556","-2.4400947093963623","-3480","-4.60756254196167",36,"0.4252805709838867"
DoDomku,PL,298,5852,388,5852,17161,1867,0,0,"-13","-0.22165387868881226","-86","-0.49863743782043457","-1","-0.05353318899869919"
"Watsons UA",UA,295,9711,433,9711,26893,310,0,0,9621,10690,"-822","-2.9659030437469482",0,0
"Tudrogueria Virtual CO",CO,292,8658,673,8658,16663,492,0,0,1,"0.011551345698535442",1,"0.006001680623739958",0,0
"MaxiCoffee FR",FR,289,6016,5152,5975,15176,1022,0,0,"-8","-0.13280212879180908","-21","-0.13818517327308655",1,"0.09794319421052933"
"Rappi Lider CL",CL,288,16158,10731,13296,88007,1193,0,0,"-9","-0.05566895380616188",100,"0.11375658214092255",5,"0.4208754301071167"
"Apteka Medea BG",BG,284,8485,59,8485,25443,1964,0,0,"-10","-0.11771630495786667","-29","-0.11385050415992737","-6","-0.3045685291290283"
"Bipa AT",AT,284,10132,10070,10127,22053,537,0,0,"-18","-0.17733989655971527","-41","-0.18557074666023254","-2","-0.37105751037597656"
"Cornershop - Santa Isabel CL",CL,284,6522,16,6522,8098,1007,0,0,30,"0.46210721135139465",35,"0.4340816140174866","-2","-0.198216050863266"
"Rappi - Exito Express CO",CO,284,18005,7338,14504,43497,6270,0,0,"-455","-2.4647886753082275","-1918","-4.223274230957031","-123","-1.92397940158844"
"Sephora US",US,282,19104,2661,19103,87522,0,0,0,18799,"6163.6064453125",462,"0.5306684970855713",0,0
"E.Leclerc Tychy",PL,280,9358,5,9350,9509,9572,0,0,"-1","-0.010684901848435402","-1","-0.010515247471630573",0,0
"Mall SK",SK,280,7996,230,7996,24064,1008,0,0,7041,"737.2774658203125","-260","-1.0689030885696411","-92","-8.363636016845703"
"i-apteka",PL,280,9430,7697,9430,20238,10880,0,0,"-2","-0.02120441012084484","-3","-0.014821401797235012","-6","-0.05511666461825371"
"Idea RS",RS,278,11277,48,11277,15125,4928,0,0,4,"0.03548301383852959",39,"0.2585178315639496","-4","-0.08110300451517105"
"Cruz Verde CO",CO,277,3935,170,3935,11515,1073,0,0,"-1","-0.025406504049897194","-2","-0.017365632578730583",0,0
Makeup,PL,277,88287,4520,88287,382817,74180,0,0,84947,"2543.3232421875","-7490","-1.9190021753311157","-1330","-1.7613561153411865"
"PriceSmart CR",CR,274,2531,65,2037,5762,31077,"-1",0,"-957","-27.436925888061523","-46102","-88.89017486572266",347,"1.1291897296905518"
"Argos UK",UK,273,5691,18,5690,7818,0,0,0,"-50","-0.8709284067153931","-84","-1.0630220174789429",0,0
"Merqueo - Medellin CO",CO,268,3345,32,3345,8391,5649,"-4","-1","-214","-6.012925148010254","-711","-7.811470031738281","-106","-1.8418766260147095"
"Sipo HU",HU,266,3582,3563,3577,6871,1261,0,0,"-15","-0.4170141816139221","-23","-0.3336234390735626",0,0
"Afya Pharmacy BG",BG,265,8243,11,8242,27183,695,0,0,0,0,"-11","-0.04045009985566139",0,0
"Groby HU",HU,265,8483,110,8483,22440,3054,0,0,0,0,0,0,0,0
"Delitea SE",SE,263,9910,466,9910,23475,1961,0,0,"-21","-0.21145907044410706","-49","-0.20829790830612183",0,0
"Supermarket AM",AM,258,8761,20,8721,21697,0,"-1",0,"-39","-0.4431818127632141","-380","-1.7212483882904053",0,0
"Dunnes IE",IE,257,14238,86,14230,31496,10683,1,0,"-86","-0.6003909707069397","-98","-0.3101854920387268","-13","-0.12154076248407364"
"Rappi - Carulla CO",CO,257,15397,5671,11019,53671,8288,0,0,"-216","-1.3834625482559204","-3320","-5.825481414794922","-18","-0.21671080589294434"
"Amazon NL",NL,254,0,0,0,73230,0,0,0,0,0,0,0,0,0
"Apteka Medkon",PL,254,5343,5338,5338,22333,13769,0,0,"-1","-0.018712574616074562","-2","-0.008954555727541447","-2","-0.014523273333907127"
"Rappi Jumbo CL",CL,254,16279,12047,15903,61897,1392,0,0,22,"0.1353263258934021",348,"0.565403163433075",0,0
"Rappi Unimarc CL",CL,254,11687,4088,11251,28063,1268,0,0,"-6","-0.051312752068042755",32,"0.11415932327508926","-2","-0.15748031437397003"
"Merqueo - Cali CO",CO,253,2240,16,2240,5839,831,0,0,"-67","-2.9042046070098877","-224","-3.6945407390594482","-16","-1.8890200853347778"
"Farmacia la Pret Mic RO",RO,252,7499,53,7499,23682,4078,0,0,"-8","-0.10656720399856567","-19","-0.08016539365053177",0,0
"Rappi - Carulla Express CO",CO,252,13755,6130,10264,43519,7764,"-1",0,"-255","-1.8201284408569336","-3016","-6.481142997741699","-48","-0.6144393086433411"
Wapteka,PL,252,17137,9842,17119,59943,36755,0,0,"-37","-0.21544194221496582","-127","-0.21142001450061798",3,"0.00816282071173191"
"Edeka DE",DE,245,3425,1392,3425,4703,0,0,0,"-1","-0.02918855845928192",0,0,0,0
"Helpnet RO",RO,245,6821,2145,6821,19238,2405,0,0,"-29","-0.42335766553878784","-89","-0.4604956805706024",0,0
"Szybki Koszyk",PL,241,4345,53,4345,15141,885,0,0,"-12","-0.27541887760162354","-28","-0.18458698689937592",0,0
"Farmatodo CO",CO,238,11737,632,11737,41063,5314,0,0,"-5","-0.042582184076309204",3,"0.00730638112872839",4,"0.07532956451177597"
"Rappi Santa Isabel CL",CL,237,5954,142,5725,7239,1192,0,0,0,0,0,0,1,"0.0839630588889122"
Cocolita,PL,234,10476,4,10470,48447,13202,0,0,"-54","-0.5128205418586731",648,"1.3556768894195557","-2","-0.015146925114095211"
"Metroiroda HU",HU,232,3761,48,3754,7596,1397,0,0,0,0,"-1","-0.01316309068351984",0,0
"Linio CL",CL,230,46379,174,46283,77076,0,0,0,35,"0.07552218437194824",33,"0.042833223938941956",0,0
"Утконос RU",RU,225,21926,2207,21926,46789,7741,0,0,21124,"2633.915283203125",43,"0.09198647737503052",31,"0.40207523107528687"
"Makeup UA",UA,220,143384,15179,143384,764603,3637,0,0,136044,"1853.46044921875","-8824","-1.1408963203430176","-371","-9.256486892700195"
"Igooods RU",RU,219,20152,36,20151,43565,0,0,0,"-331","-1.6159741878509521","-772","-1.7412093877792358",0,0
"Kesko FI",FI,218,13057,555,13057,221327,9022,0,0,35,"0.26877591013908386",742,"0.336378276348114",15,"0.16653713583946228"
"Booker Foodservice UK",UK,212,11847,5967,11839,22190,3544,0,0,"-36","-0.3029538094997406","-68","-0.3055081367492676",11,"0.31135013699531555"
"Coop UK",UK,211,9406,200,9405,209287,18780,0,0,0,0,"-432","-0.20598992705345154",1,"0.0053250971250236034"
"Superpharm Apteka",PL,211,9246,97,9246,24075,17347,0,0,"-22","-0.2373759150505066","-63","-0.26099926233291626","-6","-0.03457615524530411"
"Перекрёсток Впрок RU",RU,209,16908,346,16904,37598,14929,0,0,"-41","-0.2419021725654602","-315","-0.8308495879173279","-74","-0.49323469400405884"
"Booker UK",UK,208,9139,3873,9137,17473,9969,0,0,"-8","-0.08746036887168884","-16","-0.09148607403039932",1,"0.010032102465629578"
"Benu HU",HU,206,4910,0,4910,15998,2703,0,0,1,"0.02037074789404869","-61","-0.37984931468963623",1,"0.037009622901678085"
"Rappi - Pricesmart CO",CO,206,1961,162,1390,5581,846,0,0,1,"0.051020409911870956",3,"0.053782716393470764","-11","-1.283547282218933"
"Yandex Market RU",RU,206,67998,12704,67973,119454,12455,0,0,5585,"8.948455810546875",7726,"6.915008068084717","-61","-0.4873761534690857"
"Minifarm RO",RO,203,4456,14,4456,14198,193,0,0,"-3","-0.06727965921163559",511,"3.7334697246551514",0,0
"Beauty Bay UK",UK,200,13242,227,13242,51580,0,0,0,"-27","-0.2034817934036255","-65","-0.12585923075675964",0,0
"Emag HU",HU,199,89660,6316,89621,89724,6979,0,0,"-69","-0.07689821720123291","-55","-0.06126154214143753","-57","-0.8101193904876709"
"Parfums UA",UA,187,64850,4709,64850,152581,1652,0,0,64507,"18806.705078125","-5310","-3.36307954788208","-73","-4.231884002685547"
"Look Fantastic UK",UK,184,18637,15550,18617,59772,0,0,0,"-15","-0.08042033016681671","-139","-0.23201081156730652",0,0
"Deliberry - Caprabo ES",ES,182,8606,76,8606,9725,0,0,0,0,0,0,0,0,0
"Vodovoz RU",RU,178,1032,83,1032,2124,0,0,0,"-6","-0.5780346989631653","-12","-0.5617977380752563",0,0
"Deliberry - Mercadona Barcelona ES",ES,177,5751,3,5747,6874,0,0,0,0,0,0,0,0,0
"Deliberry - Solri ES",ES,176,7915,1,7915,9014,0,0,0,0,0,0,0,0,0
"Deliberry - Mercadona Madrid ES",ES,173,5576,1,5573,6689,0,0,0,0,0,0,0,0,0
AptekaLeki,PL,162,5179,40,5179,15853,1772,0,0,"-1","-0.019305018708109856","-5","-0.031529828906059265",0,0
"Deliberry - Supercor ES",ES,161,4081,0,4079,5005,0,0,0,0,0,0,0,0,0
"Everli - Coop IT",IT,160,10298,56,10298,11432,66,0,0,0,0,0,0,"-6329","-98.96794128417969"
"Professional Farmaline RO",RO,155,8544,9,8544,18180,2500,0,0,"-6","-0.07017543911933899","-17","-0.09342199563980103",0,0
"Pyaterochka App RU",RU,147,6653,94,6653,14249,0,0,0,23,"0.34690800309181213",47,"0.33093929290771484",0,0
"Tiendas Jumbo CO",CO,145,16937,31,16874,78936,5194,0,0,1,"0.005904581863433123",116,"0.1471707671880722",5,"0.09635768085718155"
"Vea Digital AR ",AR,144,3390,100,3073,13061,849,0,0,"-21","-0.615655243396759","-398","-2.9571290016174316",3,"0.3546099364757538"
"Deliberry - Dia ES",ES,143,3377,0,3377,4208,0,0,0,0,0,0,0,0,0
"Deliberry - La Plaza ES",ES,143,3550,0,3521,4337,0,0,0,0,0,0,0,0,0
"Everli - Metro IT",IT,141,2660,6,2660,3508,1495,"-1",0,2,"0.07524454593658447","-6","-0.1707455962896347","-2","-0.13360053300857544"
"Exito CO",CO,137,13056,132,13041,77840,2808,0,0,"-20","-0.15295197069644928","-154","-0.19745108485221863",17,"0.6091006994247437"
"Nazuby CZ",CZ,137,1535,62,1535,6902,134,0,0,"-7","-0.45395588874816895","-36","-0.5188814997673035",0,0
"Automercado CR",CR,132,13334,157,13271,22215,24947,1,0,30,"0.2254960983991623",53,"0.2391480952501297",4,"0.016036562621593475"
"Zakaz - Auchan UA",UA,128,5462,3753,5462,12184,0,0,0,31,"0.5707972645759583",71,"0.586147129535675",0,0
"Medexpressz HU",HU,127,1229,1219,1229,1891,0,0,0,0,0,0,0,0,0
"Coop EE",EE,125,9740,9740,9740,21066,1850,0,0,"-46","-0.47005927562713623","-92","-0.4348237216472626","-159","-7.9143853187561035"
"Ozon RU",RU,122,47164,26078,47012,72714,10106,0,0,"-261","-0.5503426194190979",945,"1.3167245388031006",93,"0.9287925958633423"
"Amazon Fresh DE",DE,121,9809,9708,9796,15693,1752,5,4,454,"4.853019714355469",833,"5.605652809143066","-40","-2.232142925262451"
"Condis ES",ES,121,6458,73,6412,6833,0,0,0,6,"0.09299442172050476",9,"0.13188745081424713",0,0
"Subra BG",BG,119,5600,78,5600,13890,2382,0,0,"-13","-0.23160520195960999","-32","-0.22985203564167023",0,0
"Cora Drive BE",BE,116,13266,8633,13266,88050,4512,0,0,24,"0.1812414973974228",143,"0.16267190873622894",0,0
"Farmacia Pasteur CO",CO,114,8658,29,8652,53775,556,0,0,25,"0.28958648443222046","-327","-0.6044138669967651",0,0
"Auchan UA",UA,108,6535,239,6535,19426,0,0,0,21,"0.3223825693130493",64,"0.3305443525314331",0,0
"Brack CH",CH,108,8023,819,7861,22893,1607,0,0,1,"0.012465719133615494",606,"2.719074010848999","-45","-2.723970890045166"
"Produktoff UA",UA,106,13336,322,13336,13486,0,0,0,"-2","-0.014994751662015915",0,0,0,0
"Koffievoordeel NL",NL,99,537,12,537,3333,1313,0,0,0,0,"-11","-0.32894736528396606",0,0
"Vitania BG",BG,97,7328,32,7328,7328,2288,0,0,0,0,0,0,0,0
"Boohoo UK",UK,94,1412,146,1412,6453,0,0,0,2,"0.1418439745903015",5,"0.07754342257976532",0,0
"Cora RO",RO,91,25123,39,25119,25123,7526,0,0,37,"0.14749263226985931",37,"0.14749263226985931","-6","-0.07966011762619019"
"Kaffedeal DK",DK,91,423,9,423,1112,594,0,0,"-1","-0.2358490526676178","-2","-0.1795332133769989","-4","-0.6688963174819946"
"Farmacity AR",AR,90,2522,31,2522,4423,1168,0,0,2505,"14735.2939453125","-32","-0.7182940244674683",0,0
"Kaufland DE",DE,90,25087,609,25086,30331,700,0,0,"-130","-0.515525221824646","-233","-0.7623347640037537",4,"0.5747126340866089"
"Okey RU",RU,80,10288,6594,10143,10322,0,0,0,24,"0.23382696509361267",25,"0.242789164185524",0,0
"Rappi Cruz Verde CL",CL,77,4941,2301,3399,32192,1152,0,0,"-3","-0.060679610818624496",73,"0.22727979719638824",12,"1.0526316165924072"
"Apteka Nove BG",BG,70,11752,2,11752,26526,3387,0,0,"-6","-0.051029086112976074","-4","-0.015077270567417145","-1","-0.029515938833355904"
"Durst DE",DE,68,1012,5,1012,1017,0,0,0,0,0,0,0,0,0
"Droguerias Cafam CO",CO,66,4231,208,4231,10709,1343,0,0,18,"0.4272489845752716",34,"0.31850117444992065","-2","-0.14869888126850128"
"Media Markt DE",DE,66,0,59,910,5204,0,0,0,"-1870","-100",0,0,"-1212","-100"
"Rozetka UA",UA,62,92352,85199,92161,114354,3256,0,0,3178,"3.56381893157959",4813,"4.393788814544678","-2","-0.061387352645397186"
"Sanctuary UK",UK,62,105,11,105,466,0,0,0,0,0,"-1","-0.21413275599479675",0,0
"Kaffekapslen DK",DK,60,730,241,730,1715,1278,0,0,"-1","-0.1367989033460617","-3","-0.17462165653705597",0,0
"Kapselnkogen DK",DK,56,282,5,282,591,551,0,0,0,0,0,0,0,0
"Asos UK",UK,55,8596,67,8596,21545,0,0,0,106,"1.2485276460647583",242,"1.1359902620315552",0,0
"Saturn DE",DE,55,1819,46,1819,3878,834,0,0,"-8","-0.43787631392478943","-18","-0.46201232075691223","-2","-0.23923444747924805"
"iDrinks HU",HU,52,6432,6299,6432,13850,252,0,0,0,0,0,0,0,0
"Emag RO",RO,49,52888,414,52885,52890,5085,0,0,4475,"9.243385314941406",4476,"9.245259284973145","-15","-0.29411765933036804"
"Expert DE",DE,49,1034,6,1011,1118,391,0,0,"-5","-0.4812319576740265","-6","-0.5338078141212463","-1","-0.2551020383834839"
"Pretty Little Thing UK",UK,49,1603,1494,1603,4421,0,0,0,9,"0.5646173357963562","-44","-0.9854423403739929",0,0
"Very UK",UK,47,3650,4,6,3988,0,0,0,"-8","-0.21869874000549316","-4","-0.10020039975643158",0,0
"Winelivery IT",IT,45,1417,36,1417,3180,0,0,0,"-15","-1.0474860668182373","-34","-1.0578718185424805",0,0
"Fudge UK",UK,44,96,1,96,524,0,0,0,0,0,"-3","-0.5692599415779114",0,0
"Bol NL",NL,43,18748,17802,18863,31356,2408,0,0,18577,"10863.7431640625",1837,"6.223110675811768","-14","-0.5780346989631653"
"Altex RO",RO,38,2040,72,2040,3979,2528,0,0,"-1","-0.04899559170007706","-30","-0.7483162879943848",1,"0.039572615176439285"
"Ep DE",DE,34,196,2,196,626,284,0,0,0,0,"-1","-0.15948963165283203","-18","-5.960264682769775"
"BilkaToGo DK",DK,33,3577,47,3577,20630,1354,0,0,0,0,9,"0.043644826859235764",0,0
"Carrefour AR",AR,27,4033,2321,4033,16309,633,0,0,"-2","-0.04956629499793053",42,"0.25819143652915955",0,0
"Mercator SI",SI,27,13241,342,13241,13241,1976,0,0,"-8","-0.06038191542029381","-8","-0.06038191542029381",0,0
"John Lewis UK",UK,26,313,39,324,398,133,0,0,295,"1638.888916015625","-12","-2.9268293380737305","-4","-2.919708013534546"
"Carrefour FR",FR,25,11258,1751,11248,15910,1794,0,0,"-20","-0.1773364096879959","-28","-0.1756807565689087",8,"0.4479283392429352"
"St. Tropez US",US,25,32,5,32,80,0,0,0,0,0,0,0,0,0
"StTropez UK",UK,25,30,5,30,71,0,0,0,0,0,0,0,0,0
"Qvc US",US,24,16865,1914,16865,20822,0,0,0,"-40","-0.23661638796329498","-158","-0.75309818983078",0,0
"Officeworks AU",AU,19,407,0,54,415,376,0,0,0,0,0,0,0,0
"Shoplink IE",IE,17,112,2,112,336,1564,0,0,0,0,0,0,0,0
"Euronics DE",DE,15,10638,1,160,40130,1170,0,0,"-3","-0.02819283865392208",9,"0.02243214286863804",0,0
"The Good Guys AU",AU,15,770,0,16,1475,431,0,0,"-1","-0.12970168888568878","-4","-0.27045300602912903",1,"0.23255814611911774"
"BCC NL",NL,14,1832,1772,1799,2396,651,0,0,"-5","-0.2721829116344452","-7","-0.29130253195762634",1,"0.1538461595773697"
"Mercado Libre CL",CL,12,6564,2447,6563,12727,0,0,0,"-35","-0.5303834080696106",10,"0.07863489538431168",0,0
"El Corte Ingles ES",ES,11,4057,44,4057,5193,725,0,0,"-1","-0.02464268170297146","-3","-0.05773672088980675","-6","-0.8207934498786926"
"Leclerc FR",FR,11,248,0,75,452,407,0,0,0,0,7,"1.5730336904525757",114,"38.9078483581543"
"Wildberries RU",RU,10,123132,8336,123128,131838,1468,0,0,"-15337","-11.076125144958496","-18723","-12.435491561889648","-6","-0.4070556163787842"
"Mediaworld IT",IT,9,255,11,253,510,1446,0,0,0,0,1,"0.1964636594057083","-4","-0.27586206793785095"
"Myer AU",AU,9,1042,6,42,1721,124,0,0,"-14","-1.325757622718811","-30","-1.7133066654205322","-7","-5.343511581420898"
"Coles AU",AU,8,283,2,105,568,391,0,0,"-1","-0.35211268067359924","-2","-0.35087719559669495",6,"1.5584415197372437"
"Intermarche FR",FR,8,394,253,390,736,1116,0,0,"-20","-4.830917835235596","-36","-4.663212299346924","-6","-0.5347593426704407"
"Sushi33 UA",UA,8,47,0,47,92,0,0,0,0,0,0,0,0,0
"AO UK",UK,7,863,168,863,1145,187,0,0,"-3","-0.3464203178882599","-5","-0.43478259444236755",0,0
"Sushiya UA",UA,7,40,0,40,70,0,0,0,0,0,0,0,0,0
"Woolworths AU",AU,7,1349,5,101,2175,360,0,0,"-32","-2.3171615600585938","-53","-2.378815174102783","-2","-0.5524861812591553"
"Unieuro IT",IT,6,1611,1570,1609,2015,1034,0,0,"-8","-0.4941321909427643","-8","-0.3954522907733917",1,"0.09680542349815369"
"Harvey Norman AU",AU,5,21,2,21,257,283,0,0,"-232","-91.6996078491211",0,0,0,0
"Easy CL",CL,3,610,25,610,694,0,0,0,0,0,0,0,0,0
"Sodimac CL",CL,1,0,0,0,0,0,0,0,0,0,0,0,0,0
"0815 DE",DE,0,0,0,0,0,0,0,0,0,0,0,0,0,0
"Boulanger FR",FR,0,0,0,0,0,0,0,0,0,0,0,0,0,0
"Disco AR",AR,0,0,0,0,0,0,0,0,0,0,0,0,0,0
"E.Leclerc Elblag",PL,0,0,0,0,0,0,0,0,0,0,0,0,0,0
"E.Leclerc Gdansk",PL,0,0,0,0,0,0,0,0,0,0,0,0,0,0
"E.Leclerc Radom",PL,0,0,0,0,0,0,0,0,0,0,0,0,0,0
"Gall & Gall NL",NL,0,0,0,0,0,62,0,0,0,0,0,0,0,0
"Liki24 UA",UA,0,0,0,0,0,4195,"-678","-100","-30054","-100","-107557","-100",2,"0.04769854620099068"
"Lopido CO",CO,0,0,0,0,0,0,0,0,0,0,0,0,0,0
"Mpreis AT",AT,0,0,0,0,0,0,0,0,0,0,0,0,0,0
"Pilulka SK",SK,0,0,0,0,0,9773,"-4263","-100","-41089","-100","-534476","-100","-292","-2.9011425971984863"
"Roastmarket DE",DE,0,0,0,0,0,0,0,0,0,0,0,0,0,0
"Selver EE",EE,0,0,0,0,0,0,0,0,0,0,0,0,0,0
Spar,PL,0,0,0,0,0,73525,"-547","-100","-23389","-100","-732846","-100","-498","-0.6727638840675354"
