﻿Site,Country,Categories,Prices,"Products changed","Products downloads",Relations,Search,"Categories time","Prices time","Products time","Search time","Total time"
"Ocado UK",UK,6679,43625,264,2660,1802224,40463,662,18662,1766,868,23955
"Mytime DE",DE,4974,11774,36,187,105099,2946,2180,2951,91,157,5423
frisco,PL,4711,2120,14,2120,312124,94742,184,6654,5407,289,12755
"Asda UK",UK,3568,29547,179,2375,1121781,50943,48,18103,1482,1151,21903
"Albert Heijn NL",NL,3450,21016,72,334,102973,4937,446,1560,165,90,2344
"Makro CZ",CZ,3409,8327,0,11,625133,464,3178,27133,41,47,30740
"Morrisons UK",UK,3144,21214,24,2054,1052119,31646,150,6413,349,440,9024
"Rohlik CZ",CZ,3065,24195,129,1763,226598,31779,2493,3963,1127,926,8664
"Metro SK",SK,3061,6383,3,6,283646,0,2734,21853,30,1,24748
"Waitrose UK",UK,3056,15565,30,1085,1423581,31481,100,20721,827,815,23995
"Albert Heijn BE",BE,2919,11053,975,1064,55227,6629,429,1353,275,125,2225
"Notino SK",SK,2764,2346,280,2346,118652,320,1270,6893,3233,16,11604
"Galen BG",BG,2751,14273,67,288,100406,4954,1476,2516,235,112,4416
"Kosik CZ",CZ,2690,17073,56,1264,98755,35574,466,1681,607,981,3815
"Pilulka SK",SK,2662,39261,114,400,256016,11456,24,4117,371,341,5030
Auchan,PL,2610,16834,51,1322,281194,70636,130,15022,1192,4919,21573
"Amazon Fresh UK",UK,2554,15023,9519,9601,57395,17224,973,24712,7190,721,33860
"Coto Digital AR",AR,2479,17594,9,443,87333,1596,1461,2923,281,50,4775
"Drogeo CZ",CZ,2473,830,63,830,129485,42610,25,2700,522,905,4243
"Notino CZ",CZ,2403,15697,1075,15697,57601,84064,1107,7395,468,2921,12239
"Pilulka CZ",CZ,2349,32523,246,703,155201,34489,22,9857,2253,1176,13421
"Sainsburys UK",UK,2266,29529,33,2321,1998448,82904,234,31596,3752,1804,37386
"Amazon UK",UK,2208,2003,50745,50766,1185132,35483,0,0,0,22535,22535
"Boots UK",UK,2029,26135,1131,9239,166443,8856,44,4207,14067,261,18764
"Drogerie Natura",PL,1979,11234,6,548,63133,50257,119,4376,1100,6583,12285
"Brakes UK",UK,1895,9709,18,236,29051,30770,862,1824,109,318,3189
"Jumbo NL",NL,1809,17650,34,375,66958,4739,1579,1885,1115,137,4766
"Otto DE",DE,1693,340,193,376,73098,197,808,923,602,17,2382
"Auchan HU",HU,1687,22407,33,1927,160121,20357,13,4349,1471,814,6801
"Yuga RO",RO,1679,8939,16,140,44613,0,2104,4673,3481,1,10301
"Cefarm 24",PL,1657,13443,38,821,98094,15627,2174,4254,1110,5597,13244
"Amazon Fresh IT",IT,1617,7666,860,866,25128,3238,4586,1138,2201,163,8103
"Alza CZ",CZ,1608,30301,321,471,119191,29187,293,2116,342,1427,4238
"Delhaize BE",BE,1582,14028,28,431,58154,16779,28,3019,290,605,3987
"Alza SK",SK,1387,13684,54,193,58519,782,193,542,61,40,869
"Apteka Nowa Farmacja",PL,1383,15464,23,886,80241,23401,11121,3598,998,2028,17816
eZebra,PL,1370,42290,80,1415,149093,40409,95,10401,494,7466,18601
"Tesco UK",UK,1323,29305,153,2683,388495,23851,29,14051,1419,8487,24515
"Picnic NL",NL,1319,7123,26,105,16563,2686,562,994,62,91,1725
"Remedium BG",BG,1309,26577,20,297,94193,1541,312,7029,552,153,8114
"Barbora LT",LT,1308,16640,103,221,58035,1317,47,1905,114,74,2186
" SberMarket - Lenta RU",RU,1262,7728,137,1349,32924,704,55,2272,5477,75,7919
"Coop CH",CH,1256,18469,90,183,68550,1982,325,2001,550,154,3096
"Rewe DE",DE,1252,9162,5,194,33683,2897,19,1405,226,358,2041
"Kifli HU",HU,1243,13501,46,1700,53690,12753,650,586,788,414,2496
"Amazon BR",BR,1238,0,22664,22664,828013,0,0,0,0,4,489
"Amazon DE",DE,1220,170,13508,13508,600699,13308,0,0,0,4064,4064
"iGlobus Zlicin CZ",CZ,1216,19494,27,529,36097,10464,14,2232,767,370,3436
"Moja Lekaren SK",SK,1211,24526,96,376,132859,4746,648,3545,229,167,4693
"Farmaline BE",BE,1205,30888,58,127,148045,0,1669,3892,275,1,5939
"Lekarna CZ",CZ,1205,29373,134,648,129439,5163,630,3471,455,169,4878
"E-Fresh GR",GR,1197,11424,38,904,55330,6679,3052,4001,1871,705,9672
"SberMarket - Metro RU",RU,1191,4878,141,340,24030,341,51,2281,183,49,2593
"S-kaupat FI",FI,1167,43247,274,551,331567,6404,17,3936,675,119,4905
Hebe,PL,1166,1472,254,1472,169666,29507,902,3686,2468,1135,8377
"Barbora LV",LV,1130,13683,495,554,46927,1463,118,2166,273,103,2695
"Albert App CZ",CZ,1120,8052,15,98,44190,2692,511,2182,66,68,2872
"Dr Max SK",SK,1080,23192,71,658,91608,7155,693,7050,899,407,9107
"Knuspr DE",DE,1065,11832,32,231,50139,1652,543,480,107,150,1323
"Picnic DE",DE,1063,7071,0,158,14400,1844,477,887,78,168,1621
"Eroski ES",ES,1044,25384,11,245,53808,565,18,3357,156,42,3605
"Mathem SE",SE,1043,12544,6,556,34377,7651,16,1126,815,614,2597
"Amazon IT",IT,1027,540,480,540,203615,6588,0,0,0,1400,2293
"Salcobrand CL",CL,1018,7539,10,7538,34238,2572,278,629,4199,38,5177
"Auchan RO",RO,1009,24714,38,590,421877,7469,48,5370,483,514,6776
Bee,PL,1001,52082,239,805,177259,9337,487,3365,403,237,4730
"Zakaz - Novus UA",UA,1000,17769,9,50,37455,0,41,2037,32,1,2178
"Vkusvill RU",RU,990,11643,25,153,47536,1597,333,5655,510,209,6748
"Coop NL",NL,987,16236,16,114,69736,985,1716,2078,229,65,4139
Selgros,PL,973,20561,162,1315,71541,28560,476,890,606,1580,3649
"Carrefour BE",BE,933,18694,19,441,221116,20279,888,10439,239,1054,12758
"Coop Shop IT",IT,927,11110,4,387,33350,6358,17,684,269,402,1410
"Coop SE",SE,914,9928,9,500,33812,8111,14,923,239,223,1433
"Pilulka RO",RO,870,10074,77,318,43991,3423,42,475,160,75,829
"Unipatika HU",HU,865,4373,2,297,30464,4687,528,1127,230,255,2163
"Magnit App RU",RU,855,4089,38,120,11445,0,38,1281,100,2,1441
"SuperValu IE",IE,847,16218,7,1116,220151,14081,881,16962,1241,724,20118
"Tesco IE",IE,835,16896,27,923,422020,4665,10,10067,412,979,11833
"Ebag BG",BG,833,11289,99,198,42530,1813,25,1323,134,31,1559
"Tigros IT",IT,832,9836,10,568,29552,7074,16,492,329,241,1122
"Wong PE",PE,811,21515,168,1268,168393,1811,20,7523,743,70,8469
"Apteka Manada",PL,810,14384,1180,1181,47110,39261,88,2424,1734,2574,6888
"Superpharm Drogeria",PL,797,790,81,790,90257,38339,62,2245,1147,442,4043
"Polski Koszyk",PL,793,19902,32,872,64320,1798,52,895,451,68,1558
"Walmart MX",MX,784,22995,201,345,100408,3101,89,11761,295,143,12360
"eZiko Apteka",PL,771,7116,22,632,42879,20092,384,1810,304,1153,3700
"Auchan RU",RU,769,25472,83,1276,76586,416,31,1753,979,36,2908
"Dr Max CZ",CZ,765,22468,3,364,95877,7995,597,6074,529,592,7859
"Heb MX",MX,760,24016,75,83,91505,2105,1246,3637,101,245,5289
"Zakaz - Metro UA",UA,753,11262,22,169,21561,0,38,2487,142,1,2700
"Coop DK",DK,748,11093,681,752,88630,1219,350,3299,505,40,4262
"Cruz Verde CL",CL,737,9464,1,942,131557,3082,19,18217,445,37,18798
Barbora,PL,735,9416,78,879,121275,7647,69,3024,446,826,4553
"Sklavenitis GR",GR,731,9890,20,317,29657,4510,152,1266,158,273,1885
"Mall CZ",CZ,730,10190,867,10190,108081,16215,582,904,14890,3079,19595
"Masxmenos CR",CR,730,9190,54,356,25216,0,28,2235,501,0,2780
"Walmart CR",CR,730,14233,210,842,181967,5048,21,6641,1262,158,8190
"Apteka Gemini",PL,718,27276,137,1467,95257,65899,61,3434,930,801,5341
"Lunys SK",SK,716,5302,49,66,18539,0,507,1100,94,0,1719
"Bringmeister DE",DE,713,14859,54,485,40811,4337,13,377,217,144,791
"Rimi EE",EE,708,12377,13,87,36381,3720,16,785,94,116,1053
"Intervare DK",DK,707,8999,8016,8123,26108,0,23,333,3704,110,4191
"Esselunga A Casa IT",IT,700,15112,6,637,46116,16910,18,4618,1108,1446,7249
"Gurkerl AT",AT,689,9530,24,177,34469,3404,398,314,85,107,954
"Bennet IT",IT,683,19534,23,705,39387,14979,15,1088,833,695,2670
"Tesco CZ",CZ,683,16017,14,1529,530585,24766,13,12719,1046,3979,18096
"Poiesz NL",NL,666,7661,0,10,9866,123,18,525,3118,8,3683
"DOZ.pl",PL,661,19366,25,1599,79722,57266,596,2773,1035,1953,6438
"DM SK",SK,660,12313,18,69,35219,6072,10,1251,57,260,1614
"Rimi LT",LT,660,14757,19,86,44310,3411,17,783,92,83,1028
"Hoogvliet NL",NL,658,8682,74,155,14201,1854,23,863,174,101,1180
"Rossmann DE",DE,656,15747,24,265,54136,444,684,1298,262,21,2299
Amazon,PL,655,686,2725,2737,1084072,25833,0,0,0,867,867
"Apteka Rosa",PL,648,9440,73,97,56274,2138,57,3604,230,141,4095
"City Gross SE",SE,645,13063,15,557,28373,9224,12,373,260,379,1057
"Tesco HU",HU,643,14877,5,2272,996251,9702,9,19605,1470,2392,24094
"Rossman HU",HU,640,14661,97,1089,53585,7782,839,861,2482,171,4421
"Crai Spesa Online",IT,639,401,3,401,27028,7126,403,1022,892,779,3110
"Mercator SI",SI,622,12825,17,186,38475,2292,297,288,98,80,828
"E.Leclerc Bielany",PL,618,32334,66,2653,102852,35663,208,3853,1224,22682,28066
Apteline,PL,615,840,7,840,23261,1711,584,1018,579,356,2584
"Tesco SK",SK,614,15176,2,63,219507,805,11,5586,48,106,5930
"Colruyt BE",BE,606,7859,2,281,93523,14889,21,14754,805,1832,17519
"Benu CZ",CZ,598,14206,111,571,66407,5908,13,9071,706,70,9907
"Thanopoulos GR",GR,597,15585,48,405,52640,8851,33,4871,484,722,6162
"Apteka Galen",PL,594,8703,2,538,26458,3196,39,2446,2281,999,5802
"Pingvinpatika HU",HU,592,7580,32,324,41043,2848,11,5158,597,330,6140
"Vasalekaren SK",SK,584,10078,118,331,63544,4097,1228,8260,751,629,10903
"Willys SE",SE,581,10349,16,485,34089,7076,11,352,238,253,878
"Plus NL",NL,580,15603,40,306,31226,4275,61,2397,146,191,2860
"Carrefour EG",EG,577,18227,16,149,107226,417,14,1518,223,20,1841
"Sams MX",MX,576,5253,42,59,37710,648,19,3167,86,171,3460
"Glovo Kaufland RO",RO,574,8913,36,8913,15818,0,35,344,223,2,639
"Superdrug UK",UK,574,13751,31,324,43394,6739,22,569,678,1117,2526
"Bestway Foodservice UK",UK,573,10855,87,511,33730,3937,702,1202,353,108,2429
"Bestway Best-one UK",UK,571,6578,59,153,21238,12005,682,1068,118,411,2340
"Bestway UK",UK,571,9350,45,767,29611,29010,698,1183,447,752,3151
"DM HU",HU,570,12575,3,836,34257,9733,8,1223,755,328,2350
"E.Leclerc Wroclaw",PL,570,16048,26,1404,16554,12730,537,1942,2195,5106,9827
"Spar HU",HU,569,15333,501,1900,355212,13679,16,7918,3322,494,11988
"Dr Max",PL,567,17176,106,946,57885,26690,305,3462,2128,1627,7581
"Zakaz - Metro MD",MD,567,9885,6,101,16895,0,23,1310,377,1,1740
Spar,PL,564,25517,1789,2164,670558,77030,60,12106,1059,2224,15960
"Kritikos GR",GR,563,16751,12,347,47350,0,25,49,169,7594,7929
Lek24,PL,563,6003,4,31,21414,4420,37,1231,18,220,1535
"Yandex Lavka RU",RU,563,2980,62,435,8612,0,114,892,775,205,2005
"Apteka Melissa",PL,552,27333,110,1824,101374,61942,52,8722,1338,870,11069
"AB GR",GR,549,11271,46,598,33509,8741,23,961,279,251,1558
"Chronodrive FR",FR,549,8455,148,326,15596,2054,14,515,222,114,885
"DM CZ",CZ,549,12229,40,866,33483,32844,10,1193,766,1080,3091
"Pão de Açucar BR",BR,548,23375,392,506,57440,0,22,1946,396,0,2418
"Plazavea PE",PE,545,26427,116,312,194216,1859,18,5039,152,146,5495
"Freshful RO",RO,543,19024,21,154,38889,359,35,1077,87,18,1289
"Jumbo CL",CL,543,21307,9,1043,600329,2474,19,8302,1313,238,10251
"MyMarket GR",GR,537,14503,128,308,52522,7220,27,1870,460,463,2878
"Carrefour ES",ES,532,15166,10,452,18231,402,17,869,944,42,1900
"E.Leclerc Rzeszów",PL,531,11595,42,1522,34050,24765,57,697,619,820,2248
"Metro RU",RU,525,19677,41,559,24732,1431,28,1950,515,53,2606
"Drogeria Olmed",PL,524,698,98,698,152522,26703,50,15993,523,2580,19250
"Clube Extra BR",BR,523,9187,173,178,26062,0,20,1013,89,0,1147
"Cold Storage SG",SG,521,9553,3,17,29829,0,609,2011,20,1,2648
Rossmann,PL,508,1190,7,1190,78474,31806,48,905,1786,722,3554
"Apteka Zawiszy",PL,505,20427,342,1123,80366,21970,380,1601,1390,471,3957
"Hemkop SE",SE,504,10308,18,492,32297,7409,12,284,221,247,791
"Benulekaren SK",SK,501,9337,30,456,49508,6799,10,5055,380,137,5619
"Interspar AT",AT,500,22016,113,325,266002,6380,22,2693,398,145,3528
Intermarche,PL,496,18570,6,2499,159423,14511,44,3546,1182,1391,6389
"Migros Online CH",CH,486,12299,60,176,38111,1362,40,1273,131,185,1688
"Spar SI",SI,483,16691,38,322,59545,2737,29,651,388,105,1244
"Dr Max Drogeria",PL,478,17215,72,712,54564,6774,44,2984,894,353,4348
"Famila a casa IT",IT,477,12125,207,300,28380,6467,851,1541,515,314,3243
"Mega Image RO",RO,477,12549,16,382,37547,9737,34,756,175,220,1242
"E.Leclerc Radom",PL,472,13438,30,1340,42307,10237,174,2712,639,2441,6038
"e-Dostavka BY",BY,468,34733,81,788,99453,2244,34,9901,358,168,10536
"Carulla CO",CO,464,11393,20,356,63753,902,23,2079,215,57,2445
"Apteka Olmed",PL,463,1136,1054,1136,160438,21344,46,15702,886,2331,19065
"Basko IT",IT,463,8434,9,418,25795,1573,10,264,708,47,1054
Ceneo,PL,463,0,2947,54369,0,0,21219,2793,0,0,24012
Aptelia,PL,459,660,15,660,69666,11546,291,2105,314,423,3184
"GPSfarma AR",AR,457,1292,7,63,6316,1555,20,835,44,120,1031
"Ecofamily HU",HU,448,6788,22,718,22097,4196,6,2212,3981,635,6857
"MegaMarket RO",RO,447,5184,5,102,6282,561,30,1300,125,177,1647
"eTabletka SK",SK,442,11274,25,324,75546,6804,600,10359,358,86,11443
"Lider CL",CL,441,13353,141,1064,252791,1891,19,14286,2205,225,16929
"Patika24 HU",HU,441,4418,5,263,10727,3238,10,568,333,89,1010
"Cornershop - Lider CL",CL,438,19577,2,1103,125761,2184,17,1099,370,187,1836
"Dr Max RO",RO,434,16009,34,325,47040,8667,236,2439,343,495,3557
"Cornershop - Jumbo CL",CL,433,23149,5,963,130662,2552,16,886,365,224,1648
"Unimarc CL",CL,433,10683,22,574,32040,2338,16,1334,596,180,2151
"E.Leclerc Lublin Turystyczna",PL,432,12682,9,1432,15644,13047,36,1157,2925,4268,8426
"Soriana MX",MX,432,15118,266,3489,29629,1910,26,5269,11589,723,17636
"Lopido CO",CO,431,10932,10,69,21023,825,12,7929,242,40,8239
"E.Leclerc Katowice",PL,414,9189,3,1106,9702,9937,130,435,681,1498,2773
"iFresh SK",SK,410,7127,69,69,137587,0,8,4086,2397,0,6608
"Farmacia Tei RO",RO,407,486,486,486,25940,3263,32,863,307,185,1416
"Kruidvat NL",NL,404,8397,24,151,23220,1705,243,728,156,85,1239
"Teta Drogerie CZ",CZ,401,8538,8,505,24790,6750,7,748,363,162,1315
"Glovo Biedronka Warszawa",PL,399,2990,350,2990,5703,603,32,205,152,51,466
"OnlinePrima HU",HU,397,7983,44,1295,24577,7387,10,617,1750,402,2800
"Apteki 36.6 BG",BG,395,9939,7,160,47203,1340,18,1701,96,91,1951
"Majestic UK",UK,390,1327,0,83,19789,1208,185,2145,148,138,2660
"Mercado Libre MX",MX,390,40012,162,611,86019,2775,769,955,181,374,2365
"Unimarkt AT",AT,390,3411,31,257,15852,3290,164,513,223,252,1167
"Świat Leku",PL,386,11902,8,410,38510,2083,236,1434,371,203,2303
"Talabat Mart EG",EG,385,6235,566,567,41845,498,9,2520,1391,16,3968
Stokrotka,PL,384,7679,18,171,158107,12471,46,2763,95,415,3548
"Ica SE",SE,379,11120,11,681,665377,12861,9,21308,331,217,22209
"DrankDozijn BE",BE,378,3655,2,87,14858,2306,18,654,150,559,1393
"DrankDozijn NL",NL,378,3655,2,85,14858,250,16,662,135,59,887
"Bebe Tei RO",RO,371,424,137,424,27302,1549,28,1057,272,107,1489
"Billa AT",AT,371,9323,70,266,30208,6683,17,514,637,187,1408
"Walmart GT",GT,369,9201,97,601,158907,4315,19,5448,963,193,6723
"Ulabox ES",ES,363,5800,14,86,12182,0,8,223,42,1,285
"Carrefour IT",IT,361,13586,247,911,37651,4639,184,1057,436,339,2052
"Apteka Prima 24",PL,355,4507,1,39,20337,1262,34,548,42,273,926
"E.Leclerc Lublin Tomasza Zana",PL,355,10442,21,1301,13646,9119,36,494,885,1066,2514
"Feedo CZ",CZ,351,685,432,685,58770,474,167,1183,600,27,2075
"Cornershop - Wong PE",PE,348,16590,3,193,49558,1820,13,479,191,164,913
"Gall & Gall NL",NL,347,3205,42,99,23238,65,17,5236,180,17,5465
"Bringo RO",RO,346,28683,104,26154,40970,4414,29,1425,983,1065,3566
"Iceland UK",UK,341,5409,44,326,26877,14800,26,2006,398,3298,5817
"Jumbo AR",AR,341,12337,61,559,51215,1070,15,2368,299,45,2769
"E.Leclerc Elblag",PL,339,10443,7,1028,28858,14542,123,1630,1071,2667,5533
"Roastmarket DE",DE,335,73,73,73,32495,385,27,547,303,16,911
"Rossmann App CZ",CZ,335,10542,52,295,33721,0,7,2857,139,2,3033
Allecco,PL,334,11816,15,816,40684,0,35,1103,394,396,2019
Carrefour,PL,330,15098,145,2813,126760,37063,201,2829,2466,2252,7884
"Globus RU",RU,329,17751,439,442,59355,323,31,1806,357,19,2297
"Mpreis AT",AT,325,8015,15,141,28075,4611,341,885,144,101,1504
"Sipo HU",HU,325,4722,24,203,9769,1445,9,701,133,117,980
"Cornershop - Metro PE",PE,324,14588,1,192,47422,1737,12,454,211,148,882
"Mercado Libre AR",AR,316,37199,348,4147,79800,566,168,875,15454,163,16761
"Cornershop - Santa Isabel CL",CL,311,8256,4,561,10037,1744,12,602,782,164,1583
"Gastronom BG",BG,309,7705,141,202,23956,970,25,519,209,247,1035
"Mercado Livre BR",BR,303,89457,887,3515,1369536,0,576,14444,914,1,17096
Empik,PL,302,149268,1468,2813,415775,33464,124,5331,1260,245,7496
"Ica New Version SE",SE,302,5097,4486,4488,109915,6056,8,1875,2041,260,4242
"Cora RO",RO,300,51940,35,418,106632,6487,26,6641,437,1230,8433
"Amazon NL",NL,299,0,0,0,125834,0,0,0,0,17,100
"Bipa AT",AT,299,12190,6,57,26577,574,24,377,104,22,592
DoDomku,PL,299,5667,75,433,16580,2285,41,280,236,304,877
"Easy Coop IT",IT,299,8785,3,585,26187,9894,11,1987,1226,2015,5260
"Mall SK",SK,298,5081,40,5081,29778,1137,352,787,10913,1247,13329
"SOpharmacy BG",BG,296,9940,21,215,31307,6293,408,1020,239,538,2242
"E.Leclerc Gdansk",PL,295,9894,2,854,27164,8192,98,1572,848,2337,4891
Makeup,PL,292,2477,812,2477,462073,89359,21,14973,8484,1054,24819
"Lisek App",PL,291,832,29,216,1234,1156,37,30,113,273,499
"Tudrogueria Virtual CO",CO,291,8639,9,3678,16435,952,8,337,1705,44,2113
"Apteka Nove BG",BG,289,11363,4,146,40141,6242,21,2851,472,405,3789
"Apteka Medea BG",BG,284,8631,6,164,24835,0,24,1604,147,2,1821
"Sephora US",US,283,315,287,315,129196,0,11,962,275,1,1315
"E.Leclerc Tychy",PL,278,8805,6,1160,8952,9899,90,379,666,1560,2724
"Konzum HR",HR,276,10567,24,210,16574,3409,329,2420,644,444,3857
"i-apteka",PL,275,10098,94,512,21827,6794,19,515,542,488,1597
"Argos UK",UK,274,5229,28,3797,7821,0,8,592,14067,1,14695
Makro,PL,272,3132,1,504,8579,32073,25,558,234,1635,2470
"Edeka DE",DE,270,3749,70,102,4983,97,11,332,122,149,625
"Groby HU",HU,269,8129,4,518,21703,4385,8,1151,564,390,2138
"Farmacia la Pret Mic RO",RO,266,8305,19,247,26945,5947,48,1560,459,1257,3356
"Farmacia Pasteur CO",CO,265,8684,78,3504,63795,1059,12,1725,2937,46,4775
"Dunnes IE",IE,261,13727,56,1040,23251,12866,5,768,1560,566,2973
"E.Leclerc Gliwice",PL,260,7826,15,747,21476,6247,102,1332,602,2050,4126
"Rappi - Exito CO",CO,260,19125,1776,1878,59523,4938,103,10302,21119,168,31731
"PriceSmart CR",CR,258,2943,1,36,41272,3356,12,10297,34,833,11202
"Carrefour BR",BR,255,9102,1,46,49520,0,17,8390,119,0,8579
"Apteka Medkon",PL,254,7898,449,449,32577,4632,20,4241,944,1692,6926
"Azbuka Vkusa RU",RU,254,10032,10,78,21305,1212,36,1769,359,147,2358
"La Comer MX",MX,253,109,7,109,22431,3924,11,363,292,188,868
Wapteka,PL,252,18802,1304,1358,64497,42765,27,3922,749,766,5525
"Delitea SE",SE,248,9451,228,440,23723,5670,7,194,202,82,505
"Supermarket AM",AM,248,6713,9,80,16771,0,22,994,169,0,1210
"Helpnet RO",RO,245,6753,13,263,19052,5132,17,1963,225,381,2604
"Szybki Koszyk",PL,245,4247,13,121,14464,645,143,620,61,42,885
"Olimpica CO",CO,241,9699,172,542,31453,2656,10,2062,1393,160,3669
"Benu HU",HU,238,4964,2,351,16087,2757,7,2574,587,474,3667
"Farmatodo CO",CO,238,13919,423,4267,62145,3270,10,684,6911,69,7727
"Merqueo - Bogota CO",CO,237,2164,10,106,4862,2402,9,200,57,117,388
"Afya Pharmacy BG",BG,234,10243,10,172,32089,1850,18,2825,226,337,3436
"Rappi - Carulla Express CO",CO,231,12405,529,662,28970,1459,125,7179,14636,83,22061
"Metroiroda HU",HU,229,3343,6,244,6741,1231,4,670,437,119,1236
"Перекрёсток Впрок RU",RU,229,16390,25,1066,37125,2829,27,1143,1212,80,2519
"Linio CL",CL,228,48725,69,173,81735,0,111,708,715,0,1690
"Coop UK",UK,227,8603,0,616,201834,7731,10,6039,292,615,7312
"Rappi - Carulla CO",CO,222,14590,1086,1272,43069,4643,128,8892,19685,165,28901
"Getir IT",IT,220,1679,12,50,4892,7417,10,119,26,141,302
"Beauty Bay UK",UK,217,11615,16,98,49682,0,8,418,120,2,657
"Booker Foodservice UK",UK,214,11879,97,1875,22236,2743,151,502,890,99,1677
"Superpharm Apteka",PL,214,559,41,559,30465,25545,27,689,858,350,1978
"Igooods RU",RU,213,16963,519,869,36905,452,18,281,476,17,864
"MaxiCoffee FR",FR,211,5383,91,145,13271,1582,510,919,633,287,2356
"Exito CO",CO,209,9349,26,680,37680,1466,185,3224,1526,196,5176
Cocolita,PL,208,10631,52,801,46173,16144,20,1921,1704,1527,5245
"Yandex Market RU",RU,207,36804,6036,10526,47356,0,24,2164,14791,129,17202
"Subra BG",BG,206,8528,10,162,23073,4844,19,309,99,681,1163
"Booker UK",UK,205,8886,118,1904,16914,8464,142,405,922,680,2189
"Rappi Lider CL",CL,205,16932,12511,12705,81785,3303,10,5621,16111,84,21895
"Minifarm RO",RO,203,4851,6,113,12972,531,32,851,103,243,1248
"Pyaterochka App RU",RU,202,5442,3,291,13700,1240,18,272,139,16,504
"Panda Market HU",HU,201,2553,11,212,6404,1393,8,154,104,159,431
"Emag HU",HU,199,114205,3177,19545,114239,7196,9,2310,4311,537,7522
"Merqueo - Medellin CO",CO,188,1025,9,80,2250,1531,8,144,44,81,283
"Vodovoz RU",RU,186,1111,10,27,2278,0,19,382,60,0,469
"Deliberry - Caprabo ES",ES,184,8543,0,0,9657,0,20,1042,65,1,1138
"Rappi - Exito Express CO",CO,179,12882,984,1124,31444,1020,127,7669,20222,73,28117
"Deliberry - Solri ES",ES,178,9124,0,0,10235,0,19,1018,56,0,1101
"Rappi Jumbo CL",CL,178,16009,11629,11805,58558,3640,9,4897,12962,85,18012
"Coursesu FR",FR,176,3821,50,72,6167,1276,11,3082,496,1302,4896
"Tiendas Jumbo CO",CO,176,15903,30,702,59969,2773,12,1467,1061,93,2709
"Deliberry - Mercadona Barcelona ES",ES,175,5718,0,0,6855,0,17,997,2002,0,3022
"Deliberry - Mercadona Madrid ES",ES,173,5651,0,0,6764,0,18,977,2088,1,3088
"PennyDomu CZ",CZ,173,1588,1,3,4464,0,176,206,5,2,393
"Rappi Unimarc CL",CL,173,12078,3346,3839,28232,3334,10,2906,4837,84,7873
"Linella MD",MD,172,6230,155,157,12360,0,23,300,130,2,483
"Rappi Turbo CO",CO,172,2247,131,191,10223,2601,126,6991,706,205,8036
"Rappi Turbo CL",CL,164,911,11,113,1886,587,119,1332,368,60,1882
"Deliberry - Supercor ES",ES,161,4086,0,0,5010,0,17,901,21,0,944
"Everli - Coop IT",IT,160,11983,2,238,13141,7488,42,810,254,897,2021
"Professional Farmaline RO",RO,155,8307,1,115,17641,5351,11,646,82,107,880
"Auchan FR",FR,154,1559,7,103,5217,588,238,429,188,147,1015
"Dirck3 NL",NL,151,538,0,27,2525,144,11,97,13,27,152
"Rappi Carrefour AR",AR,151,5260,235,510,6509,2132,81,1224,1621,76,3008
"Rappi Coto AR",AR,150,8690,56,675,19877,1882,82,2635,1923,86,4746
"Look Fantastic UK",UK,145,17064,32,92,53443,0,5,805,141,1,1106
"Deliberry - Dia ES",ES,143,4171,0,0,5032,0,21,844,1,1,874
"Deliberry - La Plaza ES",ES,143,4250,0,0,5109,0,18,838,136,1,998
"Everli - Metro IT",IT,142,2460,1,68,3284,1502,36,290,75,504,910
"Rappi Turbo PE",PE,138,1196,28,33,3601,1696,136,2020,123,113,2396
"Medexpressz HU",HU,137,1360,1,85,2914,0,4,249,52,1,310
"Nazuby CZ",CZ,135,1731,2,73,5941,161,5,154,67,15,249
"Rappi Turbo AR",AR,135,1093,7,57,3721,1511,165,2323,201,100,2793
"Superxtra PA",PA,135,6477,0,0,13685,0,67,67,3,1,157
"Alkohol CZ",CZ,131,4526,39,79,12600,0,18,1111,59,1,1204
"Extra BR",BR,128,77063,29,407,77063,0,37,1120,168,18,1458
"Ozon RU",RU,127,35480,2195,2875,44900,1852,569,3143,6198,197,10331
"Automercado CR",CR,126,11805,6,116,18418,0,60,2036,307,6,2432
"Condis ES",ES,121,6593,1,1,6979,0,4,195,29,1,238
"Cora Drive BE",BE,121,13996,9396,9410,91978,4545,12,4100,10488,1321,15983
"Amazon Fresh DE",DE,115,4575,651,651,7464,6586,120,221,739,282,1376
"Mercado Libre CL",CL,108,48832,1336,1708,65652,2293,119,638,829,150,1840
"Savage & Whitten IE",IE,100,3695,50,191,7392,931,9,349,88,75,542
"Vitania BG",BG,98,7236,166,167,7236,4279,19,368,142,238,805
"Farmacity AR",AR,97,385,16,385,6339,1238,3,299,187,57,551
"Everli - Kaufland",PL,90,0,0,0,0,0,0,0,0,0,0
"Everli - Lidl",PL,90,0,0,0,10820,0,0,0,0,0,0
"Kaufland DE",DE,90,31250,278,519,38946,721,67,678,337,38,1175
"PriceSmart PA",PA,90,1653,2,31,19307,1016,7,3954,29,256,4261
"Koffievoordeel NL",NL,89,473,0,50,2813,1287,10,519,78,29,639
"PriceSmart GT",GT,88,1543,1,20,13599,2377,8,3117,95,464,3696
"Kaffedeal DK",DK,84,384,0,37,974,877,10,53,17,34,115
"Brack CH",CH,80,8428,13,112,21113,1823,97,349,142,181,809
"Comfandi Supermercados CO",CO,72,4532,69,105,9149,759,9,1670,262,255,2208
"Durst DE",DE,69,1123,69,1123,1192,0,7,35,20,4,71
"Droguerias Cafam CO",CO,68,4474,1218,2985,11419,2305,20,752,5841,102,6725
"Media Markt DE",DE,68,1274,6,63,3185,435,564,2484,180,478,3710
"Rappi Cruz Verde CL",CL,67,4561,2457,2663,30256,3269,8,1936,4171,85,6228
"Pretty Little Thing UK",UK,65,2080,37,55,9338,0,14,2269,525,2,2828
"Rozetka UA",UA,62,73257,1077,1528,92457,0,146,5465,659,0,6474
"Kaffekapslen DK",DK,61,783,0,63,1796,1494,69,77,82,186,416
"Emag RO",RO,60,59268,254,1767,59276,5139,15,1255,2188,232,3796
"PedidosYa DIA AR",AR,60,2275,0,54,2275,614,4,69,27,22,130
"Comfandi Droguerias CO",CO,56,4435,166,2285,8776,1830,8,1093,5103,325,6537
"Kapselkongen DK",DK,54,250,0,53,501,644,31,54,25,34,145
"iDrinks HU",HU,53,6590,179,198,14421,253,8,1591,226,63,1903
"Expert DE",DE,51,926,0,4,992,0,88,74,297,13,476
"PedidosYa Carrefour AR",AR,48,3994,9,165,3994,951,3,75,75,22,185
"Jumia EG",EG,47,2375,26,103,4630,15,41,151,67,22,285
"Very UK",UK,47,3998,24,946,4369,0,15,90,418,1,549
"BilkaToGo DK",DK,37,10363,94,304,55241,1745,18,136,232,38,511
"Datart CZ",CZ,37,1007,3,19,1387,1018,7,74,18,77,179
"Altex RO",RO,36,1547,25,104,3041,1818,12,186,280,131,623
"Bol NL",NL,36,194,93,199,27196,2404,40,1916,567,552,3109
"Ep DE",DE,35,212,1,10,673,0,73,125,22,1,223
"John Lewis UK",UK,34,19,4,19,602,203,7,117,160,26,312
"Saturn DE",DE,34,664,2,17,1376,379,300,694,63,2434,3495
"Winelivery IT",IT,34,1304,2,19,2788,0,5,182,13,0,204
"Galaxus CH",CH,33,8419,162,328,8419,1015,29,1880,1057,1264,4247
"Kesko FI",FI,31,4350,0,0,61155,8695,598,1088,0,1111,2845
"Americanas BR",BR,29,5075,13,24,38227,0,316,1487,236,1,2078
"Carrefour FR",FR,24,11093,158,356,16741,1583,13,1000,856,476,2374
"MyDeal AU",AU,20,12,2,12,9392,0,4,70,7,86,168
"Shoplink IE",IE,20,150,0,129,450,1806,29,55,87,111,282
"Boulanger FR",FR,17,956,5,55,2211,381,28,136,198,157,521
"Euronics DE",DE,15,9589,69,375,37788,0,34,946,40003,0,41019
"Qvc US",US,14,15553,26,68,17071,0,24,159,410,0,622
"BCC NL",NL,11,1785,7,25,2363,655,10,133,32,55,235
"El Corte Ingles ES",ES,11,3923,6,143,5107,684,73,283,1549,88,2000
"Leclerc FR",FR,10,265,38,94,530,818,23,225,3130,1120,4502
"Wildberries RU",RU,10,57488,984,2160,59800,1590,16,211,1583,58,2226
"Myer AU",AU,9,8070,331,477,9953,0,12,1764,1014,1,2796
"Coles AU",AU,8,319,0,98,641,404,5,45,211,185,446
"Intermarche FR",FR,8,447,0,119,862,745,3,25,262,277,578
"AO UK",UK,7,810,11,47,1109,289,68,49,91,90,309
"Woolworths AU",AU,7,1482,10,123,2326,366,3,71,52,32,159
"Unieuro IT",IT,6,1650,17,21,2061,1147,4,18,19,47,96
"Barrys Beacon IE",IE,4,156,6,127,156,394,6,46,64,58,175
"Musgrave IE",IE,3,0,0,0,0,4082,3,33,0,1251,1288
"Alcampo ES",ES,0,0,0,0,0,0,13,11,15,80,119
Allegro,PL,0,2298,0,1808,0,0,0,0,48488,0,48488
"Carrefour AR",AR,0,0,0,0,0,511,228,1,1,65,296
"Chedraui MX",MX,0,0,0,0,0,0,6,22,3,65,96
"Cruz Verde CO",CO,0,0,0,0,0,0,6,44,2,43,95
"Dia AR",AR,0,0,0,0,0,0,7,41,1,115,164
"Disco AR",AR,0,0,0,0,0,1323,49,1,1,74,130
"Drogas La Rebaja CO",CO,0,0,0,0,0,0,28,3565,1,142,3737
"Easy CL",CL,0,0,0,0,0,0,2,54,6,8,70
"Elefant RO",RO,0,0,0,0,0,1919,312,5,0,112,429
"Mediaworld IT",IT,0,0,0,0,0,0,27,2,0,244,273
"Merqueo - Cali CO",CO,0,0,0,0,0,0,2,30,5,3,41
"Metro Delivery RU",RU,0,0,0,0,0,0,279,4,3,325,611
"Okey RU",RU,0,0,0,0,0,0,10,56,2,307,376
"Rappi - Pricesmart CO",CO,0,0,0,0,0,3041,67,2,16,205,292
"Rappi Farmacity AR",AR,0,0,0,0,0,1886,26,19,25,150,221
"Samokat RU",RU,0,0,0,0,0,0,7,63,0,18,88
"Sodimac CL",CL,0,0,0,0,0,0,25,122,1,2,150
"Tottus CL",CL,0,0,0,0,0,2008,5,75,1,50,131
"Vea Digital AR ",AR,0,0,0,0,0,1133,50,1,1,77,130
"Утконос RU",RU,0,0,0,0,0,0,34,40,3,114,192
