﻿Site,Country,Categories,Prices,"Products changed","Products downloads",Relations,Search,"Categories time","Prices time","Products time","Search time","Total time"
"Ocado UK",UK,7102,45135,147,2355,1952029,43397,643,24160,835,1091,28216
"Mytime DE",DE,4956,11557,8,117,105725,2950,2219,3045,57,160,5539
frisco,PL,4711,2002,4,2002,320535,101253,72,8101,2944,610,12035
"Asda UK",UK,3905,30939,35,2131,1465503,58319,23,16808,1240,1320,20426
"Albert Heijn NL",NL,3461,21596,5,349,106000,7597,459,1584,68,179,2364
"Makro CZ",CZ,3422,7872,0,5,802760,448,2958,24561,18,51,27947
"Rohlik CZ",CZ,3383,24617,73,1568,269247,32394,2376,4139,956,891,8514
"Morrisons UK",UK,3257,22386,64,1930,1147287,32818,147,5777,360,451,7669
"Coto Digital AR",AR,3188,19560,84,1293,122761,14225,3255,5683,1089,604,10684
"Waitrose UK",UK,3186,16254,28,1026,1554677,38499,57,21358,418,989,24259
"Metro SK",SK,3032,6294,0,0,285502,0,2431,20418,19,1,22998
"Pilulka SK",SK,2990,38813,120,374,293179,11139,10,4384,201,257,5065
"Albert Heijn BE",BE,2906,11069,2,119,55310,7582,499,1763,65,212,2582
"Kosik CZ",CZ,2743,17985,2,1017,103532,36454,478,1790,465,968,3757
"Notino SK",SK,2739,396,46,396,136780,211,1255,6865,1461,14,9758
"Galen BG",BG,2727,14167,30,200,102517,5127,1406,2155,119,145,3910
Auchan,PL,2694,17822,35,1353,293653,28065,51,15799,1129,1635,18874
"Amazon Fresh UK",UK,2456,9624,543,543,53313,35380,751,2919,659,930,5356
"Pilulka CZ",CZ,2444,31629,97,475,171537,34584,11,2872,291,860,4126
"Drogeo CZ",CZ,2428,553,2,553,107779,42307,35,2640,257,819,3819
"Notino CZ",CZ,2387,1302,111,1302,145983,52049,1105,7492,2427,1308,12516
"Sainsburys UK",UK,2299,30744,229,2513,2142306,96433,233,32643,2011,2057,39289
"Amazon UK",UK,2211,2357,2353,2360,1393879,70367,0,0,0,19806,19806
"Boots UK",UK,2046,26941,598,5384,172026,8404,25,4356,8115,231,12866
"Amazon Fresh IT",IT,2028,8002,599,599,38373,3557,3409,3951,1422,91,8894
"Drogerie Natura",PL,1984,14625,9,741,83139,50171,69,3454,1228,3369,8237
"Brakes UK",UK,1895,9494,14,221,28410,47595,867,1795,99,480,3272
"Jumbo NL",NL,1793,17736,74,490,67245,7541,1155,1806,471,208,3686
"Auchan HU",HU,1745,24486,62,2009,193192,20420,6,4426,1087,787,6465
"Cefarm 24",PL,1661,13234,1,803,96690,15938,2133,3793,1042,5587,12622
"Yuga RO",RO,1661,8507,0,46,41592,0,2316,5201,3297,1,10848
"Otto DE",DE,1590,164,103,171,77792,215,744,885,536,18,2226
"Delhaize BE",BE,1586,14506,30,407,61196,18609,11,3482,357,815,4715
"Minti Shop",PL,1494,15308,1,771,118307,19200,43,5188,370,978,6674
"Tesco UK",UK,1448,31381,36,2455,466644,24711,16,17764,1180,13306,32780
"Kifli HU",HU,1439,14046,27,1603,65954,13487,668,688,687,432,2520
"Apteka Nowa Farmacja",PL,1381,16001,18,799,79647,27612,12088,3607,979,2306,19032
eZebra,PL,1379,43113,28,1264,152956,44233,37,7297,262,5524,13272
"Coop CH",CH,1332,19160,127,196,71621,1986,323,2079,345,145,2983
"Picnic NL",NL,1329,7061,0,0,16671,3895,1191,2239,25116,294,28858
"Amazon BR",BR,1299,9,7,9,968253,2253,0,0,0,171,171
"Barbora LT",LT,1298,16426,10,75,54673,1401,36,1765,38,74,1939
"Remedium BG",BG,1295,26906,6,210,95955,1540,255,5824,270,137,6569
"Rewe DE",DE,1258,9528,33,313,35079,2955,19,1417,318,358,2149
"Barbora EE",EE,1254,12571,28,89,44620,1329,47,1942,43,88,2141
"Knuspr DE",DE,1249,12472,10,106,67748,1651,579,589,49,153,1422
"Moja Lekaren SK",SK,1227,25669,10,126,141488,6733,868,3902,94,504,5464
"Lekarna CZ",CZ,1212,30914,14,332,139456,6248,884,3890,235,465,5544
"Amazon DE",DE,1206,171,171,171,399844,13460,0,0,0,4609,4609
"iGlobus Zlicin CZ",CZ,1205,19163,8,348,35424,10469,12,1711,404,354,2515
"E-Fresh GR",GR,1198,11751,6,472,56680,6552,2316,4039,979,685,8073
"S-kaupat FI",FI,1177,45000,47,316,341458,6538,19,2994,273,117,3633
Hebe,PL,1176,1690,310,1690,202855,31849,951,7504,3928,2040,14564
"Farmaline BE",BE,1174,30614,10,93,146344,2731,2558,3388,121,51,6233
"Barbora LV",LV,1154,13807,8,43,47222,1360,34,1419,21,86,1581
"Coop NL",NL,1136,14573,25,212,63239,1780,1552,2119,421,111,4252
"Picnic DE",DE,1125,7312,0,0,15048,1869,517,957,12828,168,14485
"Alza CZ",CZ,1101,34086,36,857,117948,29278,53,1098,327,1205,2740
"Vkusvill RU",RU,1082,11598,61,190,48932,1584,345,5353,451,144,6326
"Albert App CZ",CZ,1081,8056,1,44,44481,1714,494,2097,24,41,2683
"Apteka Melissa",PL,1072,27765,50,1702,105228,61687,34,8288,1044,1130,10579
"Eroski ES",ES,1063,26695,12,166,57030,586,7,3624,131,43,3838
"Alza SK",SK,1060,17423,17,110,64435,775,50,581,57,44,765
"Mathem SE",SE,1057,13182,0,503,35802,7704,19,1136,810,519,2511
"Dr Max SK",SK,1054,24714,1,374,100324,7205,763,5534,496,371,7236
"Auchan RO",RO,1046,25007,108,750,433871,9712,20,5485,787,628,7206
"Amazon IT",IT,1039,537,536,537,383257,6560,0,0,0,710,710
Bee,PL,1009,55771,89,361,196663,9502,471,3581,187,235,4756
"Salcobrand CL",CL,1007,7964,17,7963,35754,2610,274,620,5017,38,5971
"Zakaz - Novus UA",UA,999,18552,152,352,38238,0,4,1973,179,1,2191
Selgros,PL,977,20878,16,1269,72399,29552,447,911,572,1595,3613
"Tigros IT",IT,966,9994,51,592,30021,7451,5,542,345,241,1156
"Carrefour BE",BE,934,19854,2,501,363496,16852,868,10740,266,858,12977
"Coop Shop IT",IT,933,11416,16,373,34245,6595,6,642,259,363,1290
"Coop SE",SE,914,9925,1,496,33772,8121,18,927,231,230,1439
"Magnit App RU",RU,874,4443,15,26,13313,0,7,1015,15,1,1053
"Unipatika HU",HU,866,4365,4,294,30480,4684,530,1156,142,283,2134
"Pilulka RO",RO,864,10310,1,81,43219,3433,11,424,40,57,581
"SuperValu IE",IE,849,16187,38,1088,220322,14001,872,16996,1221,715,20059
"Ebag BG",BG,839,11984,16,80,45875,1748,27,1344,72,30,1535
"Tesco IE",IE,832,17545,17,881,443487,4691,12,12206,372,1396,14296
"Apteka Manada",PL,813,14401,46,1108,40904,39356,24,2096,1832,2659,6679
"eZiko Apteka",PL,802,7500,1,537,46705,20490,363,1847,250,1148,3670
"Dr Max CZ",CZ,785,23598,0,304,102716,8090,354,19895,333,1796,22424
"Gurkerl AT",AT,785,9741,26,119,43089,3428,378,368,58,110,981
"Superpharm Drogeria",PL,781,693,32,693,90827,37571,16,1744,1038,437,3324
"Auchan RU",RU,778,26946,65,600,79941,290,9,2224,574,38,2934
"Polski Koszyk",PL,773,19924,10,1212,63744,1839,23,816,582,67,1585
"Coop DK",DK,768,11471,598,621,90518,1259,356,3359,499,39,4320
"Zakaz - Metro UA",UA,758,12261,0,0,24069,0,4,2483,1,0,2512
Barbora,PL,755,11118,44,851,141289,8342,38,3189,395,858,4630
"Walmart MX",MX,735,23703,20,130,99029,3296,82,25824,160,489,26614
"Rimi LV",LV,731,15643,233,326,46096,5438,8,828,336,111,1307
"Masxmenos CR",CR,730,9869,23,75,26662,0,26,1972,117,1,2128
"Walmart CR",CR,730,15403,33,365,195308,5115,17,6101,446,152,6819
"Esselunga A Casa IT",IT,728,15640,18,617,49081,16970,24,13619,2760,3254,19693
"Sklavenitis GR",GR,727,9760,3,264,29264,4411,231,2308,315,484,3380
"Lunys SK",SK,723,5393,21,25,18894,0,465,1043,25,0,1545
"Apteka Gemini",PL,718,27116,555,1361,94246,64748,25,3314,699,794,4961
"Bringmeister DE",DE,716,15704,13,127,43045,4270,15,388,59,142,642
"Rimi EE",EE,708,12399,22,80,36333,3728,7,754,83,111,973
"Sezamo RO",RO,701,9836,9,12,40342,0,326,327,8,1,705
"Bennet IT",IT,699,19680,35,460,39705,15149,8,1127,211,1025,2399
"Mall CZ",CZ,699,3313,387,3313,90751,14137,599,415,4699,2150,7973
"Intervare DK",DK,692,9265,74,170,26900,0,9,313,76,110,529
"Rossmann DE",DE,682,16705,24,66,57955,438,882,1586,62,21,2592
"Falabella Tottus CL",CL,673,10318,177,425,29406,1869,1953,2593,1644,129,6340
"Poiesz NL",NL,669,7611,0,34,9824,974,16,532,3428,43,4034
"Tesco CZ",CZ,669,15989,3,1465,530952,24261,9,11331,984,5667,18281
"Cruz Verde CL",CL,666,10089,0,1048,149280,3145,14,18142,483,38,18742
"DM SK",SK,663,11501,2,48,32599,5985,6,1183,24,259,1504
Amazon,PL,662,911,900,902,1162210,27856,0,0,0,1242,1242
"Maxi RS",RS,661,7431,8,135,24223,6791,5,498,62,114,694
"Rimi LT",LT,661,15120,20,70,45473,3468,7,779,74,82,966
"Lopido CO",CO,656,16818,46,91,30318,815,13,1234,441,19,1726
"Crai Spesa Online",IT,651,403,0,403,27435,7162,461,1307,981,1087,3853
"Hoogvliet NL",NL,649,8700,44,174,14149,2397,12,931,211,163,1333
"Apteka Rosa",PL,648,9390,20,129,42647,2216,12,5714,68,144,5987
"Rossman HU",HU,642,15016,8,1002,54482,7903,527,688,1355,170,2777
"DOZ.pl",PL,637,19779,75,1426,79004,57575,410,2903,897,2231,6542
"City Gross SE",SE,633,12548,7,533,26673,9272,15,328,245,382,1000
"E.Leclerc Bielany",PL,626,32899,27,2464,104869,36321,76,3741,1112,25865,30924
"Mercator SI",SI,624,12634,5,165,37902,2235,278,300,94,82,831
"Tesco SK",SK,620,15586,2,82,225971,807,7,4160,59,165,4557
"Tesco HU",HU,619,14841,11,2393,985427,9909,6,19324,1785,2643,24320
Apteline,PL,614,857,14,857,24244,1739,539,956,662,354,2537
"Colruyt BE",BE,611,8118,10,331,95748,13374,7,14938,989,2083,18133
"Idea RS",RS,606,9507,1,147,18691,6959,115,610,70,109,922
"Pingvinpatika HU",HU,604,7703,144,552,42106,2830,7,5158,703,310,6208
"Vasalekaren SK",SK,603,10388,0,105,69651,4113,1323,9331,224,659,11564
"Benu CZ",CZ,602,14146,0,245,63518,5929,7,5639,179,67,5929
"Yandex Lavka RU",RU,600,2898,19,110,8218,2236,305,2964,711,330,4321
"Apteka Galen",PL,598,8686,99,332,22663,2756,15,2645,1323,1267,5302
"Thanopoulos GR",GR,597,15678,2,310,52279,6005,22,5409,363,874,6713
"Bestway Foodservice UK",UK,577,10544,30,232,33552,3975,294,428,163,101,1022
"Superdrug UK",UK,576,14438,33,116,44777,5867,15,736,2728,1360,4890
"Sams MX",MX,575,5641,11,29,40677,692,7,4264,60,247,4593
"Bestway Best-one UK",UK,573,6424,31,55,20888,12119,292,360,44,306,1033
"Bestway UK",UK,573,8962,16,452,28878,40813,320,405,229,841,1830
"DM HU",HU,573,12873,5,811,35068,9843,4,1154,353,325,1863
"Carrefour EG",EG,567,17314,15,82,90698,442,12,1755,155,19,2004
"Dr Max",PL,567,18396,4,755,62006,25494,237,3108,2152,1316,6876
"Zakaz - Metro MD",MD,567,9866,9,79,16776,0,17,1293,343,1,1682
"E.Leclerc Wroclaw",PL,566,11983,0,853,12200,12945,484,1093,1346,5135,8116
Lek24,PL,565,6364,0,22,22767,4477,35,1221,13,219,1519
"Kritikos GR",GR,564,17026,4,339,48251,0,19,48,162,7519,7848
Spar,PL,563,24865,1759,2032,657797,77394,24,11698,1012,2113,15401
"Willys SE",SE,563,10593,19,477,34818,7233,13,330,222,236,828
"Spar HU",HU,558,15901,491,1982,368116,14281,7,8076,3633,474,12391
"DM CZ",CZ,549,12784,0,815,35153,33521,13,1202,365,1055,2662
"AB GR",GR,548,11237,5,506,33405,8614,19,795,246,202,1322
"Pão de Açucar BR",BR,548,27455,323,556,65072,1680,5,6299,1647,279,8272
"Jumbo CL",CL,545,21506,28,1014,585376,2708,11,8097,1016,210,9601
"Chronodrive FR",FR,544,7841,82,168,14360,2151,12,488,87,101,706
"Freshful RO",RO,540,18484,3,90,37808,1054,9,874,44,36,1010
"Carrefour ES",ES,533,14839,13,201,17142,663,14,519,569,41,1160
"E.Leclerc Rzeszów",PL,533,12560,1,1299,36114,26126,37,656,558,979,2289
"MyMarket GR",GR,532,14181,126,294,50742,6996,17,2120,553,394,3147
"Univerexport RS",RS,532,9812,33,200,19624,1506,13,561,215,255,1061
"Drogeria Olmed",PL,526,608,233,608,153121,26787,11,9778,453,3752,14104
"Clube Extra BR",BR,523,8864,465,557,13454,1357,4,644,256,59,981
"Plazavea PE",PE,516,28284,232,478,200478,3861,8,4721,223,218,5302
"Apteka Zawiszy",PL,505,20793,423,1092,81488,22280,259,1120,751,474,2710
"Hemkop SE",SE,502,10352,8,466,32347,7411,12,278,217,228,765
Rossmann,PL,502,1133,6,1133,79011,32412,10,912,4105,2232,7343
"Benulekaren SK",SK,501,9257,11,340,46933,6911,6,3122,167,131,3450
"Cold Storage SG",SG,500,9409,15,9409,29302,0,609,2061,11155,0,13834
"Interspar AT",AT,500,22166,0,216,267956,6424,20,2598,392,145,3494
Intermarche,PL,499,19426,5,2533,151840,11130,21,3490,1189,1030,5991
"Migros Online CH",CH,489,12453,8,68,38575,1440,40,1298,58,183,1636
"Dr Max Drogeria",PL,482,18600,0,618,60444,6988,22,2594,897,305,3890
"Spar SI",SI,481,16718,25,203,59172,2710,17,643,411,104,1274
"Mega Image RO",RO,480,12389,15,386,37078,10015,9,841,175,223,1290
"Famila a casa IT",IT,478,12251,34,137,29028,6502,824,1499,241,313,2896
"E.Leclerc Radom",PL,472,13209,23,1333,41421,10206,76,2602,665,2616,6023
Ceneo,PL,465,200697,3365,5441,266443,46816,800,3043,3296,422,7964
"Apteka Olmed",PL,464,1074,324,1074,163693,20736,18,9871,680,2800,13477
"Carulla CO",CO,464,11261,16,271,64200,894,14,2085,169,49,2365
"Basko IT",IT,461,8487,6,405,25944,1582,3,264,450,47,782
"e-Dostavka BY",BY,461,18178,41,4295,53222,1866,4,3382,1916,147,5517
Aptelia,PL,459,568,6,568,74029,11955,214,2188,274,379,3120
"GPSfarma AR",AR,459,5979,44,645,28765,17338,13,2672,428,1176,4304
"Ecofamily HU",HU,456,7043,9,705,23077,4143,4,2237,4040,616,6923
"MegaMarket RO",RO,447,5194,0,9,6289,554,9,1236,16,180,1454
"Dr Max RO",RO,444,16826,10,272,54172,8870,205,2377,272,398,3295
"eTabletka SK",SK,443,11694,0,107,80272,6866,295,3829,148,84,4410
"Patika24 HU",HU,442,4289,7,231,10353,3210,6,984,728,175,1899
"Elefant RO",RO,437,484,484,484,70617,2186,22,2550,313,99,3021
"Justo MX",MX,437,4318,13,37,12954,0,4,908,21,1,942
"Metro RU",RU,435,0,0,0,23828,0,0,0,0,0,0
"Cornershop - Jumbo CL",CL,434,24548,17,998,141586,2169,11,842,948,250,2174
"Unimarc CL",CL,433,10707,17,518,32111,2336,8,608,4242,115,4990
"Cornershop - Lider CL",CL,432,19555,5,1144,123506,2231,11,941,448,192,1696
"E.Leclerc Lublin Turystyczna",PL,432,12217,5,1304,15199,12795,12,566,1385,2314,4315
"Soriana MX",MX,431,15597,23,388,29895,1926,10,5533,2018,899,8479
"Talabat Mart EG",EG,423,6755,298,309,55224,503,11,2807,641,29,3539
"E.Leclerc Katowice",PL,416,9302,1,1076,9830,10534,94,415,565,1561,2665
"Cruz Verde CO",CO,415,4653,0,2385,25848,1863,4,2480,1100,43,3643
"Majestic UK",UK,415,1514,2,69,23242,1244,210,2447,55,135,2866
"iFresh SK",SK,412,7267,37,37,164121,0,4,4374,82,0,4600
"Farmacia Tei RO",RO,411,202,202,202,26732,3356,8,721,117,167,1032
"Kruidvat NL",NL,411,9147,7,22,25858,1695,193,1014,72,120,1422
"Ica New Version SE",SE,406,7579,6445,6454,164204,6092,10,2604,2916,231,5862
"Teta Drogerie CZ",CZ,402,8874,2,442,25817,6887,3,717,466,158,1366
"Glovo Biedronka Warszawa",PL,398,2776,3,2775,5538,711,7,181,72,86,359
"Apteki 36.6 BG",BG,395,10160,1,151,48220,1356,19,1465,76,87,1700
"OnlinePrima HU",HU,394,8030,0,1310,24782,7413,4,1997,885,393,3292
"Unimarkt AT",AT,389,3422,15,123,15782,3251,151,678,93,248,1191
Stokrotka,PL,386,7645,4,142,165080,12502,24,2668,84,417,3383
"Drogas La Rebaja CO",CO,385,6796,10,537,36754,2817,14,4788,953,113,5892
"Świat Leku",PL,385,11924,3,312,39210,2252,171,1464,282,207,2184
"DrankDozijn BE",BE,380,3765,0,78,15301,2289,4,645,123,505,1290
"DrankDozijn NL",NL,380,3764,0,77,15298,299,5,635,122,20,797
"Carrefour IT",IT,379,16410,244,895,45419,4737,193,1104,555,324,2208
"Ica SE",SE,377,11346,1,654,712064,12771,11,22780,329,220,23801
"Billa AT",AT,376,9535,55,205,31496,6728,17,877,671,332,1947
"Bebe Tei RO",RO,372,108,15,108,27815,1573,8,872,71,82,1052
"Walmart GT",GT,371,10171,32,353,174349,4370,19,5124,462,165,5874
"Feedo CZ",CZ,364,371,173,371,59475,446,154,1204,405,18,1849
"Ulabox ES",ES,364,5839,0,2,12409,0,4,211,7,1,234
"Iceland UK",UK,358,5552,25,305,30515,17742,16,2337,645,4098,7125
"Bringo RO",RO,356,31851,187,26132,46046,7187,26,1514,1439,716,3752
"Apteka Prima 24",PL,355,4518,0,164,19743,1297,7,327,95,97,559
"Dia AR",AR,354,5356,22,413,15418,9288,12,1312,829,286,2449
"E.Leclerc Lublin Tomasza Zana",PL,351,11437,14,1347,14567,9765,16,474,779,1039,2357
"Gall & Gall NL",NL,345,3319,10,58,23450,60,8,5647,154,22,5849
"Globus RU",RU,345,18554,379,381,62124,313,6,1864,234,19,2182
"Argos UK",UK,344,8596,19,3047,11136,0,7,601,8818,1,9444
"Glovo Kaufland RO",RO,341,7778,2,7778,14296,0,8,183,96,41,351
"Rossmann App CZ",CZ,340,11635,3,38,37226,0,5,3046,20,1,3094
"E.Leclerc Elblag",PL,339,9897,4,959,27415,14306,43,1532,1044,3001,5663
"Sipo HU",HU,339,5319,4,159,12076,1457,6,853,118,112,1101
"Cornershop - Metro PE",PE,338,15741,13,262,49398,3586,9,448,224,278,1001
Carrefour,PL,336,14922,19,609,95301,39156,108,3781,4395,2206,10578
Allecco,PL,334,11986,6,640,41602,10328,22,560,332,203,1187
"Cornershop - Wong PE",PE,334,17751,30,326,53725,3533,9,507,254,424,1236
"Roastmarket DE",DE,334,41,7,41,35522,364,20,447,184,31,703
"Istegelsin TR",TR,331,3661,6,44,8265,0,20,162,22,2,213
"Cornershop - Santa Isabel CL",CL,329,8266,8,552,9858,1572,12,953,1378,205,2556
"Jumbo AR",AR,329,10505,7,741,62844,8581,9,2500,383,369,3299
"Mpreis AT",AT,325,8096,3,138,28417,4677,328,870,134,103,1474
"Mercado Libre MX",MX,323,37090,148,1177,77134,2777,726,904,338,346,2363
"Mercado Libre AR",AR,320,41308,502,1318,87252,1159,183,942,3332,117,4654
"Gastronom BG",BG,309,7269,4,69,22593,948,17,551,124,226,966
"Lisek App",PL,309,2132,12,205,3006,1380,8,19,97,265,399
Empik,PL,304,231995,1120,2332,631632,31946,80,17793,1060,253,19749
"Bipa AT",AT,302,11792,6,50,25370,578,16,507,81,25,696
Makeup,PL,302,2201,391,2201,491180,103439,8,15165,9030,1148,25670
"Cora RO",RO,300,53507,97,495,108175,5884,7,4332,220,953,5604
DoDomku,PL,299,5914,53,293,17317,2303,45,270,146,312,789
"Easy Coop IT",IT,299,9004,19,615,26807,9135,5,2324,1165,1036,4547
"Amazon NL",NL,298,0,0,0,87285,0,0,0,0,20,20
"Mall SK",SK,298,944,27,944,31153,1200,345,825,2370,1327,4896
"SOpharmacy BG",BG,294,9965,5,139,31029,6304,416,1057,156,537,2206
"Tudrogueria Virtual CO",CO,291,8320,7,3509,15985,971,4,297,1615,46,1973
"Apteka Nove BG",BG,289,11323,2,146,40399,5220,15,2345,200,357,2961
"Apteka Medea BG",BG,284,8676,5,153,26291,0,14,1062,103,1,1223
"Farmacia la Pret Mic RO",RO,284,8295,9,218,26444,5934,38,2761,243,966,4029
"Sephora US",US,283,122,121,122,136261,0,8,1067,66,2,1185
"i-apteka",PL,278,10123,150,577,21788,7018,9,473,611,496,1629
"E.Leclerc Tychy",PL,277,9153,7,1069,9259,10496,57,295,513,1561,2463
"Dunnes IE",IE,275,14134,70,757,24900,13419,3,750,1093,562,2430
"Groby HU",HU,269,8166,0,528,21720,4392,4,963,536,350,1871
"Konzum HR",HR,267,10744,0,154,16782,3503,316,2343,471,437,3589
"Farmacia Pasteur CO",CO,265,9570,2,3438,65769,1179,4,1817,3192,45,5107
"Carrefour BR",BR,261,9204,3,105,46530,1664,11,8035,206,149,8442
"E.Leclerc Gliwice",PL,260,8071,0,650,22089,7207,35,1252,542,2373,4234
"Azbuka Vkusa RU",RU,259,9024,61,67,20165,1143,32,1479,310,206,2057
"PriceSmart CR",CR,259,3019,6,37,43310,3247,7,13171,33,687,13921
"Apteka Medkon",PL,258,8387,470,470,34470,5067,9,4362,991,1723,7122
"Benu HU",HU,254,5016,0,354,16509,2763,4,2363,475,388,3241
"La Comer MX",MX,253,44,0,44,21421,3798,4,156,1105,65,1338
Wapteka,PL,253,19416,1262,1291,66461,43133,7,4026,723,751,5590
"Chedraui MX",MX,251,16693,30,163,33768,2417,3,1546,86,106,1763
"Supermarket AM",AM,249,6884,3,56,17481,346,6,930,129,142,1223
"Edeka DE",DE,248,3530,38,54,4731,104,10,178,58,118,373
"Merqueo - Bogota CO",CO,248,2148,3,148,5612,2519,4,208,76,96,389
"Szybki Koszyk",PL,247,4363,2,93,15003,641,118,642,46,42,868
"Yandex Market RU",RU,247,56797,1778,2319,72936,1591,17,4542,9833,118,14643
"Helpnet RO",RO,245,6775,10,240,19123,5144,4,1288,111,244,1667
"Mercado Livre BR",BR,244,78564,789,2318,639509,2677,533,8425,612,243,10306
"Auchan FR",FR,243,2640,5,119,8889,1588,282,517,116,279,1204
"Olimpica CO",CO,241,10810,13,364,51960,2799,5,1906,1182,170,3318
"Farmatodo CO",CO,238,13867,88,3607,61968,3295,5,864,4575,71,5561
"Delitea SE",SE,235,9637,5,225,24310,5556,8,182,105,85,407
"Afya Pharmacy BG",BG,234,10482,0,162,32913,1935,15,2289,214,344,2898
"Rappi - Exito CO",CO,231,6634,180,442,29392,5142,134,6622,1644,228,8658
"Panda Market HU",HU,229,2675,6,212,6165,1535,36,160,98,176,484
"Linio CL",CL,227,42715,78,158,74749,0,120,627,713,0,1562
"Перекрёсток Впрок RU",RU,227,16241,70,343,35542,1575,4,903,338,43,1344
"Getir IT",IT,224,2091,22,57,5541,8254,6,119,30,125,284
"Rappi - Carulla Express CO",CO,223,4908,142,392,16596,1642,134,4895,1606,89,6737
"Igooods RU",RU,219,17014,22,306,36369,549,4,265,209,17,536
"Merqueo - Medellin CO",CO,216,1743,0,138,4298,2116,3,169,74,95,345
"Booker Foodservice UK",UK,215,11694,92,866,21909,2760,142,471,404,99,1144
"Superpharm Apteka",PL,214,516,40,516,29880,23414,6,465,737,331,1571
"Subra BG",BG,211,8944,2,145,21458,5059,15,366,102,531,1079
"MaxiCoffee FR",FR,210,4860,43,153,12087,1526,264,456,488,219,1436
"Beauty Bay UK",UK,209,11544,2,54,49783,0,8,295,36,1,382
Cocolita,PL,209,12242,7,657,52829,16380,6,1784,1340,1603,4796
"Exito CO",CO,209,9536,90,623,38420,1458,159,3061,1132,120,4512
"Rappi - Carulla CO",CO,209,5395,155,401,22569,5064,88,5892,1417,224,7636
"Booker UK",UK,205,8915,175,1143,16993,8980,135,392,530,825,1902
"Minifarm RO",RO,203,5094,1,110,14168,0,9,564,66,1,656
"Pyaterochka App RU",RU,202,5515,4,212,14282,1248,4,228,101,15,374
"Emag HU",HU,199,131988,452,1540,132045,7264,6,2253,1645,117,4224
"Farmacia Dav RO",RO,193,5725,5,104,15267,1396,8,324,48,68,471
"Rappi Lider CL",CL,187,5023,461,575,25060,3391,122,4034,1676,126,5978
"Rappi - Exito Express CO",CO,186,4409,0,0,12285,1315,127,4819,2821,80,7856
"Vodovoz RU",RU,185,1110,1,3,2275,0,3,320,6,2,335
"Deliberry - Caprabo ES",ES,184,8543,0,0,9657,0,15,681,54,1,758
"Look Fantastic UK",UK,181,17255,24,51,60333,0,6,749,48,1,859
"Coursesu FR",FR,180,4493,0,0,11869,1290,24,10223,18832,350,29445
"Deliberry - Solri ES",ES,178,9124,0,0,10235,0,13,675,41,1,738
"Rappi Jumbo CL",CL,178,5762,561,743,30396,3585,81,4258,1796,103,6263
"Rappi Unimarc CL",CL,178,7140,737,901,15504,3426,125,2555,2121,123,4938
"Deliberry - Mercadona Barcelona ES",ES,175,5718,0,0,6855,0,15,645,1544,1,2210
"Tiendas Jumbo CO",CO,175,16365,3,690,59223,2847,7,1297,907,104,2368
"Linella MD",MD,174,6520,27,71,12967,0,14,300,42,0,394
"Deliberry - Mercadona Madrid ES",ES,173,5651,0,0,6764,0,12,612,1607,1,2236
"PennyDomu CZ",CZ,173,1456,1,2,4109,0,75,239,3,1,324
"Everli - Coop IT",IT,163,12327,8,287,13533,7590,56,853,305,634,1861
"Deliberry - Supercor ES",ES,161,4086,0,0,5010,0,13,572,12,1,602
"Rappi Turbo CO",CO,158,1646,34,111,8188,2653,105,4590,478,212,5390
"Professional Farmaline RO",RO,155,8183,1,115,17360,5350,5,539,72,99,736
"Rappi - Pricesmart CO",CO,152,1044,10,17,2767,3020,115,1947,287,227,2579
"Dirck3 NL",NL,151,536,0,25,2516,144,5,82,13,29,133
"Rappi Carrefour AR",AR,151,2697,138,225,4911,2069,92,698,1003,86,1883
"Rappi Coto AR",AR,150,3348,177,250,12662,1610,91,1539,915,79,2633
"Deliberry - Dia ES",ES,143,4171,0,0,5032,0,17,527,2,0,551
"Deliberry - La Plaza ES",ES,143,4250,0,0,5109,0,12,519,93,1,628
"Nazuby CZ",CZ,142,1723,0,66,6204,161,2,87,36,16,146
"Rappi Turbo PE",PE,141,1101,3,34,4388,3925,148,1348,313,209,2020
"Rappi Turbo AR",AR,140,866,29,49,4488,1510,172,1311,179,79,1744
"Medexpressz HU",HU,139,1353,0,75,2875,0,4,275,49,13,343
"Superxtra PA",PA,135,6477,0,0,13685,0,68,67,2,0,144
"Alkohol CZ",CZ,131,4478,0,0,12432,0,16,1036,6,1,1076
"Extra BR",BR,127,87937,1700,1992,87937,1131,41,1776,777,39,2715
"Ozon RU",RU,127,0,0,0,22565,0,0,0,0,0,0
"Automercado CR",CR,126,12072,15,61,18822,0,90,1406,213,6,1727
"Condis ES",ES,121,6609,1,1,6988,0,19,2015,231,1,2272
"Cora Drive BE",BE,121,14282,285,316,92752,6159,10,4053,396,1912,6458
"Rappi Farmacity AR",AR,113,4080,136,268,12781,1909,115,2015,552,81,2773
"Mercado Libre CL",CL,110,1695,38,52,5047,2,115,99,43,151,414
"Coop EE",EE,105,1290,0,7,3060,1202,3,88,5,56,155
"Savage & Whitten IE",IE,100,3813,5,144,7626,894,6,379,70,77,541
"Vitania BG",BG,98,7173,6,149,7173,4304,14,374,161,257,836
"Everli - Kaufland",PL,94,20224,196,709,48443,26103,46,4002,1632,2506,8267
"Farmacity AR",AR,94,354,5,354,5957,7555,4,217,166,484,874
"Amazon Fresh DE",DE,92,9835,198,198,14779,6717,111,1158,193,209,1686
"Everli - Lidl",PL,90,2437,107,108,17561,7699,55,1957,851,962,3861
"Everli Netto",PL,90,1741,9,10,13643,0,52,1677,59,1,1815
"Kaufland DE",DE,90,33083,154,383,41234,708,62,637,279,32,1059
"PriceSmart PA",PA,90,1740,2,35,18217,1024,6,5147,42,285,5490
"PriceSmart GT",GT,89,1638,5,27,12738,2235,5,3813,20,577,4422
"Koffievoordeel NL",NL,87,473,1,54,2791,1250,2,287,34,30,358
"Jumia NG",NG,85,2081,83,137,2710,93,43,83,65,13,206
"Kaffedeal DK",DK,82,381,7,42,972,829,3,44,21,33,102
"Brack CH",CH,81,8575,5,107,21531,1814,85,435,161,202,932
"Comfandi Supermercados CO",CO,72,4650,53,54,9367,783,6,867,113,133,1124
"Carrefour FR",FR,71,20906,482,731,31304,3495,7,1346,1593,307,3279
"Durst DE",DE,69,1112,67,1112,1179,0,5,29,19,5,63
"Media Markt DE",DE,69,0,0,0,0,0,2383,8108,0,3555,14047
"Droguerias Cafam CO",CO,68,4377,1162,2911,11200,2257,19,705,6046,99,6876
"Pretty Little Thing UK",UK,64,2444,44,45,10677,0,11,2944,431,0,3397
"Rozetka UA",UA,62,82396,601,1213,102901,0,120,5864,522,2,6687
"Emag RO",RO,61,55898,83,732,55906,5275,6,656,895,153,1803
"Rappi Cruz Verde CL",CL,60,2115,298,572,8653,3253,71,1327,1422,104,2933
"PedidosYa DIA AR",AR,59,1272,68,135,1275,2338,5,93,64,213,377
"Saturn DE",DE,57,1185,13,39,2514,334,590,1483,208,2257,4543
"Comfandi Droguerias CO",CO,56,4787,2558,2564,9452,1629,8,1089,4968,268,6339
"Kapselkongen DK",DK,54,243,0,52,488,644,24,54,54,33,166
"iDrinks HU",HU,54,5686,177,191,12414,252,3,1193,203,54,1462
"Bigshop MK",MK,51,1016,0,63,3790,598,145,312,100,190,749
"Expert DE",DE,51,932,0,1,995,0,102,69,338,10,521
"PedidosYa Carrefour AR",AR,49,4310,48,263,4310,2286,4,53,116,198,376
"Very UK",UK,47,4237,11,37,4760,0,16,59,18,1,103
"Winelivery IT",IT,43,1292,0,14,2829,0,4,196,27,1,230
"Carrefour AR",AR,41,3485,172,678,11922,1932,119,602,1546,278,2555
"Ep DE",DE,40,800,0,0,2105,0,84,282,0,1,370
"El Corte Ingles ES",ES,39,9568,12,247,12234,1125,168,1936,1176,321,3612
"Jumia EG",EG,38,2294,26,88,4137,16,33,139,49,14,239
"Altex RO",RO,37,1783,2,73,3433,2082,5,177,250,167,606
"BilkaToGo DK",DK,37,11192,14,181,60267,1797,9,121,186,38,444
"Bol NL",NL,37,140,74,142,22871,2926,26,1564,304,656,2570
"Datart CZ",CZ,37,1042,1,11,1431,1344,4,86,11,71,175
"Selver EE",EE,37,3793,0,27,10263,2887,4,177,29,106,323
"Galaxus CH",CH,33,8664,34,118,8664,1028,23,1897,106,1242,3293
"John Lewis UK",UK,33,17,3,17,671,211,6,34,21,84,146
"Intermarche FR",FR,32,2177,4,224,20577,2510,7,2117,830,552,3523
"Kesko FI",FI,31,4500,0,0,64091,8395,962,2585,0,1807,5417
"Avansas TR",TR,28,575,0,0,613,0,2,22,2,1,28
"MyDeal AU",AU,20,3574,56,3574,8591,948,10,248,4280,173,4713
"Deeski NG",NG,19,105,0,9,161,106,14,75,26,41,156
"Shoplink IE",IE,19,158,0,135,474,1869,28,41,83,103,255
"Boulanger FR",FR,17,998,1,51,2317,373,24,171,151,203,552
"Euronics DE",DE,15,9473,28,206,37419,0,37,1195,37454,0,38729
"Qvc US",US,14,15712,67,90,17418,0,23,166,316,1,521
"Leclerc FR",FR,11,270,0,31,542,831,18,464,1241,1134,2860
"BCC NL",NL,10,1697,17,44,2257,647,9,127,45,60,247
"Wildberries RU",RU,10,61220,1647,2174,63301,1573,10,178,1333,48,1855
"Mediaworld IT",IT,9,262,0,40,524,629,37,235,148,596,1018
"Coles AU",AU,8,327,48,327,660,404,4,85,1602,288,1979
"AO UK",UK,7,802,3,11,1114,290,62,8,11,50,139
"Woolworths AU",AU,7,1476,104,1475,2330,367,4,79,708,40,833
"Unieuro IT",IT,6,1649,7,23,2067,1161,3,14,12,44,77
"Barrys Beacon IE",IE,4,159,7,128,159,400,6,32,64,60,163
"Konga NG",NG,3,15,1,15,3000,168,52,13,8,12,86
" SberMarket - Lenta RU",RU,0,0,0,0,0,0,2291,5,0,2010,4306
"Alcampo ES",ES,0,0,0,0,0,562,217,1,0,121,342
Allegro,PL,0,2341,0,2341,0,0,0,0,1205,0,1205
"Coop UK",UK,0,0,0,0,0,7630,36,1,1,910,948
"Disco AR",AR,0,0,0,0,0,9462,66,1,1,407,475
"Easy CL",CL,0,0,0,0,0,0,3,43,2,8,56
"Everli - Metro IT",IT,0,0,0,0,0,0,6,3,0,1242,1251
"Heb MX",MX,0,0,0,0,0,0,1,6,0,18,25
"Kaffekapslen DK",DK,0,0,0,0,0,0,2,5,0,59,66
"Lider CL",CL,0,0,0,0,0,1916,4,45,1,204,254
Makro,PL,0,0,0,0,0,0,3,2,6,994,1029
"Mas Online AR",AR,0,0,0,0,0,0,0,0,0,0,0
"Metro Delivery RU",RU,0,0,0,0,0,0,278,2,1,299,580
"Metroiroda HU",HU,0,0,0,0,0,0,3,21,1,45,70
"Musgrave IE",IE,0,0,0,0,0,4787,3,24,3,154,188
"Okey RU",RU,0,0,0,0,0,0,11,8,1,307,327
"Plus NL",NL,0,0,0,0,0,0,42,0,0,0,42
"Rappi Turbo CL",CL,0,0,0,0,0,534,71,2,22,68,163
"Samokat RU",RU,0,0,0,0,0,0,4,19,1,17,41
"SberMarket - Metro RU",RU,0,0,0,0,0,0,2429,4,0,1,2434
"Sodimac CL",CL,0,0,0,0,0,0,36,21,1,2,61
"Vea Digital AR ",AR,0,0,0,0,0,8072,61,1,1,427,491
"Wong PE",PE,0,0,0,0,0,0,3,24,1,70,98
"Утконос RU",RU,0,0,0,0,0,0,16,5,1,227,251
