﻿Site,Country,Categories,Prices,"Products changed","Products downloads",Relations,Search,"Categories time","Prices time","Products time","Search time","Total time"
"Pilulka CZ",CZ,8141,46705,1066,1130,762641,21760,10641,22444,1627,996,36011
"Ocado UK",UK,6509,46304,141,2635,438845,42070,1338,11450,2291,2025,17290
"Mytime DE",DE,5519,11310,17,153,109490,2988,2573,3396,77,152,6332
"Pilulka SK",SK,4713,41236,885,871,513981,10332,8290,25848,1835,937,37073
frisco,PL,4701,15488,13,2895,286268,116193,41,11799,9375,2563,24086
"Samokat RU",RU,3637,6223,5,186,77613,15,27,55,207,13,390
"Albert Heijn NL",NL,3507,21425,53,277,107599,4308,445,1531,34,80,2145
"Morrisons UK",UK,3283,21156,203,2167,98976,32613,616,5662,1848,2161,10338
"Asda UK",UK,3186,28657,162,2325,891051,40696,8,9996,1392,1155,12958
"Waitrose UK",UK,3083,16461,51,244,1509468,33926,18,30459,499,837,31813
"Albert Heijn BE",BE,2916,10017,37,118,51490,6173,420,1346,17,120,1935
"Coto Digital AR",AR,2831,16820,297,598,95391,1210,2621,4934,493,55,8144
"Rohlik CZ",CZ,2737,23813,104,884,213393,12329,2701,3781,646,606,7873
"Galen BG",BG,2518,12140,65,215,85901,2732,1346,2249,135,64,3851
"Drogeo CZ",CZ,2513,811,241,811,122669,26311,11,2116,395,453,3020
"Amazon Fresh UK",UK,2463,8986,490,491,52483,16992,2484,2011,211,513,5246
"Kosik CZ",CZ,2459,15709,148,689,88863,26977,459,1572,317,862,3249
"Sainsburys UK",UK,2242,30976,24,2399,1687306,86767,226,27056,1899,3782,34037
"Amazon Fresh IT",IT,2143,7598,617,620,36723,2357,2912,1201,356,214,4698
"Notino SK",SK,2137,55,55,55,3365,137,966,5718,151,13,6857
"Amazon UK",UK,2097,1975,31350,31374,1996997,39012,0,0,0,5522,5522
Auchan,PL,2073,13131,0,0,246155,26608,32,7779,21488,3929,33487
"Drogerie Natura",PL,1980,21465,49,1984,93330,68416,35,3563,2085,2815,8667
"Boots UK",UK,1910,15620,101,1267,49506,7825,10,2650,7779,1446,11934
"Brakes UK",UK,1895,9274,39,207,27866,30893,896,1823,100,314,3152
"Auchan HU",HU,1862,34600,588,2650,359129,11335,5,13888,1406,609,16104
"Jumbo NL",NL,1848,18993,54,311,73117,4272,1212,2009,278,122,3660
"Notino CZ",CZ,1754,212,208,212,4616,20045,776,6001,262,1063,8113
"Yuga RO",RO,1673,9722,6,55,48166,439,1585,3781,2997,48,8438
"Cefarm 24",PL,1643,13326,58,957,99230,13443,2108,3762,1268,5809,13113
"Otto DE",DE,1603,174,114,178,65193,864,754,972,337,31,2144
"Delhaize BE",BE,1553,14171,32,372,60082,15275,8,3289,236,400,3969
"Alcampo ES",ES,1544,16547,351,544,61234,542,4292,7702,1363,228,13621
eZebra,PL,1315,41425,73,2603,146720,42013,27,5787,3232,3880,13086
"Apteka Manada",PL,1290,14476,74,1177,44182,34835,31,4317,2151,2811,9375
"Tesco UK",UK,1270,29207,635,2817,341169,25216,7,10759,1151,7959,20124
"Barbora EE",EE,1259,12014,106,200,42775,997,48,1231,94,66,1457
"Kifli HU",HU,1256,15011,100,1579,61472,10022,592,589,727,380,2328
"Picnic NL",NL,1239,6977,12,96,15199,2264,526,963,49,81,1629
"Apteka Nowa Farmacja",PL,1216,15024,36,898,70071,21999,9244,2344,789,1479,13952
"Coop CH",CH,1199,17817,48,88,64457,1871,275,1992,160,137,2602
"E-Fresh GR",GR,1180,12481,122,531,60770,6239,2249,4178,1103,633,8196
"Amazon DE",DE,1153,294,291,294,396526,14806,0,0,0,2412,2412
"Lekarna CZ",CZ,1139,28294,194,636,124454,4328,624,3487,346,175,4698
"Moja Lekaren SK",SK,1137,24042,196,419,106565,4256,633,2922,241,172,4032
"S-kaupat FI",FI,1117,41204,100,826,361942,4933,4,2910,395,95,3586
"Barbora LV",LV,1111,11461,15,62,42377,1318,36,1513,32,90,1687
"Mall CZ",CZ,1094,3439,626,3437,132085,13166,767,2739,4437,4867,12912
"Barbora LT",LT,1078,11566,5,82,38453,1220,25,918,40,61,1061
"Carrefour BE",BE,1054,0,0,0,0,21504,1043,73,1,2960,4109
"Mathem SE",SE,1039,12929,44,543,35879,5420,14,1116,787,381,2392
"Coop NL",NL,1038,17351,18,119,73503,915,1432,3408,259,73,5211
"Salcobrand CL",CL,1019,6349,13,6348,29122,1149,261,609,3365,15,4268
"Walmart AR",AR,1018,13671,32,393,55185,1192,564,3963,2825,50,7434
"Eroski ES",ES,1005,23984,13,167,50557,487,17,2997,119,36,3200
Hebe,PL,1005,2269,524,2269,123204,40388,495,2210,2664,837,6326
"Knuspr DE",DE,997,11019,27,208,41600,1257,473,466,93,154,1219
"Remedium BG",BG,987,27284,59,279,83519,699,236,7724,656,117,8783
"Picnic DE",DE,981,7128,15,192,14310,1847,440,834,87,167,1539
"Amazon IT",IT,954,219286,3968,3968,342752,6078,337,16695,0,1327,18801
Selgros,PL,948,22883,202,1264,77531,26295,421,977,579,1433,3632
"Auchan RO",RO,941,22129,18,490,91566,8692,15,839,285,149,1367
"Coop Shop IT",IT,932,10490,3,257,31396,5524,6,647,193,348,1211
"Coop SE",SE,925,9894,0,0,33500,5432,14,917,992,163,2144
"Magnit App RU",RU,913,4163,32,154,11580,0,10,1752,145,1,1918
"Alza CZ",CZ,867,21216,0,0,74628,20036,196,1625,0,0,1821
"Tigros IT",IT,856,10065,10,582,30372,6468,4,494,329,234,1078
"Dr Max SK",SK,855,19037,395,395,80547,4878,524,3495,457,239,4754
"Unipatika HU",HU,854,4365,4,301,31082,4658,480,887,153,213,1749
"SuperValu IE",IE,848,16690,14,939,226786,11124,489,9158,578,466,10836
"Superpharm Drogeria",PL,813,2248,87,2248,86177,57588,20,1994,3767,642,6546
"Wong PE",PE,811,21182,250,250,52584,0,2,2400,203,1,2623
"Polski Koszyk",PL,797,20023,3,738,65701,8741,16,834,433,475,1853
"Pilulka RO",RO,792,40130,238,363,147452,3569,467,2627,537,125,3890
"Tesco IE",IE,781,17245,106,869,422602,4359,5,8437,285,701,9596
"Superdrug UK",UK,774,15797,10,261,44470,7359,10,936,666,445,2090
"Auchan RU",RU,768,26818,1108,1108,86116,350,10,1658,976,9,2717
"Coop DK",DK,748,11097,253,278,88070,1182,367,3542,278,39,4274
"Bringmeister DE",DE,734,15052,13,139,39453,5337,12,452,64,145,706
"Intervare DK",DK,732,9166,267,356,26744,0,4,324,155,110,609
"Masxmenos CR",CR,730,8583,4,4,23536,0,19,2049,38,1,2117
"Walmart CR",CR,730,13840,10,12,175830,0,8,6488,24,128,6723
"Sklavenitis GR",GR,723,10007,35,300,30013,5815,104,1213,163,348,1859
"eZiko Apteka",PL,723,6756,24,611,38703,29078,319,1602,306,1395,3680
"Apteka Gemini",PL,713,25889,2041,2377,89476,74840,18,3039,1331,932,5447
"Rimi LV",LV,702,15328,18,124,45084,5313,7,1038,192,149,1405
"Dr Max CZ",CZ,695,19799,370,371,82592,7539,551,4140,517,358,5607
"Tesco CZ",CZ,692,17211,21,1160,567241,16187,6,9146,586,2267,12280
"Gurkerl AT",AT,689,9957,21,136,35431,3092,368,319,61,101,885
"Rimi EE",EE,688,12712,11,54,37008,3714,6,1017,85,142,1267
"Tottus CL",CL,688,8487,98,1374,43248,1071,5,523,667,26,1247
"Drogas La Rebaja CO",CO,674,11946,381,3915,354835,6627,67,11408,4853,445,16889
"Bennet IT",IT,673,18548,25,456,37349,14827,4,1026,216,466,1739
"Rossman HU",HU,665,14801,136,1088,54291,7580,464,579,2285,180,3541
"Hoogvliet NL",NL,660,9040,70,149,15431,1866,7,543,132,64,760
"Poiesz NL",NL,657,8313,1,12,10542,134,20,545,2393,9,2979
"Mat SE",SE,655,10525,138,373,32295,8413,2458,292,341,146,3253
"Crai Spesa Online",IT,648,383,375,383,27373,6589,459,1146,746,815,3175
"Rossmann DE",DE,648,15632,45,104,54378,440,501,1004,97,19,1660
"DOZ.pl",PL,643,15257,48,1230,60601,51811,373,2499,725,1764,5581
"City Gross SE",SE,641,12668,7,518,26680,6025,10,414,252,267,969
"Rimi LT",LT,641,14888,31,76,44669,3429,5,964,121,104,1212
"DM SK",SK,636,11985,80,101,34751,2168,3,1156,46,45,1267
"Tesco SK",SK,633,15641,136,261,224736,211,5,3750,124,24,4035
"Esselunga A Casa IT",IT,632,14937,33,677,44409,15111,9,4116,1129,1203,6483
Barbora,PL,622,7623,12,532,61333,5998,24,1547,273,980,3089
Apteline,PL,609,944,0,944,82764,18212,437,1387,653,687,3297
"Vasalekaren SK",SK,606,9963,24,157,66857,3609,1302,9087,382,633,11448
"E.Leclerc Bielany",PL,605,30312,125,2720,95541,34891,55,3538,1263,19947,25009
"Tesco HU",HU,599,15397,14,2281,858816,9483,9,12940,1332,1675,16482
Amazon,PL,596,63,63,63,797424,3365,0,0,0,0,0
"Apteka Galen",PL,590,8712,3,310,40479,3383,19,1535,291,266,2411
"Thanopoulos GR",GR,590,15886,37,354,52925,9085,9,4372,402,655,5486
"Willys SE",SE,588,10558,36,495,34973,4979,10,366,234,169,806
"Nuko LV",LV,583,8221,874,875,34248,0,395,781,935,1,2126
"Pingvinpatika HU",HU,581,7470,12,314,40142,2859,8,4821,455,323,5624
"Bestway Foodservice UK",UK,578,11001,157,342,34891,4724,294,469,217,116,1113
"Bestway Best-one UK",UK,575,6694,52,108,21784,13000,308,387,85,331,1133
"Bestway UK",UK,575,10111,303,737,32468,30408,288,449,359,695,1810
"Spar HU",HU,572,13926,385,1414,179751,11141,9,9007,15848,334,25276
"Alza SK",SK,570,9836,39,166,42448,2487,92,359,50,91,611
"Dr Max",PL,569,12785,776,776,48832,27999,356,2647,854,1012,4929
"E.Leclerc Wroclaw",PL,567,16342,68,1418,16542,14464,500,1937,2238,6799,11527
"Zakaz - Metro MD",MD,566,11552,157,198,19695,0,7,1294,574,1,1891
"Plus NL",NL,565,15777,102,349,30904,3844,26,1965,173,139,2340
"AB GR",GR,564,11666,44,385,34974,6962,8,1005,182,177,1415
"Benu CZ",CZ,563,14454,56,347,65502,5318,3,6987,377,68,7475
"DM HU",HU,556,11665,24,728,32218,9456,4,1073,313,170,1593
"Kritikos GR",GR,556,16104,9,342,45477,0,8,16,162,6979,7207
Spar,PL,555,24408,1610,1958,728814,84544,19,13002,945,2472,17056
"Apteka Melissa",PL,552,27491,1256,1256,80507,56452,19,6163,796,852,8089
"Freshful RO",RO,551,20891,49,91,42612,323,8,798,43,12,934
"Easy Coop IT",IT,550,9961,34,706,36309,17763,3,243,1379,293,1934
"Vkusvill RU",RU,548,11424,170,170,31738,1077,46,1018,168,53,1312
"Sok FI",FI,543,9599,36,341,36762,3218,71,1135,175,335,1738
"DM CZ",CZ,541,11463,28,849,31593,20896,3,1096,367,360,1844
"E.Leclerc Rzeszów",PL,540,12356,5,1459,36124,36935,29,628,552,1048,2310
"Yandex Lavka RU",RU,538,2976,107,211,8788,2175,99,754,247,80,1190
"MyMarket GR",GR,536,14667,23,384,51156,5628,8,1514,507,421,2489
"Chronodrive FR",FR,529,8456,46,118,16865,2144,11,354,71,42,490
"Jumbo CL",CL,528,20609,18,1522,588467,1042,4,8619,1410,289,10584
"Ebag BG",BG,527,11685,75,145,40175,1474,9,1080,91,29,1244
"Metro RU",RU,525,19338,361,1168,22879,22,9,1899,1314,852,4130
"Cold Storage SG",SG,514,9410,1,42,29456,0,566,2534,47,1,3154
"Drogeria Olmed",PL,509,1209,327,1209,128141,28320,11,8703,629,2982,12412
"Apteka Zawiszy",PL,507,19488,66,984,77383,14230,250,851,533,336,2180
Rossmann,PL,502,2831,304,2828,81020,34391,16,1167,3660,850,5847
"Hemkop SE",SE,501,10606,25,507,33131,5163,8,314,239,176,766
"Colruyt BE",BE,495,6249,8,187,71974,14340,10,21199,13133,2490,36901
Intermarche,PL,495,18226,2,3337,165217,21627,16,3222,1586,1790,7019
"Interspar AT",AT,490,21278,27,241,66298,6151,6,831,340,151,1375
"Migros Online CH",CH,486,12680,4,69,38255,1391,17,688,71,69,871
"Spar SI",SI,485,17660,41,233,62240,2223,9,2999,275,65,3388
"Famila a casa IT",IT,481,12681,102,202,36697,5783,653,1082,1051,267,3069
"Mega Image RO",RO,481,13186,46,382,40101,11012,8,663,176,168,1057
"Benulekaren SK",SK,472,8971,22,275,46629,6097,4,3804,219,116,4165
"E.Leclerc Radom",PL,472,14441,597,1356,45557,12629,46,3225,673,1580,5586
"e-Dostavka BY",BY,470,24472,339,409,69561,2887,3,4985,218,235,5525
Ceneo,PL,463,189437,1387,4924,255608,27640,810,3335,2529,466,7616
"Basko IT",IT,461,8515,6,445,26030,836,2,262,494,35,806
"GPSfarma AR",AR,460,5865,74,438,27769,1149,8,1960,411,77,2470
"Cornershop - Lider CL",CL,458,20917,24,1655,129583,1356,8,1112,854,57,2121
"Apteka Olmed",PL,456,1137,127,1137,144446,21013,10,10202,760,1978,13041
"MegaMarket RO",RO,447,5572,0,9,6682,569,8,1362,13,201,1592
"Feedo CZ",CZ,443,227,185,227,59921,549,186,992,480,23,1699
"Lopido CO",CO,433,10069,34,258,17820,569,7,6576,993,51,7637
"Ecofamily HU",HU,432,6326,30,877,21963,4248,3,1127,8137,298,9581
"Unimarc CL",CL,432,8156,242,414,23387,0,5,3045,965,0,4027
"E.Leclerc Lublin Turystyczna",PL,430,13211,34,2473,16185,14754,18,471,2131,2542,5213
"Patika24 HU",HU,426,5119,17,281,15706,4426,7,605,346,106,1074
"Lider CL",CL,425,11863,230,2123,237306,1122,87,12156,4227,92,16675
"E.Leclerc Katowice",PL,422,10889,31,1227,11409,13340,290,1344,1952,6684,10473
"Dr Max RO",RO,420,12390,315,315,39691,5985,234,1701,346,203,2509
"Kruidvat NL",NL,408,8335,148,170,21131,1762,154,648,203,95,1118
"Teta Drogerie CZ",CZ,398,9089,33,472,26528,6874,2,673,421,166,1279
"eTabletka SK",SK,396,11341,14,127,68845,6088,418,5091,135,88,5761
"Apteki 36.6 BG",BG,394,10099,16,159,47243,686,7,1322,83,48,1490
"Dia AR",AR,394,4179,74,266,13011,579,17,582,249,21,876
"Unimarkt AT",AT,394,3285,33,399,15759,3092,137,331,288,200,967
"OnlinePrima HU",HU,393,7435,0,1123,22914,6176,3,2778,750,190,3732
"Cornershop - Jumbo CL",CL,388,26038,6,537,133551,1343,4,836,259,64,1258
"DrankDozijn BE",BE,381,3578,8,70,14509,2291,3,619,111,562,1303
"DrankDozijn NL",NL,381,3578,7,73,14509,245,4,617,116,65,811
Stokrotka,PL,375,7310,21,125,154551,974,19,2185,79,57,2710
"Carrefour IT",IT,374,13091,313,1003,38082,11543,24,495,462,314,1315
"Majestic UK",UK,374,1356,7,78,19552,1145,200,1989,75,141,2414
"Billa AT",AT,371,9035,69,223,29029,6235,5,313,366,128,836
"Bringo RO",RO,370,31761,482,31571,53861,11313,24,1452,971,666,3168
"Świat Leku",PL,362,11666,6,321,34119,1849,153,1281,225,182,2119
"Mercado Libre AR",AR,357,31881,499,1326,70338,710,193,765,1744,79,2829
"Ulabox ES",ES,357,6112,4,26,12846,0,6,219,17,1,262
"Ica New Version SE",SE,353,5685,5536,5544,107771,4178,8,1682,2475,199,4430
"Farmacia Tei RO",RO,351,23709,353,357,25266,5366,9,610,174,234,1062
"Cruz Verde CO",CO,347,4136,91,2636,16388,1190,72,1074,1203,96,2454
"E.Leclerc Lublin Tomasza Zana",PL,346,11460,37,1394,14444,11686,16,487,919,1417,2873
"Ica SE",SE,346,11628,35,674,699647,9550,7,21609,328,156,22555
"Jumbo AR",AR,343,10296,514,1103,64032,759,7,2625,630,31,3332
"Globus RU",RU,342,13985,9,295,49538,37,9,1968,195,6,2216
"E.Leclerc Elblag",PL,339,10718,27,1057,29635,16939,31,1631,1163,1884,4744
Allecco,PL,336,11259,8,654,38529,15390,19,604,318,279,1491
Carrefour,PL,336,10078,229,2756,34026,0,169,5523,2064,12046,19870
"Ulta US",US,334,98,96,98,92966,0,4,268,98,1,401
"Elefant RO",RO,331,297,302,302,97827,2031,104,980,167,20,1328
"Bebe Tei RO",RO,325,24878,108,224,24878,3436,10,712,122,204,1118
"Mpreis AT",AT,325,7787,2,130,27454,4079,329,758,202,91,1399
"Amazon NL",NL,320,0,0,0,71530,0,0,0,0,17,17
"Roastmarket DE",DE,316,111,42,111,33566,397,20,352,442,16,848
"Sipo HU",HU,305,4413,242,242,9801,1309,4,506,121,110,748
Empik,PL,301,176272,1782,2494,540181,25042,81,14673,1067,216,16582
"MaxiCoffee FR",FR,301,5580,74,126,15009,1018,580,932,627,121,2267
"SOpharmacy BG",BG,301,9544,97,199,29793,3519,375,867,242,117,1631
DoDomku,PL,300,6354,161,492,18757,1992,40,210,265,314,844
"Tudrogueria Virtual CO",CO,299,8699,233,4105,16770,491,6,425,1898,26,2371
"Bipa AT",AT,296,9967,73,73,21825,543,11,292,101,18,444
"Cornershop - Santa Isabel CL",CL,296,7004,5,251,8669,1016,14,558,410,54,1043
Makro,PL,296,3215,7,516,8733,30019,7,541,240,1680,2488
"Mall SK",SK,296,1146,69,1146,26396,918,375,773,2612,826,4608
"E.Leclerc Gdansk",PL,295,8465,44,766,23436,10112,30,1382,823,1615,3970
"Rappi - Exito CO",CO,295,20705,1618,1755,73947,9332,6,6475,5548,243,12316
"Apteka Nove BG",BG,294,11619,8,138,39997,3384,507,2134,207,169,3044
"Cora RO",RO,292,39170,229,511,77782,6875,7,3244,360,725,4404
"Rappi Lider CL",CL,290,14720,1378,1798,86846,1236,3,7771,5650,32,13500
"E.Leclerc Tychy",PL,286,9528,6,1193,9749,11967,55,289,583,1877,3033
"Rappi - Carulla CO",CO,285,14882,790,1004,60360,9062,6,6152,4792,245,11226
"Apteka Medea BG",BG,284,8629,24,199,26257,0,6,2043,331,1,2407
"Sephora US",US,284,230,229,230,129507,0,8,855,91,0,997
"Rappi - Carulla Express CO",CO,282,13425,676,814,50373,8726,5,6058,4432,249,10769
"i-apteka",PL,281,9592,510,616,20599,7748,4,415,655,790,1998
"Azbuka Vkusa RU",RU,277,12499,58,307,24498,203,10,1981,1046,30,3089
Makeup,PL,277,2466,317,2466,424284,84493,4,11117,1091,1276,13714
"Argos UK",UK,273,5331,15,3784,7008,0,4,602,14195,0,14817
"PriceSmart CR",CR,272,3527,0,1,53230,0,4,9799,7,1,9834
"Groby HU",HU,267,8318,17,537,22083,3577,4,1067,606,216,1906
"Merqueo - Bogota CO",CO,267,3019,38,209,7169,5357,4,226,101,210,547
"Rappi - Exito Express CO",CO,266,17602,360,886,39882,7177,5,5658,4087,245,10018
"Afya Pharmacy BG",BG,265,8830,6,157,28871,712,6,2462,292,182,2958
"E.Leclerc Gliwice",PL,262,7735,84,880,21186,7511,26,1211,773,1219,3331
"Supermarket AM",AM,259,7779,30,30,20513,0,5,1073,74,1,1173
"Farmacia la Pret Mic RO",RO,258,7811,32,262,23934,4120,19,1751,341,745,2925
"Apteka Medkon",PL,254,5172,357,357,21642,8270,11,3676,757,1256,5795
"Delitea SE",SE,254,9802,27,272,23524,1803,7,188,126,27,385
"Rappi Jumbo CL",CL,254,14765,1671,1781,61335,1388,4,6730,2250,32,9056
Wapteka,PL,252,17366,1112,1273,60681,38032,7,2909,474,707,4177
"Edeka DE",DE,248,3382,50,82,4599,94,9,238,46,118,422
"Olimpica CO",CO,247,11475,110,164,48897,0,5,1701,583,1,2340
"Rappi Unimarc CL",CL,246,10795,104,366,26387,1274,3,3960,853,32,4865
"Helpnet RO",RO,245,6762,45,295,19075,2440,7,1856,245,184,2368
"Szybki Koszyk",PL,240,4256,1,143,14628,1327,108,1116,134,100,1479
"Farmatodo CO",CO,238,12781,13,3717,57061,5310,6,873,4661,94,5686
"Rappi Santa Isabel CL",CL,233,5272,14,155,6469,1189,3,1234,378,32,1651
"Merqueo - Medellin CO",CO,232,2743,28,245,6036,5084,5,190,118,198,516
"Metroiroda HU",HU,231,3577,4,250,7200,1333,4,709,476,182,1375
"Disco AR",AR,228,7740,8,326,31580,997,90,2939,826,48,3926
"Linio CL",CL,228,50650,128,1058,81979,0,369,2492,1971,1,4902
"Утконос RU",RU,223,727,101,727,44340,1145,5,368,702,71,1174
"Igooods RU",RU,218,18167,2,410,37636,92,5,192,269,6,516
"Kesko FI",FI,218,0,0,0,222908,0,0,0,0,0,0
"Coop UK",UK,214,9803,31,855,219425,19277,3,2126,410,655,3306
"Merqueo - Cali CO",CO,214,1917,34,144,4167,836,5,157,69,30,267
"Перекрёсток Впрок RU",RU,213,16027,276,907,37549,2975,6,2940,1559,205,4875
"Booker Foodservice UK",UK,212,11907,26,1228,22290,3554,151,465,591,113,1333
"Superpharm Apteka",PL,211,610,91,610,28962,20940,4,691,988,296,2188
Cocolita,PL,208,9948,175,323,42723,13543,6,1703,712,1237,3773
"Rappi - Pricesmart CO",CO,208,1891,15,43,5367,756,4,2072,653,33,2766
"Beauty Bay UK",UK,207,13760,17,66,53611,0,5,368,40,1,438
"Booker UK",UK,206,9099,24,1396,17360,9952,144,381,658,657,1850
"Yandex Market RU",RU,206,43884,2959,5055,70430,2000,16,1898,2557,73,4695
"Minifarm RO",RO,203,2753,8,138,4661,140,6,457,87,127,690
"Auchan FR",FR,200,1662,19,90,5798,634,458,441,97,295,1294
"Emag HU",HU,198,101947,567,2047,102002,7037,7,1378,2039,150,3657
"Benu HU",HU,195,5113,7,354,16186,2750,3,3919,550,441,4921
"Deliberry - Caprabo ES",ES,184,8529,2,11,9647,0,9,318,23,1,366
"Vodovoz RU",RU,177,1034,7,55,2127,0,5,173,67,1,252
"Coursesu FR",FR,176,4272,132,163,13154,1121,11,10111,2281,1203,13619
"Deliberry - Solri ES",ES,176,8015,2,3,9115,0,9,321,7,1,355
"Deliberry - Mercadona Barcelona ES",ES,175,5877,1,1,7031,0,9,282,10,2,320
"Linella MD",MD,175,6850,6,1201,6851,0,7,230,4332,1,4578
"Deliberry - Mercadona Madrid ES",ES,173,5726,0,0,6844,0,10,290,6,1,329
"Jumia NG",NG,167,7688,123,216,17125,400,99,350,118,25,602
"Everli - Coop IT",IT,163,12330,4,185,13714,6549,21,2189,122,2385,4726
"Deliberry - Supercor ES",ES,161,4084,0,0,5008,0,6,287,8,2,311
"Panda Market HU",HU,161,2255,32,197,5088,1395,2,97,94,109,306
"Professional Farmaline RO",RO,155,8632,19,138,18366,2457,5,972,152,63,1213
"Dirck3 NL",NL,151,481,1,25,2309,143,2,87,16,7,114
"Look Fantastic UK",UK,149,17175,100,134,50075,0,3,678,86,0,792
"Pyaterochka App RU",RU,149,6405,37,422,12780,390,4,188,214,5,441
"Everli - Metro IT",IT,146,2644,1,39,3560,1548,18,170,26,686,903
"Tiendas Jumbo CO",CO,145,12213,6,569,61403,5032,5,6732,735,204,7721
"Deliberry - Dia ES",ES,143,4153,2,2,5015,0,8,268,8,1,292
"Deliberry - La Plaza ES",ES,143,4236,1,1,5096,0,8,268,40,1,335
"Vea Digital AR ",AR,140,3594,178,1068,14539,972,93,1751,6474,41,8370
"Nazuby CZ",CZ,137,1647,5,65,5677,134,2,101,30,14,151
"Medexpressz HU",HU,136,1317,90,91,2819,0,3,277,63,1,347
"Ozon RU",RU,136,66887,4435,5116,109676,1808,493,4644,4956,137,10430
"Subra BG",BG,131,6332,3,145,17252,2609,11,184,74,276,560
"Automercado CR",CR,129,13275,4,9,20249,0,14,1798,229,1,2057
"Coop EE",EE,129,9411,87,87,20479,1926,2,434,42,56,545
"Condis ES",ES,121,6558,27,29,6925,0,4,199,26,1,245
"Cora Drive BE",BE,118,13515,214,228,89376,4460,9,4051,302,1451,5868
"Amazon Fresh DE",DE,107,8887,280,280,13636,6231,957,946,249,207,2371
"Farmacia Pasteur CO",CO,103,8880,20,4022,55551,562,5,1741,3202,29,5013
"Savage & Whitten IE",IE,99,3736,14,153,7472,1078,8,347,74,88,521
"Koffievoordeel NL",NL,98,511,1,67,3148,1268,2,567,65,29,666
"Farmacity AR",AR,97,244,7,244,6000,1153,4,298,114,46,464
"Vitania BG",BG,97,7183,16,141,7183,2273,6,320,67,76,477
"Carrefour ES",ES,94,5877,12,150,6099,579,17,198,545,141,911
"Rappi Cruz Verde CL",CL,92,5089,748,845,35533,1241,3,2637,2649,31,5340
"Kaufland DE",DE,90,31068,208,423,38888,694,120,1339,489,75,2102
"PriceSmart PA",PA,90,1664,3,3,19217,0,2,3710,5,0,3722
"Kaffedeal DK",DK,87,393,11,49,1022,795,3,43,24,32,102
"PriceSmart GT",GT,87,1636,12,12,14438,0,2,2107,11,0,2125
"Brack CH",CH,81,8279,19,97,16845,1751,65,251,105,208,646
"Okey RU",RU,80,9492,1381,1700,9526,316,9,352,5584,34,6001
"Comfandi Supermercados CO",CO,72,4468,176,176,9080,0,6,1019,296,0,1326
"Durst DE",DE,69,1072,74,1072,1142,0,5,17,25,2,54
"Droguerias Cafam CO",CO,67,4242,1418,2945,10884,1407,20,1015,5466,55,6561
"Media Markt DE",DE,67,2128,41,210,5702,1018,885,7549,7182,1710,17338
"Sanctuary UK",UK,62,116,0,1,497,0,2,86,2,7,97
"Kaffekapslen DK",DK,60,774,0,62,1773,1508,85,89,71,281,527
"Comfandi Droguerias CO",CO,56,4692,211,211,9251,0,5,550,164,1,727
"Kapselnkogen DK",DK,56,282,1,60,593,684,21,54,57,33,166
"Saturn DE",DE,56,2130,6,28,4578,883,378,2520,478,3937,7318
"Bol NL",NL,55,267,178,275,43710,2481,71,2766,1180,477,4518
"iDrinks HU",HU,52,6436,164,182,13874,252,10,1557,175,53,1804
"Emag RO",RO,49,62955,466,804,62959,5082,6,1194,883,176,2347
"Expert DE",DE,49,0,0,0,2021,0,99,0,0,0,99
"Pretty Little Thing UK",UK,49,2433,7,18,6542,0,2,321,12,0,338
"Winelivery IT",IT,49,1496,6,28,3250,0,3,273,25,1,303
"Very UK",UK,47,3887,6,11,4223,0,13,77,6,1,100
"Fudge UK",UK,45,92,0,0,517,0,2,79,2,14,98
"Carrefour AR",AR,41,3622,26,393,12140,514,85,677,965,26,1766
"Altex RO",RO,38,2117,8,60,4151,2471,6,195,71,163,440
"BilkaToGo DK",DK,37,3821,0,143,22667,1496,4,79,63,36,202
"Selver EE",EE,37,3539,6,53,9532,2728,7,283,113,317,726
"Asos UK",UK,35,280,1,2,288,0,60,62,14,2,141
"Ep DE",DE,35,222,4,10,707,302,73,128,22,95,321
"John Lewis UK",UK,27,19,4,19,457,138,3,64,22,23,112
"Mercator SI",SI,27,12696,7,161,12696,1766,5,22,78,50,175
"Carrefour FR",FR,25,10937,71,289,15510,1759,77,2755,2826,506,6201
"StTropez UK",UK,25,26,0,0,67,0,2,54,2,40,98
"Qvc US",US,24,18088,205,443,22485,0,23,176,1771,1,1994
"St. Tropez US",US,23,19,0,0,56,0,3,17,2,1,24
"MyDeal AU",AU,20,16,6,16,7072,617,3,67,11,52,134
"Shoplink IE",IE,20,148,0,117,444,1863,26,37,73,109,246
"Deeski NG",NG,19,201,0,17,306,276,13,59,45,38,155
"Officeworks AU",AU,19,404,0,54,412,395,82,9,217,19,327
"Boulanger FR",FR,17,746,4,48,1767,357,24,91,123,147,387
"Euronics DE",DE,15,3870,5,12,13248,1171,27,1397,15732,389,17602
"The Good Guys AU",AU,15,773,1,14,1468,382,6,38,33,143,221
"Mercado Libre CL",CL,12,6682,68,141,12830,0,16,271,162,0,460
"BCC NL",NL,11,1941,12,35,2533,635,9,118,37,58,226
"El Corte Ingles ES",ES,11,3873,32,171,5015,688,58,702,1061,90,1921
"Sodimac CL",CL,11,114,1,1,243,0,34,56,82,0,172
"Leclerc FR",FR,10,239,0,42,463,535,20,342,1215,778,2357
"Wildberries RU",RU,10,3656,155,208,3754,1465,12,46,237,111,435
"Mediaworld IT",IT,9,274,3,43,548,1212,15,115,120,315,566
"Myer AU",AU,9,7380,83,115,9168,0,11,1317,262,1,1594
"Coles AU",AU,8,273,1,84,549,402,4,76,184,178,442
"Intermarche FR",FR,8,351,74,102,676,1014,5,59,438,388,890
"AO UK",UK,7,759,3,17,1052,243,74,8,15,6,104
"Woolworths AU",AU,7,1378,0,107,2186,361,4,119,81,57,262
"Unieuro IT",IT,6,1638,5,26,2067,1084,3,12,16,56,89
"Harvey Norman AU",AU,5,22,1,22,280,277,15,99,96,397,608
"Costcutter IE",IE,4,159,5,116,159,416,6,19,57,68,150
"Easy CL",CL,3,600,0,0,684,0,3,25,2,2,33
"Konga NG",NG,3,35,11,35,2998,212,128,18,18,13,178
" SberMarket - Lenta RU",RU,0,0,0,0,0,0,9,16,0,158,183
"0815 DE",DE,0,0,0,0,0,0,13,3,0,80,96
Aptelia,PL,0,0,0,0,0,0,0,0,0,0,0
"Carulla CO",CO,0,0,0,0,0,4192,15,14,1,243,284
"Dunnes IE",IE,0,0,0,0,0,0,3,12,2,508,526
"Exito CO",CO,0,0,0,0,0,2818,18,13,2,246,301
"Gall & Gall NL",NL,0,0,0,0,0,0,24,1,1,35,64
"Iceland UK",UK,0,0,0,0,0,0,2,39,0,2355,2397
"Metro Delivery RU",RU,0,0,0,0,0,0,8,16,1,28,53
"Rewe DE",DE,0,0,0,0,0,0,4,10,1,659,675
"SberMarket - Metro RU",RU,0,0,0,0,0,0,10,16,1,150,177
"iGlobus Zlicin CZ",CZ,0,0,0,0,0,0,5,87,3,386,484
