﻿Site,Country,Categories,Prices,"Products changed","Products downloads",Relations,Search,"Categories time","Prices time","Products time","Search time","Total time"
"Mytime DE",DE,4964,11878,19,153,105301,3009,2290,3548,235,306,6423
frisco,PL,4707,2133,33,2133,319501,98220,140,6385,3555,837,11187
"Albert Heijn NL",NL,3439,21580,57,314,105211,4829,459,1581,44,91,2255
"Makro CZ",CZ,3412,8396,3,12,840776,461,2917,26918,50,47,30283
"Metro SK",SK,3061,6408,2,3,294921,0,2587,22044,24,1,24765
"Rohlik CZ",CZ,3050,24280,69,1660,227268,31828,2206,4085,1078,932,8418
"Coto Digital AR",AR,3015,17906,70,912,113471,1599,3247,15180,2198,74,20753
"Albert Heijn BE",BE,2876,10148,35,123,50674,6472,439,1323,29,129,1960
"Notino SK",SK,2751,810,199,810,121954,320,1279,6821,2043,14,10316
"Galen BG",BG,2749,14171,1,174,98589,4946,1474,2509,107,118,4280
"Kosik CZ",CZ,2689,17410,37,1159,100758,35622,455,1737,556,978,3800
"Pilulka SK",SK,2657,39335,135,579,257235,11543,16,4664,371,277,5443
Auchan,PL,2611,16831,81,1341,280752,70614,96,14924,924,4589,20817
"Drogeo CZ",CZ,2479,813,71,813,131141,42752,15,2840,547,911,4388
"Notino CZ",CZ,2391,543,62,543,57813,61170,1103,7496,611,1488,10896
"Pilulka CZ",CZ,2351,32777,377,607,165880,34253,16,5658,387,922,7061
"Drogerie Natura",PL,1981,15658,2,752,61507,50407,93,5110,1425,7229,13946
"Amazon Fresh IT",IT,1912,8040,1110,1161,24008,3192,3923,968,2351,129,7391
"Jumbo NL",NL,1809,17713,67,356,67234,4750,1199,1803,339,133,3518
"Auchan HU",HU,1752,22653,90,1976,168440,17755,11,4363,1126,709,6328
"Otto DE",DE,1710,339,71,344,70745,192,827,1091,608,18,2574
"Yuga RO",RO,1678,8908,3,65,44562,0,2129,4620,3226,0,10013
"Cefarm 24",PL,1658,13472,37,866,98606,15828,2502,4310,1130,5538,13547
"Alza CZ",CZ,1657,30459,160,270,122987,29284,318,2317,313,1584,4592
"Delhaize BE",BE,1599,14071,275,367,59486,16749,27,3282,272,749,4370
"Alza SK",SK,1397,13877,165,274,59293,778,200,567,80,44,918
"Apteka Nowa Farmacja",PL,1382,15709,32,968,83799,23482,10459,3518,1111,2014,17169
eZebra,PL,1370,42042,258,7624,144769,36806,83,19003,4741,14959,38916
"Amazon BR",BR,1322,0,0,0,684662,0,0,0,0,20,20
"Picnic NL",NL,1317,7143,8,106,16484,2689,582,1039,64,90,1789
"Remedium BG",BG,1309,26674,9,263,92079,1543,388,8594,620,202,9874
"Barbora LT",LT,1296,16660,52,89,58667,1397,44,1885,49,71,2082
"Coop CH",CH,1256,18330,76,174,66700,1983,306,2080,324,151,2920
"Rewe DE",DE,1252,9189,7,201,32484,2926,23,1631,238,358,2282
" SberMarket - Lenta RU",RU,1251,12066,0,20,72177,798,51,3465,1023,75,4670
"Kifli HU",HU,1241,13702,30,1592,54642,10364,652,587,736,363,2384
"iGlobus Zlicin CZ",CZ,1218,19528,13,439,36417,10474,13,3357,834,529,4772
"E-Fresh GR",GR,1204,11809,36,699,57485,6616,2330,4080,1454,658,8564
"Farmaline BE",BE,1204,30842,67,126,147752,0,774,4783,177,1,5832
"Moja Lekaren SK",SK,1195,24698,78,307,133966,4727,605,3497,159,165,4509
"SberMarket - Metro RU",RU,1195,7105,63,222,57775,359,51,2969,124,62,3243
"Lekarna CZ",CZ,1187,29579,82,529,130209,5159,592,3376,266,168,4492
"S-kaupat FI",FI,1166,43676,108,377,332453,6406,21,3642,380,112,4319
Hebe,PL,1164,1704,1294,1704,168181,30365,960,5266,2830,1041,10219
"Barbora LV",LV,1129,13849,149,196,48015,1436,49,1706,95,109,1988
"Albert App CZ",CZ,1121,8057,7,37,44144,2692,512,2241,25,63,2886
"Amazon DE",DE,1072,170,170,170,524092,13119,0,0,0,3616,3616
"Dr Max SK",SK,1070,23017,49,865,99833,7165,721,7048,1147,421,9388
"Knuspr DE",DE,1063,11731,12,144,49753,1648,556,487,68,146,1292
"Picnic DE",DE,1062,7028,3,154,14312,1831,455,842,76,165,1549
"Eroski ES",ES,1044,25631,57,198,54337,563,23,3440,131,42,3669
"Mathem SE",SE,1044,12585,14,551,34507,7478,20,1118,806,509,2481
"Amazon IT",IT,1041,540,538,540,568537,6616,0,0,0,646,646
"Salcobrand CL",CL,1018,7663,4,7662,34805,2569,288,624,4657,41,5637
"Auchan RO",RO,1013,24720,8,549,425697,7457,39,5492,544,537,7029
"Zakaz - Novus UA",UA,1001,17984,42,140,37913,0,33,2081,80,0,2252
Bee,PL,991,51977,413,949,187277,9446,462,3346,460,235,4691
"Coop NL",NL,987,16285,28,134,69964,984,1734,2069,271,64,4186
"Vkusvill RU",RU,987,11663,39,170,46531,1519,350,5910,416,199,6918
Selgros,PL,975,20906,274,1271,72700,28739,441,949,566,1580,3617
"Carrefour BE",BE,933,18685,80,500,251276,20283,904,10313,229,6911,18491
"Coop Shop IT",IT,924,11166,2,377,33526,6324,13,691,267,406,1404
"Coop SE",SE,914,9912,51,536,33781,7943,18,905,253,216,1424
"Pilulka RO",RO,870,10241,62,151,44592,3430,35,496,77,67,733
"Unipatika HU",HU,866,4377,6,299,30517,4690,536,1174,152,255,2137
"Magnit App RU",RU,848,3771,17,85,9661,0,36,1410,66,1,1535
"SuperValu IE",IE,840,16248,10,1099,221621,13933,872,16616,1231,696,19718
"Tesco IE",IE,834,16933,39,908,421223,4515,15,9458,362,870,11104
"Tigros IT",IT,832,10010,15,560,30072,7092,13,467,327,244,1085
"Ebag BG",BG,829,11583,77,188,43362,1803,26,1331,128,32,1568
"Wong PE",PE,811,23961,189,586,146637,1846,22,8453,7223,80,15863
"Apteka Manada",PL,810,14799,87,1206,48772,39875,61,2212,1759,2443,6536
"Superpharm Drogeria",PL,797,735,27,735,90459,38334,23,2384,1590,436,4509
"Polski Koszyk",PL,786,20096,4,898,65013,1966,26,867,470,67,1526
"Walmart MX",MX,784,23204,54,186,99936,3134,89,10350,155,112,10769
"Auchan RU",RU,773,24344,218,794,74561,360,29,1983,631,34,2759
"eZiko Apteka",PL,769,7248,11,595,43688,20077,346,1808,282,1129,3602
"Dr Max CZ",CZ,761,22714,196,590,96402,7987,522,5690,872,590,7726
"Heb MX",MX,760,24119,0,0,92047,2113,672,2143,4,119,2981
"Coop DK",DK,754,11240,172,186,92043,1206,369,3338,221,40,4026
"Zakaz - Metro UA",UA,753,11986,32,161,22939,0,33,2480,124,1,2667
"Cruz Verde CL",CL,737,9463,11,952,135172,3077,23,18160,443,39,18733
"Sklavenitis GR",GR,731,9826,30,311,29473,4402,131,1218,151,261,1801
"Masxmenos CR",CR,730,14230,6,8,36250,0,34,2570,7410,1,10034
"Walmart CR",CR,730,14330,9,309,183445,5059,25,6663,551,188,7526
"Mall CZ",CZ,725,5190,1294,5190,108171,16061,579,858,7548,3288,12411
"Apteka Gemini",PL,718,27290,212,1561,94756,65917,61,3547,723,807,5247
"Rimi LV",LV,717,14726,18,94,43238,5411,16,782,97,117,1043
"Lunys SK",SK,716,5336,27,29,18732,0,461,999,42,2,1529
"Bringmeister DE",DE,713,14803,35,185,40625,4340,14,347,83,143,624
Barbora,PL,710,9454,14,825,123267,10304,39,3135,391,948,4635
"Intervare DK",DK,707,9038,273,360,26214,0,20,342,166,111,658
"Tesco CZ",CZ,705,16253,8,1540,537310,24719,9,12291,963,3764,17289
"Esselunga A Casa IT",IT,699,15089,13,624,46104,16913,16,4568,1144,1347,7114
"Gurkerl AT",AT,687,9579,43,141,34790,3357,375,318,68,107,909
"Bennet IT",IT,682,19379,63,506,39070,15004,14,1073,965,686,2771
"Poiesz NL",NL,666,7826,0,10,10052,124,22,547,3137,12,3731
"DM SK",SK,660,12306,22,74,35184,6069,6,1277,37,261,1616
"Rimi LT",LT,660,14860,7,49,44609,3414,15,754,54,83,941
"DOZ.pl",PL,658,19538,64,1457,79048,57288,489,2530,797,1979,5873
"Hoogvliet NL",NL,658,8649,27,106,14158,1836,20,703,110,98,950
"Rossmann DE",DE,656,16126,79,164,55441,446,657,1263,154,20,2131
Amazon,PL,655,685,672,678,1062064,25356,0,0,0,648,648
"Maxi RS",RS,652,7782,19,149,25723,6918,10,577,70,117,794
"Apteka Rosa",PL,648,9537,54,144,57380,2127,19,3458,213,143,3894
"City Gross SE",SE,645,12761,1,531,27847,8918,14,356,249,365,1005
"Tesco HU",HU,645,15052,13,2261,1000845,8611,7,18653,1316,1725,22205
"Tesco SK",SK,643,15676,3,68,226573,834,9,5192,49,109,5485
"Crai Spesa Online",IT,642,438,9,438,26909,7076,464,1713,1008,1031,4231
"Rossman HU",HU,640,14559,14,981,52822,7787,650,836,1657,169,3364
"Mercator SI",SI,626,12872,27,201,38616,2291,297,287,98,81,824
Apteline,PL,621,783,10,783,23346,1707,489,939,499,335,2294
"E.Leclerc Bielany",PL,616,32331,90,2669,102868,35595,154,3598,1207,22085,27177
"Colruyt BE",BE,606,7867,11,287,93532,14888,17,14809,805,1641,17369
"Benu CZ",CZ,598,14214,56,496,66587,5908,10,8843,603,71,9563
"Thanopoulos GR",GR,597,15582,93,409,52193,8716,28,4745,478,675,5966
"Pingvinpatika HU",HU,591,7594,29,343,40949,2852,10,5025,465,309,5831
"Plus NL",NL,582,15608,3,264,31211,4271,54,2708,134,189,3137
"Vasalekaren SK",SK,582,10060,10,164,63367,4169,1176,8469,372,624,10668
"Willys SE",SE,582,10549,16,466,34866,6842,11,353,236,240,863
"Carrefour EG",EG,578,18537,279,871,114074,417,12,1551,676,21,2323
"Sams MX",MX,576,5205,110,110,37566,646,18,3201,147,165,3542
"Glovo Kaufland RO",RO,574,8913,750,8913,15822,0,24,337,138,1,523
"E.Leclerc Wroclaw",PL,573,16259,30,1259,16753,12848,505,1851,1880,5034,9318
"DM HU",HU,570,12600,10,842,34318,9746,5,1259,379,316,1999
"Spar HU",HU,570,15298,487,1887,354191,11475,10,8560,3474,388,12608
"Dr Max",PL,567,17252,46,804,58437,26714,239,3391,2772,1576,8046
"Zakaz - Metro MD",MD,567,10478,10,58,17657,0,23,1253,366,1,1677
Lek24,PL,563,6021,14,71,21508,4415,18,1209,42,220,1518
"Kritikos GR",GR,560,16747,12,350,47289,0,21,56,168,7179,7500
Spar,PL,557,25406,109,2087,672228,76865,20,11963,1089,2120,15743
"Apteka Melissa",PL,552,27854,140,1881,103279,61960,65,8429,1438,838,10867
"Chronodrive FR",FR,549,8507,13,153,15601,2119,17,543,102,101,777
"DM CZ",CZ,549,12310,68,898,33687,32843,7,1113,404,1037,2605
"AB GR",GR,548,11298,62,581,33576,8061,25,808,276,201,1350
"Pão de Açucar BR",BR,548,22855,176,231,56300,0,24,1869,278,1,2218
"Yandex Lavka RU",RU,546,2653,4,145,7538,0,116,765,259,194,1355
"Freshful RO",RO,543,19180,18,107,39195,361,29,891,57,39,1112
"Jumbo CL",CL,543,21233,21,1031,584176,2471,20,8361,1714,289,10705
"MyMarket GR",GR,537,14539,134,314,52578,6898,25,1838,403,542,2854
"Univerexport RS",RS,537,9306,3,131,18612,1354,17,573,146,256,1014
"Carrefour ES",ES,533,15094,25,303,18034,418,23,927,947,27,1947
"E.Leclerc Rzeszów",PL,531,12142,17,1634,35706,26142,40,690,694,1016,2508
"Drogeria Olmed",PL,524,693,92,693,151648,26686,54,13771,508,2862,17297
"Clube Extra BR",BR,523,9684,51,51,27052,0,23,990,30,1,1065
"Idea RS",RS,516,11880,2,226,21019,7195,100,559,106,110,901
"Plazavea PE",PE,516,26382,33,276,192155,1851,17,4758,131,136,5163
"Metro RU",RU,514,20445,103,625,25568,1421,33,2675,795,69,3616
Rossmann,PL,508,1207,8,1207,78822,31866,16,898,1282,721,2998
"Apteka Zawiszy",PL,505,20413,64,1071,80294,21884,247,1137,582,468,2522
"Hemkop SE",SE,504,10289,11,470,32259,7231,10,287,219,218,766
"Benulekaren SK",SK,501,9312,17,389,49334,6817,6,4759,315,132,5238
"Interspar AT",AT,500,21928,27,237,264913,6352,26,2569,296,142,3278
Intermarche,PL,499,18568,8,2500,160184,14567,17,3557,1160,1401,6381
"Migros Online CH",CH,486,12284,10,72,38068,1352,25,1278,63,178,1610
"Spar SI",SI,481,16664,18,207,58510,2679,25,639,262,106,1104
"Famila a casa IT",IT,477,12197,43,167,29505,6474,813,1499,304,313,2953
"Mega Image RO",RO,477,12515,22,390,37451,9736,27,802,184,241,1324
"Dr Max Drogeria",PL,476,17633,4,508,55857,6739,16,2699,726,335,3834
"E.Leclerc Radom",PL,472,13393,46,1340,42092,10452,130,2703,646,2310,5835
"e-Dostavka BY",BY,468,33934,95,495,76752,2054,26,5551,249,237,6142
"Carulla CO",CO,464,11360,7,268,64665,908,27,1807,166,58,2118
"Apteka Olmed",PL,463,1105,68,1105,163346,21340,14,15634,955,2454,19153
"Basko IT",IT,463,8430,20,440,25783,1571,8,261,491,47,832
Ceneo,PL,463,0,1427,5668,273334,0,21197,6291,0,0,27488
Aptelia,PL,459,583,54,583,69506,11545,209,2016,274,367,2912
"GPSfarma AR",AR,456,9231,0,482,41718,1587,18,2571,326,114,3059
"MegaMarket RO",RO,447,5257,0,9,6361,565,27,1322,13,189,1570
"eTabletka SK",SK,442,11347,19,222,76289,6796,480,10913,346,87,11856
"Lider CL",CL,441,13197,229,1288,250841,1897,21,13889,2665,240,16997
"Patika24 HU",HU,441,4384,0,238,10559,3228,6,564,343,88,1009
"Ecofamily HU",HU,438,2648,1,110,4419,0,7,1134,644,241,2038
"Dr Max RO",RO,434,16152,49,398,47550,8505,225,2238,388,458,3350
"Unimarc CL",CL,433,10790,26,619,32370,2329,15,972,672,140,1825
"E.Leclerc Lublin Turystyczna",PL,432,12884,9,1457,15863,13218,20,1120,2807,4262,8245
"Soriana MX",MX,432,11282,1421,1421,22468,1120,25,4891,4692,724,10344
"Lopido CO",CO,431,10931,12,71,21173,825,18,7853,337,39,8266
"Cornershop - Lider CL",CL,427,19530,686,1853,127666,2175,19,1004,855,184,2189
"Cornershop - Jumbo CL",CL,423,23303,66,1007,135036,2551,17,934,568,222,1899
"E.Leclerc Katowice",PL,415,9348,20,1257,9859,10236,94,418,789,1456,2783
"iFresh SK",SK,410,7158,128,128,139546,0,4,4073,1370,1,5532
"Farmacia Tei RO",RO,405,516,516,516,26040,3262,24,790,381,177,1396
"Kruidvat NL",NL,403,8550,94,116,23827,1750,213,735,134,93,1198
"Teta Drogerie CZ",CZ,400,8635,7,550,24548,6750,10,1351,1157,423,2963
"OnlinePrima HU",HU,397,8011,0,1289,24768,6251,6,605,773,300,1707
"Apteki 36.6 BG",BG,395,9950,1,153,47252,1339,19,1616,87,90,1862
"Glovo Biedronka Warszawa",PL,391,2536,223,2536,4877,510,13,180,71,87,365
"Unimarkt AT",AT,390,3412,13,126,15615,3292,175,522,109,240,1070
"Mercado Libre MX",MX,389,39996,178,928,86281,2806,715,921,352,367,2434
Stokrotka,PL,384,7687,52,510,159633,12543,24,2693,248,417,3568
"Talabat Mart EG",EG,380,6483,555,557,49725,527,10,2631,1351,14,4043
"Ica SE",SE,379,11105,14,674,663549,12695,9,21233,328,209,22112
"DrankDozijn BE",BE,378,3650,26,99,14878,2306,12,654,157,560,1394
"DrankDozijn NL",NL,378,3650,26,98,14878,250,12,637,155,59,875
"Bebe Tei RO",RO,371,126,36,126,27466,1550,26,1024,116,105,1305
"Billa AT",AT,371,9361,46,221,30330,6676,13,493,530,188,1269
"Świat Leku",PL,370,11778,21,354,38640,2081,169,1381,302,201,2101
"Walmart GT",GT,369,9272,0,308,159859,4332,22,5644,508,181,6444
"Ulabox ES",ES,364,5786,3,13,12158,0,7,212,13,1,244
"Carrefour IT",IT,362,13566,265,907,34660,4666,220,1933,439,618,3242
"Bringo RO",RO,359,30277,279,31481,44630,7012,28,1547,859,862,3355
"Apteka Prima 24",PL,355,4521,11,44,20381,1246,11,422,36,119,630
"E.Leclerc Lublin Tomasza Zana",PL,355,10750,24,1285,14015,9322,17,465,898,1039,2458
"Feedo CZ",CZ,351,157,73,157,58205,465,150,1191,137,30,1591
"Gall & Gall NL",NL,347,3251,77,77,24115,68,11,6240,176,22,6464
"Rossmann App CZ",CZ,344,10558,19,118,34331,0,7,2864,58,2,2966
"Globus RU",RU,342,18379,601,601,61551,323,24,2141,356,20,2604
"E.Leclerc Elblag",PL,339,10529,6,1016,29148,14605,80,1698,827,2583,5219
"Istegelsin TR",TR,337,4542,3,48,10240,0,31,166,25,1,240
Allecco,PL,335,11841,18,667,40891,12161,23,666,388,199,1330
"Cornershop - Metro PE",PE,335,14589,9,241,47523,1698,16,526,135,175,897
"Roastmarket DE",DE,335,53,3,53,32556,382,25,587,212,16,857
"Jumbo AR",AR,331,11419,17,434,51617,1087,14,2325,217,43,2633
"Mercado Livre BR",BR,331,92561,621,1942,1156508,0,599,13031,2430,1,16953
Carrefour,PL,330,14945,155,2794,125706,37002,412,3306,2301,2262,8412
"Sipo HU",HU,326,5080,90,637,10601,1442,4,649,352,118,1138
"Mpreis AT",AT,325,8013,10,134,28065,4606,342,839,139,103,1457
"Cornershop - Wong PE",PE,318,16744,15,277,49516,1801,16,538,247,188,1041
"Mercado Libre AR",AR,316,36680,330,2729,78923,628,184,859,6056,128,7313
"Cornershop - Santa Isabel CL",CL,314,8478,11,426,10289,1736,14,622,611,156,1421
"Gastronom BG",BG,309,7790,99,142,24238,932,20,467,157,215,907
Empik,PL,302,206280,2435,3866,622832,33282,94,17462,1527,266,20003
"Ica New Version SE",SE,302,5093,4427,4429,109779,5844,8,1858,2057,222,4202
"Cora RO",RO,300,51445,74,471,105449,6487,23,4619,303,1092,6157
"Bipa AT",AT,299,12217,23,79,26653,574,24,401,116,18,631
"Easy Coop IT",IT,299,8844,38,606,26458,10093,7,2080,1297,944,4348
"Amazon NL",NL,298,0,0,0,129399,0,0,0,0,21,21
DoDomku,PL,298,5823,75,392,17058,2282,40,248,193,282,782
"Mall SK",SK,298,2064,83,2064,29670,1142,315,765,5063,1282,7474
"SOpharmacy BG",BG,296,9904,53,242,31200,6297,405,1052,304,560,2367
"E.Leclerc Gdansk",PL,295,10129,11,887,27855,8339,84,1627,688,2296,4732
Makeup,PL,292,2556,1142,2556,462680,88759,6,14425,8540,1060,24433
"Tudrogueria Virtual CO",CO,291,8996,10,3817,17100,961,16,318,1760,47,2159
"Apteka Nove BG",BG,287,11365,5,152,39958,6243,23,3041,246,440,3783
"Apteka Medea BG",BG,284,8652,3,153,26047,0,22,1426,113,0,1602
"Sephora US",US,283,215,201,215,127390,0,13,978,128,2,1176
"E.Leclerc Tychy",PL,278,9048,9,1251,9195,10129,56,352,671,1563,2696
"i-apteka",PL,275,10079,121,559,21743,6767,7,514,592,481,1647
Makro,PL,272,3134,133,630,8619,31846,8,538,292,1632,2489
"Edeka DE",DE,271,3759,426,464,5001,95,13,215,517,133,889
"Groby HU",HU,269,8157,2,516,21786,3576,8,1120,502,239,1893
"Farmacia la Pret Mic RO",RO,266,8384,15,249,27247,5951,71,1546,266,1190,3130
"Farmacia Pasteur CO",CO,265,8439,156,3491,58635,1060,18,1784,3064,47,4967
"E.Leclerc Gliwice",PL,260,8025,36,846,22058,6506,69,1355,600,1969,4024
"PriceSmart CR",CR,257,2942,2,40,41671,1854,12,13234,46,3732,17048
"Apteka Medkon",PL,254,7755,443,443,32015,4639,16,4629,928,1736,7341
"Azbuka Vkusa RU",RU,254,10034,31,276,21127,1217,38,1640,1045,120,2876
"La Comer MX",MX,254,165,38,165,22343,3941,15,370,425,166,988
Wapteka,PL,252,18835,1304,1362,64580,42902,6,3804,733,753,5361
"Rappi - Exito CO",CO,250,18997,1313,1524,59155,4881,147,10177,16992,169,27518
"Supermarket AM",AM,249,6682,24,102,16742,0,17,997,239,2,1289
"Szybki Koszyk",PL,247,4260,5,98,14498,644,117,620,49,42,859
"Merqueo - Bogota CO",CO,246,2408,19,226,5466,2648,11,203,124,114,460
"Helpnet RO",RO,245,6797,26,265,19190,5133,9,1990,221,385,2630
"Lisek App",PL,241,439,177,211,904,1155,10,16,103,254,406
"Olimpica CO",CO,241,10109,10,395,38658,2673,14,1908,1025,204,3190
"Delitea SE",SE,239,9372,449,449,22777,5670,9,180,202,83,498
"Farmatodo CO",CO,238,13313,7,3647,60909,3873,13,649,4562,69,5341
"Carrefour BR",BR,237,8733,5,37,43521,0,17,8075,95,0,8231
"Afya Pharmacy BG",BG,234,10217,8,171,32009,1844,18,2322,210,364,2937
"Rappi - Carulla Express CO",CO,231,12449,1411,1741,30757,1517,128,7619,15450,77,23301
"Metroiroda HU",HU,229,3338,6,244,6733,1231,6,685,440,122,1257
"Перекрёсток Впрок RU",RU,229,16033,66,585,34801,2764,17,1210,547,80,1933
"Linio CL",CL,228,47415,244,518,79965,0,117,671,828,0,1748
"Dunnes IE",IE,227,13735,7,787,20523,13320,4,577,1137,517,2286
"Benu HU",HU,221,4981,0,346,15336,2751,3,2188,420,415,3039
"Rappi - Carulla CO",CO,220,14486,2183,2472,44807,4756,100,8992,19715,170,28999
"Getir IT",IT,219,1710,19,59,4907,7697,8,121,36,127,298
"Superpharm Apteka",PL,214,543,23,543,30504,25602,9,738,1165,350,2298
"Igooods RU",RU,213,16462,151,593,35901,454,15,289,348,18,752
"MaxiCoffee FR",FR,211,5353,19,137,13200,1580,444,819,544,275,2093
Cocolita,PL,208,10950,21,708,47171,16141,13,1977,1671,1512,5228
"Vodovoz RU",RU,207,1119,12,28,2300,0,17,516,57,1,598
"Yandex Market RU",RU,207,41756,1266,1572,53333,0,17,2706,4929,136,7924
"Subra BG",BG,206,8560,2,144,23185,4853,21,299,84,690,1145
"Pyaterochka App RU",RU,204,5531,8,308,14006,1250,16,301,150,15,514
"Minifarm RO",RO,203,4874,7,117,13018,531,27,853,121,253,1278
"Panda Market HU",HU,202,2541,5,168,6394,1058,4,217,82,108,417
"Emag HU",HU,199,111976,941,2100,112008,7157,6,1597,2611,191,4557
"Rappi - Exito Express CO",CO,199,12362,955,1363,31645,1115,94,8351,18521,80,27067
"Rappi Lider CL",CL,197,16800,9163,9363,76033,3114,13,5310,12412,84,17887
"Утконос RU",RU,195,0,0,0,0,1394,40,2424,1,64,2529
"Exito CO",CO,192,9428,25,640,38024,1473,200,3103,1512,193,5046
"Merqueo - Medellin CO",CO,189,995,4,75,2166,1039,15,135,39,49,242
"Deliberry - Caprabo ES",ES,184,8543,0,0,9657,0,21,1133,90,0,1252
"Rappi Turbo CL",CL,182,0,0,0,0,589,163,500,18,50,731
"Deliberry - Solri ES",ES,178,9124,0,0,10235,0,19,1124,65,1,1218
"Coursesu FR",FR,177,4288,46,92,7690,1389,29,2055,270,385,2746
"Disco AR",AR,177,6364,3,330,25348,1523,121,2131,1230,86,3587
"Tiendas Jumbo CO",CO,176,15908,10,683,64175,2774,14,1334,963,104,2487
"Deliberry - Mercadona Barcelona ES",ES,175,5718,0,0,6855,0,16,1092,1680,1,2795
"Deliberry - Mercadona Madrid ES",ES,173,5651,0,0,6764,0,17,1054,1760,1,2837
"Linella MD",MD,173,6235,0,0,11195,0,22,272,80,2,419
"PennyDomu CZ",CZ,173,1627,1,1,4550,0,162,242,4,1,414
"Rappi Carrefour AR",AR,172,5360,28,245,9663,2049,89,1241,785,54,2180
"Rappi Jumbo CL",CL,172,15927,5501,5622,55161,3636,12,4675,6295,84,11115
"Rappi Turbo CO",CO,168,2224,199,263,9624,2654,172,6962,907,220,8268
"Rappi Unimarc CL",CL,168,12072,533,759,23140,3332,10,2722,1513,85,4359
"Deliberry - Supercor ES",ES,161,4086,0,0,5010,0,15,986,22,1,1028
"Everli - Coop IT",IT,160,12104,16,272,13261,7497,39,833,290,837,2013
"Professional Farmaline RO",RO,155,8322,7,121,17673,5344,8,589,86,114,835
"Auchan FR",FR,154,1577,11,86,5275,603,176,290,84,154,713
"Dirck3 NL",NL,151,538,0,24,2518,144,10,113,12,27,168
"Rappi Coto AR",AR,150,10307,1592,1832,22674,1866,83,2335,3435,59,5934
"Rappi - Pricesmart CO",CO,149,1772,18,24,4845,3054,104,2663,1102,169,4042
"Deliberry - Dia ES",ES,143,4171,0,0,5032,0,17,934,2,1,960
"Deliberry - La Plaza ES",ES,143,4250,0,0,5109,0,17,930,128,1,1079
"Rappi Turbo PE",PE,143,1165,29,30,4061,1713,168,2118,100,103,2493
"Everli - Metro IT",IT,142,2477,0,59,3302,1498,33,274,65,463,840
"Superxtra PA",PA,139,6477,0,0,13685,0,68,71,3,1,157
"Medexpressz HU",HU,137,1364,0,85,2922,0,4,298,52,2,359
"Nazuby CZ",CZ,135,1737,1,70,5956,161,6,178,34,15,239
"Alkohol CZ",CZ,131,4549,55,75,12700,0,18,1212,58,1,1302
"Extra BR",BR,128,77159,18,189,77159,0,40,1080,166,16,1401
"Ozon RU",RU,127,55942,1993,2187,76456,812,652,4592,2625,1354,9464
"Automercado CR",CR,125,11962,13,67,18673,0,75,1960,173,7,2231
"Condis ES",ES,121,6593,10,14,6982,0,5,190,29,2,238
"Cora Drive BE",BE,121,13967,5793,5807,91672,4560,11,3934,7046,1274,12323
"Amazon Fresh DE",DE,112,10409,2061,2071,14696,6480,522,10378,2545,110,13565
"Rappi Farmacity AR",AR,112,6567,965,1022,19321,1900,109,3031,4114,76,7345
"Mercado Libre CL",CL,109,48215,506,1074,64907,2292,123,606,549,151,1520
"Vea Digital AR ",AR,104,2285,0,193,9134,1150,119,1197,2803,82,4209
"Savage & Whitten IE",IE,100,3667,152,152,7334,925,10,348,72,73,528
"Vitania BG",BG,98,7226,7,150,7226,4276,14,392,83,254,769
"Farmacity AR",AR,97,287,5,287,6052,1230,9,304,142,58,515
"Everli - Kaufland",PL,94,0,0,0,0,0,41,0,0,0,41
"Everli - Lidl",PL,91,0,0,0,0,0,50,0,0,0,50
"Kaufland DE",DE,90,30834,252,490,38436,733,66,761,323,39,1229
"PriceSmart PA",PA,90,1653,4,33,19111,1019,12,4122,27,339,4510
"Koffievoordeel NL",NL,89,479,5,50,2851,1289,9,544,55,29,641
"PriceSmart GT",GT,87,1558,7,23,12712,2390,11,4010,27,524,4579
"Kaffedeal DK",DK,84,379,0,38,958,873,10,54,19,45,129
"Brack CH",CH,80,8430,49,149,21107,1786,76,302,180,190,794
"Comfandi Supermercados CO",CO,72,4488,254,254,9050,764,11,1575,700,234,2527
"Durst DE",DE,69,1123,69,1123,1192,0,4,21,22,4,55
"Droguerias Cafam CO",CO,68,4466,1232,2984,11409,2306,23,735,5743,103,6612
"Media Markt DE",DE,68,1270,9,48,3226,302,367,2217,172,189,2950
"Rappi Cruz Verde CL",CL,66,4553,1679,1833,30148,3195,10,1880,3506,84,5504
"Rozetka UA",UA,62,70636,2338,2627,90577,0,138,5590,980,1,6955
"Kaffekapslen DK",DK,61,787,34,60,1814,1502,87,84,64,185,421
"PedidosYa DIA AR",AR,61,2331,16,132,2331,662,7,63,59,22,157
"Emag RO",RO,60,58681,189,666,58688,5127,12,1243,1067,203,2646
"Comfandi Droguerias CO",CO,56,4438,2427,2427,8784,1828,10,1096,5477,321,6911
"Kapselkongen DK",DK,54,250,0,53,501,644,31,54,63,45,194
"iDrinks HU",HU,53,6597,164,183,14433,253,4,1320,203,51,1600
"Expert DE",DE,51,920,3,4,985,0,128,90,333,13,568
"PedidosYa Carrefour AR",AR,48,3996,4,148,3996,977,6,59,69,23,164
"Jumia EG",EG,47,2388,4,27,4685,23,51,150,20,23,247
"BilkaToGo DK",DK,37,9947,19,178,54561,1726,15,148,167,37,440
"Datart CZ",CZ,37,1001,3,14,1387,1338,5,174,9,78,268
"Altex RO",RO,36,1606,13,147,3178,1826,10,201,269,141,627
"Ep DE",DE,36,200,3,8,644,0,78,126,18,0,224
"Bol NL",NL,35,203,164,225,27413,2358,38,1817,515,547,2938
"Saturn DE",DE,34,657,1,8,1378,391,207,687,31,2131,3059
"Winelivery IT",IT,34,1376,5,25,2888,0,3,187,16,2,212
"Galaxus CH",CH,33,8460,55,132,8460,1007,27,1860,121,1238,3265
"Kesko FI",FI,31,4336,0,0,61100,8641,546,1131,1,1205,2929
"Avansas TR",TR,28,639,0,2,682,0,7,29,5,1,48
"Carrefour FR",FR,24,11031,32,289,16777,1533,6,961,901,524,2415
"Shoplink IE",IE,20,147,0,122,441,1763,29,49,81,103,263
"Boulanger FR",FR,17,951,1,47,2199,380,26,142,116,154,440
"Euronics DE",DE,15,9555,23,189,37703,0,45,1067,39092,1,40237
"Qvc US",US,14,15697,99,140,17222,0,23,154,538,1,745
"BCC NL",NL,11,1792,2,29,2370,657,6,156,31,56,254
"El Corte Ingles ES",ES,11,3919,9,148,5101,677,59,304,908,101,1380
"Leclerc FR",FR,10,230,19,59,440,782,24,441,2691,1059,4219
"Wildberries RU",RU,10,57662,1044,1941,59702,1620,10,225,1296,55,1956
"Intermarche FR",FR,8,439,0,114,849,854,7,24,233,265,532
"Americanas BR",BR,6,5045,10,10,23700,0,2929,613,165,1,3733
"Unieuro IT",IT,6,1663,12,12,2077,1152,4,12,8,63,95
"Barrys Beacon IE",IE,4,155,6,122,155,392,6,37,63,97,204
"Musgrave IE",IE,3,0,0,0,0,4017,3,23,1,1199,1227
"Alcampo ES",ES,0,0,0,0,0,555,26,18,12,185,241
Allegro,PL,0,2099,0,1609,0,0,0,0,47702,0,47702
"Apteka Galen",PL,0,0,0,0,0,3203,74,3,1,1034,1152
"Carrefour AR",AR,0,0,0,0,0,512,216,2,0,43,261
"Chedraui MX",MX,0,0,0,0,0,0,8,21,1,66,96
"Cruz Verde CO",CO,0,0,0,0,0,0,6,31,3,45,86
"Dia AR",AR,0,0,0,0,0,0,7,32,1,109,149
"Drogas La Rebaja CO",CO,0,0,0,0,0,0,26,3551,1,142,3720
"Easy CL",CL,0,0,0,0,0,0,2,52,6,8,68
"Elefant RO",RO,0,0,0,0,0,2012,384,7,1,92,484
"Mediaworld IT",IT,0,0,0,0,0,0,31,1,2,243,277
"Merqueo - Cali CO",CO,0,0,0,0,0,0,3,38,1,131,174
"Metro Delivery RU",RU,0,0,0,0,0,0,270,4,2,287,563
"Okey RU",RU,0,0,0,0,0,0,11,62,2,307,383
"Rappi Turbo AR",AR,0,0,0,0,0,1466,26,14,23,194,257
"Samokat RU",RU,0,0,0,0,0,0,8,69,1,36,115
"Sodimac CL",CL,0,0,0,0,0,0,25,63,2,1,91
"Tottus CL",CL,0,0,0,0,0,2001,7,66,1,52,126
