﻿Site,Country,Categories,Prices,"Products changed","Products downloads",Relations,Search,"Categories time","Prices time","Products time","Search time","Total time"
"Pilulka CZ",CZ,12633,29820,446,462,1259664,21983,12058,19693,1070,638,33850
"Ocado UK",UK,6463,46287,121,2669,437560,42321,1525,11548,4574,2071,19946
"Mytime DE",DE,5435,11036,26,332,106277,2928,2444,3018,155,162,5836
frisco,PL,4701,15475,2,382,284572,96735,37,11998,8054,2490,22744
"Pilulka SK",SK,4549,25491,180,390,342411,9931,2408,5526,276,218,8554
"Samokat RU",RU,3531,6225,44,216,77021,15,33,75,240,13,415
"Albert Heijn NL",NL,3496,21393,12,238,107470,4307,457,1565,32,81,2203
"Morrisons UK",UK,3283,21074,194,2172,98680,32721,679,5860,3759,2183,12556
"Asda UK",UK,3187,28120,129,2321,841575,41151,9,9767,1265,1155,12628
"Waitrose UK",UK,3088,16572,39,1189,1516375,34256,25,24427,862,875,26945
"Albert Heijn BE",BE,2941,10260,84,170,52822,6216,412,1277,27,122,1875
"Rohlik CZ",CZ,2736,23656,950,960,210797,13134,2241,3904,683,648,7596
"Coto Digital AR",AR,2600,16919,326,640,90841,1208,1711,4079,471,40,6350
"Drogeo CZ",CZ,2518,617,46,617,122185,26284,19,2531,389,632,3634
"Galen BG",BG,2483,12331,18,186,87151,2740,1288,2144,165,60,3718
"Kosik CZ",CZ,2483,15369,69,771,87211,28172,457,1570,369,861,3307
"Amazon Fresh UK",UK,2440,8678,702,702,50400,16826,2860,1839,375,331,5434
"Sainsburys UK",UK,2242,30993,53,2529,1722729,85695,227,27394,2240,1866,32686
"Notino SK",SK,2140,2538,1715,2538,110275,136,971,5793,3200,16,10115
"Amazon UK",UK,2093,1986,5435,5447,570381,38711,2801,26292,0,7934,37027
"Amazon Fresh IT",IT,2078,7381,885,890,35683,2352,3800,1204,632,330,5981
Auchan,PL,2071,13207,462,1192,240380,24790,19,7609,1048,3171,11998
"Drogerie Natura",PL,1979,20090,36,517,88749,37581,44,3331,828,1572,5904
"Brakes UK",UK,1895,9298,17,218,27938,30959,861,1802,106,322,3134
"Auchan HU",HU,1885,35188,76,2379,369322,11560,4,12321,1786,526,14835
"Jumbo NL",NL,1873,18892,45,308,73501,4350,1351,2112,287,151,3946
"Notino CZ",CZ,1760,3649,2578,3649,108552,25156,789,6007,4227,1018,12192
"Yuga RO",RO,1680,10035,2,48,50489,511,1539,3566,2372,49,7559
"Cefarm 24",PL,1644,13447,68,983,100032,14143,2162,3808,1311,4861,12195
"Alcampo ES",ES,1627,17341,263,810,61124,440,5271,8608,1929,483,16330
"Delhaize BE",BE,1557,14128,31,410,59686,15229,9,3322,261,418,4049
"Otto DE",DE,1524,177,79,189,64624,828,726,948,355,32,2093
eZebra,PL,1320,41133,44,502,145149,31104,17,5887,3446,2761,12229
"Picnic NL",NL,1291,6861,10,92,16256,2201,609,1115,45,77,1860
"Kifli HU",HU,1278,15082,146,1708,62189,10052,611,606,774,393,2414
"Tesco UK",UK,1273,29181,122,2769,340279,25395,7,11980,1362,8071,21691
"Barbora EE",EE,1255,11906,97,174,43653,1226,38,1295,82,69,1505
"E-Fresh GR",GR,1235,12734,84,763,65781,6189,2335,4453,1591,635,9051
"Apteka Manada",PL,1225,14611,304,1318,44339,30789,25,4435,2767,2252,9518
"Apteka Nowa Farmacja",PL,1217,15154,73,963,71134,20460,9453,2327,884,1301,14001
"Coop CH",CH,1197,17820,104,400,63820,1915,283,2053,908,210,3494
"Amazon DE",DE,1168,260,6279,6280,807672,15027,2927,10769,0,4993,18689
"Lekarna CZ",CZ,1138,28703,85,532,127672,4582,652,3559,399,187,4869
"Moja Lekaren SK",SK,1135,24403,87,329,107788,4291,646,3005,224,189,4125
"Barbora LT",LT,1132,12120,33,130,40729,1292,26,1037,66,150,1298
"S-kaupat FI",FI,1130,39379,0,0,346387,4842,4,2920,18684,94,21883
"Mall CZ",CZ,1111,11068,677,11066,132637,13346,739,2567,12446,11577,27583
"Barbora LV",LV,1083,10822,77,286,39211,1253,34,1299,137,96,1585
Hebe,PL,1059,841,196,841,114188,26454,550,1903,1186,548,4323
"Carrefour BE",BE,1055,11893,27,325,42002,21453,981,13291,404,3208,17928
"SberMarket - Metro RU",RU,1049,7154,98,384,46397,626,13,1950,3442,131,5576
"Mathem SE",SE,1038,13365,86,582,36170,7631,14,1108,813,488,2448
"Coop NL",NL,1036,17307,3,102,73351,914,898,2965,215,64,4189
" SberMarket - Lenta RU",RU,1029,8536,223,598,54396,552,13,2052,5775,156,8025
"Eroski ES",ES,1009,23969,153,366,49536,495,17,3216,225,39,3527
"Salcobrand CL",CL,1005,6575,120,6574,29781,1147,332,617,3335,15,4317
"Knuspr DE",DE,1001,10950,62,254,41393,1261,471,469,119,166,1258
"Remedium BG",BG,998,27479,49,267,85256,701,230,7734,627,109,8755
"Amazon IT",IT,991,538,538,538,409439,5650,0,0,0,350,350
"Picnic DE",DE,981,7078,13,162,14210,1846,451,849,72,165,1576
"Alza CZ",CZ,979,24085,3902,4210,92024,20416,165,1319,339,805,2809
"Auchan RO",RO,971,22425,54,574,95134,7550,22,1023,349,138,1609
Selgros,PL,951,22620,76,1150,79026,25850,431,921,520,1447,3437
"Vkusvill RU",RU,951,11547,1097,1097,46935,1070,82,1359,1069,59,2607
"Coop Shop IT",IT,932,10348,2,273,30991,5404,4,719,197,373,1310
"Coop SE",SE,926,10050,10050,10050,34089,8112,15,906,4693,209,5845
"Magnit App RU",RU,899,3895,116,134,10691,0,5,2045,107,1,2169
"Dr Max SK",SK,877,19101,355,355,82517,5071,505,3556,381,240,4727
"Tigros IT",IT,859,9980,24,608,30287,6453,3,491,356,231,1101
"Unipatika HU",HU,853,4359,7,301,31004,4657,435,894,158,199,1699
"SuperValu IE",IE,844,16730,8,995,227388,11151,875,16631,1109,585,19367
"Superpharm Drogeria",PL,815,744,84,744,86723,32699,14,2332,1295,372,4281
"Wong PE",PE,811,21335,214,420,52616,0,4,2139,329,1,2498
"Polski Koszyk",PL,803,19639,12,878,64597,8609,13,823,572,481,1968
"Pilulka RO",RO,793,40117,94,271,150202,3564,505,2606,430,134,3781
"Tesco IE",IE,780,17133,53,899,418980,4359,11,12056,308,706,13290
"Superdrug UK",UK,774,15635,34,290,44451,7355,11,869,1267,461,2644
"Coop DK",DK,750,11103,487,528,91571,1164,348,3325,399,39,4175
"Auchan RU",RU,749,20987,252,1600,67666,350,12,1463,1354,10,2903
"eZiko Apteka",PL,732,6967,65,595,40594,19090,320,1642,288,947,3227
"Intervare DK",DK,731,9090,8281,8372,26527,0,7,325,3715,110,4174
"Masxmenos CR",CR,730,8736,0,3,23830,0,18,2174,62,0,2265
"Walmart CR",CR,730,13829,4,15,177305,0,8,7062,36,1,7184
"Bringmeister DE",DE,729,15467,61,486,40351,5429,11,597,219,143,1002
"Sklavenitis GR",GR,727,10009,20,319,30025,5850,110,1229,162,334,1869
"Apteka Gemini",PL,713,25923,208,1456,89397,54151,11,2701,720,654,4163
"Dr Max CZ",CZ,703,21300,413,414,89463,7789,603,4621,597,393,6264
"Rimi LV",LV,703,15070,2,101,44329,5308,7,1114,173,158,1473
"Gurkerl AT",AT,700,9939,191,194,35557,3086,384,328,89,102,924
Barbora,PL,698,7674,20,609,65615,5764,23,1714,333,926,3051
"Tesco CZ",CZ,694,17474,39,1209,580549,17124,7,11459,623,2407,14787
"Walmart AR",AR,692,0,0,0,0,0,496,1171,0,21,1690
"Tottus CL",CL,691,0,72,1409,0,1078,3,485,666,24,1178
"Rimi EE",EE,689,12644,15,97,37110,3750,7,1107,172,160,1462
"Bennet IT",IT,676,18683,21,483,37615,14849,4,1219,224,468,1941
"Drogas La Rebaja CO",CO,674,11868,406,3870,346877,6628,64,11655,5037,453,17330
"Maxi RS",RS,661,7993,29,178,26371,5904,6,408,83,95,604
"Hoogvliet NL",NL,660,9023,43,129,15430,1859,52,537,133,65,807
"Mat SE",SE,660,10733,144,371,32947,11768,2244,295,497,192,3246
"Poiesz NL",NL,658,8297,0,12,10533,134,13,533,2544,9,3111
"DOZ.pl",PL,650,15195,65,1345,60972,46474,354,1775,738,1566,4489
"City Gross SE",SE,648,12825,4,535,27265,8685,11,419,261,364,1079
"Rossmann DE",DE,648,15399,37,355,53530,445,625,1170,338,19,2192
"Crai Spesa Online",IT,647,446,439,446,26904,6516,457,1295,820,977,3561
"Rimi LT",LT,642,14708,16,91,44156,3384,7,1046,152,113,1337
"Tesco SK",SK,633,16101,1,70,233590,211,14,4031,48,22,4259
"DM SK",SK,631,12528,20,46,36010,2164,2,1167,32,45,1264
"Esselunga A Casa IT",IT,625,14905,19,658,44480,14764,12,4039,1088,1154,6319
Apteline,PL,610,989,22,989,82682,15060,459,1341,681,473,3149
"E.Leclerc Bielany",PL,608,29037,113,2633,91585,34248,47,3568,1193,20504,25386
"Vasalekaren SK",SK,605,9955,96,221,66597,3647,1427,9782,535,641,12410
"Tesco HU",HU,603,15725,58,2390,884376,9531,6,16331,1361,1642,19799
Amazon,PL,600,412,408,411,816171,17835,0,0,0,321,805
"Apteka Galen",PL,590,8743,1,310,40659,3377,14,1570,251,273,2152
"Thanopoulos GR",GR,590,15956,44,388,53563,9094,9,4664,471,684,5864
"Willys SE",SE,588,10697,13,469,35374,6882,8,342,224,227,825
"Pingvinpatika HU",HU,586,7351,7,318,39946,2854,5,4914,610,302,5858
"Nuko LV",LV,584,8027,331,331,35271,0,444,611,546,1,1619
"Bestway Foodservice UK",UK,582,11055,17,301,35085,4719,299,459,195,112,1084
"Bestway Best-one UK",UK,576,6783,20,97,22090,12577,302,378,61,325,1092
"Bestway UK",UK,576,10253,55,763,32957,30629,290,435,372,679,1795
"E.Leclerc Wroclaw",PL,571,15668,241,1261,15913,13529,483,1893,1962,6639,11029
"Spar HU",HU,570,13871,997,2133,180108,11200,6,9026,19241,331,28682
"Dr Max",PL,569,13265,1036,1036,50599,23804,302,2433,1164,810,4765
"Plus NL",NL,566,15942,0,0,30565,0,34,1936,1848,1845,5713
"Zakaz - Metro MD",MD,566,11325,77,122,19319,0,7,1357,642,1,2024
"Benu CZ",CZ,565,14190,36,411,64421,5541,5,6932,427,74,7470
"AB GR",GR,563,11670,36,418,34984,6943,7,1150,218,160,1581
"Easy Coop IT",IT,563,9895,41,705,36377,17360,3,247,8750,287,9306
"Kritikos GR",GR,558,16128,35,345,45565,0,8,17,157,7046,7273
"Alza SK",SK,556,10223,56,197,44046,2464,83,362,54,78,597
"DM HU",HU,556,11788,47,763,32516,9495,3,1075,653,165,1912
"Apteka Melissa",PL,552,27202,1319,1319,78489,51455,17,5534,801,758,7162
"Freshful RO",RO,551,20684,40,159,42210,322,8,886,76,12,1045
Spar,PL,547,24582,1711,2087,721084,84714,48,12777,1041,2519,16772
"Sok FI",FI,545,9684,15,321,36980,3237,68,1104,703,294,2190
"DM CZ",CZ,542,11552,46,878,31861,21111,5,1080,772,366,2246
"E.Leclerc Rzeszów",PL,539,13242,51,1587,38874,37186,30,692,633,1116,2540
"Chronodrive FR",FR,538,8529,111,172,17007,2146,12,380,123,42,568
"Yandex Lavka RU",RU,538,2965,76,261,4080,2250,110,837,313,82,1354
"MyMarket GR",GR,537,15229,296,854,54243,5688,6,1801,1331,366,3542
"Ebag BG",BG,536,11572,128,203,40144,1473,8,1083,128,28,1281
"Carrefour ES",ES,532,14846,52,348,16687,606,25,2058,662,249,3013
"Jumbo CL",CL,528,20347,149,1917,586205,1376,3,7774,1390,93,9509
"Univerexport RS",RS,528,9639,12,131,19278,1133,12,556,140,220,941
"Metro RU",RU,518,19303,92,752,22730,39,7,1841,788,17,2700
"Drogeria Olmed",PL,511,0,413,517,129838,20555,12,7286,206,2146,9703
"Apteka Zawiszy",PL,507,19370,111,914,76713,9838,242,793,475,248,1836
"Hemkop SE",SE,504,10773,11,504,33650,7168,9,291,234,221,781
Rossmann,PL,502,773,53,773,80059,25128,11,1049,1220,561,2928
"Cold Storage SG",SG,498,9231,1,33,28995,0,537,2730,40,1,3315
"Colruyt BE",BE,496,6286,11,223,75018,14446,12,11838,8588,2028,22549
Intermarche,PL,496,18181,10,2245,165620,20127,12,3278,1072,1578,6200
"Interspar AT",AT,490,21277,34,243,66315,6150,7,833,340,146,1370
"Spar SI",SI,487,17663,108,334,64584,2218,9,3110,385,66,3613
"Migros Online CH",CH,485,12685,101,128,38042,1412,17,657,92,66,855
"Mega Image RO",RO,483,13076,3,328,39958,9740,8,739,154,143,1088
"Benulekaren SK",SK,477,8994,10,290,47156,6080,4,3826,224,116,4195
"Famila a casa IT",IT,477,12401,13,160,28766,5418,812,1502,1362,266,3963
"Idea RS",RS,476,12033,12,237,20341,6432,89,518,110,98,834
"E.Leclerc Radom",PL,472,14033,526,1307,44235,12271,40,3041,638,1679,5643
"e-Dostavka BY",BY,471,23841,623,754,67106,2754,6,4428,377,224,5106
"GPSfarma AR",AR,465,5766,26,453,16823,1157,4,1386,390,162,2007
"Carulla CO",CO,464,10983,85,558,61395,4189,22,2104,458,219,2855
"Basko IT",IT,463,8459,0,439,25862,831,2,264,730,35,1047
Ceneo,PL,463,190717,6609,8760,257243,27581,834,2858,3154,548,7625
"Cornershop - Lider CL",CL,459,20724,6,1772,125019,1353,4,1164,634,62,1995
"Apteka Olmed",PL,457,2,139,1144,146127,18946,8,8746,572,1728,11115
Aptelia,PL,454,670,147,670,61031,9910,202,1874,315,319,2745
"MegaMarket RO",RO,447,5543,0,9,6652,569,11,1334,16,195,1565
"Feedo CZ",CZ,442,834,777,834,57804,542,186,1496,1242,30,2977
"eTabletka SK",SK,437,11312,10927,11312,76068,6141,324,6646,14350,91,21450
"Lopido CO",CO,433,10099,29,153,17819,569,6,7642,974,56,8688
"Unimarc CL",CL,432,10414,29,161,30828,0,4,3679,389,1,4087
"E.Leclerc Lublin Turystyczna",PL,430,13761,37,1370,16731,14960,11,455,1143,2367,4004
"Ecofamily HU",HU,428,6063,24,957,20530,4210,2,1990,8431,605,11052
"Lider CL",CL,428,11869,81,2884,233681,1134,6,11102,5511,86,16823
Stokrotka,PL,427,7300,17,118,172263,961,19,2415,68,59,2893
"Patika24 HU",HU,426,5162,24,292,15802,4426,3,602,344,102,1059
"Dr Max RO",RO,419,12809,417,417,40993,6062,236,1586,434,204,2507
"E.Leclerc Katowice",PL,418,10952,61,1304,11485,13176,292,1359,2077,6613,10503
"Kruidvat NL",NL,408,0,0,0,0,0,167,674,0,95,939
"Teta Drogerie CZ",CZ,398,8968,7,455,26195,6871,4,745,376,161,1304
"Apteki 36.6 BG",BG,394,10098,1,148,47230,683,7,1442,84,50,1628
"Dia AR",AR,394,4007,6,181,12437,554,12,477,218,17,730
"OnlinePrima HU",HU,394,7491,4,1101,23018,6176,3,589,724,193,1519
"Unimarkt AT",AT,394,3314,158,406,15620,3098,163,327,496,317,1313
"Cruz Verde CO",CO,390,4194,15,2587,25147,1192,67,1742,1187,93,3103
"Cornershop - Jumbo CL",CL,388,26098,18,562,133512,1349,7,859,259,63,1284
"DrankDozijn BE",BE,381,3531,18,100,14337,2294,5,641,158,590,1408
"DrankDozijn NL",NL,381,3531,18,105,14337,245,5,626,165,59,870
"Billa AT",AT,372,9023,135,306,28962,6231,5,423,718,167,1333
"Bringo RO",RO,371,32131,498,31762,53738,9998,23,1463,767,609,2934
"Walmart GT",GT,371,8639,9,15,151601,0,15,5880,83,1,6053
"Carrefour IT",IT,370,13159,256,826,38641,11552,21,353,388,362,1149
"Majestic UK",UK,369,1300,1,64,16868,1141,197,1810,113,136,2266
"Iceland UK",UK,367,5510,16,326,26172,16018,9,2096,599,1444,4160
"Istegelsin TR",TR,364,5002,10,117,11377,0,14,166,56,1,245
"Świat Leku",PL,362,11483,11,352,34421,1847,155,1309,250,183,1936
"Ulabox ES",ES,357,6083,1,5,12786,0,5,236,28,1,324
"Ica New Version SE",SE,354,5726,5568,5580,108451,5519,7,1703,2508,246,4521
"Farmacia Tei RO",RO,351,23616,381,391,25116,5416,7,630,191,229,1088
"Mercado Libre AR",AR,350,30728,599,1614,65715,712,194,718,1601,74,2622
"Jumbo AR",AR,349,10318,63,569,57141,742,4,2355,307,30,2724
"E.Leclerc Lublin Tomasza Zana",PL,348,10829,31,1386,13827,11138,9,513,683,1496,2723
"Ica SE",SE,345,11506,15,661,701470,12099,6,21817,333,209,22759
"E.Leclerc Elblag",PL,339,10658,29,1133,29409,16918,23,1342,942,1921,4263
"Globus RU",RU,339,14188,340,344,50248,37,5,2129,218,8,2406
"Elefant RO",RO,338,966,1034,1034,109536,2044,101,995,525,20,1702
Allecco,PL,336,11490,22,708,39479,10534,19,594,339,179,1165
"Amazon NL",NL,335,0,3010,3010,110037,0,0,0,0,206,206
"Ulta US",US,335,20,18,20,100153,0,2,287,22,0,340
Carrefour,PL,330,16040,32,2523,125481,33298,137,2313,1560,2304,6492
"Bebe Tei RO",RO,325,25062,90,242,25062,3495,11,813,152,206,1235
"Mpreis AT",AT,325,7792,1,119,27447,4112,343,771,203,90,1428
"Roastmarket DE",DE,316,101,31,101,32843,396,17,453,1373,16,1876
"Sipo HU",HU,306,4497,168,168,10242,1307,5,465,87,140,704
"SOpharmacy BG",BG,301,9612,47,197,30078,3515,353,834,241,119,1580
DoDomku,PL,300,6083,140,533,17941,1929,37,204,288,302,839
"Bipa AT",AT,298,10122,107,107,22156,540,11,257,163,20,470
"Mall SK",SK,296,2725,118,2725,26824,827,322,732,5163,746,6987
"E.Leclerc Gdansk",PL,295,7987,92,1019,21959,9337,21,1040,810,1644,3558
Makro,PL,295,3191,0,528,8723,30467,3,546,245,1483,2290
"Apteka Nove BG",BG,293,11634,52,150,40342,3391,362,1666,249,120,2427
"Cora RO",RO,293,41973,139,386,83069,6272,7,5096,418,730,6308
"Rappi - Carulla CO",CO,293,16200,6148,6483,62605,8875,3,6194,13081,253,19558
"Cornershop - Santa Isabel CL",CL,291,6925,9,337,8576,1026,4,500,479,50,1040
"Tudrogueria Virtual CO",CO,291,8693,50,4097,16744,490,3,350,1885,25,2276
"Rappi - Exito CO",CO,289,22687,10451,10957,91304,9000,4,6370,18326,256,24997
"Rappi Lider CL",CL,288,15003,10793,11086,87876,1298,3,7693,15290,32,23062
"Merqueo - Bogota CO",CO,286,3139,15,268,7588,5362,2,225,126,199,556
"Apteka Medea BG",BG,284,8709,13,179,26566,0,3,1566,260,1,1857
"E.Leclerc Tychy",PL,283,9130,10,1170,9339,11592,54,288,545,2029,2936
"Sephora US",US,283,353,331,353,124991,0,6,796,161,73,1070
"Rappi - Carulla Express CO",CO,282,14316,5056,5722,51361,8673,3,5907,10796,248,16979
"i-apteka",PL,282,9606,709,804,20633,5891,4,525,850,411,1823
"Azbuka Vkusa RU",RU,277,12922,29,329,25229,204,12,2079,1144,26,3289
Makeup,PL,277,5222,3481,5222,413402,55045,6,8729,2156,874,11938
"Argos UK",UK,273,5847,11,2901,8258,0,3,498,15523,1,16034
Empik,PL,273,101486,961,1485,233556,25052,96,2524,903,171,4459
"PriceSmart CR",CR,273,3561,12,12,51956,0,3,9588,18,1,9633
"Groby HU",HU,267,8277,7,527,21922,3558,4,1158,673,261,2107
"E.Leclerc Gliwice",PL,262,7807,13,748,21456,7874,21,976,573,1240,2842
"Rappi Jumbo CL",CL,262,15405,12130,12324,64407,1392,3,6935,13898,31,20909
"Farmacia la Pret Mic RO",RO,258,7974,12,240,24216,4172,22,1900,392,852,3191
"Rappi - Exito Express CO",CO,255,18447,2981,3601,47322,7104,3,5366,7914,246,13556
"Apteka Medkon",PL,254,5160,376,376,21627,8311,10,3733,818,1312,5892
"Delitea SE",SE,254,9761,135,366,23375,5506,5,173,206,84,491
"Dunnes IE",IE,254,14223,17,827,31408,11198,4,909,796,436,2166
"Rappi Unimarc CL",CL,254,12107,4063,4317,28804,1274,3,4074,5026,32,9154
Wapteka,PL,252,17624,934,1272,61450,34060,7,2848,414,626,3962
"Supermarket AM",AM,250,7616,51,69,19871,0,6,947,149,0,1116
"Edeka DE",DE,248,3426,3334,3425,4642,92,7,209,2430,117,2771
"Olimpica CO",CO,247,11235,50,200,47048,0,2,1945,707,1,2699
"Afya Pharmacy BG",BG,246,8853,5,156,27711,715,6,2559,319,236,3137
"Helpnet RO",RO,245,6766,77,347,19087,2443,6,1863,283,181,2350
"Szybki Koszyk",PL,240,4201,8,117,14489,1374,101,1087,109,100,1409
"Farmatodo CO",CO,238,12619,60,3703,55929,5305,7,693,6358,95,7187
"Rappi Santa Isabel CL",CL,235,5515,15,144,6721,784,2,1208,3060,31,4305
"Metroiroda HU",HU,231,3580,2,250,7208,1338,3,684,416,149,1257
"MaxiCoffee FR",FR,228,4318,80,122,8850,1021,433,589,526,149,1702
"Linio CL",CL,227,46858,182,2627,70815,0,106,676,999,1,1853
"Disco AR",AR,226,7605,55,548,29879,978,88,2928,1478,38,4549
"Merqueo - Medellin CO",CO,225,2534,0,238,5522,4903,2,174,111,188,479
"Kesko FI",FI,218,0,0,0,222908,0,0,0,0,0,0
"Lisek App",PL,217,1813,3,19,2121,0,4,9,10,180,210
"Coop UK",UK,214,9794,0,825,218177,19218,2,2097,407,645,3267
"Перекрёсток Впрок RU",RU,213,15840,117,1075,36137,2917,8,2821,2694,282,5847
"Booker Foodservice UK",UK,212,11914,15,1895,22303,3550,127,459,878,119,1598
"Superpharm Apteka",PL,212,508,22,508,28857,14251,6,781,1016,206,2036
"Merqueo - Cali CO",CO,211,1781,0,119,3963,797,2,143,58,28,235
"Rappi - Pricesmart CO",CO,209,1887,43,62,6187,718,4,2123,764,33,2927
Cocolita,PL,208,9627,59,264,41358,13606,7,1399,501,1226,3201
"Beauty Bay UK",UK,207,13621,80,268,53292,0,3,322,133,0,482
"Booker UK",UK,206,9084,7,2058,17333,9890,119,365,946,671,2112
"Yandex Market RU",RU,206,38157,4044,7156,59327,2004,16,1792,3796,63,5749
"Minifarm RO",RO,203,2691,2,105,4531,140,7,597,120,100,833
"Auchan FR",FR,200,1537,14,75,5376,616,237,290,168,144,842
"Emag HU",HU,198,98909,2065,3479,98960,7216,5,1340,3060,133,4645
"Benu HU",HU,197,5132,134,477,17532,2718,2,2208,601,432,3251
"Утконос RU",RU,196,0,0,0,0,0,14,151,1,21,193
"Deliberry - Caprabo ES",ES,184,8587,1,28,9708,0,8,297,116,1,437
"Coursesu FR",FR,176,4274,109,160,8934,1137,166,16570,2151,1156,20054
"Deliberry - Solri ES",ES,176,8013,1,2,9113,0,8,292,24,0,339
"Vodovoz RU",RU,176,1054,15,69,2164,0,3,208,85,1,301
"Deliberry - Mercadona Barcelona ES",ES,175,5957,1,10,7108,0,8,298,938,1,1252
"Linella MD",MD,175,6770,13,1032,6770,0,5,179,18932,1,19123
"Panda Market HU",HU,175,2006,13,185,4943,1335,2,102,85,84,276
"Deliberry - Mercadona Madrid ES",ES,173,5880,2,7,7001,0,8,276,884,0,1174
"PennyDomu CZ",CZ,173,1683,2,2,4925,0,78,139,3,0,223
"Everli - Coop IT",IT,163,11967,0,155,13438,10,21,4954,86,1465,6538
"Deliberry - Supercor ES",ES,161,4084,0,0,5008,0,8,253,6,1,293
"Professional Farmaline RO",RO,155,8661,19,155,18411,2467,6,818,164,61,1072
"Look Fantastic UK",UK,152,17337,52,158,50450,0,3,622,95,1,758
"Dirck3 NL",NL,151,482,1,27,2317,144,5,93,16,6,125
"Pyaterochka App RU",RU,149,6289,31,437,12652,387,2,223,209,5,457
"Everli - Metro IT",IT,146,2575,2,72,3459,1557,21,197,45,696,963
"Vea Digital AR ",AR,145,3014,27,323,11420,946,87,1946,6851,38,8931
"Deliberry - Dia ES",ES,143,4158,0,0,5020,0,8,256,0,1,285
"Deliberry - La Plaza ES",ES,143,4238,0,0,5098,0,8,255,34,1,309
"Exito CO",CO,138,12832,48,884,73547,2809,26,5099,2623,325,8114
"Nazuby CZ",CZ,137,1628,5,71,5628,163,3,117,61,16,201
"Medexpressz HU",HU,136,1347,86,87,2880,0,3,270,56,1,331
"Ozon RU",RU,136,74964,6718,7832,116320,1809,498,5000,10507,133,16357
"Automercado CR",CR,132,13199,0,6,20244,0,12,2095,124,1,2245
"Subra BG",BG,132,6266,16,176,16972,2621,10,179,88,274,570
"Alkohol CZ",CZ,131,3846,44,50,10753,0,12,696,25,1,740
"Metro Delivery RU",RU,131,6590,244,757,17683,50,15,492,1068,40,1649
"Coop EE",EE,129,9468,162,162,20630,1933,2,441,77,57,588
"Condis ES",ES,121,6559,0,0,6927,0,4,203,15,1,251
"Cora Drive BE",BE,118,13588,8940,9012,89710,4437,10,4196,11213,1203,16677
"E-tinex MK",MK,109,4352,0,31,8691,374,2,84,16,34,142
"Amazon Fresh DE",DE,104,8607,540,541,13510,6601,420,601,338,166,1561
"Farmacia Pasteur CO",CO,103,8729,106,3937,56847,564,3,1589,2868,28,4521
"Savage & Whitten IE",IE,99,3731,12,146,7462,1081,9,351,71,88,523
"Koffievoordeel NL",NL,98,510,1,72,3154,1270,3,611,155,28,801
"Farmacity AR",AR,97,343,28,343,6990,1161,3,275,148,41,469
"Vitania BG",BG,97,7178,8,146,7178,2277,4,326,68,77,487
"Rappi Cruz Verde CL",CL,92,5123,2635,2742,36001,1275,3,2628,4571,33,7253
"Kaufland DE",DE,90,29932,195,473,34255,699,70,792,479,45,1433
"PriceSmart PA",PA,90,1652,3,4,17431,0,3,4105,8,1,4125
"PriceSmart GT",GT,88,1615,2,2,13721,0,3,2441,4,0,2455
"Kaffedeal DK",DK,87,382,0,37,994,778,4,44,18,33,100
"Okey RU",RU,80,3953,491,1221,3974,207,5,241,3232,21,3517
"Brack CH",CH,77,8327,34,145,18595,1759,71,266,141,188,683
"Comfandi Supermercados CO",CO,72,4366,121,121,8878,0,5,957,179,1,1146
"Durst DE",DE,69,1028,78,1028,1095,0,4,17,22,2,49
"Droguerias Cafam CO",CO,67,4250,943,2937,10911,1409,15,586,4905,54,5566
"Media Markt DE",DE,67,1025,0,15,1423,1054,712,2352,743,2565,6376
"Sanctuary UK",UK,62,108,0,0,467,0,2,41,2,33,79
"Kaffekapslen DK",DK,60,782,2,65,1794,1512,80,64,101,308,554
"Comfandi Droguerias CO",CO,56,4652,213,213,9167,0,4,524,176,0,708
"Kapselkongen DK",DK,56,279,2,58,583,684,23,54,27,33,137
"Saturn DE",DE,56,1068,2,16,1305,879,248,849,295,4190,5586
"Asos UK",UK,55,8507,32,114,20975,0,31,163,53,0,258
"Emag RO",RO,54,63894,486,2225,63898,4988,6,1318,1808,152,3357
"iDrinks HU",HU,52,6437,166,185,14076,252,3,1613,216,99,1938
"Expert DE",DE,49,996,15,1003,1070,387,77,80,405,71,647
"Pretty Little Thing UK",UK,49,2056,11,11,6089,0,3,260,7,1,276
"Winelivery IT",IT,49,1413,8,28,3094,0,4,238,24,0,269
"Very UK",UK,47,3788,3,20,4096,0,14,48,11,1,78
"Bol NL",NL,46,294,143,311,29647,2448,31,2132,971,567,3720
"Fudge UK",UK,45,90,0,0,504,0,2,27,2,47,78
"Altex RO",RO,38,2314,1,72,4406,2083,6,236,139,143,531
"BilkaToGo DK",DK,37,3805,0,144,22219,1483,5,83,66,37,217
"Carrefour AR",AR,37,3275,328,365,8947,514,101,841,837,33,1873
"Selver EE",EE,37,3585,764,1054,9519,2721,9,932,1424,231,2602
"Ep DE",DE,34,212,7,14,677,271,71,120,252,83,531
"John Lewis UK",UK,28,17,3,17,489,155,3,30,72,12,117
"Mercator SI",SI,27,12771,10,163,12771,1760,3,21,77,50,174
"Carrefour FR",FR,25,9851,2915,5184,13770,1775,60,2347,17654,334,20412
"StTropez UK",UK,25,25,0,0,66,0,2,16,1,57,77
"Avansas TR",TR,24,532,3,5,537,0,2,20,4,1,28
"Qvc US",US,24,17723,29,72,22134,0,25,168,1326,1,1536
"St. Tropez US",US,23,17,0,0,52,0,2,15,0,14,31
"MyDeal AU",AU,20,24,3,24,6928,642,3,69,15,54,143
"Shoplink IE",IE,20,153,0,126,459,1971,26,38,79,116,259
"Boulanger FR",FR,17,771,2,50,1814,357,22,105,242,142,512
"Euronics DE",DE,15,9706,25,219,38013,1198,26,754,40622,177,41610
"Mercado Libre CL",CL,12,6683,76,187,12673,0,16,338,204,2,570
"BCC NL",NL,11,1920,28,38,2514,632,11,132,44,67,258
"El Corte Ingles ES",ES,11,3910,2,162,5082,687,64,314,1682,77,2142
"Leclerc FR",FR,11,238,0,67,407,346,23,188,1255,542,2009
"Sodimac CL",CL,11,113,0,1,241,0,18,52,76,1,147
"Wildberries RU",RU,10,168003,61791,115910,171410,1528,9,1655,24957,62,26991
"Mediaworld IT",IT,9,269,9,46,538,1411,5,139,287,487,920
"Myer AU",AU,9,7506,210,388,9366,0,11,1335,830,1,2180
"Coles AU",AU,8,314,2,99,631,404,6,49,251,191,497
"Intermarche FR",FR,8,345,94,111,668,965,17,80,442,492,1032
"AO UK",UK,7,726,6,18,1009,283,64,8,34,8,116
"Woolworths AU",AU,7,1383,0,112,2200,361,5,161,105,73,345
"Unieuro IT",IT,6,1642,23,31,2056,1087,3,12,35,58,112
"Costcutter IE",IE,4,159,6,118,159,415,7,12,59,80,159
"Easy CL",CL,3,440,0,0,517,0,2,15,1,2,21
"0815 DE",DE,0,0,0,0,0,0,11,3,0,215,230
"Boots UK",UK,0,0,0,0,0,7658,10,0,1,290,305
"Gall & Gall NL",NL,0,0,0,0,0,0,24,1,1,36,65
"Igooods RU",RU,0,0,0,0,0,0,15,47,1,21,85
"Rewe DE",DE,0,0,0,0,0,3035,8,5,1,375,398
"Rossman HU",HU,0,0,0,0,0,7851,3,30,1,212,251
"Tiendas Jumbo CO",CO,0,0,0,0,0,4972,2,9,1,242,255
"iGlobus Zlicin CZ",CZ,0,0,0,0,0,0,3,35,10,509,557
