﻿Site,Country,Categories,Prices,"Products changed","Products downloads",Relations,Search,"Categories time","Prices time","Products time","Search time","Total time"
"Mytime DE",DE,4883,11642,4,150,103300,2968,2157,3004,76,173,5453
frisco,PL,4707,2119,22,2119,313549,95220,124,6575,3643,856,11503
"Albert Heijn NL",NL,3441,21650,89,341,105844,4406,441,1583,43,80,2232
"Makro CZ",CZ,3415,0,0,0,0,450,8508,0,1,53,8631
"Metro SK",SK,3036,0,0,0,0,0,7979,0,1,1,7999
"Rohlik CZ",CZ,3005,0,0,0,228947,0,0,0,0,0,0
"Coto Digital AR",AR,2895,17641,3,406,114212,1598,2626,5841,403,75,8992
"Albert Heijn BE",BE,2871,10098,8,93,50437,6451,415,1340,30,187,2018
"Notino SK",SK,2745,84,0,84,94,292,1260,6753,73,15,8124
"Kosik CZ",CZ,2686,17258,180,1160,99502,35739,462,1693,571,1012,3799
"Galen BG",BG,2664,14185,10,177,98627,4940,1427,2446,100,112,4144
Auchan,PL,2602,15270,88,1280,259700,25855,79,15168,1028,3786,20450
"Drogeo CZ",CZ,2482,1214,82,1214,129366,42674,18,2741,751,861,4439
"Notino CZ",CZ,2390,947,39,947,54,77099,1099,7278,35,1941,10543
"Amazon Fresh IT",IT,2015,7674,817,817,36291,3171,3923,13300,1966,222,19434
"Drogerie Natura",PL,1994,14465,0,0,79894,50136,79,4351,0,4913,9484
"Jumbo NL",NL,1808,17672,111,501,67074,4189,1239,1810,465,114,3679
"Auchan HU",HU,1750,24208,16,2020,180702,10198,18,4591,1182,568,6474
"Yuga RO",RO,1669,8225,8,73,41070,1246,2024,4085,2808,130,9082
"Cefarm 24",PL,1661,13494,30,845,98634,14830,2184,3785,1141,5449,12665
"Alza CZ",CZ,1616,30443,3008,29782,121428,34637,278,1725,7104,1500,10708
"Delhaize BE",BE,1603,13950,428,2418,58515,16742,21,2867,2164,825,5933
"Otto DE",DE,1601,212,29,214,67897,212,754,1000,490,16,2294
"Apteka Nowa Farmacja",PL,1383,15753,50,897,84522,22875,10478,3472,1028,1926,17039
"Alza SK",SK,1368,13757,1504,13924,58615,3857,175,470,82,250,1051
eZebra,PL,1366,42426,0,0,150455,37429,63,14696,0,10774,25742
"Amazon BR",BR,1350,0,0,0,633220,0,0,0,0,20,20
"Picnic NL",NL,1312,7102,19,119,16324,2258,556,1003,65,79,1719
"Remedium BG",BG,1308,26826,11,304,94370,1543,368,8308,653,186,9579
"Coop CH",CH,1254,18314,146,287,67637,2016,293,2242,549,167,3308
"Rewe DE",DE,1252,0,0,0,34639,0,0,0,0,0,0
"Barbora EE",EE,1248,13261,174,195,47106,1400,42,1606,95,92,1862
"Kifli HU",HU,1244,13727,22,1622,54760,11133,662,582,745,363,2396
"iGlobus Zlicin CZ",CZ,1219,19500,28,620,36399,10457,12,3202,1267,634,5160
"Barbora LT",LT,1206,16993,5,186,55356,1442,38,1487,97,69,1730
"Farmaline BE",BE,1205,30830,57,87,147452,0,1130,3521,107,1,4900
"E-Fresh GR",GR,1196,11682,59,876,56749,6723,2280,4042,1841,658,8856
"Amazon DE",DE,1188,170,170,170,374078,13113,0,0,0,4362,4362
"S-kaupat FI",FI,1175,43293,125,400,330816,6395,20,2839,335,113,3458
"Barbora LV",LV,1171,14085,249,269,50557,1429,56,2941,137,128,3297
"Moja Lekaren SK",SK,1169,24406,45,315,132244,4752,628,3560,163,168,4591
"Lekarna CZ",CZ,1163,29053,66,585,127905,5151,610,3429,306,171,4590
Hebe,PL,1120,1145,30,1145,169775,30368,1128,5143,1824,965,9215
"Albert App CZ",CZ,1082,8077,0,27,58623,2681,529,2055,17,73,2709
"Knuspr DE",DE,1067,11706,31,302,49432,1636,560,489,140,147,1371
"Eroski ES",ES,1052,26304,82,108,55823,569,20,3587,89,42,3769
"Dr Max SK",SK,1044,23362,11,398,92405,7185,668,5995,467,392,7564
"Mathem SE",SE,1044,12220,4,733,33650,7468,21,1127,988,511,2677
"Picnic DE",DE,1038,7083,5,159,14252,1856,445,795,70,167,1488
"Vkusvill RU",RU,1020,9757,110,339,38636,1517,336,5089,773,215,6448
"Amazon IT",IT,1014,540,533,540,449785,6718,0,0,0,1410,1410
"Salcobrand CL",CL,1012,7648,0,7646,33266,2630,289,610,4400,37,5358
"Auchan RO",RO,1009,25069,2,584,432441,7521,34,5366,619,528,6983
"Zakaz - Novus UA",UA,1001,0,0,0,37876,0,0,0,0,0,0
Bee,PL,990,51374,188,430,184718,9192,457,3518,233,233,4778
"Coop NL",NL,988,16350,3,99,70258,995,1919,2141,221,64,4407
Selgros,PL,979,21165,1190,1272,73464,28627,439,1200,586,1574,3975
"Carrefour BE",BE,932,18845,35,1457,251893,20267,924,13111,757,8218,23169
"Coop Shop IT",IT,924,0,0,0,0,0,16,0,0,0,25
"Coop SE",SE,914,9958,6,590,33920,7942,20,919,288,213,1460
"Unipatika HU",HU,875,4376,6,302,30740,4687,538,1210,171,263,2205
"Pilulka RO",RO,870,10823,48,155,46178,3439,30,481,99,72,750
"Magnit App RU",RU,852,3806,35,199,10513,0,22,1311,139,3,1488
"SuperValu IE",IE,841,16153,17,1181,220815,12812,872,16737,1321,648,19879
"Tigros IT",IT,833,9961,2,554,29921,7138,14,480,322,241,1091
"Ebag BG",BG,823,11289,134,251,42162,1723,15,1274,160,31,1514
"Apteka Manada",PL,811,0,0,0,50691,0,0,0,0,0,0
"Wong PE",PE,811,23814,11,321,147169,1839,19,8906,8044,88,17125
"Tesco IE",IE,797,0,0,0,423592,0,0,0,0,0,0
"Superpharm Drogeria",PL,793,722,43,722,89972,38042,55,1375,2044,453,4074
"Walmart MX",MX,789,23082,15,132,93993,3076,89,10304,113,111,10666
"Polski Koszyk",PL,786,20294,1,819,65459,1989,9,871,466,68,1578
"eZiko Apteka",PL,767,7267,39,614,43534,18688,344,1788,526,1025,3744
"Zakaz - Metro UA",UA,763,0,0,0,22517,0,0,0,0,0,0
"Dr Max CZ",CZ,762,22098,19,447,93685,7980,571,5396,627,523,7168
"Auchan RU",RU,761,25142,113,1404,75727,418,21,1995,1097,36,3233
"Coop DK",DK,755,11236,256,318,91098,1199,349,3328,271,39,4077
"Masxmenos CR",CR,730,9212,31,184,25213,0,26,2122,279,1,2443
"Sklavenitis GR",GR,730,9897,36,301,29672,4385,122,1254,162,297,1863
"Walmart CR",CR,730,14259,78,523,181682,5048,19,6742,788,159,7793
"Cruz Verde CL",CL,727,9346,0,938,130620,3063,16,18164,434,39,18709
"Apteka Gemini",PL,718,27147,8,1396,93904,64632,24,5010,949,804,6963
"Rimi LV",LV,717,14646,34,87,42997,5371,18,746,94,119,1014
"Bringmeister DE",DE,716,15237,81,244,41713,4368,16,385,118,146,698
"Lunys SK",SK,715,5367,28,46,18871,0,412,910,42,1,1381
Barbora,PL,712,9437,903,904,121782,10587,34,3727,453,1151,5556
"Tesco CZ",CZ,711,0,0,0,560001,0,0,0,0,0,0
"Intervare DK",DK,710,8955,8862,8954,25942,0,9,330,4008,110,4482
"Rimi EE",EE,709,12310,101,138,36111,3707,15,721,146,113,1021
"Esselunga A Casa IT",IT,702,0,0,0,46063,0,0,0,0,0,0
"Mall CZ",CZ,702,36663,403,36662,102824,15501,596,742,26883,6470,34955
"Gurkerl AT",AT,699,9578,30,230,35014,3414,383,320,108,109,950
"Walmart AR",AR,692,0,0,0,0,0,502,1165,0,1,1668
"Bennet IT",IT,679,19345,23,726,39002,15171,12,1076,1152,691,2966
"Poiesz NL",NL,666,7855,0,10,10080,125,20,542,3125,9,3711
"DM SK",SK,659,12449,1,391,35530,2161,8,1296,179,92,1605
"Maxi RS",RS,659,7916,38,427,26206,6836,11,454,196,120,803
"Rimi LT",LT,658,14777,63,103,44351,3401,15,724,113,81,964
"Rossmann DE",DE,656,15593,35,263,53791,457,702,1331,248,20,2332
Amazon,PL,654,497453,21696,21700,999998,25783,803,14741,12859,1977,30380
"Tesco HU",HU,653,0,0,0,1043390,0,0,0,0,0,0
"Hoogvliet NL",NL,652,8710,27,100,14239,1854,15,742,113,102,989
"Tesco SK",SK,651,0,0,0,229974,0,0,0,0,0,0
"Apteka Rosa",PL,648,9860,70,183,59818,2111,9,3882,244,143,4360
"DOZ.pl",PL,646,19727,425,1884,79503,55917,557,4111,1312,2156,8255
"City Gross SE",SE,645,12775,3,541,27890,8915,15,392,269,385,1090
"Rossman HU",HU,640,14839,1,930,54110,7707,606,787,1503,170,3109
"Mercator SI",SI,630,12759,33,206,38277,2293,291,288,98,80,791
"E.Leclerc Bielany",PL,626,32164,43,2533,101981,35382,124,4359,1170,21797,27622
"Crai Spesa Online",IT,625,0,0,0,25676,0,0,0,0,0,0
Apteline,PL,620,1512,5,1512,83371,16600,437,1371,1285,522,3735
"Colruyt BE",BE,606,7860,0,273,93152,14864,16,14553,807,1838,17327
"Plus NL",NL,598,15645,39,306,31423,3766,46,4421,166,182,4879
"Thanopoulos GR",GR,598,15657,50,415,52158,9108,15,4658,486,703,5897
"Benu CZ",CZ,597,14266,26,492,66497,5895,8,8641,560,67,9314
"Apteka Galen",PL,594,0,0,0,26890,0,0,0,0,0,0
"Pingvinpatika HU",HU,593,7614,10,305,40962,2850,15,4935,439,300,5708
"Willys SE",SE,583,10475,5,460,34361,6850,15,738,357,284,1417
"Vasalekaren SK",SK,582,0,0,0,64349,0,0,0,0,0,0
"E.Leclerc Wroclaw",PL,575,16285,35,1322,16844,12573,507,1994,2075,5151,9825
"Glovo Kaufland RO",RO,567,8994,37,8994,15908,0,23,331,146,0,528
"Dr Max",PL,566,13920,35,799,51786,25528,270,2913,820,1200,5290
"Yandex Lavka RU",RU,566,3107,18,287,8978,0,94,775,426,175,1484
"DM HU",HU,565,12606,17,848,34314,9720,7,1245,382,326,1989
"Spar HU",HU,563,15369,482,1880,353836,11470,11,8029,3403,385,12000
"Kritikos GR",GR,561,16719,16404,16719,47245,0,7,26,7363,6756,14189
Lek24,PL,561,5924,33,119,20957,4367,5,1183,99,220,1553
Spar,PL,558,25561,83,2065,670619,77053,24,12084,1017,2144,15859
"Apteka Melissa",PL,552,27760,75,1801,102928,60756,26,8728,1416,822,11094
"AB GR",GR,548,11091,171,779,32987,8025,12,898,357,224,1527
"Chronodrive FR",FR,548,8478,9,96,16891,2110,17,387,152,129,702
"DM CZ",CZ,548,12402,19,1231,33814,32838,13,1206,555,1073,2875
"Pão de Açucar BR",BR,548,24181,243,756,58609,0,14,1855,437,0,2341
"Freshful RO",RO,543,19194,41,135,39228,361,26,866,67,15,1038
"Univerexport RS",RS,541,9907,0,116,19814,1388,18,579,132,251,1001
"Jumbo CL",CL,539,21191,20,2446,536977,2722,13,7251,1739,240,9483
"MyMarket GR",GR,538,14584,126,306,52268,6928,10,1746,370,509,2673
"E.Leclerc Rzeszów",PL,535,12254,161,1581,36042,25921,56,803,718,857,2548
"Carrefour ES",ES,534,15209,16,606,18269,414,25,608,1013,38,1706
"Drogeria Olmed",PL,522,667,65,667,148029,26614,20,14814,510,2715,18241
"Plazavea PE",PE,516,26685,7,214,193476,1887,16,4938,104,161,5330
"Idea RS",RS,514,11945,0,134,21139,7088,99,555,65,109,855
Rossmann,PL,510,1196,0,1196,79950,31716,19,892,1312,695,3078
"Apteka Zawiszy",PL,505,20397,23,983,80241,21275,244,1685,542,453,3086
"Hemkop SE",SE,504,10241,8,514,32082,7238,13,306,429,218,989
"Benulekaren SK",SK,501,9231,0,314,48995,6873,8,4782,267,131,5211
"Interspar AT",AT,499,21900,11,223,264286,6357,16,2543,288,142,3199
"Metro RU",RU,499,20267,29,715,24602,1387,16,2094,723,62,2941
Intermarche,PL,498,18603,0,2489,159945,14565,18,4494,1187,1402,7392
"Migros Online CH",CH,484,0,0,0,38052,0,0,0,0,0,0
"Spar SI",SI,483,16591,9,234,59839,2687,16,636,288,105,1097
"Mega Image RO",RO,478,12610,3,398,37724,9792,25,645,185,186,1097
"Famila a casa IT",IT,477,12227,6,352,29266,6462,825,1494,593,312,3245
"Dr Max Drogeria",PL,476,17062,31,595,49847,6714,10,3257,802,351,4505
"E.Leclerc Radom",PL,472,13241,1,1114,41769,10072,111,2841,918,2362,6336
"e-Dostavka BY",BY,468,35031,317,1351,98628,1995,22,7799,619,157,8673
"Bringo RO",RO,464,32502,46,30007,55595,7091,31,1880,1162,774,3914
"Carulla CO",CO,464,11244,5,373,64161,4959,19,1974,253,273,2575
"Apteka Olmed",PL,463,1113,83,1113,161238,20598,17,16050,948,2482,19637
"Basko IT",IT,463,8393,0,414,25666,1566,10,269,479,46,829
Ceneo,PL,462,0,3074,24119,263392,0,0,0,0,595,892
Aptelia,PL,459,563,4,563,71324,10053,210,2734,496,346,3868
"GPSfarma AR",AR,457,5920,53,411,28532,1582,14,3050,538,142,3760
"MegaMarket RO",RO,447,5297,4,99,6401,569,23,1296,121,184,1636
"eTabletka SK",SK,442,11781,21,204,80104,6791,290,7301,155,88,7866
"Patika24 HU",HU,441,4399,21,265,10617,3226,9,616,302,88,1024
"Lider CL",CL,439,12828,18,2091,243541,1964,15,13187,4639,202,18190
"Dr Max RO",RO,434,9574,37,1094,26316,8470,217,1488,1245,484,3463
"Unimarc CL",CL,433,10270,11,545,30792,2326,12,775,645,122,1570
"E.Leclerc Lublin Turystyczna",PL,432,12930,9,1421,15924,13219,22,1185,3125,4754,9176
"Ecofamily HU",HU,431,6772,18,794,21869,4092,7,2370,4860,613,7878
"Lopido CO",CO,431,10915,1,632,20316,613,13,7438,2360,49,9873
Stokrotka,PL,428,7707,0,145,178313,12273,20,4009,97,415,4819
"Cornershop - Lider CL",CL,427,0,0,0,0,2167,14,0,0,215,252
"Cornershop - Jumbo CL",CL,426,0,0,0,0,2631,14,0,0,267,300
"E.Leclerc Katowice",PL,414,8570,14,1266,9081,9658,101,586,1071,1458,3263
"iFresh SK",SK,409,7092,58,59,140476,0,8,4124,1110,1,5321
"Kruidvat NL",NL,405,0,0,0,24572,0,0,0,0,0,0
"Farmacia Tei RO",RO,404,247,247,247,26076,3249,22,820,179,184,1230
"Teta Drogerie CZ",CZ,402,8519,36,576,24749,6770,5,922,889,218,2053
"OnlinePrima HU",HU,397,7532,0,1210,23292,6068,5,677,717,299,1720
"Apteki 36.6 BG",BG,395,9965,29,192,47309,1347,7,1668,118,90,1919
"Glovo Biedronka Warszawa",PL,393,2789,81,2789,5244,597,41,181,129,50,432
"Mercado Libre MX",MX,391,39918,251,1526,82899,2954,762,917,389,340,2460
"Unimarkt AT",AT,391,3410,13,126,15806,3294,145,371,89,200,821
"DrankDozijn BE",BE,378,3650,10,83,14876,2306,8,639,131,557,1348
"DrankDozijn NL",NL,378,3650,10,81,14876,250,8,648,128,60,861
"Billa AT",AT,370,9356,88,246,30374,6631,8,540,598,197,1371
"Bebe Tei RO",RO,369,519,320,519,27413,1548,23,897,265,93,1304
"Walmart GT",GT,369,9249,27,424,159708,4344,15,5705,697,189,6678
"Świat Leku",PL,367,11898,13,493,38425,1911,170,1385,420,183,2251
"Ica SE",SE,364,11024,1,645,654849,12675,12,20735,317,209,21591
"Carrefour IT",IT,363,13385,260,959,37603,4650,173,1650,458,345,2658
"Ulabox ES",ES,361,5611,1,6,11794,0,11,213,7,0,245
"Apteka Prima 24",PL,354,4540,5,38,20618,1481,10,620,48,121,850
"E.Leclerc Lublin Tomasza Zana",PL,354,10683,169,1540,13912,9189,10,529,1569,1092,3251
"Feedo CZ",CZ,351,523,256,523,59727,471,150,1247,486,20,1973
"Cornershop - Wong PE",PE,349,0,0,0,0,1815,12,0,0,175,194
"Cornershop - Metro PE",PE,348,0,0,0,0,1769,11,0,0,167,190
"Gall & Gall NL",NL,347,0,0,0,23163,0,0,0,0,0,0
"Rossmann App CZ",CZ,344,10905,20,2199,35600,0,7,2958,1005,1,3992
"E.Leclerc Elblag",PL,339,10515,4,1031,29075,14441,69,2047,1670,2729,6580
"Jumbo AR",AR,339,11217,3,350,55022,1098,11,2380,186,47,2655
"Mercado Livre BR",BR,337,99114,1518,11617,1370096,0,645,15594,2943,1,19949
Allecco,PL,335,11667,14,649,40364,10761,21,868,580,180,1732
Carrefour,PL,335,16860,17,2886,140145,38096,351,3526,3358,2940,10336
"Roastmarket DE",DE,334,48,5,48,32168,381,24,499,182,16,738
"Mpreis AT",AT,325,8020,3,131,28094,4566,367,821,161,103,1477
"Sipo HU",HU,321,4772,40,252,10428,1439,6,694,191,232,1135
"Cornershop - Santa Isabel CL",CL,316,0,0,0,0,1498,11,0,0,178,191
"Mercado Libre AR",AR,315,36300,1172,15510,78868,621,186,851,19766,130,20997
"Gastronom BG",BG,309,7661,12,154,23890,904,7,418,110,232,798
Empik,PL,302,189559,37905,98625,447261,33308,109,15275,1962,472,19173
"Cora RO",RO,301,50235,529,6417,103199,6518,19,14806,1107,2154,18274
"Amazon NL",NL,300,50985,2294,2294,96506,0,171,6010,16612,17,22810
"Bipa AT",AT,300,12171,2,41,26545,571,13,380,66,19,523
DoDomku,PL,300,5829,183,529,17110,2226,43,270,274,302,905
"Easy Coop IT",IT,299,9086,0,606,27154,9982,7,2023,1256,896,4205
"Mall SK",SK,298,11164,172,11164,29639,1089,320,774,23537,1280,25949
"SOpharmacy BG",BG,296,9997,9,209,31546,6290,391,1095,273,560,2344
"E.Leclerc Gdansk",PL,295,10181,3,818,27942,8724,69,2007,1292,2392,5821
"Ica New Version SE",SE,293,5022,4637,4642,108602,5810,11,1796,2101,223,4189
Makeup,PL,292,25218,22459,25218,529896,85486,4,17861,1332,2125,22012
"Tudrogueria Virtual CO",CO,291,8712,1,3782,16644,458,10,333,1743,24,2124
"Apteka Nove BG",BG,287,11352,6,154,40014,6242,6,2625,178,364,3200
"Apteka Medea BG",BG,284,8622,2,154,25600,0,9,1512,136,1,1681
"Sephora US",US,283,0,0,0,127050,0,0,0,0,0,0
"E.Leclerc Tychy",PL,278,8774,0,1133,8922,9858,60,463,864,1553,2995
"i-apteka",PL,275,9929,231,651,21321,5855,6,543,687,418,1718
Makro,PL,272,3136,0,507,8582,31440,8,532,239,1688,2494
"Edeka DE",DE,270,3757,301,362,4999,119,15,383,501,227,1136
"PriceSmart CR",CR,270,3672,2,46,54742,3595,12,12605,118,696,13454
"Groby HU",HU,268,0,0,0,21713,0,0,0,0,0,0
"Farmacia la Pret Mic RO",RO,265,8356,5,215,27179,5941,50,2505,142,992,3715
"E.Leclerc Gliwice",PL,260,7993,5,729,21908,6912,63,1630,846,2068,4664
"Apteka Medkon",PL,254,7750,439,439,32023,4304,9,4358,961,1405,6787
"Azbuka Vkusa RU",RU,254,10171,17,227,21552,1230,28,1900,928,116,3001
"La Comer MX",MX,254,170,21,170,22201,3934,3,337,431,167,945
"Dunnes IE",IE,253,13692,11,1510,22415,11951,6,680,2285,493,3524
Wapteka,PL,252,18593,1269,1318,63741,42090,6,3881,729,735,5464
"Globus RU",RU,249,13160,474,488,42384,321,14,1476,283,18,1845
"Supermarket AM",AM,249,6730,8,221,16387,0,11,1030,455,1,1517
"Szybki Koszyk",PL,247,4261,1,122,14552,577,117,622,66,39,873
"Lisek App",PL,246,1957,0,178,2804,1161,9,18,85,265,406
"Helpnet RO",RO,245,6770,19,272,18796,5133,16,1685,208,348,2279
"Delitea SE",SE,242,9340,57,391,22846,5676,11,189,186,87,496
"Olimpica CO",CO,241,9640,46,727,30106,1637,8,1962,1390,132,3514
"Farmatodo CO",CO,238,13181,135,3630,60426,7060,10,710,4541,113,5413
"Carrefour BR",BR,237,9215,0,130,45286,0,13,8245,263,0,8558
"Afya Pharmacy BG",BG,234,10174,2,164,31785,1841,7,2445,218,313,3006
"Merqueo - Bogota CO",CO,229,1432,0,73,3212,3782,7,161,40,206,417
"Metroiroda HU",HU,229,3277,6,249,6604,1233,4,650,440,121,1220
"Linio CL",CL,226,48098,152,307,81009,0,109,674,734,19,1632
"Rappi - Exito CO",CO,226,0,0,0,50752,0,0,0,0,0,0
"Getir IT",IT,222,1713,12,71,4581,7761,6,129,44,117,301
"Benu HU",HU,220,4968,0,347,14807,2744,6,2769,499,397,3682
"Перекрёсток Впрок RU",RU,220,15653,78,2948,36018,2618,12,978,2457,75,3589
"Rappi - Carulla Express CO",CO,218,0,0,0,29434,0,0,0,0,0,0
"Superpharm Apteka",PL,214,542,37,542,30563,24724,5,670,1333,349,2410
"Igooods RU",RU,213,16512,5,496,36228,452,6,277,298,19,666
"Pyaterochka App RU",RU,212,5479,10,324,13939,1251,10,289,165,24,525
"MaxiCoffee FR",FR,210,5309,31,163,13103,1559,427,833,637,294,2201
Cocolita,PL,208,0,0,0,48158,0,0,0,0,0,0
"Exito CO",CO,208,9298,8,717,37468,3254,153,3319,1699,421,5621
"Rappi - Carulla CO",CO,206,0,0,0,43323,0,0,0,0,0,0
"Subra BG",BG,206,8411,38,194,22125,4747,9,262,98,670,1082
"Yandex Market RU",RU,206,47207,0,0,61220,0,17,3239,0,135,3546
"Minifarm RO",RO,203,4888,5,109,13022,531,20,857,108,255,1260
"Утконос RU",RU,203,200,5,200,0,0,27,333,0,0,360
"Panda Market HU",HU,201,2457,0,192,6141,1046,4,176,95,101,383
"Emag HU",HU,199,54668,23588,54269,219112,6994,6,2203,36613,0,38822
"Rappi Lider CL",CL,196,16567,12322,12878,75976,2932,8,5277,16687,85,22099
"Merqueo - Medellin CO",CO,191,1047,0,79,2246,3094,9,133,42,190,376
"Vodovoz RU",RU,185,1127,5,26,2312,0,8,371,50,2,437
"Deliberry - Caprabo ES",ES,184,8543,0,0,9657,0,17,987,79,0,1090
"Rappi Turbo CL",CL,183,0,0,0,2313,0,0,0,0,0,0
"Coursesu FR",FR,178,0,0,0,8395,0,0,0,0,0,0
"Deliberry - Solri ES",ES,178,9124,0,0,10235,0,18,980,46,1,1052
"Tiendas Jumbo CO",CO,176,15397,14,927,49824,5782,10,1693,1145,235,3129
"Deliberry - Mercadona Barcelona ES",ES,175,5718,0,0,6855,0,18,948,1703,2,2679
"Rappi - Exito Express CO",CO,175,0,0,0,27914,0,0,0,0,0,0
"Rappi Carrefour AR",AR,174,0,0,0,8931,0,0,0,0,0,0
"Deliberry - Mercadona Madrid ES",ES,173,5651,0,0,6764,0,16,925,1775,2,2723
"PennyDomu CZ",CZ,173,1636,0,4,4685,0,186,275,6,1,473
"Rappi Jumbo CL",CL,172,15943,13444,13697,55355,3637,8,4645,15000,83,19778
"Merqueo - Cali CO",CO,171,933,0,43,2125,1115,8,123,23,55,212
"Rappi Unimarc CL",CL,168,12097,6837,7195,23111,3358,9,2698,8255,84,11063
"Everli - Coop IT",IT,162,12040,5,292,13180,7538,47,901,310,905,2180
"Deliberry - Supercor ES",ES,161,4086,0,0,5010,0,17,861,18,1,902
"Farmacia Pasteur CO",CO,158,7416,13,3426,44601,604,10,1392,2846,27,4304
"Professional Farmaline RO",RO,155,8306,2,117,17624,5350,11,628,89,114,873
"Rappi Turbo CO",CO,154,0,0,0,9603,0,0,0,0,0,0
"Dirck3 NL",NL,151,529,0,26,2458,144,7,102,13,24,151
"Rappi Coto AR",AR,151,0,0,0,21677,0,0,0,0,0,0
"Rappi - Pricesmart CO",CO,148,0,0,0,4902,0,0,0,0,0,0
"Rappi Turbo PE",PE,147,0,0,0,4179,0,0,0,0,0,0
"Everli - Metro IT",IT,144,2447,0,33,3267,1507,42,308,37,496,889
"Deliberry - Dia ES",ES,143,4171,0,0,5032,0,19,777,2,1,805
"Deliberry - La Plaza ES",ES,143,4250,0,0,5109,0,18,772,141,2,937
"Medexpressz HU",HU,137,1378,0,85,2946,0,5,285,52,1,346
"Superxtra PA",PA,136,6501,0,0,13757,0,64,67,3,0,144
"Nazuby CZ",CZ,135,1707,0,68,5839,161,6,199,32,15,258
"Disco AR",AR,134,3852,2,331,14576,1526,109,1789,930,65,2904
"Rappi Turbo AR",AR,133,0,0,0,3817,0,0,0,0,0,0
"Alkohol CZ",CZ,131,4590,3,15,12821,0,18,1128,12,0,1167
"Jumia NG",NG,130,3797,19,101,6742,328,73,161,47,24,314
"Extra BR",BR,128,77762,1246,2663,77762,0,44,1082,799,18,2012
"Automercado CR",CR,125,11757,3,28,18391,0,24,2056,309,6,2411
"Ozon RU",RU,124,65839,3706,6361,102586,1934,539,2855,3454,305,7506
"Condis ES",ES,121,6683,0,7,7075,0,7,195,28,0,240
"Cora Drive BE",BE,120,14027,9995,10063,91502,4568,8,4038,11333,1313,16760
"Auchan FR",FR,118,1601,1,84,4752,778,135,284,93,138,657
"Mercado Libre CL",CL,111,47442,1515,12004,64206,2299,129,602,5740,154,6687
"Rappi Farmacity AR",AR,111,0,0,0,17445,0,0,0,0,0,0
"Coop EE",EE,105,1388,0,7,3288,1225,5,97,5,57,168
"Vea Digital AR ",AR,104,2373,2,193,9600,1123,107,1371,2998,80,4566
"Savage & Whitten IE",IE,100,3693,1,156,7386,930,12,359,78,78,538
"Farmacity AR",AR,97,250,0,250,6104,1222,5,304,125,57,493
"Vitania BG",BG,97,7224,2,144,7224,4300,5,355,84,227,688
"Everli - Kaufland",PL,94,0,0,0,19709,0,0,0,0,0,0
"Everli - Lidl",PL,91,0,0,0,23548,0,0,0,0,0,0
"Kaufland DE",DE,90,30389,237,2314,37966,708,66,770,1136,44,2072
"PriceSmart GT",GT,90,1551,0,16,13755,2130,7,3011,14,463,3503
"Koffievoordeel NL",NL,89,489,0,51,2878,1288,5,536,63,29,637
"Kaffedeal DK",DK,82,381,0,34,950,809,6,49,17,35,108
"Okey RU",RU,82,4261,1191,2642,4346,911,24,431,7787,126,8392
"Brack CH",CH,80,8319,52,155,20588,1782,85,307,174,185,786
"Comfandi Supermercados CO",CO,72,4541,26,26,9170,0,9,1660,87,1,1763
"Durst DE",DE,69,1121,69,1121,1190,0,8,23,24,4,64
"Droguerias Cafam CO",CO,68,4569,1431,3069,11659,1424,18,732,5672,56,6484
"Media Markt DE",DE,68,0,0,0,3088,0,0,0,0,0,0
"Rappi Cruz Verde CL",CL,64,4483,2710,2929,29692,3134,7,1815,4342,84,6265
"Rozetka UA",UA,62,74182,1558,4802,93887,0,87,4255,1646,2,6206
"Kaffekapslen DK",DK,61,780,1,70,1783,1512,69,65,83,132,351
"Emag RO",RO,60,50923,3768,9135,50932,5119,11,1189,7230,217,8741
"PedidosYa DIA AR",AR,60,2176,0,96,2176,640,5,49,58,22,137
"Comfandi Droguerias CO",CO,56,4428,250,2308,8759,1164,9,1100,5004,182,6300
"Kapselkongen DK",DK,54,256,0,53,514,644,24,54,51,47,177
"iDrinks HU",HU,53,6587,164,183,14215,253,4,1498,264,61,1837
"Expert DE",DE,51,942,0,16,1008,0,98,92,340,12,545
"PedidosYa Carrefour AR",AR,48,3876,3,88,3876,933,6,61,41,22,137
"Amazon Fresh DE",DE,42,8754,281,281,11607,6900,1278,6738,222,768,9014
"Carrefour AR",AR,41,3100,39,296,10645,514,106,717,691,45,1568
"BilkaToGo DK",DK,37,10574,12,176,57323,1717,12,133,170,38,444
"Datart CZ",CZ,37,980,10,20,1346,1017,5,95,30,65,200
"Ep DE",DE,37,219,7,10,699,0,78,130,22,2,234
"Selver EE",EE,37,4057,0,0,10905,2868,5,217,0,174,409
"Altex RO",RO,36,0,0,0,2942,0,0,0,0,0,0
"Bol NL",NL,36,274,207,278,27828,2344,30,2019,564,519,3156
"Saturn DE",DE,34,0,0,0,1348,0,0,0,0,0,0
"Winelivery IT",IT,34,1354,0,12,2868,0,4,190,8,2,209
"Galaxus CH",CH,33,8664,353,983,8664,1021,18,1857,930,1233,4053
"Kesko FI",FI,31,0,0,0,62114,0,0,0,0,0,0
"Konga NG",NG,31,387,38,387,11725,191,105,69,222,13,415
"Americanas BR",BR,29,5048,6,49,40756,0,297,1003,507,0,1841
"Carrefour FR",FR,24,0,0,0,12209,0,0,0,0,0,0
"Shoplink IE",IE,20,155,0,130,465,1863,30,41,87,153,311
"Deeski NG",NG,19,168,0,15,259,180,15,62,39,40,157
"Boulanger FR",FR,17,938,0,53,2183,372,22,135,142,173,474
"Euronics DE",DE,15,9577,4,225,37794,0,36,1110,41093,0,42239
"Qvc US",US,14,15524,45,112,17028,0,21,192,329,1,557
"BCC NL",NL,11,1774,0,14,2364,663,9,145,17,55,232
"El Corte Ingles ES",ES,11,3927,1,139,5109,676,46,356,883,89,1387
"Leclerc FR",FR,10,255,25,72,510,820,30,255,1636,606,2531
"Wildberries RU",RU,10,29682,1056,6670,31064,1652,11,150,3768,37,4177
"Intermarche FR",FR,8,0,0,0,859,0,0,0,0,0,0
"Unieuro IT",IT,6,1690,14,25,2112,1132,6,20,14,46,97
"Barrys Beacon IE",IE,4,156,6,123,156,393,8,31,62,60,162
"Musgrave IE",IE,3,0,0,0,0,4011,4,22,2,1236,1264
" SberMarket - Lenta RU",RU,0,0,0,0,0,0,7,0,0,0,10
"Alcampo ES",ES,0,0,0,0,0,0,16,13,11,76,116
Allegro,PL,0,1893,26,1893,0,0,0,0,41844,0,41844
"Chedraui MX",MX,0,0,0,0,0,0,6,7,1,86,101
"Cruz Verde CO",CO,0,0,0,0,0,0,2,22,3,37,64
"Dia AR",AR,0,0,0,0,0,0,5,22,2,117,147
"Drogas La Rebaja CO",CO,0,0,0,0,0,0,19,3526,1,279,3825
"Easy CL",CL,0,0,0,0,0,0,4,60,1,1,66
"Elefant RO",RO,0,0,0,0,0,2027,236,2,1,85,324
"Heb MX",MX,0,0,0,0,0,0,0,0,0,0,0
"Mediaworld IT",IT,0,0,0,0,0,0,26,1,2,244,273
"Metro Delivery RU",RU,0,0,0,0,0,0,0,0,0,0,0
"Pilulka CZ",CZ,0,0,0,0,0,34347,65,110,2,1051,1252
"Pilulka SK",SK,0,0,0,0,0,11034,64,52,9,346,502
"Samokat RU",RU,0,0,0,0,0,0,0,0,0,0,0
"SberMarket - Metro RU",RU,0,0,0,0,0,0,8,0,0,0,8
"Sodimac CL",CL,0,0,0,0,0,0,22,62,0,1,85
"Soriana MX",MX,0,0,0,0,0,0,2,10,2,246,260
"Tottus CL",CL,0,0,0,0,0,2052,4,43,4,65,116
