﻿Site,Country,Categories,Prices,"Products changed","Products downloads",Relations,Search,"Categories time","Prices time","Products time","Search time","Total time"
"Ocado UK",UK,6509,47894,185,2873,458947,42137,1338,11391,4784,2146,20083
"Mytime DE",DE,4901,11503,28,193,106214,3025,2233,2857,92,160,5391
frisco,PL,4707,15934,35,2193,302209,89774,81,10690,7471,1824,20324
"Albert Heijn NL",NL,3445,21693,33,257,106165,4366,438,1542,45,80,2213
"Makro CZ",CZ,3438,7585,2,11,771093,382,3413,25965,51,31,29784
"Asda UK",UK,3379,29034,189,2503,951114,41163,40,11037,1512,1143,14570
"Morrisons UK",UK,3266,20923,267,2262,98067,32250,625,5642,3771,2116,12270
"Waitrose UK",UK,3103,16528,46,1343,1578204,34063,99,23317,981,840,26422
"Metro SK",SK,3052,6521,6,12,296489,0,3202,24667,37,1,28017
"Rohlik CZ",CZ,2947,23983,62,911,220620,23053,2106,3676,603,849,7394
"Samokat RU",RU,2871,5389,30,145,63325,17,20,35,68,8,178
"Albert Heijn BE",BE,2855,10117,53,139,50622,6285,415,1325,16,126,1934
"Galen BG",BG,2650,13741,16,202,95845,3399,1384,2342,180,83,4113
"Kosik CZ",CZ,2642,16792,58,780,95483,33265,457,1799,364,1003,3668
"Coto Digital AR",AR,2640,17243,111,353,91965,1192,1851,4037,277,61,6276
"Notino SK",SK,2632,2947,107,2947,117101,159,1202,6331,3243,17,10941
"Drogeo CZ",CZ,2516,1689,92,1689,129193,42287,11,2492,981,838,4383
Auchan,PL,2514,15901,457,1255,462073,27241,48,15921,1167,3705,21178
"Amazon Fresh UK",UK,2453,9441,760,763,51587,16929,835,19516,503,1158,22082
"Pilulka SK",SK,2354,38663,232,479,239784,10889,20,3683,333,259,4426
"Pilulka CZ",CZ,2250,39170,2229,7790,183857,35537,8,4860,3773,876,9616
"Sainsburys UK",UK,2239,30907,28,2666,1777294,84961,239,27670,2436,1891,33976
"Amazon UK",UK,2201,2039,2031,2039,455540,37411,0,0,0,12209,12209
"Notino CZ",CZ,2168,3540,13,3540,52615,33822,985,6624,444,2631,10964
"Drogerie Natura",PL,1997,15908,2,529,87243,37326,70,4910,1057,3548,9680
"Boots UK",UK,1908,23504,922,7450,119624,7637,44,3123,11006,246,14595
"Brakes UK",UK,1895,9231,9,217,27735,30804,857,1811,104,310,3138
"Jumbo NL",NL,1870,18751,37,348,73377,4263,1261,2267,533,135,4258
"Auchan HU",HU,1860,34703,28,2447,368583,10995,20,14125,1937,543,16798
"Amazon Fresh IT",IT,1816,7433,917,922,35420,2887,3010,2223,2362,365,7984
"Yuga RO",RO,1672,9268,3,51,46041,477,1657,3874,2708,57,8333
"Delhaize BE",BE,1578,14141,260,482,59924,15404,22,1620,271,386,2366
"Alcampo ES",ES,1482,9715,309,1902,14242,3,5730,4722,27684,0,38136
"Barbora EE",EE,1379,12536,124,284,47488,1298,37,1679,133,74,1947
eZebra,PL,1364,42373,40,816,150548,31474,43,5746,4084,2767,12778
"Tesco UK",UK,1348,28906,81,2873,352930,24874,23,10935,1261,7455,20127
"Barbora LT",LT,1315,12974,286,359,44780,1244,29,1277,171,76,1582
"Remedium BG",BG,1306,27455,14,280,97638,911,335,8125,623,121,9305
"Coop CH",CH,1284,18266,32,226,69168,2084,300,2171,615,187,3334
"Kifli HU",HU,1280,14483,35,1749,59175,10016,590,613,800,375,2430
"Picnic NL",NL,1239,6875,15,101,15057,2236,539,964,61,79,1663
"iGlobus Zlicin CZ",CZ,1235,22684,5,436,90172,7736,6,5358,863,498,6795
"Rewe DE",DE,1231,10342,7,223,45337,3314,18,1409,247,380,2099
"E-Fresh GR",GR,1230,12729,48,610,61985,6308,2361,4286,1274,636,8613
"Apteka Nowa Farmacja",PL,1205,14633,130,2429,54376,18730,11864,3133,4474,2019,21536
"Alza CZ",CZ,1174,24486,160,1225,95232,34493,194,1270,553,1971,4081
"Moja Lekaren SK",SK,1161,24046,26,343,130713,4701,627,3529,212,173,4619
"Lekarna CZ",CZ,1154,28646,44,606,126009,5628,592,3473,441,202,4820
"Amazon DE",DE,1147,266,5994,5994,465772,14073,3158,12203,0,4944,20305
"S-kaupat FI",FI,1141,42387,53,272,324570,5177,5,3160,270,98,3696
Hebe,PL,1125,747,128,747,146665,27519,607,3052,1248,551,5563
"Barbora LV",LV,1077,12390,47,291,41753,1330,30,1230,140,101,1526
"Carrefour BE",BE,1076,19406,42,541,535396,21334,1020,17465,565,4590,24178
"Albert App CZ",CZ,1048,8203,0,0,59667,0,494,1680,2,0,2208
"Mathem SE",SE,1046,12301,29,520,33649,7539,14,1113,771,553,2482
"Alza SK",SK,1044,10969,65,174,49815,3625,130,444,42,142,781
"Eroski ES",ES,1043,25772,86,342,54386,605,18,3298,212,44,3604
"Picnic DE",DE,1029,7060,6,152,14174,1807,489,892,73,164,1628
"Salcobrand CL",CL,1018,6562,0,0,29221,1096,269,615,3975,15,4899
"Amazon IT",IT,999,546,545,546,464805,6921,0,0,0,1938,1938
"Coop NL",NL,997,16826,14,121,71585,983,1424,2857,254,61,4666
Bee,PL,978,41276,55,101,146768,0,463,2710,58,2,3499
"Auchan RO",RO,974,24962,21,530,422403,7694,42,6739,403,508,7899
"Knuspr DE",DE,970,9437,67,227,35972,1457,450,453,107,154,1189
"Dr Max SK",SK,952,22081,380,380,94882,6481,428,3126,387,236,4237
Selgros,PL,949,22685,202,1212,79361,28856,431,938,555,1533,3546
"Coop SE",SE,926,10036,71,555,34427,7983,13,919,272,213,1456
"Coop Shop IT",IT,924,10065,4,331,30239,5621,6,964,498,399,1891
"Cruz Verde CL",CL,886,10130,9,9,186563,0,21,23132,14,1,23248
"Unipatika HU",HU,869,4374,2,301,31326,4663,489,1273,161,244,2188
"SuperValu IE",IE,842,16288,4,1101,220034,10363,870,16708,1231,526,19652
"Pilulka RO",RO,840,42821,103,331,176069,3613,7,2376,548,146,3215
"Tigros IT",IT,839,10032,5,568,30135,6974,5,596,329,237,1197
"Magnit App RU",RU,832,3933,17,132,10965,0,8,1269,122,1,1412
"Apteka Manada",PL,820,15086,83,1099,43208,31872,37,3048,2123,2542,7818
"Superpharm Drogeria",PL,812,748,67,748,102310,32848,17,1692,927,377,3116
"Wong PE",PE,811,23160,80,218,145125,0,9,8031,8313,0,16441
"Polski Koszyk",PL,798,24034,11,1259,77079,8140,25,961,696,321,2105
"Tesco IE",IE,792,16706,16,914,407127,4037,8,8300,469,705,9861
"Superdrug UK",UK,777,15124,34,283,43113,6800,16,946,1236,445,2748
"Otto DE",DE,772,158,51,163,31854,769,363,506,394,32,1324
"Coop DK",DK,753,11408,513,545,94350,1194,348,3318,443,39,4245
"eZiko Apteka",PL,750,7095,29,553,42456,19160,343,1733,257,936,3307
"Auchan RU",RU,745,22718,164,1060,72600,350,8,1388,766,10,2232
"Masxmenos CR",CR,730,8663,0,20,23787,0,18,2560,53,5,2649
"Walmart CR",CR,730,13433,12,331,173618,4557,15,6750,508,161,7531
"Sklavenitis GR",GR,729,10116,21,296,30342,3973,439,1508,169,261,2414
"Rimi LV",LV,726,15127,306,410,44553,5322,8,778,429,104,1350
"Dr Max CZ",CZ,718,21795,419,420,92018,8152,376,3131,461,325,4384
"Apteka Gemini",PL,717,26567,93,1335,92513,54506,22,3050,722,655,4545
"Bringmeister DE",DE,715,16162,53,683,43927,4371,10,398,307,144,894
"Intervare DK",DK,714,9281,8231,8322,26864,0,13,337,3837,109,4323
"Lunys SK",SK,709,5338,58,66,19260,0,748,1617,118,1,2498
"Mall CZ",CZ,708,8200,731,8200,97902,19330,538,947,10211,4594,16396
"Rimi EE",EE,697,12419,75,132,36330,3757,6,900,137,108,1173
"Gurkerl AT",AT,696,9286,32,188,33589,3114,343,323,91,110,918
"Tesco CZ",CZ,693,16542,13,1165,537325,23719,12,12627,692,3579,17241
"Walmart AR",AR,692,0,0,0,0,0,500,1176,2,9,1687
Barbora,PL,687,8282,31,647,109717,7564,37,4739,409,911,6191
"Bennet IT",IT,683,19040,75,491,38386,15177,5,1062,234,478,1818
"Drogas La Rebaja CO",CO,674,11628,357,3800,343758,7090,82,11368,4586,478,16652
"Tottus CL",CL,668,9042,40,1525,41569,1143,20,528,729,25,1330
"Rossman HU",HU,665,15159,20,1078,55739,7716,393,736,1762,168,3115
"Ebag BG",BG,660,11510,160,261,41004,1519,17,1202,157,30,1460
"DM SK",SK,658,12672,49,72,36223,2165,8,1308,44,119,1509
"Mat SE",SE,658,10435,143,385,32103,12042,2139,287,510,196,3147
"Poiesz NL",NL,658,8048,0,10,10284,131,19,554,2863,11,3463
"City Gross SE",SE,654,12745,1,520,28106,8862,9,352,251,364,1000
"Maxi RS",RS,654,7817,5,127,25675,5999,4,397,60,96,578
"Rimi LT",LT,654,14711,16,86,44100,3404,7,729,92,79,938
"Rossmann DE",DE,651,16182,241,274,56150,450,549,1000,269,19,1882
"Crai Spesa Online",IT,648,370,191,370,26926,7026,341,958,509,745,2566
"DOZ.pl",PL,646,17708,126,1428,73606,47634,374,2367,856,1603,5275
"Tesco SK",SK,642,15753,10,73,227492,839,9,4481,74,124,4834
"Hoogvliet NL",NL,639,8842,29,114,14200,1874,15,583,103,64,789
"Esselunga A Casa IT",IT,625,15156,11,627,44914,16341,13,4243,1078,1335,6706
"E.Leclerc Bielany",PL,624,31631,120,2772,100812,36068,110,3603,1241,19984,25034
"Tesco HU",HU,624,15818,19,2465,1072897,8906,11,18976,1743,1536,22847
Apteline,PL,612,21238,20428,21237,69155,13663,409,1272,12616,438,14779
Amazon,PL,610,477,464,476,920263,19438,0,0,0,527,1422
"Colruyt BE",BE,609,7965,9,240,94156,14495,13,15576,632,1952,18319
"Vasalekaren SK",SK,609,10088,9,156,67959,3970,1235,9004,319,627,11211
"Thanopoulos GR",GR,600,15965,42,310,53456,9100,17,4738,380,670,5864
"Apteka Galen",PL,593,8842,34,407,33106,3399,25,1326,586,214,2197
"Willys SE",SE,588,10772,28,459,35611,6983,10,340,250,238,862
"Pingvinpatika HU",HU,586,7551,38,337,41266,2845,13,5017,646,305,6001
"Benu CZ",CZ,578,14485,42,484,67317,6275,4,7698,586,73,8404
"Bestway Foodservice UK",UK,576,10532,17,343,33472,4762,348,538,232,127,1283
"Vkusvill RU",RU,575,6178,100,100,21926,1103,191,2691,267,191,3355
"Bestway Best-one UK",UK,574,6550,12,113,21329,12827,348,430,76,387,1281
"Bestway UK",UK,574,9236,29,636,29853,29841,343,509,346,815,2048
"Glovo Kaufland RO",RO,571,8949,0,8949,15728,0,6,306,126,0,455
"Dr Max",PL,568,12364,910,910,47222,21933,285,1754,877,677,3644
"Spar HU",HU,564,14427,791,3170,185876,11028,12,3818,25973,616,30605
"AB GR",GR,563,11337,10,376,34779,6913,15,640,198,180,1098
"E.Leclerc Wroclaw",PL,563,15736,104,1377,15948,13449,483,1855,2098,5372,9849
"DM HU",HU,562,12331,31,800,33868,9637,10,1190,713,328,2273
"Plus NL",NL,562,15827,21,246,30493,3816,60,4174,268,201,4770
"MyMarket GR",GR,561,19976,158,366,71407,6109,16,2838,449,375,3762
"Kritikos GR",GR,559,16455,11,346,46521,0,14,35,171,7607,7889
"Apteka Melissa",PL,553,27577,1318,1318,78734,51681,21,5493,756,674,7012
Spar,PL,552,24755,91,2095,691426,77330,29,12424,1033,2195,16147
"Chronodrive FR",FR,550,8809,141,251,17529,2130,11,378,209,46,656
"DM CZ",CZ,549,12225,45,899,33488,32413,3,1089,780,1111,3005
"Metro RU",RU,548,19380,52,566,25395,58,8,2089,557,15,2702
"Pão de Açucar BR",BR,548,18300,2023,2102,45498,0,4,1421,1078,1,2532
"Freshful RO",RO,545,20432,9,112,41703,368,6,955,55,16,1074
"Jumbo CL",CL,543,20404,6,2346,574646,1423,17,7782,1732,119,9942
"Univerexport RS",RS,535,10138,11,316,20276,1213,12,567,342,218,1155
"Yandex Lavka RU",RU,535,3227,64,204,9347,1829,78,566,158,72,884
"Sok FI",FI,534,9571,44,306,36520,3245,77,1094,631,347,2171
"E.Leclerc Rzeszów",PL,533,13177,35,1523,39147,29302,30,712,587,893,2395
"Cold Storage SG",SG,523,9132,1,21,28817,0,581,2194,24,1,2806
"Plazavea PE",PE,516,27360,99,117,199250,0,4,5729,61,1,5935
"Drogeria Olmed",PL,514,489,149,489,140898,21147,13,8897,225,1644,10874
"Apteka Zawiszy",PL,505,20206,51,853,80088,10163,243,809,458,230,1837
"Hemkop SE",SE,503,10715,18,484,33556,7214,6,275,228,214,749
Rossmann,PL,502,797,36,797,76217,25464,12,861,1565,589,3101
"Interspar AT",AT,501,21099,18,242,66377,6080,17,671,333,145,1260
Intermarche,PL,499,18918,25,2388,166604,19156,13,3342,1129,1400,6106
"Idea RS",RS,490,12024,1,199,20493,6590,92,535,95,94,840
"Spar SI",SI,489,17620,22,219,63247,2736,16,668,258,105,1151
"Dr Max Drogeria",PL,484,14065,208,208,43902,0,258,1761,463,2,2546
"Migros Online CH",CH,484,12267,165,165,37866,1440,22,1250,143,194,1657
"Mega Image RO",RO,481,12723,3,377,38082,9668,6,492,175,140,854
"Famila a casa IT",IT,476,12418,2,182,29532,6382,808,1505,333,312,2981
"Benulekaren SK",SK,474,9282,35,389,47315,6174,8,3931,291,124,4384
"E.Leclerc Radom",PL,472,13898,528,1278,43748,11620,85,2866,627,1976,5613
"e-Dostavka BY",BY,470,31489,690,888,90921,2215,4,6527,442,158,7187
"Basko IT",IT,466,8398,3,433,25669,1430,4,268,718,43,1058
"Cornershop - Lider CL",CL,466,19321,5,2483,127869,1343,19,1004,726,53,1931
Ceneo,PL,465,199206,2051,12051,266947,34644,940,2301,4217,237,8033
"GPSfarma AR",AR,463,1336,71,194,7226,1158,14,793,122,76,1012
"Mercado Libre MX",MX,460,59527,1223,2948,122916,0,928,1413,930,1,3340
"Apteka Olmed",PL,457,1085,68,1085,154553,19320,15,11212,700,1779,13783
"Carulla CO",CO,455,9959,18,389,29703,4068,22,2054,281,438,2827
Aptelia,PL,454,1175,156,1175,69976,10046,219,2125,564,368,3328
"MegaMarket RO",RO,447,5352,3,136,6455,571,6,1269,153,186,1625
"Feedo CZ",CZ,443,198,105,198,67911,902,185,969,112,32,1316
"eTabletka SK",SK,439,11958,10,172,80794,6710,289,8021,124,90,8555
"Cornershop - Jumbo CL",CL,435,27587,0,1026,144049,1351,15,814,764,65,1795
"Lopido CO",CO,432,10689,55,136,20977,600,15,8244,506,70,8850
"E.Leclerc Lublin Turystyczna",PL,431,13200,11,1338,16223,13966,16,491,1159,2088,3785
"Lider CL",CL,427,10884,78,2112,249001,1082,16,15702,4314,138,20311
"Ecofamily HU",HU,426,7278,6,870,23690,4162,11,2785,5687,734,9238
"Patika24 HU",HU,426,4399,4,249,10802,3262,12,590,343,88,1044
"Kruidvat NL",NL,425,8579,11,59,24225,1757,189,745,95,84,1147
"E.Leclerc Katowice",PL,423,11072,6,1148,11661,12613,300,1365,1820,5478,9001
"Dr Max RO",RO,419,13579,718,718,36872,6260,195,1045,782,189,2244
"Glovo Biedronka Warszawa",PL,408,2779,221,2779,5417,0,11,186,72,48,325
"iFresh SK",SK,404,8079,66,67,177547,0,8,4788,486,0,5384
"Cornershop - Wong PE",PE,403,19684,7,68,59803,0,9,591,45,1,688
"Teta Drogerie CZ",CZ,402,8689,0,500,25254,7045,2,765,472,171,1425
"OnlinePrima HU",HU,397,7547,7,1231,23314,6161,9,573,669,283,1551
"Apteki 36.6 BG",BG,394,10002,4,154,47280,775,14,1452,81,63,1667
"Dia AR",AR,394,5213,11,260,16223,672,13,579,244,17,865
"Cornershop - Metro PE",PE,393,16832,20,53,56044,0,9,566,47,1,660
"Unimarkt AT",AT,392,3390,30,246,16088,3231,167,424,315,352,1280
Stokrotka,PL,390,7687,26,190,166989,2896,32,2267,103,291,2888
"Iceland UK",UK,387,5588,29,348,30541,16091,15,2325,746,1766,4895
"Bringo RO",RO,376,31422,565,26159,49431,9560,24,1661,1031,738,3507
"DrankDozijn BE",BE,376,3485,3,78,14206,2294,7,667,125,584,1407
"DrankDozijn NL",NL,376,3484,3,76,14203,250,9,638,121,59,845
"Carrefour IT",IT,373,12937,325,1010,36896,11759,178,357,529,325,1421
"Billa AT",AT,371,9175,89,275,29764,6610,11,309,467,145,988
"Majestic UK",UK,370,1251,1,61,15300,1154,177,1871,122,168,2367
"Walmart GT",GT,369,8638,5,317,146342,4048,29,7088,562,225,7984
"Istegelsin TR",TR,364,5146,6,50,11474,0,23,177,29,1,240
"Świat Leku",PL,364,11449,21,366,32943,1878,166,1336,304,180,2032
"Ulabox ES",ES,362,5932,0,23,12476,0,6,220,14,0,251
"Ica New Version SE",SE,359,7025,5822,5833,144949,5562,10,2295,2684,288,5354
"E.Leclerc Lublin Tomasza Zana",PL,353,11121,220,1553,14286,10707,9,467,809,1173,2504
"Farmacia Tei RO",RO,352,24390,251,268,25908,2429,5,679,138,103,957
"Jumbo AR",AR,352,13260,233,2208,59978,752,11,2657,1239,28,3976
"Ica SE",SE,349,11304,17,651,659732,12678,6,20315,315,210,21209
"Cruz Verde CO",CO,348,4431,2,2682,19757,1196,67,1392,1263,97,2831
"Gall & Gall NL",NL,347,3047,24,92,21427,64,11,3679,169,15,3893
"Ulta US",US,347,185,185,185,94112,0,11,297,184,2,528
"E.Leclerc Elblag",PL,339,10783,33,1129,29890,15811,47,1550,1055,2212,4899
Allecco,PL,336,11841,21,690,40776,10620,21,606,349,179,1205
Carrefour,PL,330,16033,98,2582,123264,35289,245,2591,2534,2120,7608
"Mercado Livre BR",BR,330,100778,2628,4060,1114782,0,750,13544,1074,1,16067
"Roastmarket DE",DE,327,82,9,82,34100,386,24,516,1179,16,1758
"Bebe Tei RO",RO,325,26179,131,249,27061,516,6,854,132,45,1066
"Mpreis AT",AT,325,7989,45,175,28040,4520,361,819,299,102,1625
"Carrefour BR",BR,322,15513,40,89,151392,0,8,15325,269,0,15698
"Globus RU",RU,322,13766,207,324,46129,37,7,1794,201,6,2044
"Mercado Libre AR",AR,313,32272,967,5083,69748,565,179,758,12181,86,13278
"Cornershop - Santa Isabel CL",CL,312,6939,0,426,8631,1025,16,551,616,85,1277
"Sipo HU",HU,311,5399,1387,1387,12019,1393,7,708,691,134,1550
"Gorillas App IT",IT,307,1484,16,1484,4131,6236,5,13,20,170,215
"SOpharmacy BG",BG,304,9892,13,199,31096,4426,385,928,224,149,1730
"Bipa AT",AT,301,10917,74,74,24007,559,13,397,124,20,624
Empik,PL,301,184740,23401,66385,540947,25752,70,10534,19150,166,30294
"Easy Coop IT",IT,299,9228,6,647,26930,9737,4,1895,1400,896,4216
"Cora RO",RO,298,45570,6,367,91238,6372,4,4968,383,814,6242
DoDomku,PL,298,6587,129,527,19284,2509,48,236,281,368,944
"Apteka Nove BG",BG,296,11695,5,153,41391,4284,432,2225,266,212,3192
"Mall SK",SK,296,2623,87,2623,28979,1143,325,671,5686,1221,7927
"E.Leclerc Gdansk",PL,295,10343,101,972,28510,9266,36,1470,875,1877,4294
"Amazon NL",NL,292,0,0,0,98341,0,0,0,0,19,89
"Tudrogueria Virtual CO",CO,291,8343,61,3929,16098,461,13,384,1824,25,2261
"Apteka Medea BG",BG,284,8744,3,158,26435,0,8,1163,109,1,1322
"Sephora US",US,284,322,304,322,124933,0,12,820,157,1,1040
"i-apteka",PL,282,9892,458,552,21281,5866,11,488,584,439,1552
"E.Leclerc Tychy",PL,280,9480,13,1238,9679,11595,58,281,603,1632,2608
Makeup,PL,278,1545,322,1545,440945,57768,11,11544,677,882,13347
"Mercado Libre CL",CL,277,0,0,0,69179,0,0,0,0,0,0
"Konzum HR",HR,275,10846,31,241,17137,3401,311,2432,738,435,3933
"Argos UK",UK,273,5606,1,4125,8197,0,5,506,14862,1,15398
"Edeka DE",DE,273,3701,86,135,4976,106,7,221,141,128,509
Makro,PL,273,3103,0,497,8490,32167,12,556,235,1735,2551
"PriceSmart CR",CR,270,3485,14,52,51885,3332,16,12561,65,649,13317
"Groby HU",HU,267,8295,11,521,22048,3538,9,1188,559,244,2022
"Farmacia la Pret Mic RO",RO,262,8629,21,251,26370,4273,20,1884,282,799,3006
"E.Leclerc Gliwice",PL,260,8326,29,744,22783,7944,30,1182,635,1595,3468
"Merqueo - Bogota CO",CO,260,2790,2,192,6578,5898,10,241,111,266,632
"MaxiCoffee FR",FR,256,5591,272,293,13766,1596,425,672,952,229,2284
"Apteka Medkon",PL,254,7060,537,537,29337,8338,10,3900,1135,1219,6295
"Delitea SE",SE,254,9911,90,308,23693,5572,6,182,141,84,437
Wapteka,PL,252,18429,1106,1150,63571,34098,10,4275,939,595,5912
"Supermarket AM",AM,249,7128,9,63,17302,0,4,939,129,1,1087
"Afya Pharmacy BG",BG,246,9406,14,175,31378,891,10,2276,229,221,2770
"Helpnet RO",RO,245,6782,46,303,19138,2869,5,1923,258,215,2417
"Szybki Koszyk",PL,245,4315,17,121,14744,623,119,629,59,39,861
"Rappi - Exito CO",CO,242,19472,9149,9502,62637,9580,11,6302,15431,259,22044
"Olimpica CO",CO,241,10919,258,718,46262,997,12,3285,1788,56,5177
"Farmatodo CO",CO,238,12747,12,3643,56274,5813,10,883,6256,134,7326
"Dunnes IE",IE,232,14031,15,909,30226,10352,3,550,752,266,1619
"Metroiroda HU",HU,230,3465,14,268,6999,1310,4,871,520,162,1562
"Linio CL",CL,228,54619,91,178,87136,0,109,727,187,1,1132
"Chedraui MX",MX,227,30478,34,52,91722,0,9,1535,45,1,1643
"Disco AR",AR,227,8206,4,346,33589,996,99,4966,1288,37,6412
"Rappi - Carulla CO",CO,226,14372,6320,6479,48299,9610,12,5775,11479,264,17568
"Rappi - Carulla Express CO",CO,225,13592,5424,5807,42436,7606,12,5702,9844,216,15804
"Lisek App",PL,224,1733,4,127,2100,1046,4,13,62,277,365
"Merqueo - Medellin CO",CO,224,2133,0,177,4772,5045,10,200,95,236,546
"Rappi - Exito Express CO",CO,224,17319,2383,3172,37057,6039,11,5578,8950,257,14825
"Igooods RU",RU,216,16223,2,380,34688,91,6,190,255,6,499
"Beauty Bay UK",UK,215,12735,25,123,52116,0,5,336,94,0,522
"Перекрёсток Впрок RU",RU,215,15997,47,755,35324,3746,6,2518,2089,314,4955
"Booker Foodservice UK",UK,214,11849,22,2030,22094,3536,148,515,946,121,1786
"Superpharm Apteka",PL,212,490,18,490,30171,14639,7,570,658,216,1482
"Merqueo - Cali CO",CO,209,1538,1,89,3567,942,13,179,74,40,309
Cocolita,PL,208,9608,26,291,39813,13857,6,1508,545,1139,3253
"Pyaterochka App RU",RU,208,5643,27,337,14975,388,4,234,161,6,424
"Benu HU",HU,206,4964,1,346,16088,2705,6,2246,796,426,3489
"Yandex Market RU",RU,206,0,0,0,0,0,16,384,0,90,490
"Booker UK",UK,205,8952,26,2167,17005,9204,137,396,1004,691,2250
"Утконос RU",RU,204,733,73,733,80781,1090,11,357,642,45,1101
"Minifarm RO",RO,203,2784,0,275,4463,141,6,631,237,121,1004
"Rappi Lider CL",CL,203,15896,12484,12665,77909,1271,13,5545,15837,32,21481
"Emag HU",HU,199,102875,1024,2017,102917,7217,9,1612,2319,206,4280
"Getir IT",IT,197,1586,20,93,4132,7738,10,145,76,139,374
"Deliberry - Caprabo ES",ES,184,8543,0,0,9657,0,13,908,86,0,1015
"Deliberry - Solri ES",ES,178,9124,0,0,10235,0,15,874,64,1,964
"Panda Market HU",HU,178,2216,15,182,5501,1411,4,127,86,104,326
"Rappi Jumbo CL",CL,177,15477,12430,12622,57823,1384,11,4781,13904,32,18772
"Vodovoz RU",RU,177,1029,7,45,2115,0,4,306,79,1,393
"Coursesu FR",FR,176,4079,772,803,7274,1322,17,12095,27012,0,39124
"Deliberry - Mercadona Barcelona ES",ES,175,5718,0,0,6855,0,14,846,1818,1,2685
"Jumia NG",NG,174,8411,42,99,18922,428,151,611,54,32,860
"Deliberry - Mercadona Madrid ES",ES,173,5651,0,0,6764,0,12,816,1886,2,2721
"PennyDomu CZ",CZ,173,1774,10,15,5069,0,160,257,17,0,437
"Rappi Turbo CL",CL,173,1030,17,35,2253,0,150,4569,158,46,4925
"Rappi Unimarc CL",CL,172,12840,4066,4201,26959,1279,9,2804,5308,32,8178
"Rappi Carrefour AR",AR,165,6312,15,49,8420,0,116,2410,199,47,2779
"Auchan FR",FR,162,1514,4,125,5139,536,210,351,174,124,862
"Everli - Coop IT",IT,162,12027,4,214,13169,7330,53,1001,110,1171,2349
"Deliberry - Supercor ES",ES,161,4086,0,0,5010,0,11,748,18,1,783
"Rappi Coto AR",AR,161,8198,123,203,21121,0,117,4697,712,46,5588
"Rappi - Pricesmart CO",CO,160,1821,20,33,3641,1046,9,1937,731,51,2731
"Professional Farmaline RO",RO,155,8619,8,123,18374,2681,4,596,84,59,762
"Dirck3 NL",NL,151,508,2,30,2408,144,7,117,19,12,162
"Look Fantastic UK",UK,147,17197,33,107,55355,0,4,711,98,0,898
"Everli - Metro IT",IT,144,2376,1,77,3201,1521,49,262,44,670,1031
"Deliberry - Dia ES",ES,143,4171,0,0,5032,0,17,700,2,0,724
"Deliberry - La Plaza ES",ES,143,4250,0,0,5109,0,15,696,123,1,839
"Rappi Turbo CO",CO,143,2076,53,87,5582,0,144,7772,346,46,8311
"Rappi Turbo PE",PE,143,1334,31,31,4283,0,159,3899,151,47,4260
"Medexpressz HU",HU,137,1365,84,85,2918,0,5,279,60,2,349
"Ozon RU",RU,136,0,0,0,0,0,1838,273,15,244,2371
"Nazuby CZ",CZ,135,1724,0,70,5913,188,2,93,109,21,228
"Exito CO",CO,132,7923,13,487,32684,2855,19,3409,1310,315,5085
"Subra BG",BG,132,7313,23,185,18355,3278,10,211,93,426,793
"Alkohol CZ",CZ,131,4139,16,49,11522,269,17,1030,87,23,1163
"Automercado CR",CR,131,12109,13,193,18742,0,30,2525,701,1,3271
"Superxtra PA",PL,131,4297,14,14,9015,0,0,0,0,0,0
"Coop EE",EE,130,9271,180,180,20190,1928,1,433,82,55,583
"Rappi Turbo AR",AR,126,722,0,8,2333,0,174,3381,74,46,3677
"Cora Drive BE",BE,122,13772,9145,9163,91505,4345,11,4215,11315,1308,16932
"Condis ES",ES,121,6591,1,1,6971,0,5,189,23,1,227
"Rappi Farmacity AR",AR,114,6543,251,277,12761,0,117,5754,2520,46,8447
"Amazon Fresh DE",DE,111,7181,471,473,11851,6855,93,770,296,203,1373
"Vea Digital AR ",AR,104,2521,2,220,10086,879,96,2591,3483,34,6211
"Farmacia Pasteur CO",CO,103,9081,11,3883,59025,613,6,1611,2729,28,4416
"Farmacity AR",AR,97,294,5,294,5796,1176,7,324,139,43,515
"Savage & Whitten IE",IE,96,3678,0,154,7357,919,9,384,102,74,580
"Vitania BG",BG,96,7280,8,155,7280,2861,7,358,76,107,574
"Carrefour ES",ES,95,5926,22,237,7191,273,18,221,711,26,986
"Koffievoordeel NL",NL,95,489,1,54,3063,1247,4,666,93,29,797
"Everli - Kaufland",PL,94,45371,45371,45371,49054,0,28,2217,22684,1,24964
"Everli - Lidl",PL,91,20105,20105,20105,23488,0,40,1374,10440,216,12090
"Kaufland DE",DE,90,29576,174,411,37021,720,64,686,352,48,1191
"PriceSmart PA",PA,89,1642,1,32,19423,984,3,3573,23,261,3912
"PriceSmart GT",GT,88,1593,1,21,14114,2146,3,2583,14,441,3048
"Kaffedeal DK",DK,86,364,0,31,944,798,4,52,16,33,107
"Okey RU",RU,82,4026,664,1079,4129,259,13,442,3002,31,3499
"Brack CH",CH,81,7752,12,111,18741,1903,70,283,106,174,664
"Rappi Cruz Verde CL",CL,81,5031,3360,3494,32735,1403,9,2294,3774,32,6132
"Comfandi Supermercados CO",CO,72,2124,598,600,2823,0,18,704,1523,2,2250
"Durst DE",DE,69,1120,89,1120,1189,0,4,20,22,1,52
"Droguerias Cafam CO",CO,68,4275,899,2917,10952,1409,16,583,4586,53,5245
"Pretty Little Thing UK",UK,67,2472,15,43,12097,0,13,2681,403,1,3110
"Media Markt DE",DE,66,2081,6,66,5872,1096,267,3692,1096,1371,6433
"PedidosYa DIA AR",AR,64,2683,9,27,2683,0,4,62,14,3,88
"Kaffekapslen DK",DK,61,790,0,71,1804,1516,85,74,122,186,468
"Kapselkongen DK",DK,57,273,2,60,559,687,23,59,28,33,144
"Saturn DE",DE,57,2398,7,74,5095,992,281,2573,969,4289,8138
"Comfandi Droguerias CO",CO,56,4553,2,2,5756,0,21,594,15,1,635
"Asos UK",UK,55,8783,38,128,22825,0,36,186,132,1,387
"Emag RO",RO,54,59304,287,928,59308,5112,7,1635,1082,245,3053
"iDrinks HU",HU,52,6485,185,204,14168,252,7,1570,210,67,1870
"Expert DE",DE,51,1040,0,2,1120,398,91,67,216,39,416
"Winelivery IT",IT,49,1444,0,15,3262,0,3,261,11,1,280
"PedidosYa Carrefour AR",AR,48,4728,96,221,4728,0,7,53,105,0,170
"Very UK",UK,47,3882,23,53,4194,0,14,49,24,1,97
"Bol NL",NL,46,223,227,231,33703,2360,35,2381,461,467,3374
"Carrefour AR",AR,41,3155,179,448,9215,510,91,1600,1792,47,3539
"Altex RO",RO,38,2360,6,159,4628,2005,3,268,284,149,709
"Jumia EG",EG,38,2354,65,275,4555,0,33,157,237,1,431
"BilkaToGo DK",DK,37,3848,47,208,21704,1560,8,94,93,38,268
"Selver EE",EE,37,3841,57,103,10451,2666,4,277,199,190,678
"Ep DE",DE,35,198,0,7,632,208,73,121,32,86,314
"Galaxus CH",CH,32,9672,237,330,17316,996,17,3255,960,1296,5550
"Kesko FI",FI,31,4557,0,0,63404,8092,24,7108,0,2762,9930
"Avansas TR",TR,28,568,8,9,616,0,2,23,9,0,35
"John Lewis UK",UK,28,19,4,19,502,188,8,25,78,13,125
"Mercator SI",SI,27,12669,31,194,12669,2250,5,23,98,81,244
"Carrefour FR",FR,24,6809,39,198,10123,1578,4,628,535,217,1408
"Datart CZ",CZ,20,909,0,14,1334,946,12,93,8,65,179
"MyDeal AU",AU,20,11,2,11,10153,944,3,71,8,50,134
"Shoplink IE",IE,20,138,0,117,414,1653,30,42,80,113,266
"Officeworks AU",AU,19,391,0,53,397,385,82,9,241,19,352
"Boulanger FR",FR,17,794,0,48,1862,361,22,133,265,168,589
"Euronics DE",DE,15,9521,44,230,37843,1251,93,1026,40157,205,41519
"The Good Guys AU",AU,15,804,0,15,1514,397,4,34,26,133,198
"Qvc US",US,14,15023,88,106,16374,0,14,107,313,1,450
"BCC NL",NL,11,1691,27,39,2235,642,9,145,44,58,265
"El Corte Ingles ES",ES,11,3954,8,142,5118,677,59,284,1568,99,2018
"Leclerc FR",FR,11,250,48,184,505,782,19,232,6817,584,7653
"Wildberries RU",RU,10,52910,1440,2020,54934,1557,10,157,1335,54,1743
"Myer AU",AU,9,8005,189,471,10290,0,11,1587,1028,0,2629
"Coles AU",AU,8,328,4,84,659,327,4,64,350,342,761
"Intermarche FR",FR,8,419,0,108,810,857,3,42,414,375,834
"AO UK",UK,7,683,10,29,925,277,66,8,49,9,138
"Woolworths AU",AU,7,1382,0,100,2172,350,4,70,45,35,155
"Unieuro IT",IT,6,1718,2,19,2141,1106,4,15,20,47,92
"Harvey Norman AU",AU,5,19,1,19,297,283,18,33,64,302,417
"Barrys Beacon IE",IE,4,152,7,116,152,377,6,27,59,68,161
"Konga NG",NG,3,184,44,184,2999,208,139,34,94,32,300
" SberMarket - Lenta RU",RU,0,0,0,0,0,0,6,14,1,88,109
"0815 DE",DE,0,0,0,0,0,0,2,11,1,41,55
Allegro,PL,0,432,97,432,0,0,0,0,3102,0,3102
"Azbuka Vkusa RU",RU,0,0,0,0,0,0,166,2,0,165,333
"Cefarm 24",PL,0,0,0,0,0,4689,62,14,3,8270,8394
"Coop UK",UK,0,0,0,0,0,19078,3,2,1,745,785
"Easy CL",CL,0,0,0,0,0,0,2,60,2,2,66
"Elefant RO",RO,0,0,0,0,0,2011,1,45,1,26,78
"Linella MD",MD,0,0,0,0,0,0,5,2,1,2,12
"Mediaworld IT",IT,0,0,0,0,0,306,8,1,0,724,736
"Metro Delivery RU",RU,0,0,0,0,0,0,26,17,17,31,91
"SberMarket - Metro RU",RU,0,0,0,0,0,0,5,15,1,114,135
"Sodimac CL",CL,0,0,0,0,0,0,26,60,2,0,88
"Soriana MX",MX,0,0,0,0,0,0,2,26,0,1,29
"Tiendas Jumbo CO",CO,0,0,0,0,0,5197,7,41,2,250,300
"Unimarc CL",CL,0,0,0,0,0,0,4,65,0,56,126
